<?xml version="1.0"?>

<svg xmlns="http://www.w3.org/2000/svg" xmlns:xlink="http://www.w3.org/1999/xlink" width="243" height="208" viewBox="0 0 243 208" version="1.1">
<defs>
<g>
<symbol overflow="visible" id="glyph0-0">
<path style="stroke:none;" d="M 1.5625 0 L 1.5625 -7.828125 L 7.828125 -7.828125 L 7.828125 0 Z M 1.765625 -0.203125 L 7.625 -0.203125 L 7.625 -7.625 L 1.765625 -7.625 Z M 1.765625 -0.203125 "></path>
</symbol>
<symbol overflow="visible" id="glyph0-1">
<path style="stroke:none;" d="M 0.0625 0 L 3.515625 -4.671875 L 0.46875 -8.953125 L 1.875 -8.953125 L 3.5 -6.65625 C 3.84375 -6.1875 4.082031 -5.820312 4.21875 -5.5625 C 4.414062 -5.882812 4.65625 -6.222656 4.9375 -6.578125 L 6.734375 -8.953125 L 8.03125 -8.953125 L 4.875 -4.734375 L 8.265625 0 L 6.796875 0 L 4.546875 -3.203125 C 4.421875 -3.378906 4.289062 -3.578125 4.15625 -3.796875 C 3.957031 -3.472656 3.816406 -3.25 3.734375 -3.125 L 1.484375 0 Z M 0.0625 0 "></path>
</symbol>
<symbol overflow="visible" id="glyph1-0">
<path style="stroke:none;" d="M 1.25 0 L 1.25 -6.265625 L 6.265625 -6.265625 L 6.265625 0 Z M 1.40625 -0.15625 L 6.109375 -0.15625 L 6.109375 -6.109375 L 1.40625 -6.109375 Z M 1.40625 -0.15625 "></path>
</symbol>
<symbol overflow="visible" id="glyph1-1">
<path style="stroke:none;" d="M 2.796875 0 L 2.796875 -3.03125 L 0.03125 -7.171875 L 1.1875 -7.171875 L 2.59375 -5.015625 C 2.851562 -4.609375 3.097656 -4.203125 3.328125 -3.796875 C 3.535156 -4.171875 3.796875 -4.59375 4.109375 -5.0625 L 5.5 -7.171875 L 6.609375 -7.171875 L 3.734375 -3.03125 L 3.734375 0 Z M 2.796875 0 "></path>
</symbol>
<symbol overflow="visible" id="glyph1-2">
<path style="stroke:none;" d="M 0.046875 0 L 2.8125 -3.734375 L 0.375 -7.171875 L 1.5 -7.171875 L 2.796875 -5.328125 C 3.066406 -4.953125 3.257812 -4.660156 3.375 -4.453125 C 3.539062 -4.710938 3.734375 -4.984375 3.953125 -5.265625 L 5.390625 -7.171875 L 6.421875 -7.171875 L 3.90625 -3.796875 L 6.609375 0 L 5.4375 0 L 3.640625 -2.5625 C 3.535156 -2.707031 3.429688 -2.863281 3.328125 -3.03125 C 3.160156 -2.769531 3.046875 -2.59375 2.984375 -2.5 L 1.1875 0 Z M 0.046875 0 "></path>
</symbol>
<symbol overflow="visible" id="glyph2-0">
<path style="stroke:none;" d="M 1.875 0 L 1.875 -9.390625 L 9.390625 -9.390625 L 9.390625 0 Z M 2.109375 -0.234375 L 9.15625 -0.234375 L 9.15625 -9.15625 L 2.109375 -9.15625 Z M 2.109375 -0.234375 "></path>
</symbol>
<symbol overflow="visible" id="glyph2-1">
<path style="stroke:none;" d="M 0.0625 0 L 4.234375 -5.609375 L 0.5625 -10.765625 L 2.25 -10.765625 L 4.203125 -8 C 4.609375 -7.425781 4.898438 -6.984375 5.078125 -6.671875 C 5.316406 -7.066406 5.597656 -7.476562 5.921875 -7.90625 L 8.09375 -10.765625 L 9.640625 -10.765625 L 5.859375 -5.6875 L 9.9375 0 L 8.171875 0 L 5.453125 -3.84375 C 5.304688 -4.0625 5.148438 -4.300781 4.984375 -4.5625 C 4.742188 -4.164062 4.578125 -3.894531 4.484375 -3.75 L 1.78125 0 Z M 0.0625 0 "></path>
</symbol>
<symbol overflow="visible" id="glyph2-2">
<path style="stroke:none;" d="M -0.015625 0 L 4.125 -10.765625 L 5.65625 -10.765625 L 10.0625 0 Z M 1.953125 -1.265625 L 7.9375 -1.265625 L 5.609375 -7.390625 C 5.265625 -8.316406 5.007812 -9.0625 4.84375 -9.625 C 4.71875 -8.957031 4.523438 -8.273438 4.265625 -7.578125 Z M 1.953125 -1.265625 "></path>
</symbol>
<symbol overflow="visible" id="glyph2-3">
<path style="stroke:none;" d="M 8.84375 -3.765625 L 10.265625 -3.40625 C 9.960938 -2.238281 9.421875 -1.347656 8.640625 -0.734375 C 7.867188 -0.117188 6.925781 0.1875 5.8125 0.1875 C 4.644531 0.1875 3.695312 -0.046875 2.96875 -0.515625 C 2.25 -0.992188 1.695312 -1.679688 1.3125 -2.578125 C 0.9375 -3.472656 0.75 -4.429688 0.75 -5.453125 C 0.75 -6.578125 0.960938 -7.554688 1.390625 -8.390625 C 1.816406 -9.222656 2.425781 -9.851562 3.21875 -10.28125 C 4.007812 -10.71875 4.878906 -10.9375 5.828125 -10.9375 C 6.898438 -10.9375 7.800781 -10.660156 8.53125 -10.109375 C 9.269531 -9.566406 9.785156 -8.800781 10.078125 -7.8125 L 8.671875 -7.484375 C 8.421875 -8.265625 8.054688 -8.832031 7.578125 -9.1875 C 7.109375 -9.539062 6.515625 -9.71875 5.796875 -9.71875 C 4.972656 -9.71875 4.28125 -9.519531 3.71875 -9.125 C 3.164062 -8.726562 2.773438 -8.195312 2.546875 -7.53125 C 2.328125 -6.863281 2.21875 -6.175781 2.21875 -5.46875 C 2.21875 -4.550781 2.347656 -3.75 2.609375 -3.0625 C 2.878906 -2.382812 3.296875 -1.875 3.859375 -1.53125 C 4.421875 -1.195312 5.03125 -1.03125 5.6875 -1.03125 C 6.488281 -1.03125 7.164062 -1.257812 7.71875 -1.71875 C 8.269531 -2.1875 8.644531 -2.867188 8.84375 -3.765625 Z M 8.84375 -3.765625 "></path>
</symbol>
<symbol overflow="visible" id="glyph2-4">
<path style="stroke:none;" d="M 0.5 -3.890625 C 0.5 -5.335938 0.898438 -6.410156 1.703125 -7.109375 C 2.367188 -7.679688 3.1875 -7.96875 4.15625 -7.96875 C 5.226562 -7.96875 6.101562 -7.613281 6.78125 -6.90625 C 7.457031 -6.207031 7.796875 -5.238281 7.796875 -4 C 7.796875 -3 7.644531 -2.210938 7.34375 -1.640625 C 7.050781 -1.066406 6.613281 -0.617188 6.03125 -0.296875 C 5.457031 0.015625 4.832031 0.171875 4.15625 0.171875 C 3.0625 0.171875 2.175781 -0.175781 1.5 -0.875 C 0.832031 -1.570312 0.5 -2.578125 0.5 -3.890625 Z M 1.859375 -3.890625 C 1.859375 -2.898438 2.070312 -2.15625 2.5 -1.65625 C 2.9375 -1.15625 3.488281 -0.90625 4.15625 -0.90625 C 4.8125 -0.90625 5.351562 -1.15625 5.78125 -1.65625 C 6.21875 -2.15625 6.4375 -2.914062 6.4375 -3.9375 C 6.4375 -4.90625 6.21875 -5.632812 5.78125 -6.125 C 5.34375 -6.625 4.800781 -6.875 4.15625 -6.875 C 3.488281 -6.875 2.9375 -6.625 2.5 -6.125 C 2.070312 -5.632812 1.859375 -4.890625 1.859375 -3.890625 Z M 1.859375 -3.890625 "></path>
</symbol>
<symbol overflow="visible" id="glyph2-5">
<path style="stroke:none;" d="M 0.984375 0 L 0.984375 -7.796875 L 2.1875 -7.796875 L 2.1875 -6.6875 C 2.75 -7.539062 3.570312 -7.96875 4.65625 -7.96875 C 5.125 -7.96875 5.554688 -7.882812 5.953125 -7.71875 C 6.347656 -7.550781 6.644531 -7.328125 6.84375 -7.046875 C 7.039062 -6.773438 7.175781 -6.453125 7.25 -6.078125 C 7.300781 -5.828125 7.328125 -5.398438 7.328125 -4.796875 L 7.328125 0 L 6 0 L 6 -4.734375 C 6 -5.273438 5.945312 -5.675781 5.84375 -5.9375 C 5.75 -6.207031 5.566406 -6.421875 5.296875 -6.578125 C 5.035156 -6.742188 4.726562 -6.828125 4.375 -6.828125 C 3.8125 -6.828125 3.328125 -6.644531 2.921875 -6.28125 C 2.515625 -5.925781 2.3125 -5.25 2.3125 -4.25 L 2.3125 0 Z M 0.984375 0 "></path>
</symbol>
<symbol overflow="visible" id="glyph2-6">
<path style="stroke:none;" d="M 3.875 -1.1875 L 4.0625 -0.015625 C 3.695312 0.0664062 3.363281 0.109375 3.0625 0.109375 C 2.582031 0.109375 2.210938 0.03125 1.953125 -0.125 C 1.691406 -0.28125 1.503906 -0.476562 1.390625 -0.71875 C 1.285156 -0.96875 1.234375 -1.488281 1.234375 -2.28125 L 1.234375 -6.765625 L 0.265625 -6.765625 L 0.265625 -7.796875 L 1.234375 -7.796875 L 1.234375 -9.71875 L 2.546875 -10.515625 L 2.546875 -7.796875 L 3.875 -7.796875 L 3.875 -6.765625 L 2.546875 -6.765625 L 2.546875 -2.203125 C 2.546875 -1.828125 2.566406 -1.585938 2.609375 -1.484375 C 2.660156 -1.378906 2.738281 -1.289062 2.84375 -1.21875 C 2.945312 -1.15625 3.097656 -1.125 3.296875 -1.125 C 3.441406 -1.125 3.632812 -1.144531 3.875 -1.1875 Z M 3.875 -1.1875 "></path>
</symbol>
<symbol overflow="visible" id="glyph2-7">
<path style="stroke:none;" d="M 0.96875 0 L 0.96875 -7.796875 L 2.171875 -7.796875 L 2.171875 -6.609375 C 2.472656 -7.160156 2.75 -7.523438 3 -7.703125 C 3.257812 -7.878906 3.546875 -7.96875 3.859375 -7.96875 C 4.296875 -7.96875 4.75 -7.828125 5.21875 -7.546875 L 4.75 -6.3125 C 4.425781 -6.507812 4.101562 -6.609375 3.78125 -6.609375 C 3.5 -6.609375 3.242188 -6.519531 3.015625 -6.34375 C 2.785156 -6.164062 2.617188 -5.925781 2.515625 -5.625 C 2.367188 -5.15625 2.296875 -4.640625 2.296875 -4.078125 L 2.296875 0 Z M 0.96875 0 "></path>
</symbol>
<symbol overflow="visible" id="glyph2-8">
<path style="stroke:none;" d="M 0.96875 0 L 0.96875 -10.765625 L 2.28125 -10.765625 L 2.28125 0 Z M 0.96875 0 "></path>
</symbol>
<symbol overflow="visible" id="glyph2-9">
<path style="stroke:none;" d=""></path>
</symbol>
<symbol overflow="visible" id="glyph2-10">
<path style="stroke:none;" d="M 1.359375 -6.296875 L 1.359375 -7.796875 L 2.859375 -7.796875 L 2.859375 -6.296875 Z M 1.359375 0 L 1.359375 -1.5 L 2.859375 -1.5 L 2.859375 0 Z M 1.359375 0 "></path>
</symbol>
<symbol overflow="visible" id="glyph2-11">
<path style="stroke:none;" d="M 1.09375 0 L 1.09375 -10.765625 L 5.140625 -10.765625 C 5.960938 -10.765625 6.617188 -10.65625 7.109375 -10.4375 C 7.609375 -10.21875 8 -9.878906 8.28125 -9.421875 C 8.5625 -8.972656 8.703125 -8.5 8.703125 -8 C 8.703125 -7.539062 8.578125 -7.109375 8.328125 -6.703125 C 8.078125 -6.296875 7.703125 -5.96875 7.203125 -5.71875 C 7.847656 -5.53125 8.34375 -5.207031 8.6875 -4.75 C 9.039062 -4.289062 9.21875 -3.75 9.21875 -3.125 C 9.21875 -2.613281 9.113281 -2.140625 8.90625 -1.703125 C 8.695312 -1.273438 8.429688 -0.941406 8.109375 -0.703125 C 7.796875 -0.472656 7.40625 -0.296875 6.9375 -0.171875 C 6.46875 -0.0546875 5.890625 0 5.203125 0 Z M 2.53125 -6.234375 L 4.84375 -6.234375 C 5.476562 -6.234375 5.929688 -6.273438 6.203125 -6.359375 C 6.566406 -6.472656 6.835938 -6.648438 7.015625 -6.890625 C 7.203125 -7.140625 7.296875 -7.457031 7.296875 -7.84375 C 7.296875 -8.195312 7.207031 -8.507812 7.03125 -8.78125 C 6.863281 -9.050781 6.617188 -9.234375 6.296875 -9.328125 C 5.984375 -9.429688 5.441406 -9.484375 4.671875 -9.484375 L 2.53125 -9.484375 Z M 2.53125 -1.265625 L 5.203125 -1.265625 C 5.660156 -1.265625 5.984375 -1.285156 6.171875 -1.328125 C 6.503906 -1.378906 6.78125 -1.472656 7 -1.609375 C 7.21875 -1.742188 7.394531 -1.941406 7.53125 -2.203125 C 7.675781 -2.472656 7.75 -2.78125 7.75 -3.125 C 7.75 -3.519531 7.644531 -3.863281 7.4375 -4.15625 C 7.238281 -4.457031 6.957031 -4.664062 6.59375 -4.78125 C 6.226562 -4.90625 5.703125 -4.96875 5.015625 -4.96875 L 2.53125 -4.96875 Z M 2.53125 -1.265625 "></path>
</symbol>
<symbol overflow="visible" id="glyph2-12">
<path style="stroke:none;" d="M 6.078125 -0.96875 C 5.585938 -0.550781 5.113281 -0.253906 4.65625 -0.078125 C 4.207031 0.0859375 3.722656 0.171875 3.203125 0.171875 C 2.347656 0.171875 1.691406 -0.0351562 1.234375 -0.453125 C 0.773438 -0.867188 0.546875 -1.40625 0.546875 -2.0625 C 0.546875 -2.4375 0.628906 -2.78125 0.796875 -3.09375 C 0.972656 -3.414062 1.203125 -3.671875 1.484375 -3.859375 C 1.765625 -4.046875 2.082031 -4.191406 2.4375 -4.296875 C 2.695312 -4.359375 3.085938 -4.421875 3.609375 -4.484375 C 4.679688 -4.617188 5.46875 -4.773438 5.96875 -4.953125 C 5.96875 -5.128906 5.96875 -5.242188 5.96875 -5.296875 C 5.96875 -5.828125 5.84375 -6.203125 5.59375 -6.421875 C 5.257812 -6.722656 4.757812 -6.875 4.09375 -6.875 C 3.46875 -6.875 3.007812 -6.765625 2.71875 -6.546875 C 2.425781 -6.328125 2.207031 -5.941406 2.0625 -5.390625 L 0.765625 -5.578125 C 0.890625 -6.128906 1.082031 -6.570312 1.34375 -6.90625 C 1.613281 -7.25 2.003906 -7.507812 2.515625 -7.6875 C 3.023438 -7.875 3.613281 -7.96875 4.28125 -7.96875 C 4.945312 -7.96875 5.488281 -7.890625 5.90625 -7.734375 C 6.320312 -7.578125 6.628906 -7.378906 6.828125 -7.140625 C 7.023438 -6.898438 7.160156 -6.601562 7.234375 -6.25 C 7.273438 -6.019531 7.296875 -5.613281 7.296875 -5.03125 L 7.296875 -3.265625 C 7.296875 -2.035156 7.320312 -1.257812 7.375 -0.9375 C 7.4375 -0.613281 7.550781 -0.300781 7.71875 0 L 6.34375 0 C 6.207031 -0.269531 6.117188 -0.59375 6.078125 -0.96875 Z M 5.96875 -3.90625 C 5.488281 -3.71875 4.769531 -3.550781 3.8125 -3.40625 C 3.269531 -3.332031 2.882812 -3.242188 2.65625 -3.140625 C 2.425781 -3.046875 2.25 -2.90625 2.125 -2.71875 C 2.007812 -2.53125 1.953125 -2.320312 1.953125 -2.09375 C 1.953125 -1.738281 2.082031 -1.441406 2.34375 -1.203125 C 2.613281 -0.972656 3.003906 -0.859375 3.515625 -0.859375 C 4.023438 -0.859375 4.476562 -0.96875 4.875 -1.1875 C 5.269531 -1.414062 5.5625 -1.722656 5.75 -2.109375 C 5.894531 -2.398438 5.96875 -2.835938 5.96875 -3.421875 Z M 5.96875 -3.90625 "></path>
</symbol>
<symbol overflow="visible" id="glyph2-13">
<path style="stroke:none;" d="M 0.46875 -2.328125 L 1.765625 -2.53125 C 1.835938 -2.007812 2.039062 -1.609375 2.375 -1.328125 C 2.71875 -1.046875 3.1875 -0.90625 3.78125 -0.90625 C 4.394531 -0.90625 4.847656 -1.03125 5.140625 -1.28125 C 5.429688 -1.53125 5.578125 -1.820312 5.578125 -2.15625 C 5.578125 -2.445312 5.445312 -2.679688 5.1875 -2.859375 C 5.007812 -2.972656 4.5625 -3.117188 3.84375 -3.296875 C 2.875 -3.546875 2.203125 -3.757812 1.828125 -3.9375 C 1.453125 -4.113281 1.164062 -4.359375 0.96875 -4.671875 C 0.78125 -4.992188 0.6875 -5.34375 0.6875 -5.71875 C 0.6875 -6.070312 0.765625 -6.394531 0.921875 -6.6875 C 1.078125 -6.988281 1.296875 -7.234375 1.578125 -7.421875 C 1.773438 -7.578125 2.050781 -7.707031 2.40625 -7.8125 C 2.757812 -7.914062 3.140625 -7.96875 3.546875 -7.96875 C 4.160156 -7.96875 4.695312 -7.878906 5.15625 -7.703125 C 5.625 -7.523438 5.96875 -7.285156 6.1875 -6.984375 C 6.40625 -6.691406 6.554688 -6.289062 6.640625 -5.78125 L 5.34375 -5.609375 C 5.289062 -6.003906 5.125 -6.316406 4.84375 -6.546875 C 4.5625 -6.773438 4.160156 -6.890625 3.640625 -6.890625 C 3.035156 -6.890625 2.601562 -6.785156 2.34375 -6.578125 C 2.082031 -6.378906 1.953125 -6.144531 1.953125 -5.875 C 1.953125 -5.707031 2.007812 -5.554688 2.125 -5.421875 C 2.226562 -5.273438 2.394531 -5.15625 2.625 -5.0625 C 2.757812 -5.007812 3.148438 -4.898438 3.796875 -4.734375 C 4.734375 -4.484375 5.382812 -4.273438 5.75 -4.109375 C 6.113281 -3.953125 6.398438 -3.722656 6.609375 -3.421875 C 6.828125 -3.117188 6.9375 -2.742188 6.9375 -2.296875 C 6.9375 -1.847656 6.804688 -1.429688 6.546875 -1.046875 C 6.296875 -0.660156 5.925781 -0.359375 5.4375 -0.140625 C 4.957031 0.0664062 4.410156 0.171875 3.796875 0.171875 C 2.785156 0.171875 2.015625 -0.0351562 1.484375 -0.453125 C 0.953125 -0.878906 0.613281 -1.503906 0.46875 -2.328125 Z M 0.46875 -2.328125 "></path>
</symbol>
<symbol overflow="visible" id="glyph2-14">
<path style="stroke:none;" d="M 6.328125 -2.515625 L 7.6875 -2.34375 C 7.476562 -1.539062 7.082031 -0.921875 6.5 -0.484375 C 5.914062 -0.046875 5.171875 0.171875 4.265625 0.171875 C 3.117188 0.171875 2.210938 -0.175781 1.546875 -0.875 C 0.878906 -1.582031 0.546875 -2.566406 0.546875 -3.828125 C 0.546875 -5.140625 0.882812 -6.15625 1.5625 -6.875 C 2.238281 -7.601562 3.113281 -7.96875 4.1875 -7.96875 C 5.226562 -7.96875 6.078125 -7.613281 6.734375 -6.90625 C 7.398438 -6.195312 7.734375 -5.195312 7.734375 -3.90625 C 7.734375 -3.832031 7.734375 -3.71875 7.734375 -3.5625 L 1.921875 -3.5625 C 1.960938 -2.707031 2.203125 -2.050781 2.640625 -1.59375 C 3.078125 -1.132812 3.617188 -0.90625 4.265625 -0.90625 C 4.753906 -0.90625 5.171875 -1.03125 5.515625 -1.28125 C 5.859375 -1.539062 6.128906 -1.953125 6.328125 -2.515625 Z M 1.984375 -4.640625 L 6.34375 -4.640625 C 6.28125 -5.296875 6.113281 -5.789062 5.84375 -6.125 C 5.425781 -6.632812 4.878906 -6.890625 4.203125 -6.890625 C 3.597656 -6.890625 3.085938 -6.6875 2.671875 -6.28125 C 2.265625 -5.875 2.035156 -5.328125 1.984375 -4.640625 Z M 1.984375 -4.640625 "></path>
</symbol>
<symbol overflow="visible" id="glyph2-15">
<path style="stroke:none;" d="M 1 -9.234375 L 1 -10.765625 L 2.3125 -10.765625 L 2.3125 -9.234375 Z M 1 0 L 1 -7.796875 L 2.3125 -7.796875 L 2.3125 0 Z M 1 0 "></path>
</symbol>
<symbol overflow="visible" id="glyph2-16">
<path style="stroke:none;" d="M 7.5625 -1.265625 L 7.5625 0 L 0.453125 0 C 0.441406 -0.320312 0.492188 -0.628906 0.609375 -0.921875 C 0.785156 -1.398438 1.070312 -1.875 1.46875 -2.34375 C 1.875 -2.8125 2.453125 -3.359375 3.203125 -3.984375 C 4.378906 -4.941406 5.171875 -5.695312 5.578125 -6.25 C 5.984375 -6.8125 6.1875 -7.34375 6.1875 -7.84375 C 6.1875 -8.363281 6 -8.800781 5.625 -9.15625 C 5.257812 -9.519531 4.773438 -9.703125 4.171875 -9.703125 C 3.535156 -9.703125 3.023438 -9.507812 2.640625 -9.125 C 2.253906 -8.75 2.0625 -8.222656 2.0625 -7.546875 L 0.703125 -7.6875 C 0.796875 -8.707031 1.144531 -9.476562 1.75 -10 C 2.363281 -10.53125 3.179688 -10.796875 4.203125 -10.796875 C 5.234375 -10.796875 6.046875 -10.507812 6.640625 -9.9375 C 7.242188 -9.375 7.546875 -8.664062 7.546875 -7.8125 C 7.546875 -7.382812 7.457031 -6.960938 7.28125 -6.546875 C 7.113281 -6.128906 6.820312 -5.691406 6.40625 -5.234375 C 6 -4.773438 5.320312 -4.144531 4.375 -3.34375 C 3.582031 -2.675781 3.070312 -2.222656 2.84375 -1.984375 C 2.625 -1.742188 2.441406 -1.503906 2.296875 -1.265625 Z M 7.5625 -1.265625 "></path>
</symbol>
<symbol overflow="visible" id="glyph2-17">
<path style="stroke:none;" d="M 0.9375 -8.90625 C 0.9375 -9.46875 1.132812 -9.945312 1.53125 -10.34375 C 1.9375 -10.738281 2.414062 -10.9375 2.96875 -10.9375 C 3.539062 -10.9375 4.023438 -10.738281 4.421875 -10.34375 C 4.816406 -9.945312 5.015625 -9.46875 5.015625 -8.90625 C 5.015625 -8.34375 4.8125 -7.863281 4.40625 -7.46875 C 4.007812 -7.070312 3.53125 -6.875 2.96875 -6.875 C 2.414062 -6.875 1.9375 -7.070312 1.53125 -7.46875 C 1.132812 -7.863281 0.9375 -8.34375 0.9375 -8.90625 Z M 1.734375 -8.90625 C 1.734375 -8.5625 1.851562 -8.269531 2.09375 -8.03125 C 2.34375 -7.789062 2.640625 -7.671875 2.984375 -7.671875 C 3.316406 -7.671875 3.601562 -7.789062 3.84375 -8.03125 C 4.09375 -8.269531 4.21875 -8.5625 4.21875 -8.90625 C 4.21875 -9.25 4.09375 -9.539062 3.84375 -9.78125 C 3.601562 -10.03125 3.316406 -10.15625 2.984375 -10.15625 C 2.640625 -10.15625 2.34375 -10.03125 2.09375 -9.78125 C 1.851562 -9.539062 1.734375 -9.25 1.734375 -8.90625 Z M 1.734375 -8.90625 "></path>
</symbol>
<symbol overflow="visible" id="glyph3-0">
<path style="stroke:none;" d="M 1.21875 0 L 1.21875 -6.109375 L 6.109375 -6.109375 L 6.109375 0 Z M 1.375 -0.15625 L 5.953125 -0.15625 L 5.953125 -5.953125 L 1.375 -5.953125 Z M 1.375 -0.15625 "></path>
</symbol>
<symbol overflow="visible" id="glyph3-1">
<path style="stroke:none;" d="M 0.65625 -6 L 0.65625 -6.984375 L 1.5 -6.984375 L 1.5 -6 Z M 0.65625 0 L 0.65625 -5.0625 L 1.5 -5.0625 L 1.5 0 Z M 0.65625 0 "></path>
</symbol>
<symbol overflow="visible" id="glyph3-2">
<path style="stroke:none;" d="M 0.3125 -2.09375 L 0.3125 -2.96875 L 2.953125 -2.96875 L 2.953125 -2.09375 Z M 0.3125 -2.09375 "></path>
</symbol>
<symbol overflow="visible" id="glyph3-3">
<path style="stroke:none;" d="M 3.640625 0 L 2.78125 0 L 2.78125 -5.46875 C 2.570312 -5.269531 2.300781 -5.070312 1.96875 -4.875 C 1.632812 -4.675781 1.332031 -4.53125 1.0625 -4.4375 L 1.0625 -5.265625 C 1.539062 -5.492188 1.957031 -5.765625 2.3125 -6.078125 C 2.675781 -6.398438 2.929688 -6.710938 3.078125 -7.015625 L 3.640625 -7.015625 Z M 3.640625 0 "></path>
</symbol>
<symbol overflow="visible" id="glyph4-0">
<path style="stroke:none;" d="M 0.8125 0 L 0.8125 -4.078125 L 4.078125 -4.078125 L 4.078125 0 Z M 0.921875 -0.109375 L 3.96875 -0.109375 L 3.96875 -3.96875 L 0.921875 -3.96875 Z M 0.921875 -0.109375 "></path>
</symbol>
<symbol overflow="visible" id="glyph4-1">
<path style="stroke:none;" d="M 0.4375 -4 L 0.4375 -4.65625 L 1 -4.65625 L 1 -4 Z M 0.4375 0 L 0.4375 -3.375 L 1 -3.375 L 1 0 Z M 0.4375 0 "></path>
</symbol>
<symbol overflow="visible" id="glyph4-2">
<path style="stroke:none;" d="M 1.625 -0.75 L 1.625 -2.03125 L 0.359375 -2.03125 L 0.359375 -2.5625 L 1.625 -2.5625 L 1.625 -3.84375 L 2.171875 -3.84375 L 2.171875 -2.5625 L 3.4375 -2.5625 L 3.4375 -2.03125 L 2.171875 -2.03125 L 2.171875 -0.75 Z M 1.625 -0.75 "></path>
</symbol>
<symbol overflow="visible" id="glyph4-3">
<path style="stroke:none;" d="M 2.421875 0 L 1.859375 0 L 1.859375 -3.65625 C 1.710938 -3.519531 1.53125 -3.382812 1.3125 -3.25 C 1.09375 -3.125 0.890625 -3.023438 0.703125 -2.953125 L 0.703125 -3.515625 C 1.023438 -3.660156 1.304688 -3.835938 1.546875 -4.046875 C 1.785156 -4.265625 1.957031 -4.476562 2.0625 -4.6875 L 2.421875 -4.6875 Z M 2.421875 0 "></path>
</symbol>
<symbol overflow="visible" id="glyph4-4">
<path style="stroke:none;" d="M 0.203125 -1.40625 L 0.203125 -1.96875 L 1.96875 -1.96875 L 1.96875 -1.40625 Z M 0.203125 -1.40625 "></path>
</symbol>
</g>
<filter id="alpha" filterUnits="objectBoundingBox" x="0%" y="0%" width="100%" height="100%"> <feColorMatrix type="matrix" in="SourceGraphic" values="0 0 0 0 1 0 0 0 0 1 0 0 0 0 1 0 0 0 1 0"></feColorMatrix>
</filter>
<mask id="mask0"> <g filter="url(#alpha)">
<rect x="0" y="0" width="243" height="208" style="fill:rgb(0%,0%,0%);fill-opacity:0.4;stroke:none;"></rect> </g>
</mask>
<clipPath id="clip1"> <rect x="0" y="0" width="243" height="208"></rect>
</clipPath>
<g id="surface5" clip-path="url(#clip1)">
<path style="fill-rule:nonzero;fill:rgb(90.196079%,90.196079%,90.196079%);fill-opacity:1;stroke-width:0.176389;stroke-linecap:butt;stroke-linejoin:miter;stroke:rgb(0%,0%,0%);stroke-opacity:1;stroke-miterlimit:4;" d="M 18.391475 -21.037791 C 18.455139 -21.042379 18.517248 -21.030533 18.578692 -21.049038 C 18.711943 -21.097448 18.780051 -21.172362 18.867187 -21.322191 C 18.970239 -21.514068 18.959214 -21.64754 18.884079 -21.769392 C 18.830708 -21.8432 18.844699 -21.843866 18.806058 -21.902793 L 18.000732 -22.602233 L 17.749267 -22.827878 C 17.623866 -22.892804 17.514898 -22.939815 17.422734 -22.961138 C 17.308881 -22.996231 17.188512 -23.020886 17.042159 -23.018596 C 16.988932 -22.991133 16.944886 -22.983584 16.920455 -22.923992 C 16.903283 -23.022894 16.804312 -23.154519 16.804312 -23.154519 C 16.812456 -23.163476 16.578087 -23.275413 16.53641 -23.283558 C 16.476596 -23.296292 16.147911 -23.261954 16.00711 -23.24123 C 15.866308 -23.220507 15.632456 -23.256122 15.53178 -23.308981 C 15.429623 -23.360211 13.860478 -24.066931 13.860478 -24.066931 L 13.397885 -24.276296 C 13.397885 -24.276296 12.732312 -24.60922 12.033425 -24.921862 C 11.082701 -25.36976 9.951125 -25.803599 9.058881 -26.201304 C 8.801046 -26.315241 8.017474 -26.704874 8.017474 -26.704874 C 7.881044 -26.805112 7.707743 -26.730646 7.975793 -26.598498 L 9.749543 -25.652218 L 11.806443 -24.518417 C 11.806443 -24.518417 13.090284 -23.7989 13.261138 -23.711986 C 13.432805 -23.624332 14.402184 -23.128241 14.402184 -23.128241 L 15.12535 -22.763779 C 15.209666 -22.710921 15.296942 -22.644959 15.387179 -22.549534 C 15.627835 -22.289097 15.787356 -21.998311 15.986858 -21.898737 C 16.047707 -21.864238 16.262462 -21.853423 16.417032 -21.863116 C 16.394155 -21.803598 16.355881 -21.740232 16.377348 -21.698405 C 16.432792 -21.61379 16.425091 -21.546425 16.773164 -21.369783 C 16.876653 -21.323291 16.98266 -21.273022 17.08156 -21.241113 C 17.135229 -21.226528 17.175871 -21.223788 17.319262 -21.206461 Z M 18.391475 -21.037791 " transform="matrix(2.626353,2.387746,2.387746,-2.626353,196.543678,13.551911)"></path>
<path style=" stroke:none;fill-rule:nonzero;fill:rgb(0%,0%,0%);fill-opacity:1;" d="M 189.722656 115.226562 C 189.769531 115.160156 189.683594 115.402344 189.683594 115.445312 C 189.683594 115.65625 189.726562 115.84375 189.871094 116.0625 C 190.019531 116.277344 190.550781 116.878906 191.539062 117.125 C 192.527344 117.371094 192.863281 117.035156 193.105469 116.90625 C 193.347656 116.769531 193.355469 116.6875 193.414062 116.652344 C 193.496094 116.605469 193.511719 116.550781 193.546875 116.496094 C 193.546875 116.496094 193.589844 116.449219 193.597656 116.417969 C 193.625 116.324219 193.648438 116.277344 193.640625 116.175781 C 193.621094 115.660156 193.628906 115.691406 193.390625 115.371094 C 193.316406 115.277344 193.257812 115.171875 193.171875 115.089844 C 193.078125 114.996094 193.085938 115.027344 192.847656 114.859375 C 192.46875 114.589844 192.378906 114.546875 192.050781 114.496094 C 191.855469 114.464844 191.777344 114.464844 191.597656 114.503906 C 191.476562 114.527344 191.167969 114.589844 190.910156 114.644531 C 190.414062 114.742188 190.179688 114.8125 189.992188 114.925781 C 189.78125 115.050781 189.628906 115.351562 189.71875 115.222656 Z M 189.722656 115.226562 "></path>
<path style=" stroke:none;fill-rule:nonzero;fill:rgb(0%,0%,0%);fill-opacity:1;" d="M 191.078125 110.90625 C 191.074219 110.984375 191.160156 110.742188 191.191406 110.707031 C 191.324219 110.546875 191.472656 110.425781 191.722656 110.351562 C 191.972656 110.28125 192.769531 110.148438 193.6875 110.582031 C 194.609375 111.019531 194.65625 111.488281 194.761719 111.742188 C 194.863281 112 194.816406 112.074219 194.839844 112.136719 C 194.875 112.226562 194.847656 112.28125 194.84375 112.339844 C 194.84375 112.339844 194.84375 112.40625 194.835938 112.433594 C 194.796875 112.523438 194.78125 112.574219 194.714844 112.652344 C 194.378906 113.035156 194.402344 113.019531 194.007812 113.113281 C 193.890625 113.140625 193.78125 113.1875 193.664062 113.195312 C 193.53125 113.207031 193.558594 113.183594 193.265625 113.167969 C 192.804688 113.132812 192.703125 113.109375 192.417969 112.941406 C 192.25 112.84375 192.191406 112.796875 192.074219 112.648438 C 191.996094 112.554688 191.796875 112.308594 191.632812 112.109375 C 191.304688 111.710938 191.171875 111.515625 191.097656 111.308594 C 191.011719 111.074219 191.085938 110.746094 191.078125 110.90625 Z M 191.078125 110.90625 "></path>
</g>
</defs>
<g id="surface1">
<path style="fill:none;stroke-width:0.488106;stroke-linecap:butt;stroke-linejoin:miter;stroke:rgb(0%,0%,0%);stroke-opacity:1;stroke-miterlimit:4;" d="M 11.792572 68.222672 C 15.868832 68.236978 19.943992 68.252385 24.019152 68.266692 " transform="matrix(3.549516,0,0,3.549516,8.907708,-66.235566)"></path>
<path style=" stroke:none;fill-rule:evenodd;fill:rgb(0%,0%,0%);fill-opacity:1;" d="M 54.09375 178.03125 L 48.421875 175.921875 L 54.109375 173.851562 C 53.199219 175.082031 53.195312 176.769531 54.09375 178.03125 Z M 54.09375 178.03125 "></path>
<path style=" stroke:none;fill-rule:evenodd;fill:rgb(0%,0%,0%);fill-opacity:1;" d="M 90.835938 173.96875 L 96.507812 176.078125 L 90.820312 178.148438 C 91.730469 176.917969 91.734375 175.230469 90.835938 173.96875 Z M 90.835938 173.96875 "></path>
<path style="fill:none;stroke-width:1.93949;stroke-linecap:butt;stroke-linejoin:miter;stroke:rgb(60.000002%,60.000002%,60.000002%);stroke-opacity:1;stroke-dasharray:1.93949,1.93949;stroke-miterlimit:4;" d="M 1046.272999 159.733698 L 1103.912154 159.733698 " transform="matrix(0.484222,0,0,0.484222,-439.941073,10.919029)"></path>
<path style="fill:none;stroke-width:1.93949;stroke-linecap:butt;stroke-linejoin:miter;stroke:rgb(60.000002%,60.000002%,60.000002%);stroke-opacity:1;stroke-dasharray:1.93949,1.93949;stroke-miterlimit:4;" d="M 1046.276961 159.727875 L 1103.908049 159.727875 " transform="matrix(0.484222,0,0,0.484222,-387.528929,-5.109402)"></path>
<path style="fill-rule:nonzero;fill:rgb(90.196079%,90.196079%,90.196079%);fill-opacity:1;stroke-width:0.176389;stroke-linecap:butt;stroke-linejoin:miter;stroke:rgb(0%,0%,0%);stroke-opacity:1;stroke-miterlimit:4;" d="M 18.391893 -21.038076 C 18.454631 -21.042336 18.517458 -21.029943 18.579169 -21.049615 C 18.711343 -21.097951 18.779966 -21.171912 18.86695 -21.321749 C 18.97029 -21.513853 18.95838 -21.647748 18.8837 -21.769601 C 18.830148 -21.843277 18.84447 -21.844153 18.806267 -21.903294 L 18.000559 -22.601463 L 17.749036 -22.828773 C 17.62354 -22.892468 17.514785 -22.939599 17.422892 -22.961292 C 17.30911 -22.996614 17.187968 -23.020916 17.04275 -23.018545 C 16.988789 -22.99106 16.944247 -22.98377 16.921439 -22.923942 C 16.903316 -23.022533 16.80393 -23.154291 16.80393 -23.154291 C 16.812682 -23.163282 16.57828 -23.275198 16.535982 -23.283773 C 16.477515 -23.296771 16.148046 -23.261061 16.006338 -23.241401 C 15.866022 -23.219712 15.633183 -23.256293 15.531454 -23.308842 C 15.429876 -23.360301 13.86081 -24.067001 13.86081 -24.067001 L 13.397241 -24.277115 C 13.397241 -24.277115 12.732307 -24.609282 12.033366 -24.922288 C 11.082525 -25.369225 9.95125 -25.80335 9.059355 -26.201802 C 8.801305 -26.315991 8.017383 -26.70498 8.017383 -26.70498 C 7.881143 -26.806071 7.70824 -26.730975 7.975552 -26.598071 L 9.748934 -25.651956 L 11.807153 -24.518705 C 11.807153 -24.518705 13.090264 -23.798997 13.261266 -23.711617 C 13.432268 -23.624237 14.402056 -23.128821 14.402056 -23.128821 L 15.125999 -22.763732 C 15.209985 -22.710943 15.296876 -22.645225 15.386759 -22.549924 C 15.627407 -22.288884 15.78763 -21.99891 15.987062 -21.898809 C 16.047463 -21.863858 16.262199 -21.853652 16.416471 -21.862834 C 16.394752 -21.803158 16.355593 -21.741062 16.377054 -21.698486 C 16.43336 -21.61297 16.424841 -21.546237 16.773688 -21.370204 C 16.876841 -21.323408 16.98278 -21.272554 17.081635 -21.240716 C 17.134803 -21.225872 17.176194 -21.223837 17.318532 -21.20692 Z M 18.391893 -21.038076 " transform="matrix(3.515841,0.487777,-0.487777,3.515841,78.520462,162.444601)"></path>
<path style=" stroke:none;fill-rule:nonzero;fill:rgb(0%,0%,0%);fill-opacity:1;" d="M 152.238281 92.089844 C 152.214844 92.164062 152.34375 91.945312 152.382812 91.917969 C 152.542969 91.78125 152.714844 91.695312 152.972656 91.667969 C 153.234375 91.644531 154.039062 91.664062 154.859375 92.265625 C 155.679688 92.867188 155.636719 93.339844 155.695312 93.613281 C 155.746094 93.882812 155.6875 93.941406 155.695312 94.007812 C 155.710938 94.105469 155.679688 94.148438 155.660156 94.210938 C 155.660156 94.210938 155.652344 94.273438 155.636719 94.300781 C 155.578125 94.382812 155.558594 94.429688 155.476562 94.488281 C 155.070312 94.804688 155.097656 94.789062 154.695312 94.8125 C 154.578125 94.816406 154.460938 94.839844 154.339844 94.824219 C 154.210938 94.8125 154.238281 94.796875 153.957031 94.722656 C 153.507812 94.601562 153.417969 94.5625 153.167969 94.34375 C 153.019531 94.214844 152.96875 94.152344 152.886719 93.992188 C 152.824219 93.882812 152.675781 93.605469 152.550781 93.375 C 152.308594 92.925781 152.210938 92.703125 152.179688 92.488281 C 152.140625 92.242188 152.273438 91.933594 152.234375 92.089844 Z M 152.238281 92.089844 "></path>
<path style=" stroke:none;fill-rule:nonzero;fill:rgb(0%,0%,0%);fill-opacity:1;" d="M 149.789062 95.894531 C 149.84375 95.84375 149.714844 96.0625 149.707031 96.109375 C 149.671875 96.316406 149.671875 96.507812 149.773438 96.742188 C 149.878906 96.984375 150.289062 97.679688 151.210938 98.105469 C 152.136719 98.535156 152.527344 98.269531 152.789062 98.1875 C 153.050781 98.101562 153.078125 98.019531 153.140625 98 C 153.234375 97.964844 153.257812 97.910156 153.300781 97.871094 C 153.300781 97.871094 153.351562 97.828125 153.367188 97.800781 C 153.410156 97.714844 153.441406 97.671875 153.457031 97.570312 C 153.535156 97.066406 153.539062 97.097656 153.359375 96.734375 C 153.304688 96.625 153.273438 96.511719 153.203125 96.417969 C 153.125 96.304688 153.125 96.34375 152.925781 96.128906 C 152.605469 95.792969 152.519531 95.734375 152.210938 95.621094 C 152.023438 95.554688 151.949219 95.539062 151.761719 95.542969 C 151.640625 95.542969 151.324219 95.550781 151.066406 95.550781 C 150.550781 95.554688 150.316406 95.578125 150.109375 95.652344 C 149.875 95.738281 149.667969 96.007812 149.789062 95.894531 Z M 149.789062 95.894531 "></path>
<path style="fill-rule:nonzero;fill:rgb(90.196079%,90.196079%,90.196079%);fill-opacity:1;stroke-width:0.176389;stroke-linecap:butt;stroke-linejoin:miter;stroke:rgb(0%,0%,0%);stroke-opacity:1;stroke-miterlimit:4;" d="M 18.391266 -21.038126 C 18.455095 -21.042528 18.517824 -21.030423 18.578352 -21.049131 C 18.711512 -21.097553 18.779744 -21.172388 18.866683 -21.322056 C 18.97013 -21.514644 18.959125 -21.647805 18.884291 -21.76886 C 18.830367 -21.843694 18.844673 -21.843694 18.806156 -21.903121 L 18.000588 -22.60194 L 17.748573 -22.828644 C 17.624216 -22.892473 17.515266 -22.939794 17.422824 -22.961804 C 17.309473 -22.99592 17.188417 -23.020131 17.042051 -23.01903 C 16.989226 -22.990417 16.944106 -22.983814 16.920995 -22.924387 C 16.903387 -23.022332 16.804342 -23.154392 16.804342 -23.154392 C 16.813146 -23.163196 16.577639 -23.275447 16.535819 -23.283151 C 16.477493 -23.296357 16.147342 -23.261141 16.006478 -23.241332 C 15.866714 -23.220422 15.633408 -23.256739 15.532161 -23.308463 C 15.429815 -23.360186 13.860498 -24.066709 13.860498 -24.066709 L 13.397187 -24.276905 C 13.397187 -24.276905 12.732484 -24.609256 12.033665 -24.921799 C 11.08173 -25.369703 9.950414 -25.803301 9.059007 -26.201683 C 8.80149 -26.315035 8.017932 -26.704613 8.017932 -26.704613 C 7.88147 -26.805859 7.70759 -26.731025 7.976113 -26.598964 L 9.749022 -25.652532 L 11.806961 -24.519015 C 11.806961 -24.519015 13.090147 -23.799287 13.261825 -23.712347 C 13.432403 -23.624307 14.401946 -23.12798 14.401946 -23.12798 L 15.126076 -22.763714 C 15.209714 -22.71089 15.296654 -22.64596 15.386895 -22.549116 C 15.627905 -22.289397 15.787478 -21.998865 15.986669 -21.898719 C 16.048297 -21.863503 16.261794 -21.853599 16.416965 -21.862403 C 16.394955 -21.802975 16.355337 -21.740247 16.377347 -21.698428 C 16.432372 -21.613689 16.425769 -21.546558 16.773528 -21.369378 C 16.876975 -21.323156 16.982623 -21.272533 17.081669 -21.240619 C 17.135593 -21.226312 17.175211 -21.224111 17.319377 -21.206503 Z M 18.391266 -21.038126 " transform="matrix(3.549516,0,0,-3.549516,38.876163,-6.690784)"></path>
<path style=" stroke:none;fill-rule:nonzero;fill:rgb(0%,0%,0%);fill-opacity:1;" d="M 102.226562 73.128906 C 102.214844 73.046875 102.3125 73.285156 102.34375 73.316406 C 102.488281 73.472656 102.644531 73.582031 102.894531 73.644531 C 103.148438 73.707031 103.949219 73.796875 104.847656 73.3125 C 105.742188 72.828125 105.765625 72.355469 105.859375 72.09375 C 105.945312 71.832031 105.894531 71.769531 105.914062 71.703125 C 105.945312 71.609375 105.917969 71.558594 105.910156 71.496094 C 105.910156 71.496094 105.910156 71.433594 105.894531 71.40625 C 105.851562 71.316406 105.835938 71.265625 105.761719 71.195312 C 105.402344 70.828125 105.429688 70.84375 105.035156 70.769531 C 104.917969 70.746094 104.804688 70.710938 104.683594 70.707031 C 104.554688 70.699219 104.582031 70.71875 104.292969 70.753906 C 103.828125 70.8125 103.734375 70.839844 103.457031 71.019531 C 103.292969 71.128906 103.234375 71.183594 103.128906 71.332031 C 103.050781 71.429688 102.867188 71.6875 102.710938 71.898438 C 102.410156 72.308594 102.285156 72.515625 102.222656 72.722656 C 102.152344 72.960938 102.238281 73.285156 102.222656 73.128906 Z M 102.226562 73.128906 "></path>
<path style=" stroke:none;fill-rule:nonzero;fill:rgb(0%,0%,0%);fill-opacity:1;" d="M 100.324219 69.019531 C 100.371094 69.082031 100.269531 68.84375 100.273438 68.796875 C 100.261719 68.589844 100.292969 68.398438 100.425781 68.179688 C 100.5625 67.957031 101.0625 67.320312 102.035156 67.027344 C 103.011719 66.726562 103.359375 67.046875 103.609375 67.164062 C 103.859375 67.28125 103.871094 67.367188 103.933594 67.398438 C 104.019531 67.441406 104.035156 67.5 104.074219 67.546875 C 104.074219 67.546875 104.121094 67.597656 104.128906 67.625 C 104.160156 67.714844 104.183594 67.765625 104.1875 67.863281 C 104.195312 68.375 104.203125 68.347656 103.976562 68.683594 C 103.90625 68.78125 103.859375 68.890625 103.773438 68.972656 C 103.683594 69.074219 103.691406 69.035156 103.464844 69.222656 C 103.097656 69.507812 103.003906 69.554688 102.683594 69.625 C 102.492188 69.664062 102.414062 69.671875 102.230469 69.640625 C 102.109375 69.625 101.796875 69.574219 101.539062 69.535156 C 101.03125 69.464844 100.800781 69.40625 100.605469 69.304688 C 100.386719 69.1875 100.21875 68.894531 100.324219 69.019531 Z M 100.324219 69.019531 "></path>
<path style="fill:none;stroke-width:0.264583;stroke-linecap:round;stroke-linejoin:miter;stroke:rgb(62.7451%,17.254902%,17.254902%);stroke-opacity:1;stroke-miterlimit:4;" d="M 20.419409 41.964688 C 20.59659 42.461014 20.680228 42.983753 20.669223 43.509793 " transform="matrix(3.549516,0,0,3.549516,8.907708,-66.235566)"></path>
<path style="fill-rule:evenodd;fill:rgb(62.7451%,17.254902%,17.254902%);fill-opacity:1;stroke-width:1.25;stroke-linecap:butt;stroke-linejoin:miter;stroke:rgb(62.7451%,17.254902%,17.254902%);stroke-opacity:1;stroke-miterlimit:4;" d="M -0.00102137 -0.000357642 L 5.000488 -4.99717 L -12.499256 0.010209 L 4.995791 5.001152 Z M -0.00102137 -0.000357642 " transform="matrix(0.0629843,0.176953,-0.176953,0.0629843,81.765626,83.781453)"></path>
<path style="fill:none;stroke-width:0.264583;stroke-linecap:round;stroke-linejoin:miter;stroke:rgb(62.7451%,17.254902%,17.254902%);stroke-opacity:1;stroke-miterlimit:4;" d="M 35.419255 39.080271 C 35.40935 39.787894 35.225566 40.482311 34.885511 41.102995 " transform="matrix(3.549516,0,0,3.549516,8.907708,-66.235566)"></path>
<path style="fill-rule:evenodd;fill:rgb(62.7451%,17.254902%,17.254902%);fill-opacity:1;stroke-width:1.25;stroke-linecap:butt;stroke-linejoin:miter;stroke:rgb(62.7451%,17.254902%,17.254902%);stroke-opacity:1;stroke-miterlimit:4;" d="M 0.011613 0.00332936 L 5.003787 -4.991393 L -12.498191 -0.00876663 L 5.006335 4.995503 Z M 0.011613 0.00332936 " transform="matrix(0.0903948,-0.164646,0.164646,0.0903948,133.275746,78.673486)"></path>
<path style=" stroke:none;fill-rule:nonzero;fill:rgb(40.392157%,12.941177%,47.058824%);fill-opacity:1;" d="M 97.953125 73.402344 C 97.953125 74.113281 97.378906 74.691406 96.664062 74.691406 C 95.953125 74.691406 95.375 74.113281 95.375 73.402344 C 95.375 72.691406 95.953125 72.113281 96.664062 72.113281 C 97.378906 72.113281 97.953125 72.691406 97.953125 73.402344 Z M 97.953125 73.402344 "></path>
<path style=" stroke:none;fill-rule:nonzero;fill:rgb(40.392157%,12.941177%,47.058824%);fill-opacity:1;" d="M 148.375 91.121094 C 148.375 91.832031 147.796875 92.410156 147.085938 92.410156 C 146.375 92.410156 145.796875 91.832031 145.796875 91.121094 C 145.796875 90.410156 146.375 89.832031 147.085938 89.832031 C 147.796875 89.832031 148.375 90.410156 148.375 91.121094 Z M 148.375 91.121094 "></path>
<use xlink:href="#surface5" mask="url(#mask0)"></use>
<path style="fill:none;stroke-width:0.264583;stroke-linecap:butt;stroke-linejoin:miter;stroke:rgb(40.392157%,12.941177%,47.058824%);stroke-opacity:1;stroke-dasharray:0.79375,0.79375;stroke-miterlimit:4;" d="M 24.812614 39.369703 L 38.949666 44.337371 " transform="matrix(3.549516,0,0,3.549516,8.907708,-66.235566)"></path>
<path style="fill:none;stroke-width:0.5;stroke-linecap:butt;stroke-linejoin:miter;stroke:rgb(0%,0%,0%);stroke-opacity:1;stroke-miterlimit:4;" d="M 0.237298 60.72605 C 18.770856 60.72605 37.305516 60.72605 55.839074 60.72605 " transform="matrix(3.549516,0,0,3.549516,8.907708,-66.235566)"></path>
<path style="fill-rule:evenodd;fill:rgb(0%,0%,27.058825%);fill-opacity:0.826733;stroke-width:0.625;stroke-linecap:butt;stroke-linejoin:round;stroke:rgb(0%,0%,27.058825%);stroke-opacity:0.826733;stroke-miterlimit:4;" d="M 8.717952 4.032212 L -2.206367 0.0153787 L 8.717952 -4.001454 C 6.971822 -1.628038 6.982827 1.614775 8.717952 4.032212 Z M 8.717952 4.032212 " transform="matrix(-1.064855,0,0,-1.064855,207.107571,149.313251)"></path>
<path style="fill:none;stroke-width:0.25;stroke-linecap:butt;stroke-linejoin:miter;stroke:rgb(0%,0%,0%);stroke-opacity:1;stroke-dasharray:0.5,0.5;stroke-miterlimit:4;" d="M 24.812614 39.331186 C 24.812614 46.823405 24.812614 54.314524 24.812614 61.805643 " transform="matrix(3.549516,0,0,3.549516,8.907708,-66.235566)"></path>
<path style="fill:none;stroke-width:0.196655;stroke-linecap:butt;stroke-linejoin:miter;stroke:rgb(0%,0%,0%);stroke-opacity:1;stroke-dasharray:0.393309,0.393309;stroke-miterlimit:4;" d="M 38.949666 44.337371 C 38.949666 50.160128 38.949666 55.982886 38.949666 61.805643 " transform="matrix(3.549516,0,0,3.549516,8.907708,-66.235566)"></path>
<path style="fill-rule:nonzero;fill:rgb(90.196079%,90.196079%,90.196079%);fill-opacity:1;stroke-width:0.176389;stroke-linecap:butt;stroke-linejoin:miter;stroke:rgb(0%,0%,0%);stroke-opacity:1;stroke-miterlimit:4;" d="M 18.391061 -21.03862 C 18.4555 -21.043081 18.517151 -21.029984 18.578182 -21.04947 C 18.71166 -21.097805 18.779493 -21.171873 18.867404 -21.321588 C 18.970406 -21.514223 18.958362 -21.646907 18.884414 -21.768933 C 18.830251 -21.843538 18.84469 -21.844556 18.806471 -21.903594 L 18.000292 -22.602044 L 17.749221 -22.828334 C 17.62408 -22.89248 17.515128 -22.939986 17.422164 -22.961779 C 17.30945 -22.996018 17.18878 -23.020554 17.042443 -23.018955 C 16.98897 -22.991026 16.944481 -22.983191 16.92075 -22.923642 C 16.903961 -23.022523 16.804067 -23.154462 16.804067 -23.154462 C 16.813338 -23.163336 16.577928 -23.275818 16.536713 -23.283395 C 16.477451 -23.295906 16.14779 -23.261748 16.006908 -23.241074 C 15.866026 -23.2204 15.633219 -23.256737 15.531292 -23.308094 C 15.430195 -23.360767 13.860629 -24.066599 13.860629 -24.066599 L 13.397753 -24.276438 C 13.397753 -24.276438 12.732007 -24.609526 12.033765 -24.921701 C 11.082465 -25.369437 9.950385 -25.803247 9.058867 -26.201352 C 8.801605 -26.315647 8.017202 -26.704196 8.017202 -26.704196 C 7.881394 -26.805418 7.707565 -26.731003 7.975649 -26.59885 L 9.749794 -25.652797 L 11.807073 -24.518196 C 11.807073 -24.518196 13.089618 -23.799164 13.261773 -23.711829 C 13.43178 -23.624007 14.401792 -23.128606 14.401792 -23.128606 L 15.125572 -22.763544 C 15.209841 -22.710438 15.296787 -22.645527 15.387331 -22.549835 C 15.626974 -22.289356 15.787729 -21.998569 15.986317 -21.899175 C 16.048544 -21.863639 16.261899 -21.853357 16.416678 -21.862514 C 16.394021 -21.803208 16.355265 -21.74025 16.377296 -21.697852 C 16.432577 -21.613345 16.425233 -21.546228 16.773248 -21.370142 C 16.876348 -21.323565 16.982568 -21.273182 17.081429 -21.240314 C 17.135324 -21.226585 17.175322 -21.224374 17.319359 -21.206267 Z M 18.391061 -21.03862 " transform="matrix(3.461567,-0.785247,-0.785247,-3.461567,-26.530062,25.575858)"></path>
<path style=" stroke:none;fill-rule:nonzero;fill:rgb(0%,0%,0%);fill-opacity:1;" d="M 52.90625 89.402344 C 52.878906 89.328125 53.027344 89.535156 53.066406 89.5625 C 53.238281 89.679688 53.414062 89.753906 53.675781 89.757812 C 53.9375 89.761719 54.738281 89.671875 55.503906 89 C 56.269531 88.332031 56.1875 87.867188 56.222656 87.589844 C 56.25 87.316406 56.1875 87.265625 56.191406 87.195312 C 56.199219 87.097656 56.160156 87.058594 56.140625 86.996094 C 56.140625 86.996094 56.125 86.933594 56.105469 86.910156 C 56.042969 86.832031 56.015625 86.785156 55.929688 86.734375 C 55.496094 86.453125 55.527344 86.464844 55.125 86.480469 C 55.007812 86.484375 54.890625 86.472656 54.769531 86.496094 C 54.640625 86.519531 54.671875 86.53125 54.398438 86.632812 C 53.957031 86.789062 53.871094 86.839844 53.640625 87.074219 C 53.507812 87.21875 53.460938 87.285156 53.390625 87.453125 C 53.339844 87.566406 53.214844 87.855469 53.109375 88.097656 C 52.90625 88.5625 52.828125 88.792969 52.8125 89.007812 C 52.796875 89.253906 52.957031 89.554688 52.902344 89.402344 Z M 52.90625 89.402344 "></path>
<path style=" stroke:none;fill-rule:nonzero;fill:rgb(0%,0%,0%);fill-opacity:1;" d="M 50.144531 85.816406 C 50.203125 85.867188 50.054688 85.65625 50.042969 85.609375 C 49.988281 85.410156 49.976562 85.21875 50.058594 84.972656 C 50.140625 84.726562 50.488281 83.996094 51.371094 83.492188 C 52.257812 82.988281 52.667969 83.21875 52.9375 83.277344 C 53.207031 83.339844 53.238281 83.421875 53.304688 83.4375 C 53.402344 83.460938 53.425781 83.515625 53.476562 83.550781 C 53.476562 83.550781 53.53125 83.589844 53.546875 83.613281 C 53.597656 83.695312 53.632812 83.738281 53.65625 83.835938 C 53.777344 84.332031 53.777344 84.300781 53.632812 84.679688 C 53.585938 84.792969 53.5625 84.90625 53.5 85.007812 C 53.433594 85.125 53.429688 85.089844 53.25 85.320312 C 52.957031 85.679688 52.878906 85.746094 52.578125 85.882812 C 52.402344 85.964844 52.328125 85.988281 52.140625 86 C 52.019531 86.011719 51.703125 86.03125 51.445312 86.050781 C 50.933594 86.09375 50.695312 86.089844 50.484375 86.035156 C 50.242188 85.96875 50.015625 85.71875 50.144531 85.816406 Z M 50.144531 85.816406 "></path>
<path style=" stroke:none;fill-rule:nonzero;fill:rgb(40.392157%,12.941177%,47.058824%);fill-opacity:1;" d="M 49.429688 90.191406 C 49.429688 90.902344 48.855469 91.480469 48.140625 91.480469 C 47.429688 91.480469 46.851562 90.902344 46.851562 90.191406 C 46.851562 89.480469 47.429688 88.902344 48.140625 88.902344 C 48.855469 88.902344 49.429688 89.480469 49.429688 90.191406 Z M 49.429688 90.191406 "></path>
<path style="fill:none;stroke-width:0.25;stroke-linecap:butt;stroke-linejoin:miter;stroke:rgb(0%,0%,0%);stroke-opacity:1;stroke-dasharray:0.5,0.5;stroke-miterlimit:4;" d="M 11.064039 44.089758 C 11.064039 49.995053 11.064039 55.900348 11.064039 61.805643 " transform="matrix(3.549516,0,0,3.549516,8.907708,-66.235566)"></path>
<path style="fill:none;stroke-width:0.265;stroke-linecap:butt;stroke-linejoin:miter;stroke:rgb(0%,0%,0%);stroke-opacity:1;stroke-miterlimit:4;" d="M 0.927313 61.411663 C 0.927313 50.779711 0.927313 40.148859 0.927313 29.516907 " transform="matrix(3.549516,0,0,3.549516,8.907708,-66.235566)"></path>
<path style="fill-rule:evenodd;fill:rgb(0%,0%,27.058825%);fill-opacity:0.826733;stroke-width:0.625;stroke-linecap:butt;stroke-linejoin:round;stroke:rgb(0%,0%,27.058825%);stroke-opacity:0.826733;stroke-miterlimit:4;" d="M 8.718897 4.032686 L -2.209991 0.018275 L 8.718897 -4.003057 C 6.974705 -1.629018 6.981626 1.617118 8.718897 4.032686 Z M 8.718897 4.032686 " transform="matrix(0.000000000000000104,0.564373,-0.564373,0.000000000000000104,12.197814,38.536321)"></path>
<g style="fill:rgb(0%,0%,0%);fill-opacity:1;"> <use xlink:href="#glyph0-1" x="210.863281" y="153.784098"></use>
</g>
<g style="fill:rgb(0%,0%,0%);fill-opacity:1;"> <use xlink:href="#glyph1-1" x="8.871094" y="33.896028"></use>
</g>
<path style=" stroke:none;fill-rule:nonzero;fill:rgb(62.7451%,17.254902%,17.254902%);fill-opacity:1;" d="M 87.046875 92.339844 C 87.046875 91.515625 86.832031 89.777344 85.558594 89.777344 C 83.816406 89.777344 81.902344 93.296875 81.902344 96.15625 C 81.902344 97.328125 82.253906 98.71875 83.386719 98.71875 C 85.148438 98.71875 87.046875 95.136719 87.046875 92.339844 Z M 83.210938 94.042969 C 83.425781 93.257812 83.679688 92.261719 84.191406 91.359375 C 84.523438 90.753906 84.972656 90.050781 85.539062 90.050781 C 86.144531 90.050781 86.226562 90.851562 86.226562 91.554688 C 86.226562 92.183594 86.125 92.808594 85.832031 94.042969 Z M 85.714844 94.453125 C 85.578125 95.019531 85.324219 96.078125 84.835938 96.976562 C 84.40625 97.835938 83.933594 98.445312 83.386719 98.445312 C 82.976562 98.445312 82.722656 98.070312 82.722656 96.917969 C 82.722656 96.390625 82.800781 95.664062 83.113281 94.453125 Z M 85.714844 94.453125 "></path>
<path style=" stroke:none;fill-rule:nonzero;fill:rgb(62.7451%,17.254902%,17.254902%);fill-opacity:1;" d="M 90.066406 94.992188 C 90.066406 94.855469 89.949219 94.660156 89.714844 94.660156 C 89.480469 94.660156 89.222656 94.894531 89.222656 95.148438 C 89.222656 95.285156 89.324219 95.480469 89.578125 95.480469 C 89.8125 95.480469 90.066406 95.226562 90.066406 94.992188 Z M 88.285156 99.433594 C 88.246094 99.550781 88.207031 99.648438 88.207031 99.804688 C 88.207031 100.214844 88.539062 100.53125 89.027344 100.53125 C 89.890625 100.53125 90.28125 99.335938 90.28125 99.199219 C 90.28125 99.082031 90.164062 99.082031 90.144531 99.082031 C 90.027344 99.082031 90.007812 99.140625 89.96875 99.238281 C 89.773438 99.941406 89.402344 100.292969 89.046875 100.292969 C 88.871094 100.292969 88.832031 100.175781 88.832031 99.980469 C 88.832031 99.785156 88.890625 99.628906 88.96875 99.433594 C 89.066406 99.199219 89.164062 98.964844 89.242188 98.730469 C 89.324219 98.515625 89.65625 97.730469 89.675781 97.613281 C 89.714844 97.535156 89.734375 97.4375 89.734375 97.339844 C 89.734375 96.929688 89.382812 96.597656 88.910156 96.597656 C 88.03125 96.597656 87.640625 97.789062 87.640625 97.945312 C 87.640625 98.042969 87.757812 98.042969 87.796875 98.042969 C 87.914062 98.042969 87.914062 98.003906 87.953125 97.90625 C 88.167969 97.164062 88.558594 96.851562 88.871094 96.851562 C 89.007812 96.851562 89.085938 96.910156 89.085938 97.144531 C 89.085938 97.359375 89.046875 97.476562 88.832031 98.023438 Z M 88.285156 99.433594 "></path>
<path style="fill:none;stroke-width:0.264583;stroke-linecap:butt;stroke-linejoin:miter;stroke:rgb(40.392157%,12.941177%,47.058824%);stroke-opacity:1;stroke-dasharray:0.79375,0.79375;stroke-miterlimit:4;" d="M 11.064039 44.089758 C 15.616817 42.502833 20.169595 40.915909 24.722373 39.330085 " transform="matrix(3.549516,0,0,3.549516,8.907708,-66.235566)"></path>
<path style=" stroke:none;fill-rule:nonzero;fill:rgb(0%,53.333336%,66.666669%);fill-opacity:1;" d="M 98.777344 55.203125 L 99.949219 55.203125 C 100.203125 55.203125 100.339844 55.203125 100.339844 54.949219 C 100.339844 54.8125 100.203125 54.8125 99.988281 54.8125 L 98.894531 54.8125 C 99.34375 53.03125 99.402344 52.796875 99.402344 52.71875 C 99.402344 52.503906 99.246094 52.386719 99.03125 52.386719 C 98.992188 52.386719 98.640625 52.386719 98.542969 52.835938 L 98.050781 54.8125 L 96.878906 54.8125 C 96.625 54.8125 96.507812 54.8125 96.507812 55.046875 C 96.507812 55.203125 96.605469 55.203125 96.859375 55.203125 L 97.953125 55.203125 C 97.054688 58.742188 96.996094 58.957031 96.996094 59.175781 C 96.996094 59.859375 97.464844 60.328125 98.148438 60.328125 C 99.421875 60.328125 100.125 58.507812 100.125 58.410156 C 100.125 58.273438 100.027344 58.273438 99.988281 58.273438 C 99.871094 58.273438 99.851562 58.3125 99.792969 58.449219 C 99.265625 59.761719 98.601562 60.054688 98.167969 60.054688 C 97.914062 60.054688 97.777344 59.898438 97.777344 59.488281 C 97.777344 59.175781 97.816406 59.097656 97.855469 58.878906 Z M 98.777344 55.203125 "></path>
<path style=" stroke:none;fill-rule:nonzero;fill:rgb(0%,53.333336%,66.666669%);fill-opacity:1;" d="M 103.554688 56.601562 C 103.554688 56.464844 103.4375 56.269531 103.203125 56.269531 C 102.96875 56.269531 102.714844 56.503906 102.714844 56.761719 C 102.714844 56.898438 102.8125 57.09375 103.066406 57.09375 C 103.300781 57.09375 103.554688 56.839844 103.554688 56.601562 Z M 101.773438 61.042969 C 101.734375 61.164062 101.695312 61.261719 101.695312 61.417969 C 101.695312 61.828125 102.027344 62.140625 102.519531 62.140625 C 103.378906 62.140625 103.769531 60.945312 103.769531 60.808594 C 103.769531 60.691406 103.652344 60.691406 103.632812 60.691406 C 103.515625 60.691406 103.496094 60.75 103.457031 60.847656 C 103.261719 61.554688 102.890625 61.90625 102.539062 61.90625 C 102.363281 61.90625 102.324219 61.789062 102.324219 61.59375 C 102.324219 61.398438 102.382812 61.242188 102.460938 61.042969 C 102.558594 60.808594 102.65625 60.574219 102.734375 60.339844 C 102.8125 60.125 103.144531 59.34375 103.164062 59.226562 C 103.203125 59.148438 103.222656 59.050781 103.222656 58.953125 C 103.222656 58.539062 102.871094 58.207031 102.402344 58.207031 C 101.519531 58.207031 101.128906 59.402344 101.128906 59.558594 C 101.128906 59.65625 101.246094 59.65625 101.285156 59.65625 C 101.402344 59.65625 101.402344 59.617188 101.441406 59.519531 C 101.65625 58.773438 102.046875 58.460938 102.363281 58.460938 C 102.5 58.460938 102.578125 58.519531 102.578125 58.753906 C 102.578125 58.972656 102.539062 59.089844 102.324219 59.636719 Z M 101.773438 61.042969 "></path>
<path style=" stroke:none;fill-rule:nonzero;fill:rgb(40.392157%,12.941177%,47.058824%);fill-opacity:1;" d="M 118.144531 85.683594 C 118.144531 85.683594 118.144531 85.546875 117.988281 85.546875 C 117.792969 85.546875 116.621094 85.664062 116.40625 85.683594 C 116.308594 85.703125 116.230469 85.761719 116.230469 85.917969 C 116.230469 86.074219 116.347656 86.074219 116.523438 86.074219 C 117.128906 86.074219 117.148438 86.152344 117.148438 86.289062 L 117.109375 86.546875 L 116.367188 89.5 C 116.132812 89.03125 115.777344 88.699219 115.210938 88.699219 C 113.765625 88.699219 112.21875 90.535156 112.21875 92.355469 C 112.21875 93.53125 112.902344 94.351562 113.863281 94.351562 C 114.117188 94.351562 114.742188 94.292969 115.484375 93.414062 C 115.582031 93.941406 116.035156 94.351562 116.621094 94.351562 C 117.070312 94.351562 117.34375 94.058594 117.558594 93.667969 C 117.753906 93.21875 117.929688 92.453125 117.929688 92.433594 C 117.929688 92.296875 117.8125 92.296875 117.773438 92.296875 C 117.65625 92.296875 117.636719 92.355469 117.597656 92.53125 C 117.382812 93.335938 117.167969 94.078125 116.660156 94.078125 C 116.308594 94.078125 116.289062 93.746094 116.289062 93.511719 C 116.289062 93.199219 116.308594 93.121094 116.347656 92.902344 Z M 115.5625 92.726562 C 115.484375 92.960938 115.484375 92.980469 115.308594 93.199219 C 114.761719 93.882812 114.253906 94.078125 113.902344 94.078125 C 113.273438 94.078125 113.097656 93.394531 113.097656 92.902344 C 113.097656 92.277344 113.488281 90.75 113.785156 90.164062 C 114.175781 89.441406 114.722656 88.972656 115.230469 88.972656 C 116.035156 88.972656 116.210938 89.988281 116.210938 90.066406 C 116.210938 90.144531 116.191406 90.222656 116.171875 90.28125 Z M 115.5625 92.726562 "></path>
<path style=" stroke:none;fill-rule:nonzero;fill:rgb(40.392157%,12.941177%,47.058824%);fill-opacity:1;" d="M 121.039062 90.628906 C 121.039062 90.488281 120.921875 90.292969 120.6875 90.292969 C 120.453125 90.292969 120.199219 90.527344 120.199219 90.785156 C 120.199219 90.921875 120.296875 91.117188 120.550781 91.117188 C 120.785156 91.117188 121.039062 90.863281 121.039062 90.628906 Z M 119.257812 95.070312 C 119.21875 95.1875 119.179688 95.285156 119.179688 95.441406 C 119.179688 95.851562 119.515625 96.164062 120.003906 96.164062 C 120.863281 96.164062 121.253906 94.96875 121.253906 94.832031 C 121.253906 94.714844 121.136719 94.714844 121.117188 94.714844 C 121 94.714844 120.980469 94.773438 120.941406 94.871094 C 120.746094 95.578125 120.375 95.929688 120.023438 95.929688 C 119.847656 95.929688 119.808594 95.8125 119.808594 95.617188 C 119.808594 95.421875 119.867188 95.265625 119.945312 95.070312 C 120.042969 94.832031 120.140625 94.597656 120.21875 94.363281 C 120.296875 94.148438 120.628906 93.367188 120.648438 93.25 C 120.6875 93.171875 120.707031 93.074219 120.707031 92.976562 C 120.707031 92.5625 120.355469 92.230469 119.886719 92.230469 C 119.003906 92.230469 118.613281 93.425781 118.613281 93.582031 C 118.613281 93.679688 118.730469 93.679688 118.769531 93.679688 C 118.886719 93.679688 118.886719 93.640625 118.925781 93.542969 C 119.140625 92.796875 119.535156 92.484375 119.847656 92.484375 C 119.984375 92.484375 120.0625 92.542969 120.0625 92.777344 C 120.0625 92.996094 120.023438 93.113281 119.808594 93.660156 Z M 119.257812 95.070312 "></path>
<path style=" stroke:none;fill-rule:nonzero;fill:rgb(62.7451%,17.254902%,17.254902%);fill-opacity:1;" d="M 139.429688 60.375 C 139.429688 59.550781 139.214844 57.808594 137.941406 57.808594 C 136.199219 57.808594 134.285156 61.332031 134.285156 64.1875 C 134.285156 65.363281 134.636719 66.75 135.769531 66.75 C 137.53125 66.75 139.429688 63.171875 139.429688 60.375 Z M 135.59375 62.074219 C 135.808594 61.292969 136.0625 60.292969 136.574219 59.394531 C 136.90625 58.789062 137.355469 58.082031 137.921875 58.082031 C 138.527344 58.082031 138.609375 58.886719 138.609375 59.589844 C 138.609375 60.214844 138.507812 60.84375 138.214844 62.074219 Z M 138.097656 62.484375 C 137.960938 63.054688 137.707031 64.109375 137.21875 65.011719 C 136.789062 65.871094 136.316406 66.476562 135.769531 66.476562 C 135.359375 66.476562 135.105469 66.105469 135.105469 64.953125 C 135.105469 64.421875 135.183594 63.699219 135.496094 62.484375 Z M 138.097656 62.484375 "></path>
<path style=" stroke:none;fill-rule:nonzero;fill:rgb(62.7451%,17.254902%,17.254902%);fill-opacity:1;" d="M 142.449219 63.027344 C 142.449219 62.890625 142.332031 62.695312 142.097656 62.695312 C 141.863281 62.695312 141.605469 62.929688 141.605469 63.183594 C 141.605469 63.320312 141.707031 63.515625 141.960938 63.515625 C 142.195312 63.515625 142.449219 63.261719 142.449219 63.027344 Z M 140.667969 67.46875 C 140.628906 67.585938 140.589844 67.683594 140.589844 67.839844 C 140.589844 68.25 140.921875 68.5625 141.410156 68.5625 C 142.273438 68.5625 142.664062 67.371094 142.664062 67.234375 C 142.664062 67.117188 142.546875 67.117188 142.527344 67.117188 C 142.410156 67.117188 142.390625 67.175781 142.351562 67.273438 C 142.15625 67.976562 141.785156 68.328125 141.429688 68.328125 C 141.253906 68.328125 141.214844 68.210938 141.214844 68.015625 C 141.214844 67.820312 141.273438 67.664062 141.351562 67.46875 C 141.449219 67.234375 141.546875 67 141.628906 66.761719 C 141.707031 66.546875 142.039062 65.765625 142.058594 65.648438 C 142.097656 65.570312 142.117188 65.472656 142.117188 65.375 C 142.117188 64.964844 141.765625 64.632812 141.292969 64.632812 C 140.414062 64.632812 140.023438 65.824219 140.023438 65.980469 C 140.023438 66.078125 140.140625 66.078125 140.179688 66.078125 C 140.296875 66.078125 140.296875 66.039062 140.335938 65.941406 C 140.550781 65.199219 140.941406 64.886719 141.253906 64.886719 C 141.390625 64.886719 141.46875 64.945312 141.46875 65.179688 C 141.46875 65.394531 141.429688 65.511719 141.214844 66.058594 Z M 140.667969 67.46875 "></path>
<path style=" stroke:none;fill-rule:nonzero;fill:rgb(62.7451%,17.254902%,17.254902%);fill-opacity:1;" d="M 147.171875 66.507812 L 149.851562 66.507812 C 149.96875 66.507812 150.164062 66.507812 150.164062 66.3125 C 150.164062 66.078125 149.96875 66.078125 149.851562 66.078125 L 147.171875 66.078125 L 147.171875 63.398438 C 147.171875 63.300781 147.171875 63.085938 146.976562 63.085938 C 146.761719 63.085938 146.761719 63.28125 146.761719 63.398438 L 146.761719 66.078125 L 144.082031 66.078125 C 143.964844 66.078125 143.75 66.078125 143.75 66.292969 C 143.75 66.507812 143.945312 66.507812 144.082031 66.507812 L 146.761719 66.507812 L 146.761719 69.191406 C 146.761719 69.308594 146.761719 69.523438 146.957031 69.523438 C 147.171875 69.523438 147.171875 69.308594 147.171875 69.191406 Z M 147.171875 66.507812 "></path>
<path style=" stroke:none;fill-rule:nonzero;fill:rgb(62.7451%,17.254902%,17.254902%);fill-opacity:1;" d="M 153.714844 62.929688 C 153.714844 62.695312 153.714844 62.695312 153.460938 62.695312 C 152.894531 63.242188 152.109375 63.242188 151.757812 63.242188 L 151.757812 63.554688 C 151.953125 63.554688 152.542969 63.554688 153.011719 63.320312 L 153.011719 67.761719 C 153.011719 68.054688 153.011719 68.171875 152.148438 68.171875 L 151.816406 68.171875 L 151.816406 68.484375 C 151.972656 68.484375 153.050781 68.445312 153.363281 68.445312 C 153.636719 68.445312 154.734375 68.484375 154.929688 68.484375 L 154.929688 68.171875 L 154.597656 68.171875 C 153.714844 68.171875 153.714844 68.054688 153.714844 67.761719 Z M 153.714844 62.929688 "></path>
<path style=" stroke:none;fill-rule:nonzero;fill:rgb(0%,53.333336%,66.666669%);fill-opacity:1;" d="M 156.644531 81.253906 L 157.816406 81.253906 C 158.070312 81.253906 158.207031 81.253906 158.207031 81 C 158.207031 80.863281 158.070312 80.863281 157.855469 80.863281 L 156.761719 80.863281 C 157.210938 79.082031 157.269531 78.847656 157.269531 78.769531 C 157.269531 78.554688 157.113281 78.4375 156.898438 78.4375 C 156.859375 78.4375 156.507812 78.4375 156.40625 78.886719 L 155.917969 80.863281 L 154.746094 80.863281 C 154.492188 80.863281 154.375 80.863281 154.375 81.097656 C 154.375 81.253906 154.472656 81.253906 154.726562 81.253906 L 155.820312 81.253906 C 154.921875 84.796875 154.863281 85.011719 154.863281 85.226562 C 154.863281 85.910156 155.332031 86.378906 156.015625 86.378906 C 157.289062 86.378906 157.992188 84.558594 157.992188 84.460938 C 157.992188 84.324219 157.894531 84.324219 157.855469 84.324219 C 157.738281 84.324219 157.71875 84.363281 157.660156 84.5 C 157.132812 85.8125 156.46875 86.105469 156.035156 86.105469 C 155.78125 86.105469 155.644531 85.949219 155.644531 85.539062 C 155.644531 85.226562 155.683594 85.148438 155.722656 84.933594 Z M 156.644531 81.253906 "></path>
<path style=" stroke:none;fill-rule:nonzero;fill:rgb(0%,53.333336%,66.666669%);fill-opacity:1;" d="M 161.421875 82.65625 C 161.421875 82.519531 161.304688 82.324219 161.070312 82.324219 C 160.835938 82.324219 160.582031 82.558594 160.582031 82.8125 C 160.582031 82.949219 160.679688 83.144531 160.933594 83.144531 C 161.167969 83.144531 161.421875 82.890625 161.421875 82.65625 Z M 159.640625 87.097656 C 159.601562 87.214844 159.5625 87.3125 159.5625 87.46875 C 159.5625 87.878906 159.894531 88.191406 160.386719 88.191406 C 161.246094 88.191406 161.636719 87 161.636719 86.863281 C 161.636719 86.746094 161.519531 86.746094 161.5 86.746094 C 161.382812 86.746094 161.363281 86.804688 161.324219 86.902344 C 161.128906 87.605469 160.757812 87.957031 160.40625 87.957031 C 160.230469 87.957031 160.191406 87.839844 160.191406 87.644531 C 160.191406 87.449219 160.25 87.292969 160.328125 87.097656 C 160.425781 86.863281 160.523438 86.625 160.601562 86.390625 C 160.679688 86.175781 161.011719 85.394531 161.03125 85.277344 C 161.070312 85.199219 161.089844 85.101562 161.089844 85.003906 C 161.089844 84.59375 160.738281 84.257812 160.269531 84.257812 C 159.386719 84.257812 158.996094 85.453125 158.996094 85.609375 C 158.996094 85.707031 159.113281 85.707031 159.152344 85.707031 C 159.269531 85.707031 159.269531 85.667969 159.308594 85.570312 C 159.523438 84.828125 159.914062 84.515625 160.230469 84.515625 C 160.367188 84.515625 160.445312 84.574219 160.445312 84.808594 C 160.445312 85.023438 160.40625 85.140625 160.191406 85.6875 Z M 159.640625 87.097656 "></path>
<path style=" stroke:none;fill-rule:nonzero;fill:rgb(0%,53.333336%,66.666669%);fill-opacity:1;" d="M 166.144531 86.136719 L 168.824219 86.136719 C 168.945312 86.136719 169.140625 86.136719 169.140625 85.941406 C 169.140625 85.707031 168.945312 85.707031 168.824219 85.707031 L 166.144531 85.707031 L 166.144531 83.027344 C 166.144531 82.929688 166.144531 82.714844 165.949219 82.714844 C 165.734375 82.714844 165.734375 82.910156 165.734375 83.027344 L 165.734375 85.707031 L 163.054688 85.707031 C 162.9375 85.707031 162.722656 85.707031 162.722656 85.921875 C 162.722656 86.136719 162.917969 86.136719 163.054688 86.136719 L 165.734375 86.136719 L 165.734375 88.816406 C 165.734375 88.9375 165.734375 89.152344 165.929688 89.152344 C 166.144531 89.152344 166.144531 88.9375 166.144531 88.816406 Z M 166.144531 86.136719 "></path>
<path style=" stroke:none;fill-rule:nonzero;fill:rgb(0%,53.333336%,66.666669%);fill-opacity:1;" d="M 172.6875 82.558594 C 172.6875 82.324219 172.6875 82.324219 172.433594 82.324219 C 171.867188 82.871094 171.085938 82.871094 170.730469 82.871094 L 170.730469 83.183594 C 170.929688 83.183594 171.515625 83.183594 171.984375 82.949219 L 171.984375 87.390625 C 171.984375 87.683594 171.984375 87.800781 171.125 87.800781 L 170.789062 87.800781 L 170.789062 88.113281 C 170.949219 88.113281 172.023438 88.074219 172.335938 88.074219 C 172.609375 88.074219 173.707031 88.113281 173.902344 88.113281 L 173.902344 87.800781 L 173.570312 87.800781 C 172.6875 87.800781 172.6875 87.683594 172.6875 87.390625 Z M 172.6875 82.558594 "></path>
<path style="fill:none;stroke-width:0.264583;stroke-linecap:butt;stroke-linejoin:miter;stroke:rgb(40.392157%,12.941177%,47.058824%);stroke-opacity:0.5;stroke-dasharray:0.79375,0.79375;stroke-miterlimit:4;" d="M 38.917751 44.899727 C 42.702379 46.686943 46.485905 48.474159 50.270533 50.261374 " transform="matrix(3.549516,0,0,3.549516,8.907708,-66.235566)"></path>
<path style=" stroke:none;fill-rule:nonzero;fill:rgb(40.392157%,12.941177%,47.058824%);fill-opacity:0.5;" d="M 187.238281 111.746094 C 187.238281 112.457031 186.660156 113.035156 185.949219 113.035156 C 185.238281 113.035156 184.660156 112.457031 184.660156 111.746094 C 184.660156 111.035156 185.238281 110.457031 185.949219 110.457031 C 186.660156 110.457031 187.238281 111.035156 187.238281 111.746094 Z M 187.238281 111.746094 "></path>
<g style="fill:rgb(0%,0%,0%);fill-opacity:1;"> <use xlink:href="#glyph2-1" x="90.777344" y="166.08623"></use>
</g>
<g style="fill:rgb(0%,0%,0%);fill-opacity:1;"> <use xlink:href="#glyph3-1" x="100.796875" y="168.037905"></use>
</g>
<g style="fill:rgb(0%,0%,0%);fill-opacity:1;"> <use xlink:href="#glyph1-2" x="140.945312" y="162.497591"></use>
</g>
<g style="fill:rgb(0%,0%,0%);fill-opacity:1;"> <use xlink:href="#glyph4-1" x="147.621094" y="163.802907"></use> <use xlink:href="#glyph4-2" x="149.066551" y="163.802907"></use> <use xlink:href="#glyph4-3" x="152.865642" y="163.802907"></use>
</g>
<g style="fill:rgb(0%,0%,0%);fill-opacity:1;"> <use xlink:href="#glyph1-2" x="40.167969" y="162.497591"></use>
</g>
<g style="fill:rgb(0%,0%,0%);fill-opacity:1;"> <use xlink:href="#glyph4-1" x="46.84375" y="163.802907"></use> <use xlink:href="#glyph4-4" x="48.289207" y="163.802907"></use> <use xlink:href="#glyph4-3" x="50.455659" y="163.802907"></use>
</g>
<path style="fill:none;stroke-width:0.25;stroke-linecap:butt;stroke-linejoin:miter;stroke:rgb(0%,0%,0%);stroke-opacity:1;stroke-dasharray:0.5,0.5;stroke-miterlimit:4;" d="M 24.812614 65.866496 C 24.812614 67.180496 24.812614 68.495596 24.812614 69.809596 " transform="matrix(3.549516,0,0,3.549516,8.907708,-66.235566)"></path>
<g style="fill:rgb(0%,0%,0%);fill-opacity:1;"> <use xlink:href="#glyph2-2" x="55.398438" y="196.121386"></use>
</g>
<g style="fill:rgb(0%,0%,0%);fill-opacity:1;"> <use xlink:href="#glyph2-1" x="65.429979" y="196.121386"></use>
</g>
<g style="fill:rgb(0%,0%,0%);fill-opacity:1;"> <use xlink:href="#glyph3-1" x="75.445313" y="198.073061"></use> <use xlink:href="#glyph3-2" x="77.615231" y="198.073061"></use> <use xlink:href="#glyph3-3" x="80.866643" y="198.073061"></use>
</g>
<g style="fill:rgb(0%,0%,0%);fill-opacity:1;"> <use xlink:href="#glyph2-3" x="31.515625" y="19.812792"></use> <use xlink:href="#glyph2-4" x="42.361752" y="19.812792"></use> <use xlink:href="#glyph2-5" x="50.715593" y="19.812792"></use> <use xlink:href="#glyph2-6" x="59.069433" y="19.812792"></use> <use xlink:href="#glyph2-7" x="63.242887" y="19.812792"></use> <use xlink:href="#glyph2-4" x="68.244793" y="19.812792"></use> <use xlink:href="#glyph2-8" x="76.598633" y="19.812792"></use> <use xlink:href="#glyph2-9" x="79.933237" y="19.812792"></use> <use xlink:href="#glyph2-10" x="84.106691" y="19.812792"></use> <use xlink:href="#glyph2-9" x="88.280145" y="19.812792"></use> <use xlink:href="#glyph2-11" x="92.453599" y="19.812792"></use> <use xlink:href="#glyph2-12" x="102.471275" y="19.812792"></use> <use xlink:href="#glyph2-13" x="110.825115" y="19.812792"></use> <use xlink:href="#glyph2-14" x="118.336639" y="19.812792"></use> <use xlink:href="#glyph2-8" x="126.69048" y="19.812792"></use> <use xlink:href="#glyph2-15" x="130.025083" y="19.812792"></use> <use xlink:href="#glyph2-5" x="133.359687" y="19.812792"></use> <use xlink:href="#glyph2-14" x="141.713527" y="19.812792"></use> <use xlink:href="#glyph2-9" x="150.067368" y="19.812792"></use> <use xlink:href="#glyph2-16" x="154.240822" y="19.812792"></use> <use xlink:href="#glyph2-16" x="162.594662" y="19.812792"></use> <use xlink:href="#glyph2-17" x="170.948503" y="19.812792"></use> <use xlink:href="#glyph2-3" x="176.955642" y="19.812792"></use>
</g>
<path style=" stroke:none;fill-rule:nonzero;fill:rgb(0%,53.333336%,66.666669%);fill-opacity:1;" d="M 26.171875 78.707031 L 27.347656 78.707031 C 27.601562 78.707031 27.738281 78.707031 27.738281 78.453125 C 27.738281 78.316406 27.601562 78.316406 27.386719 78.316406 L 26.289062 78.316406 C 26.738281 76.535156 26.796875 76.300781 26.796875 76.222656 C 26.796875 76.007812 26.640625 75.890625 26.425781 75.890625 C 26.386719 75.890625 26.035156 75.890625 25.9375 76.339844 L 25.449219 78.316406 L 24.273438 78.316406 C 24.019531 78.316406 23.902344 78.316406 23.902344 78.550781 C 23.902344 78.707031 24 78.707031 24.253906 78.707031 L 25.351562 78.707031 C 24.449219 82.25 24.390625 82.464844 24.390625 82.679688 C 24.390625 83.363281 24.863281 83.832031 25.546875 83.832031 C 26.816406 83.832031 27.523438 82.015625 27.523438 81.917969 C 27.523438 81.777344 27.425781 81.777344 27.386719 81.777344 C 27.269531 81.777344 27.25 81.816406 27.191406 81.957031 C 26.660156 83.265625 25.996094 83.558594 25.566406 83.558594 C 25.3125 83.558594 25.175781 83.402344 25.175781 82.992188 C 25.175781 82.679688 25.214844 82.601562 25.253906 82.386719 Z M 26.171875 78.707031 "></path>
<path style=" stroke:none;fill-rule:nonzero;fill:rgb(0%,53.333336%,66.666669%);fill-opacity:1;" d="M 30.953125 80.109375 C 30.953125 79.972656 30.835938 79.777344 30.597656 79.777344 C 30.363281 79.777344 30.109375 80.011719 30.109375 80.265625 C 30.109375 80.402344 30.207031 80.597656 30.460938 80.597656 C 30.695312 80.597656 30.953125 80.34375 30.953125 80.109375 Z M 29.171875 84.550781 C 29.132812 84.667969 29.09375 84.765625 29.09375 84.921875 C 29.09375 85.332031 29.425781 85.644531 29.914062 85.644531 C 30.777344 85.644531 31.167969 84.453125 31.167969 84.316406 C 31.167969 84.199219 31.050781 84.199219 31.03125 84.199219 C 30.914062 84.199219 30.894531 84.257812 30.855469 84.355469 C 30.65625 85.058594 30.285156 85.410156 29.933594 85.410156 C 29.757812 85.410156 29.71875 85.292969 29.71875 85.097656 C 29.71875 84.902344 29.777344 84.746094 29.855469 84.550781 C 29.953125 84.316406 30.050781 84.082031 30.128906 83.84375 C 30.207031 83.628906 30.539062 82.847656 30.558594 82.730469 C 30.597656 82.652344 30.617188 82.554688 30.617188 82.457031 C 30.617188 82.046875 30.265625 81.714844 29.796875 81.714844 C 28.917969 81.714844 28.527344 82.90625 28.527344 83.0625 C 28.527344 83.160156 28.644531 83.160156 28.683594 83.160156 C 28.800781 83.160156 28.800781 83.121094 28.839844 83.023438 C 29.054688 82.28125 29.445312 81.96875 29.757812 81.96875 C 29.894531 81.96875 29.972656 82.027344 29.972656 82.261719 C 29.972656 82.476562 29.933594 82.59375 29.71875 83.140625 Z M 29.171875 84.550781 "></path>
<path style=" stroke:none;fill-rule:nonzero;fill:rgb(0%,53.333336%,66.666669%);fill-opacity:1;" d="M 38.140625 83.589844 C 38.277344 83.589844 38.492188 83.589844 38.492188 83.394531 C 38.492188 83.160156 38.277344 83.160156 38.140625 83.160156 L 32.9375 83.160156 C 32.800781 83.160156 32.582031 83.160156 32.582031 83.375 C 32.582031 83.589844 32.777344 83.589844 32.9375 83.589844 Z M 38.140625 83.589844 "></path>
<path style=" stroke:none;fill-rule:nonzero;fill:rgb(0%,53.333336%,66.666669%);fill-opacity:1;" d="M 42.355469 80.011719 C 42.355469 79.777344 42.355469 79.777344 42.101562 79.777344 C 41.535156 80.324219 40.75 80.324219 40.398438 80.324219 L 40.398438 80.636719 C 40.59375 80.636719 41.183594 80.636719 41.652344 80.402344 L 41.652344 84.84375 C 41.652344 85.136719 41.652344 85.253906 40.789062 85.253906 L 40.457031 85.253906 L 40.457031 85.566406 C 40.613281 85.566406 41.691406 85.527344 42.003906 85.527344 C 42.277344 85.527344 43.375 85.566406 43.570312 85.566406 L 43.570312 85.253906 L 43.234375 85.253906 C 42.355469 85.253906 42.355469 85.136719 42.355469 84.84375 Z M 42.355469 80.011719 "></path>
<path style=" stroke:none;fill-rule:nonzero;fill:rgb(40.392157%,12.941177%,47.058824%);fill-opacity:1;" d="M 59.578125 65.023438 C 59.578125 65.023438 59.578125 64.886719 59.421875 64.886719 C 59.222656 64.886719 58.050781 65.003906 57.835938 65.023438 C 57.738281 65.042969 57.660156 65.101562 57.660156 65.257812 C 57.660156 65.414062 57.777344 65.414062 57.953125 65.414062 C 58.558594 65.414062 58.578125 65.496094 58.578125 65.632812 L 58.539062 65.886719 L 57.796875 68.839844 C 57.5625 68.371094 57.210938 68.039062 56.640625 68.039062 C 55.195312 68.039062 53.648438 69.875 53.648438 71.695312 C 53.648438 72.871094 54.332031 73.691406 55.292969 73.691406 C 55.546875 73.691406 56.171875 73.632812 56.914062 72.753906 C 57.011719 73.28125 57.464844 73.691406 58.050781 73.691406 C 58.5 73.691406 58.773438 73.398438 58.988281 73.007812 C 59.183594 72.558594 59.363281 71.792969 59.363281 71.773438 C 59.363281 71.636719 59.242188 71.636719 59.203125 71.636719 C 59.085938 71.636719 59.066406 71.695312 59.027344 71.871094 C 58.8125 72.675781 58.597656 73.417969 58.089844 73.417969 C 57.738281 73.417969 57.71875 73.085938 57.71875 72.851562 C 57.71875 72.539062 57.738281 72.460938 57.777344 72.246094 Z M 56.992188 72.066406 C 56.914062 72.304688 56.914062 72.324219 56.738281 72.539062 C 56.191406 73.222656 55.683594 73.417969 55.332031 73.417969 C 54.703125 73.417969 54.527344 72.734375 54.527344 72.246094 C 54.527344 71.617188 54.921875 70.09375 55.214844 69.503906 C 55.605469 68.78125 56.152344 68.3125 56.660156 68.3125 C 57.464844 68.3125 57.640625 69.328125 57.640625 69.40625 C 57.640625 69.484375 57.621094 69.5625 57.601562 69.621094 Z M 56.992188 72.066406 "></path>
<path style=" stroke:none;fill-rule:nonzero;fill:rgb(40.392157%,12.941177%,47.058824%);fill-opacity:1;" d="M 62.46875 69.96875 C 62.46875 69.832031 62.351562 69.632812 62.117188 69.632812 C 61.882812 69.632812 61.628906 69.871094 61.628906 70.125 C 61.628906 70.261719 61.726562 70.457031 61.980469 70.457031 C 62.214844 70.457031 62.46875 70.203125 62.46875 69.96875 Z M 60.691406 74.410156 C 60.652344 74.527344 60.613281 74.625 60.613281 74.78125 C 60.613281 75.191406 60.945312 75.503906 61.433594 75.503906 C 62.292969 75.503906 62.6875 74.3125 62.6875 74.175781 C 62.6875 74.054688 62.566406 74.054688 62.546875 74.054688 C 62.429688 74.054688 62.410156 74.113281 62.371094 74.214844 C 62.175781 74.917969 61.804688 75.269531 61.453125 75.269531 C 61.277344 75.269531 61.238281 75.152344 61.238281 74.957031 C 61.238281 74.761719 61.296875 74.605469 61.375 74.410156 C 61.472656 74.175781 61.570312 73.9375 61.648438 73.703125 C 61.726562 73.488281 62.058594 72.707031 62.078125 72.589844 C 62.117188 72.511719 62.136719 72.414062 62.136719 72.316406 C 62.136719 71.902344 61.785156 71.570312 61.316406 71.570312 C 60.4375 71.570312 60.042969 72.765625 60.042969 72.921875 C 60.042969 73.019531 60.160156 73.019531 60.199219 73.019531 C 60.316406 73.019531 60.316406 72.980469 60.355469 72.882812 C 60.574219 72.140625 60.964844 71.824219 61.277344 71.824219 C 61.414062 71.824219 61.492188 71.882812 61.492188 72.121094 C 61.492188 72.335938 61.453125 72.453125 61.238281 73 Z M 60.691406 74.410156 "></path>
<path style=" stroke:none;fill-rule:nonzero;fill:rgb(40.392157%,12.941177%,47.058824%);fill-opacity:1;" d="M 69.65625 73.449219 C 69.792969 73.449219 70.011719 73.449219 70.011719 73.253906 C 70.011719 73.019531 69.792969 73.019531 69.65625 73.019531 L 64.453125 73.019531 C 64.316406 73.019531 64.101562 73.019531 64.101562 73.234375 C 64.101562 73.449219 64.296875 73.449219 64.453125 73.449219 Z M 69.65625 73.449219 "></path>
<path style=" stroke:none;fill-rule:nonzero;fill:rgb(40.392157%,12.941177%,47.058824%);fill-opacity:1;" d="M 73.875 69.871094 C 73.875 69.632812 73.875 69.632812 73.621094 69.632812 C 73.054688 70.183594 72.269531 70.183594 71.917969 70.183594 L 71.917969 70.496094 C 72.113281 70.496094 72.699219 70.496094 73.171875 70.261719 L 73.171875 74.703125 C 73.171875 74.996094 73.171875 75.113281 72.308594 75.113281 L 71.976562 75.113281 L 71.976562 75.425781 C 72.132812 75.425781 73.210938 75.386719 73.523438 75.386719 C 73.796875 75.386719 74.890625 75.425781 75.085938 75.425781 L 75.085938 75.113281 L 74.753906 75.113281 C 73.875 75.113281 73.875 74.996094 73.875 74.703125 Z M 73.875 69.871094 "></path>
<path style="fill:none;stroke-width:0.25;stroke-linecap:butt;stroke-linejoin:miter;stroke:rgb(0%,0%,0%);stroke-opacity:1;stroke-dasharray:0.5,0.5;stroke-miterlimit:4;" d="M 11.064039 65.866496 C 11.064039 67.180496 11.064039 68.495596 11.064039 69.809596 " transform="matrix(3.549516,0,0,3.549516,8.907708,-66.235566)"></path>
</g>
</svg>
