<?xml version="1.0"?>

<svg width="45.652233" height="45.105446" viewBox="0 0 45.652233 45.105445" version="1.1" id="svg8" inkscape:version="1.1 (c4e8f9ed74, 2021-05-24)" sodipodi:docname="pca_pc2.svg" xmlns:inkscape="http://www.inkscape.org/namespaces/inkscape" xmlns:sodipodi="http://sodipodi.sourceforge.net/DTD/sodipodi-0.dtd" xmlns="http://www.w3.org/2000/svg" xmlns:svg="http://www.w3.org/2000/svg" xmlns:rdf="http://www.w3.org/1999/02/22-rdf-syntax-ns#" xmlns:cc="http://creativecommons.org/ns#" xmlns:dc="http://purl.org/dc/elements/1.1/" xmlns:ns1="http://www.iki.fi/pav/software/textext/"> <defs id="defs2"></defs> <sodipodi:namedview id="base" pagecolor="#ffffff" bordercolor="#666666" borderopacity="1.0" inkscape:pageopacity="0.0" inkscape:pageshadow="2" inkscape:zoom="2.698737" inkscape:cx="84.483965" inkscape:cy="108.75458" inkscape:document-units="mm" inkscape:current-layer="layer1" inkscape:document-rotation="0" showgrid="false" fit-margin-left="2.5" fit-margin-top="2.5" fit-margin-bottom="2.5" fit-margin-right="2.5" inkscape:pagecheckerboard="0" inkscape:window-width="1920" inkscape:window-height="1052" inkscape:window-x="1920" inkscape:window-y="0" inkscape:window-maximized="1"></sodipodi:namedview> <metadata id="metadata5"> <rdf:rdf> <cc:work rdf:about=""> <dc:format>image/svg+xml</dc:format> <dc:type rdf:resource="http://purl.org/dc/dcmitype/StillImage"></dc:type> <dc:title></dc:title> </cc:work> </rdf:rdf> </metadata> <g inkscape:label="Layer 1" inkscape:groupmode="layer" id="layer1" transform="translate(-75.178152,-48.417022)"> <g id="g3393" transform="translate(-9.1494048,11.78069)"> <text xml:space="preserve" style="font-style:normal;font-variant:normal;font-weight:normal;font-stretch:normal;font-size:2.82222px;line-height:1.25;font-family:Arial;-inkscape-font-specification:'Arial, Normal';font-variant-ligatures:normal;font-variant-caps:normal;font-variant-numeric:normal;font-variant-east-asian:normal;letter-spacing:0px;word-spacing:0px;stroke-width:0.264583" x="-67.223412" y="88.88221" id="text102924" transform="rotate(-90)"><tspan sodipodi:role="line" id="tspan102922" x="-67.223412" y="88.88221" style="font-style:normal;font-variant:normal;font-weight:normal;font-stretch:normal;font-size:2.82222px;font-family:Arial;-inkscape-font-specification:'Arial, Normal';font-variant-ligatures:normal;font-variant-caps:normal;font-variant-numeric:normal;font-variant-east-asian:normal;stroke-width:0.264583">PC2 coefficient</tspan></text> <text xml:space="preserve" style="font-style:normal;font-variant:normal;font-weight:normal;font-stretch:normal;font-size:2.82222px;line-height:1.25;font-family:Arial;-inkscape-font-specification:'Arial, Normal';font-variant-ligatures:normal;font-variant-caps:normal;font-variant-numeric:normal;font-variant-east-asian:normal;letter-spacing:0px;word-spacing:0px;stroke-width:0.265;stroke-miterlimit:10;stroke-dasharray:none" x="89.981888" y="42.725796" id="text102928"><tspan sodipodi:role="line" id="tspan102926" x="89.981888" y="42.725796" style="font-style:normal;font-variant:normal;font-weight:normal;font-stretch:normal;font-size:2.82222px;font-family:Arial;-inkscape-font-specification:'Arial, Normal';font-variant-ligatures:normal;font-variant-caps:normal;font-variant-numeric:normal;font-variant-east-asian:normal;stroke-width:0.265;stroke-miterlimit:10;stroke-dasharray:none">1</tspan></text> <text xml:space="preserve" style="font-style:normal;font-variant:normal;font-weight:normal;font-stretch:normal;font-size:2.82222px;line-height:1.25;font-family:Arial;-inkscape-font-specification:'Arial, Normal';font-variant-ligatures:normal;font-variant-caps:normal;font-variant-numeric:normal;font-variant-east-asian:normal;letter-spacing:0px;word-spacing:0px;stroke-width:0.264583" x="89.598793" y="59.682755" id="text102932"><tspan sodipodi:role="line" id="tspan102930" x="89.598793" y="59.682755" style="font-style:normal;font-variant:normal;font-weight:normal;font-stretch:normal;font-size:2.82222px;font-family:Arial;-inkscape-font-specification:'Arial, Normal';font-variant-ligatures:normal;font-variant-caps:normal;font-variant-numeric:normal;font-variant-east-asian:normal;stroke-width:0.264583">0</tspan></text> <text xml:space="preserve" style="font-style:normal;font-variant:normal;font-weight:normal;font-stretch:normal;font-size:2.82222px;line-height:1.25;font-family:Arial;-inkscape-font-specification:'Arial, Normal';font-variant-ligatures:normal;font-variant-caps:normal;font-variant-numeric:normal;font-variant-east-asian:normal;letter-spacing:0px;word-spacing:0px;stroke-width:0.264583" x="89.042068" y="76.674171" id="text102942"><tspan sodipodi:role="line" id="tspan102940" x="89.042068" y="76.674171" style="font-style:normal;font-variant:normal;font-weight:normal;font-stretch:normal;font-size:2.82222px;font-family:Arial;-inkscape-font-specification:'Arial, Normal';font-variant-ligatures:normal;font-variant-caps:normal;font-variant-numeric:normal;font-variant-east-asian:normal;stroke-width:0.264583">-1</tspan></text> <rect style="fill:#ececec;fill-opacity:1;stroke-width:0.264517;stroke-linecap:round;stroke-miterlimit:10" id="rect102910" width="5.9969888" height="33.999813" x="100.17733" y="41.717396"></rect> <rect style="fill:#ececec;fill-opacity:1;stroke-width:0.264517;stroke-linecap:round;stroke-miterlimit:10" id="rect102912" width="5.9969888" height="33.999813" x="106.96362" y="41.717396"></rect> <rect style="fill:#ececec;fill-opacity:1;stroke-width:0.264517;stroke-linecap:round;stroke-miterlimit:10" id="rect102914" width="5.9969888" height="33.999813" x="113.74989" y="41.717396"></rect> <rect style="fill:#ececec;fill-opacity:1;stroke-width:0.264517;stroke-linecap:round;stroke-miterlimit:10" id="rect102916" width="5.9969888" height="33.999813" x="120.53621" y="41.717396"></rect> <rect style="fill:#ececec;fill-opacity:1;stroke-width:0.264517;stroke-linecap:round;stroke-miterlimit:10" id="rect102918" width="5.9969888" height="33.999813" x="93.390991" y="41.717396"></rect> <path style="display:inline;fill:none;stroke:#0f0f0f;stroke-width:0.299924;stroke-linecap:square;stroke-linejoin:round;stroke-miterlimit:10;stroke-dasharray:none;stroke-opacity:1" d="M 92.470868,75.659733 V 39.659931" id="path102934" sodipodi:nodetypes="cc"></path> <path style="fill:none;stroke:#232323;stroke-width:0.299924;stroke-linecap:butt;stroke-linejoin:round;stroke-miterlimit:10;stroke-dasharray:none;stroke-opacity:1" d="M 92.444381,58.717306 H 127.47979" id="path177906"></path> <path d="m 92.470678,75.659933 h 0.33931" style="fill:none;stroke:#262626;stroke-width:0.299924;stroke-linecap:square;stroke-linejoin:round;stroke-miterlimit:10;stroke-dasharray:none;stroke-opacity:1" id="path35003"></path> <path d="m 92.996324,58.685746 h 0.33932" style="fill:none;stroke:#262626;stroke-width:0.299924;stroke-linecap:square;stroke-linejoin:round;stroke-miterlimit:10;stroke-dasharray:none;stroke-opacity:1" id="path35007"></path> <path d="m 92.470678,41.71156 h 0.33931" style="fill:none;stroke:#262626;stroke-width:0.299924;stroke-linecap:square;stroke-linejoin:round;stroke-miterlimit:10;stroke-dasharray:none;stroke-opacity:1" id="path35011"></path> <path d="m 94.718996,58.685746 v -7.26528 h -0.835228 v 7.26528 z m 5.951064,0 V 59.9243 h 0.83525 v -1.238554 z m 7.62155,0 V 47.980785 h -0.83524 v 10.704961 z m 6.7863,0 V 48.153054 h -0.83524 v 10.532692 z m 6.7863,0 v -2.875914 h -0.83523 v 2.875914 z" style="fill:#214478;fill-opacity:1;fill-rule:nonzero;stroke:none;stroke-width:0.0769805;stroke-miterlimit:10;stroke-dasharray:none" id="path35051"></path> <path d="M 95.763052,58.685746 V 48.205054 h -0.835241 v 10.480692 z m 6.786298,0 V 54.38029 h -0.83524 v 4.305456 z m 6.7863,0 v -4.888813 h -0.83524 v 4.888813 z m 6.78631,0 V 47.12979 h -0.83524 v 11.555956 z m 6.7863,0 v -1.516771 h -0.83523 v 1.516771 z" style="fill:#3d944c;fill-opacity:1;fill-rule:nonzero;stroke:none;stroke-width:0.0771362" id="path35055"></path> <path d="M 96.807098,58.685746 V 45.742608 h -0.835241 v 12.943138 z m 6.786302,0 v -4.853733 h -0.83524 v 4.853733 z m 5.95107,0 v 0.186969 h 0.83523 v -0.186969 z m 7.62154,0 v -9.492507 h -0.83524 v 9.492507 z m 5.95106,0 v 2.626176 h 0.83524 v -2.626176 z" style="fill:#d9b424;fill-opacity:1;fill-rule:nonzero;stroke:none;stroke-width:0.0771362" id="path35059"></path> <path d="m 97.851143,58.685746 v -7.414929 h -0.83524 v 7.414929 z m 6.786297,0 v -2.961063 h -0.83524 v 2.961063 z m 6.78631,0 v -3.817389 h -0.83524 v 3.817389 z m 6.7863,0 V 44.415815 h -0.83523 v 14.269931 z m 6.78631,0 V 56.20169 h -0.83524 v 2.484056 z" style="fill:#ff7f2a;fill-opacity:1;fill-rule:nonzero;stroke:none;stroke-width:0.0771362" id="path35063"></path> <path d="M 98.895189,58.685746 V 45.800787 h -0.835241 v 12.884959 z m 6.786301,0 v -4.880983 h -0.83524 v 4.880983 z m 6.7863,0 v -3.63797 h -0.83523 v 3.63797 z m 6.78631,0 v -8.97762 h -0.83524 v 8.97762 z m 5.95107,0 v 2.108229 h 0.83524 v -2.108229 z" style="fill:#ff2800;fill-opacity:1;fill-rule:nonzero;stroke:none;stroke-width:0.0771362" id="path35067"></path> <path d="m 96.389477,47.735887 6.786303,6.677943 6.7863,1.134404 6.7863,-8.697452 6.78631,12.088033" style="fill:none;stroke:#646464;stroke-width:0.499873;stroke-linecap:butt;stroke-linejoin:round;stroke-miterlimit:4;stroke-dasharray:none;stroke-opacity:1" id="path35071"></path> <path d="M 92.996324,58.685746 H 126.92784" style="fill:none;stroke:#262626;stroke-width:0.299924;stroke-linecap:butt;stroke-linejoin:round;stroke-miterlimit:10;stroke-dasharray:none;stroke-opacity:1" id="path35047"></path> <path d="m 95.847249,55.425814 v 1.084994 h 1.084456 v -1.084994 z" style="fill:#000000;fill-opacity:1;fill-rule:nonzero;stroke:none;stroke-width:0.180788" id="path35075"></path> <path d="m 102.63355,42.850454 v 1.084994 h 1.08445 v -1.084994 z" style="fill:#000000;fill-opacity:1;fill-rule:nonzero;stroke:none;stroke-width:0.180788" id="path35079"></path> <path d="m 109.41985,53.458665 v 1.085004 h 1.08446 v -1.085004 z" style="fill:#000000;fill-opacity:1;fill-rule:nonzero;stroke:none;stroke-width:0.180788" id="path35083"></path> <path d="m 116.20616,53.444295 v 1.085004 h 1.08446 v -1.085004 z" style="fill:#000000;fill-opacity:1;fill-rule:nonzero;stroke:none;stroke-width:0.180788" id="path35087"></path> <path d="m 122.99247,57.190855 v 1.085004 h 1.08445 v -1.085004 z" style="fill:#000000;fill-opacity:1;fill-rule:nonzero;stroke:none;stroke-width:0.180788" id="path35091"></path> <g id="g2424" transform="translate(54.119559)"> <g transform="matrix(0.282222,0,0,0.282222,66.573332,76.465312)" ns1:version="1.5.0" ns1:texconverter="pdflatex" ns1:pdfconverter="inkscape" ns1:text="$k_{flip}$" ns1:preamble="/home/guillaume/.config/inkscape/extensions/textext/default_packages.tex" ns1:scale="0.8" ns1:alignment="middle center" ns1:stroke-to-path="0" ns1:inkscapeversion="1.1" ns1:jacobian_sqrt="0.282222" style="stroke-width:0" id="g2305"> <defs id="defs2273" style="stroke-width:0"></defs> <g id="g2303" transform="translate(-149.259,-127.843)" style="stroke-width:0"> <g style="fill:#000000;fill-opacity:1;stroke-width:0" id="g2279"> <g transform="translate(148.712,134.765)" style="stroke-width:0" id="g2277"> <path style="stroke:none;stroke-width:0" d="m 2.859375,-6.8125 c 0,0 0,-0.109375 -0.125,-0.109375 -0.234375,0 -0.953125,0.078125 -1.21875,0.109375 -0.078125,0 -0.1875,0.015625 -0.1875,0.1875 0,0.125 0.09375,0.125 0.234375,0.125 0.484375,0 0.5,0.0625 0.5,0.171875 L 2.03125,-6.125 0.59375,-0.390625 c -0.046875,0.140625 -0.046875,0.15625 -0.046875,0.21875 0,0.234375 0.203125,0.28125 0.296875,0.28125 0.125,0 0.265625,-0.09375 0.328125,-0.203125 0.046875,-0.09375 0.5,-1.9375 0.5625,-2.1875 0.34375,0.03125 1.15625,0.1875 1.15625,0.84375 0,0.078125 0,0.109375 -0.03125,0.21875 -0.015625,0.109375 -0.03125,0.234375 -0.03125,0.34375 0,0.578125 0.390625,0.984375 0.90625,0.984375 0.296875,0 0.578125,-0.15625 0.796875,-0.53125 0.25,-0.4375 0.359375,-0.984375 0.359375,-1 0,-0.109375 -0.09375,-0.109375 -0.125,-0.109375 -0.09375,0 -0.109375,0.046875 -0.140625,0.1875 -0.203125,0.71875 -0.421875,1.234375 -0.859375,1.234375 -0.203125,0 -0.328125,-0.109375 -0.328125,-0.46875 0,-0.171875 0.046875,-0.40625 0.078125,-0.5625 C 3.5625,-1.3125 3.5625,-1.34375 3.5625,-1.453125 3.5625,-2.09375 2.9375,-2.375 2.078125,-2.5 2.390625,-2.671875 2.71875,-2.984375 2.9375,-3.234375 3.421875,-3.765625 3.875,-4.1875 4.359375,-4.1875 c 0.0625,0 0.078125,0 0.09375,0.015625 0.125,0.015625 0.125,0.015625 0.21875,0.078125 0.015625,0 0.015625,0.015625 0.03125,0.03125 -0.46875,0.03125 -0.5625,0.421875 -0.5625,0.546875 0,0.15625 0.109375,0.34375 0.375,0.34375 0.265625,0 0.546875,-0.21875 0.546875,-0.609375 0,-0.296875 -0.234375,-0.625 -0.671875,-0.625 -0.28125,0 -0.734375,0.078125 -1.453125,0.875 -0.34375,0.375 -0.734375,0.78125 -1.109375,0.921875 z m 0,0" id="path2275"></path> </g> </g> <g style="fill:#000000;fill-opacity:1;stroke-width:0" id="g2285"> <g transform="translate(153.899,136.259)" style="stroke-width:0" id="g2283"> <path style="stroke:none;stroke-width:0" d="M 2.84375,-2.75 H 3.515625 C 3.65625,-2.75 3.75,-2.75 3.75,-2.90625 3.75,-3 3.65625,-3 3.53125,-3 H 2.890625 c 0.15625,-0.890625 0.203125,-1.203125 0.265625,-1.40625 0.03125,-0.15625 0.1875,-0.296875 0.359375,-0.296875 0,0 0.1875,0 0.328125,0.078125 -0.296875,0.09375 -0.3125,0.34375 -0.3125,0.375 0,0.15625 0.125,0.265625 0.28125,0.265625 0.1875,0 0.390625,-0.15625 0.390625,-0.421875 0,-0.328125 -0.328125,-0.5 -0.6875,-0.5 -0.3125,0 -0.65625,0.171875 -0.84375,0.515625 C 2.53125,-4.125 2.484375,-3.8125 2.328125,-3 H 1.78125 c -0.140625,0 -0.234375,0 -0.234375,0.15625 0,0.09375 0.09375,0.09375 0.21875,0.09375 H 2.28125 c 0,0.046875 -0.4375,2.546875 -0.609375,3.296875 -0.03125,0.15625 -0.15625,0.671875 -0.484375,0.671875 -0.015625,0 -0.171875,0 -0.3125,-0.078125 0.28125,-0.09375 0.3125,-0.34375 0.3125,-0.375 C 1.1875,0.609375 1.0625,0.5 0.90625,0.5 c -0.1875,0 -0.390625,0.15625 -0.390625,0.421875 0,0.3125 0.328125,0.5 0.671875,0.5 0.4375,0 0.75,-0.453125 0.828125,-0.609375 0.25,-0.46875 0.421875,-1.328125 0.4375,-1.40625 z m 0,0" id="path2281"></path> </g> </g> <g style="fill:#000000;fill-opacity:1;stroke-width:0" id="g2291"> <g transform="translate(158.565,136.259)" style="stroke-width:0" id="g2289"> <path style="stroke:none;stroke-width:0" d="M 1.96875,-4.625 C 1.96875,-4.640625 2,-4.734375 2,-4.734375 2,-4.78125 1.96875,-4.84375 1.875,-4.84375 c -0.140625,0 -0.71875,0.0625 -0.890625,0.078125 -0.046875,0 -0.140625,0.015625 -0.140625,0.15625 0,0.09375 0.09375,0.09375 0.171875,0.09375 0.34375,0 0.34375,0.0625 0.34375,0.109375 0,0.046875 -0.015625,0.09375 -0.03125,0.15625 l -0.875,3.4375 C 0.4375,-0.734375 0.4375,-0.65625 0.4375,-0.59375 c 0,0.453125 0.390625,0.65625 0.71875,0.65625 0.171875,0 0.390625,-0.046875 0.5625,-0.359375 C 1.875,-0.5625 1.96875,-0.96875 1.96875,-1 c 0,-0.09375 -0.09375,-0.09375 -0.109375,-0.09375 -0.109375,0 -0.125,0.046875 -0.140625,0.171875 C 1.625,-0.578125 1.484375,-0.125 1.1875,-0.125 1,-0.125 0.953125,-0.296875 0.953125,-0.46875 0.953125,-0.546875 0.96875,-0.671875 1,-0.75 Z m 0,0" id="path2287"></path> </g> </g> <g style="fill:#000000;fill-opacity:1;stroke-width:0" id="g2301"> <g transform="translate(161.127,136.259)" style="stroke-width:0" id="g2295"> <path style="stroke:none;stroke-width:0" d="m 2.265625,-4.359375 c 0,-0.109375 -0.09375,-0.265625 -0.28125,-0.265625 -0.1875,0 -0.390625,0.1875 -0.390625,0.390625 0,0.109375 0.078125,0.265625 0.28125,0.265625 0.1875,0 0.390625,-0.203125 0.390625,-0.390625 z M 0.84375,-0.8125 c -0.03125,0.09375 -0.0625,0.171875 -0.0625,0.296875 0,0.328125 0.265625,0.578125 0.65625,0.578125 0.6875,0 1,-0.953125 1,-1.0625 0,-0.09375 -0.09375,-0.09375 -0.109375,-0.09375 -0.09375,0 -0.109375,0.046875 -0.140625,0.125 -0.15625,0.5625 -0.453125,0.84375 -0.734375,0.84375 -0.140625,0 -0.171875,-0.09375 -0.171875,-0.25 0,-0.15625 0.046875,-0.28125 0.109375,-0.4375 C 1.46875,-1 1.546875,-1.1875 1.609375,-1.375 1.671875,-1.546875 1.9375,-2.171875 1.953125,-2.265625 1.984375,-2.328125 2,-2.40625 2,-2.484375 2,-2.8125 1.71875,-3.078125 1.34375,-3.078125 0.640625,-3.078125 0.328125,-2.125 0.328125,-2 c 0,0.078125 0.09375,0.078125 0.125,0.078125 0.09375,0 0.09375,-0.03125 0.125,-0.109375 C 0.75,-2.625 1.0625,-2.875 1.3125,-2.875 c 0.109375,0 0.171875,0.046875 0.171875,0.234375 0,0.171875 -0.03125,0.265625 -0.203125,0.703125 z m 0,0" id="path2293"></path> </g> <g transform="translate(163.945,136.259)" style="stroke-width:0" id="g2299"> <path style="stroke:none;stroke-width:0" d="m 0.515625,0.84375 c -0.046875,0.203125 -0.0625,0.25 -0.328125,0.25 -0.09375,0 -0.1875,0 -0.1875,0.15625 0,0.078125 0.0625,0.109375 0.09375,0.109375 0.171875,0 0.40625,-0.03125 0.59375,-0.03125 0.234375,0 0.5,0.03125 0.734375,0.03125 0.0625,0 0.140625,-0.03125 0.140625,-0.15625 0,-0.109375 -0.09375,-0.109375 -0.1875,-0.109375 -0.15625,0 -0.34375,0 -0.34375,-0.078125 0,-0.03125 0.0625,-0.21875 0.078125,-0.3125 0.09375,-0.375 0.1875,-0.75 0.265625,-1.046875 0.078125,0.140625 0.296875,0.40625 0.71875,0.40625 0.84375,0 1.78125,-0.9375 1.78125,-1.96875 0,-0.8125 -0.5625,-1.171875 -1.03125,-1.171875 -0.4375,0 -0.8125,0.296875 -1,0.5 -0.109375,-0.40625 -0.5,-0.5 -0.71875,-0.5 -0.265625,0 -0.4375,0.1875 -0.546875,0.375 -0.140625,0.234375 -0.25,0.65625 -0.25,0.703125 0,0.078125 0.09375,0.078125 0.125,0.078125 0.09375,0 0.09375,-0.015625 0.140625,-0.203125 0.109375,-0.40625 0.25,-0.75 0.515625,-0.75 0.1875,0 0.234375,0.15625 0.234375,0.34375 0,0.078125 -0.015625,0.15625 -0.03125,0.203125 z M 1.84375,-2.234375 C 2.25,-2.78125 2.59375,-2.875 2.8125,-2.875 c 0.28125,0 0.515625,0.203125 0.515625,0.671875 0,0.28125 -0.15625,1 -0.359375,1.40625 -0.1875,0.34375 -0.515625,0.671875 -0.875,0.671875 -0.5,0 -0.625,-0.53125 -0.625,-0.609375 0,-0.03125 0.015625,-0.078125 0.015625,-0.109375 z m 0,0" id="path2297"></path> </g> </g> </g> </g> <g transform="matrix(0.282222,0,0,0.282222,59.363332,76.784312)" ns1:version="1.5.0" ns1:texconverter="pdflatex" ns1:pdfconverter="inkscape" ns1:text="$p_{turn}$" ns1:preamble="/home/guillaume/.config/inkscape/extensions/textext/default_packages.tex" ns1:scale="0.8" ns1:alignment="middle center" ns1:stroke-to-path="0" ns1:inkscapeversion="1.1" ns1:jacobian_sqrt="0.282222" style="stroke-width:0" id="g2338"> <defs id="defs2307" style="stroke-width:0"></defs> <g id="g2336" transform="translate(-148.4,-130.359)" style="stroke-width:0"> <g style="fill:#000000;fill-opacity:1;stroke-width:0" id="g2313"> <g transform="translate(148.712,134.765)" style="stroke-width:0" id="g2311"> <path style="stroke:none;stroke-width:0" d="M 0.453125,1.21875 C 0.375,1.5625 0.34375,1.625 -0.09375,1.625 c -0.109375,0 -0.21875,0 -0.21875,0.1875 0,0.078125 0.046875,0.125 0.125,0.125 0.265625,0 0.5625,-0.03125 0.828125,-0.03125 0.34375,0 0.671875,0.03125 1,0.03125 0.046875,0 0.171875,0 0.171875,-0.203125 C 1.8125,1.625 1.71875,1.625 1.578125,1.625 c -0.5,0 -0.5,-0.0625 -0.5,-0.15625 0,-0.125 0.421875,-1.75 0.484375,-2 0.125,0.296875 0.40625,0.640625 0.921875,0.640625 1.15625,0 2.40625,-1.453125 2.40625,-2.921875 0,-0.9375 -0.578125,-1.59375 -1.328125,-1.59375 -0.5,0 -0.984375,0.359375 -1.3125,0.75 -0.09375,-0.546875 -0.53125,-0.75 -0.890625,-0.75 -0.46875,0 -0.65625,0.390625 -0.734375,0.5625 C 0.4375,-3.5 0.3125,-2.90625 0.3125,-2.875 c 0,0.109375 0.09375,0.109375 0.109375,0.109375 0.109375,0 0.109375,-0.015625 0.171875,-0.234375 0.171875,-0.703125 0.375,-1.1875 0.734375,-1.1875 0.171875,0 0.3125,0.078125 0.3125,0.453125 0,0.234375 -0.03125,0.34375 -0.078125,0.515625 z m 1.75,-4.328125 C 2.265625,-3.375 2.546875,-3.65625 2.71875,-3.8125 c 0.359375,-0.296875 0.640625,-0.375 0.8125,-0.375 0.390625,0 0.640625,0.34375 0.640625,0.9375 0,0.59375 -0.328125,1.734375 -0.515625,2.109375 -0.34375,0.703125 -0.8125,1.03125 -1.1875,1.03125 C 1.8125,-0.109375 1.6875,-0.9375 1.6875,-1 c 0,-0.015625 0,-0.03125 0.03125,-0.15625 z m 0,0" id="path2309"></path> </g> </g> <g style="fill:#000000;fill-opacity:1;stroke-width:0" id="g2328"> <g transform="translate(153.725,136.259)" style="stroke-width:0" id="g2317"> <path style="stroke:none;stroke-width:0" d="m 1.71875,-2.75 h 0.703125 c 0.140625,0 0.21875,0 0.21875,-0.15625 C 2.640625,-3 2.5625,-3 2.4375,-3 H 1.78125 l 0.25,-1.03125 C 2.046875,-4.0625 2.0625,-4.109375 2.0625,-4.125 c 0,-0.140625 -0.109375,-0.234375 -0.25,-0.234375 -0.171875,0 -0.265625,0.125 -0.328125,0.296875 C 1.4375,-3.875 1.53125,-4.21875 1.21875,-3 H 0.515625 c -0.125,0 -0.21875,0 -0.21875,0.15625 C 0.296875,-2.75 0.375,-2.75 0.5,-2.75 H 1.15625 L 0.75,-1.109375 C 0.703125,-0.9375 0.640625,-0.6875 0.640625,-0.59375 c 0,0.40625 0.359375,0.65625 0.75,0.65625 0.78125,0 1.21875,-0.96875 1.21875,-1.0625 0,-0.09375 -0.09375,-0.09375 -0.109375,-0.09375 -0.09375,0 -0.09375,0.015625 -0.15625,0.140625 -0.1875,0.4375 -0.546875,0.828125 -0.921875,0.828125 -0.15625,0 -0.25,-0.09375 -0.25,-0.34375 0,-0.0625 0.03125,-0.21875 0.046875,-0.28125 z m 0,0" id="path2315"></path> </g> <g transform="translate(156.735,136.259)" style="stroke-width:0" id="g2322"> <path style="stroke:none;stroke-width:0" d="M 2.953125,-1.125 C 2.90625,-0.984375 2.84375,-0.71875 2.84375,-0.71875 2.703125,-0.5 2.421875,-0.125 2,-0.125 c -0.484375,0 -0.484375,-0.453125 -0.484375,-0.578125 0,-0.40625 0.1875,-0.90625 0.390625,-1.421875 C 1.953125,-2.265625 2,-2.359375 2,-2.46875 2,-2.84375 1.6875,-3.078125 1.34375,-3.078125 0.640625,-3.078125 0.328125,-2.125 0.328125,-2 c 0,0.078125 0.09375,0.078125 0.125,0.078125 0.09375,0 0.09375,-0.03125 0.125,-0.109375 0.15625,-0.5625 0.46875,-0.84375 0.734375,-0.84375 0.125,0 0.171875,0.078125 0.171875,0.234375 0,0.171875 -0.046875,0.3125 -0.125,0.46875 -0.375,0.96875 -0.375,1.171875 -0.375,1.359375 0,0.109375 0,0.4375 0.265625,0.65625 0.203125,0.171875 0.46875,0.21875 0.71875,0.21875 0.4375,0 0.671875,-0.234375 0.90625,-0.453125 C 3.03125,0.0625 3.484375,0.0625 3.578125,0.0625 3.8125,0.0625 4,-0.0625 4.125,-0.296875 4.28125,-0.578125 4.375,-0.96875 4.375,-1 c 0,-0.09375 -0.09375,-0.09375 -0.109375,-0.09375 -0.109375,0 -0.109375,0.03125 -0.15625,0.21875 -0.09375,0.328125 -0.21875,0.75 -0.515625,0.75 -0.171875,0 -0.234375,-0.15625 -0.234375,-0.34375 0,-0.109375 0.0625,-0.375 0.109375,-0.546875 0.046875,-0.1875 0.125,-0.46875 0.15625,-0.625 l 0.15625,-0.625 C 3.828125,-2.4375 3.90625,-2.75 3.90625,-2.78125 3.90625,-2.921875 3.796875,-3 3.671875,-3 c -0.25,0 -0.3125,0.203125 -0.359375,0.421875 z m 0,0" id="path2319"></path> </g> <g transform="translate(161.445,136.259)" style="stroke-width:0" id="g2326"> <path style="stroke:none;stroke-width:0" d="m 1.640625,-1.40625 c 0,-0.046875 0.171875,-0.671875 0.171875,-0.703125 0.015625,-0.0625 0.21875,-0.40625 0.453125,-0.578125 0.0625,-0.046875 0.25,-0.1875 0.5625,-0.1875 0.0625,0 0.234375,0 0.375,0.09375 -0.21875,0.0625 -0.296875,0.265625 -0.296875,0.390625 0,0.140625 0.109375,0.25 0.265625,0.25 0.171875,0 0.390625,-0.125 0.390625,-0.421875 0,-0.359375 -0.375,-0.515625 -0.734375,-0.515625 -0.359375,0 -0.671875,0.15625 -0.984375,0.5 -0.125,-0.421875 -0.546875,-0.5 -0.71875,-0.5 -0.25,0 -0.421875,0.171875 -0.546875,0.359375 -0.15625,0.265625 -0.25,0.671875 -0.25,0.71875 0,0.078125 0.09375,0.078125 0.125,0.078125 0.09375,0 0.09375,-0.015625 0.140625,-0.203125 0.109375,-0.421875 0.25,-0.75 0.515625,-0.75 0.1875,0 0.234375,0.15625 0.234375,0.34375 0,0.125 -0.0625,0.390625 -0.125,0.578125 -0.046875,0.1875 -0.109375,0.46875 -0.140625,0.625 L 0.84375,-0.4375 C 0.828125,-0.34375 0.78125,-0.171875 0.78125,-0.15625 0.78125,0 0.90625,0.0625 1.015625,0.0625 1.125,0.0625 1.265625,0 1.3125,-0.125 1.328125,-0.171875 1.40625,-0.484375 1.453125,-0.65625 Z m 0,0" id="path2324"></path> </g> </g> <g style="fill:#000000;fill-opacity:1;stroke-width:0" id="g2334"> <g transform="translate(165.36,136.259)" style="stroke-width:0" id="g2332"> <path style="stroke:none;stroke-width:0" d="m 0.84375,-0.4375 c -0.015625,0.09375 -0.0625,0.265625 -0.0625,0.28125 0,0.15625 0.125,0.21875 0.234375,0.21875 0.125,0 0.234375,-0.078125 0.28125,-0.140625 0.03125,-0.0625 0.078125,-0.296875 0.125,-0.4375 0.03125,-0.125 0.109375,-0.453125 0.140625,-0.625 0.046875,-0.15625 0.09375,-0.3125 0.125,-0.46875 0.078125,-0.28125 0.09375,-0.34375 0.296875,-0.625 C 2.171875,-2.515625 2.5,-2.875 3.03125,-2.875 c 0.390625,0 0.40625,0.359375 0.40625,0.484375 0,0.421875 -0.296875,1.1875 -0.40625,1.484375 -0.078125,0.203125 -0.109375,0.265625 -0.109375,0.375 0,0.375 0.296875,0.59375 0.65625,0.59375 0.703125,0 1,-0.953125 1,-1.0625 0,-0.09375 -0.078125,-0.09375 -0.109375,-0.09375 -0.09375,0 -0.09375,0.046875 -0.125,0.125 C 4.1875,-0.40625 3.875,-0.125 3.609375,-0.125 c -0.15625,0 -0.1875,-0.09375 -0.1875,-0.25 0,-0.15625 0.046875,-0.25 0.171875,-0.5625 0.078125,-0.21875 0.359375,-0.953125 0.359375,-1.34375 0,-0.671875 -0.53125,-0.796875 -0.90625,-0.796875 -0.578125,0 -0.96875,0.359375 -1.171875,0.640625 -0.046875,-0.484375 -0.453125,-0.640625 -0.75,-0.640625 -0.296875,0 -0.453125,0.21875 -0.546875,0.375 -0.15625,0.265625 -0.25,0.65625 -0.25,0.703125 0,0.078125 0.09375,0.078125 0.125,0.078125 0.09375,0 0.09375,-0.015625 0.140625,-0.203125 0.109375,-0.40625 0.25,-0.75 0.515625,-0.75 0.1875,0 0.234375,0.15625 0.234375,0.34375 0,0.125 -0.0625,0.390625 -0.125,0.578125 -0.046875,0.1875 -0.109375,0.46875 -0.140625,0.625 z m 0,0" id="path2330"></path> </g> </g> </g> </g> <g transform="matrix(0.282222,0,0,0.282222,54.098332,76.300312)" ns1:version="1.5.0" ns1:texconverter="pdflatex" ns1:pdfconverter="inkscape" ns1:text="$\\left&amp;lt; d \\right&amp;gt;$" ns1:preamble="/home/guillaume/.config/inkscape/extensions/textext/default_packages.tex" ns1:scale="0.8" ns1:alignment="middle center" ns1:stroke-to-path="0" ns1:inkscapeversion="1.1" ns1:jacobian_sqrt="0.282222" style="stroke-width:0" id="g2362"> <defs id="defs2340" style="stroke-width:0"></defs> <g id="g2360" transform="translate(-149.806,-127.281)" style="stroke-width:0"> <g style="fill:#000000;fill-opacity:1;stroke-width:0" id="g2346"> <g transform="translate(148.712,134.765)" style="stroke-width:0" id="g2344"> <path style="stroke:none;stroke-width:0" d="M 3.265625,-7.09375 C 3.3125,-7.203125 3.3125,-7.234375 3.3125,-7.28125 c 0,-0.109375 -0.078125,-0.203125 -0.1875,-0.203125 -0.09375,0 -0.171875,0.0625 -0.234375,0.234375 l -1.75,4.578125 C 1.125,-2.609375 1.09375,-2.546875 1.09375,-2.5 c 0,0.03125 0,0.0625 0.046875,0.171875 L 2.890625,2.25 C 2.9375,2.359375 2.984375,2.5 3.125,2.5 c 0.109375,0 0.1875,-0.09375 0.1875,-0.203125 0,-0.03125 0,-0.046875 -0.046875,-0.15625 L 1.5,-2.5 Z m 0,0" id="path2342"></path> </g> </g> <g style="fill:#000000;fill-opacity:1;stroke-width:0" id="g2352"> <g transform="translate(152.587,134.765)" style="stroke-width:0" id="g2350"> <path style="stroke:none;stroke-width:0" d="m 5.140625,-6.8125 c 0,0 0,-0.109375 -0.125,-0.109375 -0.15625,0 -1.09375,0.09375 -1.265625,0.109375 -0.078125,0.015625 -0.140625,0.0625 -0.140625,0.1875 0,0.125 0.09375,0.125 0.234375,0.125 0.484375,0 0.5,0.0625 0.5,0.171875 L 4.3125,-6.125 3.71875,-3.765625 C 3.53125,-4.140625 3.25,-4.40625 2.796875,-4.40625 c -1.15625,0 -2.390625,1.46875 -2.390625,2.921875 0,0.9375 0.546875,1.59375 1.3125,1.59375 0.203125,0 0.703125,-0.046875 1.296875,-0.75 0.078125,0.421875 0.4375,0.75 0.90625,0.75 0.359375,0 0.578125,-0.234375 0.75,-0.546875 0.15625,-0.359375 0.296875,-0.96875 0.296875,-0.984375 0,-0.109375 -0.09375,-0.109375 -0.125,-0.109375 -0.09375,0 -0.109375,0.046875 -0.140625,0.1875 -0.171875,0.640625 -0.34375,1.234375 -0.75,1.234375 -0.28125,0 -0.296875,-0.265625 -0.296875,-0.453125 0,-0.25 0.015625,-0.3125 0.046875,-0.484375 z m -2.0625,5.625 C 3.015625,-1 3.015625,-0.984375 2.875,-0.8125 2.4375,-0.265625 2.03125,-0.109375 1.75,-0.109375 c -0.5,0 -0.640625,-0.546875 -0.640625,-0.9375 0,-0.5 0.3125,-1.71875 0.546875,-2.1875 0.3125,-0.578125 0.75,-0.953125 1.15625,-0.953125 0.640625,0 0.78125,0.8125 0.78125,0.875 0,0.0625 -0.015625,0.125 -0.03125,0.171875 z m 0,0" id="path2348"></path> </g> </g> <g style="fill:#000000;fill-opacity:1;stroke-width:0" id="g2358"> <g transform="translate(157.772,134.765)" style="stroke-width:0" id="g2356"> <path style="stroke:none;stroke-width:0" d="M 2.71875,-2.328125 C 2.765625,-2.4375 2.765625,-2.46875 2.765625,-2.5 c 0,-0.015625 0,-0.046875 -0.046875,-0.15625 L 0.984375,-7.25 c -0.0625,-0.171875 -0.125,-0.234375 -0.234375,-0.234375 -0.109375,0 -0.203125,0.09375 -0.203125,0.203125 0,0.03125 0,0.046875 0.046875,0.15625 L 2.359375,-2.5 0.59375,2.109375 C 0.546875,2.21875 0.546875,2.25 0.546875,2.296875 0.546875,2.40625 0.640625,2.5 0.75,2.5 0.875,2.5 0.921875,2.390625 0.953125,2.296875 Z m 0,0" id="path2354"></path> </g> </g> </g> </g> <g transform="matrix(0.282222,0,0,0.282222,46.854532,76.300312)" ns1:version="1.5.0" ns1:texconverter="pdflatex" ns1:pdfconverter="inkscape" ns1:text="$\\left&amp;lt; \\delta t \\right&amp;gt;$" ns1:preamble="/home/guillaume/.config/inkscape/extensions/textext/default_packages.tex" ns1:scale="0.8" ns1:alignment="middle center" ns1:stroke-to-path="0" ns1:inkscapeversion="1.1" ns1:jacobian_sqrt="0.282222" style="stroke-width:0" id="g2392"> <defs id="defs2364" style="stroke-width:0"></defs> <g id="g2390" transform="translate(-149.806,-127.281)" style="stroke-width:0"> <g style="fill:#000000;fill-opacity:1;stroke-width:0" id="g2370"> <g transform="translate(148.712,134.765)" style="stroke-width:0" id="g2368"> <path style="stroke:none;stroke-width:0" d="M 3.265625,-7.09375 C 3.3125,-7.203125 3.3125,-7.234375 3.3125,-7.28125 c 0,-0.109375 -0.078125,-0.203125 -0.1875,-0.203125 -0.09375,0 -0.171875,0.0625 -0.234375,0.234375 l -1.75,4.578125 C 1.125,-2.609375 1.09375,-2.546875 1.09375,-2.5 c 0,0.03125 0,0.0625 0.046875,0.171875 L 2.890625,2.25 C 2.9375,2.359375 2.984375,2.5 3.125,2.5 c 0.109375,0 0.1875,-0.09375 0.1875,-0.203125 0,-0.03125 0,-0.046875 -0.046875,-0.15625 L 1.5,-2.5 Z m 0,0" id="path2366"></path> </g> </g> <g style="fill:#000000;fill-opacity:1;stroke-width:0" id="g2376"> <g transform="translate(152.587,134.765)" style="stroke-width:0" id="g2374"> <path style="stroke:none;stroke-width:0" d="M 2.625,-4.359375 C 1.390625,-4.0625 0.421875,-2.765625 0.421875,-1.5625 0.421875,-0.59375 1.0625,0.125 2,0.125 c 1.15625,0 1.984375,-1.578125 1.984375,-2.953125 0,-0.90625 -0.390625,-1.40625 -0.734375,-1.84375 C 2.890625,-5.125 2.296875,-5.875 2.296875,-6.3125 c 0,-0.21875 0.203125,-0.453125 0.546875,-0.453125 0.3125,0 0.5,0.125 0.71875,0.265625 0.203125,0.125 0.390625,0.25 0.546875,0.25 C 4.359375,-6.25 4.5,-6.484375 4.5,-6.65625 4.5,-6.875 4.34375,-6.890625 3.984375,-6.984375 3.46875,-7.09375 3.328125,-7.09375 3.171875,-7.09375 c -0.78125,0 -1.140625,0.4375 -1.140625,1.03125 0,0.546875 0.296875,1.09375 0.59375,1.703125 z m 0.125,0.21875 c 0.25,0.46875 0.546875,1 0.546875,1.71875 0,0.65625 -0.375,2.328125 -1.296875,2.328125 -0.546875,0 -0.96875,-0.421875 -0.96875,-1.1875 0,-0.625 0.375,-2.5 1.71875,-2.859375 z m 0,0" id="path2372"></path> </g> </g> <g style="fill:#000000;fill-opacity:1;stroke-width:0" id="g2382"> <g transform="translate(157.393,134.765)" style="stroke-width:0" id="g2380"> <path style="stroke:none;stroke-width:0" d="m 2.046875,-3.984375 h 0.9375 c 0.203125,0 0.3125,0 0.3125,-0.203125 0,-0.109375 -0.109375,-0.109375 -0.28125,-0.109375 h -0.875 C 2.5,-5.71875 2.546875,-5.90625 2.546875,-5.96875 c 0,-0.171875 -0.125,-0.265625 -0.296875,-0.265625 -0.03125,0 -0.3125,0 -0.390625,0.359375 L 1.46875,-4.296875 h -0.9375 c -0.203125,0 -0.296875,0 -0.296875,0.1875 0,0.125 0.078125,0.125 0.28125,0.125 h 0.875 C 0.671875,-1.15625 0.625,-0.984375 0.625,-0.8125 0.625,-0.265625 1,0.109375 1.546875,0.109375 2.5625,0.109375 3.125,-1.34375 3.125,-1.421875 3.125,-1.53125 3.046875,-1.53125 3.015625,-1.53125 2.921875,-1.53125 2.90625,-1.5 2.859375,-1.390625 2.4375,-0.34375 1.90625,-0.109375 1.5625,-0.109375 c -0.203125,0 -0.3125,-0.125 -0.3125,-0.453125 0,-0.25 0.03125,-0.3125 0.0625,-0.484375 z m 0,0" id="path2378"></path> </g> </g> <g style="fill:#000000;fill-opacity:1;stroke-width:0" id="g2388"> <g transform="translate(160.989,134.765)" style="stroke-width:0" id="g2386"> <path style="stroke:none;stroke-width:0" d="M 2.71875,-2.328125 C 2.765625,-2.4375 2.765625,-2.46875 2.765625,-2.5 c 0,-0.015625 0,-0.046875 -0.046875,-0.15625 L 0.984375,-7.25 c -0.0625,-0.171875 -0.125,-0.234375 -0.234375,-0.234375 -0.109375,0 -0.203125,0.09375 -0.203125,0.203125 0,0.03125 0,0.046875 0.046875,0.15625 L 2.359375,-2.5 0.59375,2.109375 C 0.546875,2.21875 0.546875,2.25 0.546875,2.296875 0.546875,2.40625 0.640625,2.5 0.75,2.5 0.875,2.5 0.921875,2.390625 0.953125,2.296875 Z m 0,0" id="path2384"></path> </g> </g> </g> </g> <g transform="matrix(0.282222,0,0,0.282222,39.873532,76.300312)" ns1:version="1.5.0" ns1:texconverter="pdflatex" ns1:pdfconverter="inkscape" ns1:text="$\\left&amp;lt; \\delta \\theta \\right&amp;gt;$" ns1:preamble="/home/guillaume/.config/inkscape/extensions/textext/default_packages.tex" ns1:scale="0.8" ns1:alignment="middle center" ns1:stroke-to-path="0" ns1:inkscapeversion="1.1" ns1:jacobian_sqrt="0.282222" style="stroke-width:0" id="g2422"> <defs id="defs2394" style="stroke-width:0"></defs> <g id="g2420" transform="translate(-149.806,-127.281)" style="stroke-width:0"> <g style="fill:#000000;fill-opacity:1;stroke-width:0" id="g2400"> <g transform="translate(148.712,134.765)" style="stroke-width:0" id="g2398"> <path style="stroke:none;stroke-width:0" d="M 3.265625,-7.09375 C 3.3125,-7.203125 3.3125,-7.234375 3.3125,-7.28125 c 0,-0.109375 -0.078125,-0.203125 -0.1875,-0.203125 -0.09375,0 -0.171875,0.0625 -0.234375,0.234375 l -1.75,4.578125 C 1.125,-2.609375 1.09375,-2.546875 1.09375,-2.5 c 0,0.03125 0,0.0625 0.046875,0.171875 L 2.890625,2.25 C 2.9375,2.359375 2.984375,2.5 3.125,2.5 c 0.109375,0 0.1875,-0.09375 0.1875,-0.203125 0,-0.03125 0,-0.046875 -0.046875,-0.15625 L 1.5,-2.5 Z m 0,0" id="path2396"></path> </g> </g> <g style="fill:#000000;fill-opacity:1;stroke-width:0" id="g2406"> <g transform="translate(152.587,134.765)" style="stroke-width:0" id="g2404"> <path style="stroke:none;stroke-width:0" d="M 2.625,-4.359375 C 1.390625,-4.0625 0.421875,-2.765625 0.421875,-1.5625 0.421875,-0.59375 1.0625,0.125 2,0.125 c 1.15625,0 1.984375,-1.578125 1.984375,-2.953125 0,-0.90625 -0.390625,-1.40625 -0.734375,-1.84375 C 2.890625,-5.125 2.296875,-5.875 2.296875,-6.3125 c 0,-0.21875 0.203125,-0.453125 0.546875,-0.453125 0.3125,0 0.5,0.125 0.71875,0.265625 0.203125,0.125 0.390625,0.25 0.546875,0.25 C 4.359375,-6.25 4.5,-6.484375 4.5,-6.65625 4.5,-6.875 4.34375,-6.890625 3.984375,-6.984375 3.46875,-7.09375 3.328125,-7.09375 3.171875,-7.09375 c -0.78125,0 -1.140625,0.4375 -1.140625,1.03125 0,0.546875 0.296875,1.09375 0.59375,1.703125 z m 0.125,0.21875 c 0.25,0.46875 0.546875,1 0.546875,1.71875 0,0.65625 -0.375,2.328125 -1.296875,2.328125 -0.546875,0 -0.96875,-0.421875 -0.96875,-1.1875 0,-0.625 0.375,-2.5 1.71875,-2.859375 z m 0,0" id="path2402"></path> </g> </g> <g style="fill:#000000;fill-opacity:1;stroke-width:0" id="g2412"> <g transform="translate(157.393,134.765)" style="stroke-width:0" id="g2410"> <path style="stroke:none;stroke-width:0" d="m 4.53125,-4.984375 c 0,-0.65625 -0.171875,-2.046875 -1.1875,-2.046875 -1.390625,0 -2.921875,2.8125 -2.921875,5.09375 0,0.9375 0.28125,2.046875 1.1875,2.046875 1.40625,0 2.921875,-2.859375 2.921875,-5.09375 z M 1.46875,-3.625 C 1.640625,-4.25 1.84375,-5.046875 2.25,-5.765625 2.515625,-6.25 2.875,-6.8125 3.328125,-6.8125 c 0.484375,0 0.546875,0.640625 0.546875,1.203125 0,0.5 -0.078125,1 -0.3125,1.984375 z m 2,0.328125 C 3.359375,-2.84375 3.15625,-2 2.765625,-1.28125 c -0.34375,0.6875 -0.71875,1.171875 -1.15625,1.171875 -0.328125,0 -0.53125,-0.296875 -0.53125,-1.21875 0,-0.421875 0.0625,-1 0.3125,-1.96875 z m 0,0" id="path2408"></path> </g> </g> <g style="fill:#000000;fill-opacity:1;stroke-width:0" id="g2418"> <g transform="translate(162.345,134.765)" style="stroke-width:0" id="g2416"> <path style="stroke:none;stroke-width:0" d="M 2.71875,-2.328125 C 2.765625,-2.4375 2.765625,-2.46875 2.765625,-2.5 c 0,-0.015625 0,-0.046875 -0.046875,-0.15625 L 0.984375,-7.25 c -0.0625,-0.171875 -0.125,-0.234375 -0.234375,-0.234375 -0.109375,0 -0.203125,0.09375 -0.203125,0.203125 0,0.03125 0,0.046875 0.046875,0.15625 L 2.359375,-2.5 0.59375,2.109375 C 0.546875,2.21875 0.546875,2.25 0.546875,2.296875 0.546875,2.40625 0.640625,2.5 0.75,2.5 0.875,2.5 0.921875,2.390625 0.953125,2.296875 Z m 0,0" id="path2414"></path> </g> </g> </g> </g> </g> <g id="g2540" transform="translate(56.170779,12.708486)"> <g id="g2536" transform="translate(-20.008247,1.1271678)"> <text xml:space="preserve" style="font-size:2.82222px;line-height:1.25;font-family:Arial;-inkscape-font-specification:'Arial, Normal';letter-spacing:0px;word-spacing:0px;stroke-width:0.264583" x="68.841591" y="27.320881" id="text2534"><tspan sodipodi:role="line" id="tspan2532" x="68.841591" y="27.320881" style="font-size:2.82222px;stroke-width:0.264583">inter-temperature</tspan></text> </g> <path d="m 46.77791,27.175877 v 1.085002 h 1.085 v -1.085002 z" style="fill:#000000;fill-opacity:1;fill-rule:nonzero;stroke:none;stroke-width:0.180834" id="path2538"></path> </g> </g> </g>
</svg>
