<?xml version="1.0"?>

<svg width="35.099087" height="59.431488" viewBox="0 0 35.099087 59.431488" version="1.1" id="svg8" inkscape:version="1.1 (c4e8f9ed74, 2021-05-24)" sodipodi:docname="dotlegendT.svg" xmlns:inkscape="http://www.inkscape.org/namespaces/inkscape" xmlns:sodipodi="http://sodipodi.sourceforge.net/DTD/sodipodi-0.dtd" xmlns="http://www.w3.org/2000/svg" xmlns:svg="http://www.w3.org/2000/svg" xmlns:rdf="http://www.w3.org/1999/02/22-rdf-syntax-ns#" xmlns:cc="http://creativecommons.org/ns#" xmlns:dc="http://purl.org/dc/elements/1.1/"> <defs id="defs2"></defs> <sodipodi:namedview id="base" pagecolor="#ffffff" bordercolor="#666666" borderopacity="1.0" inkscape:pageopacity="0.0" inkscape:pageshadow="2" inkscape:zoom="1.0689535" inkscape:cx="96.355919" inkscape:cy="167.45349" inkscape:document-units="mm" inkscape:current-layer="layer1" inkscape:document-rotation="0" showgrid="false" fit-margin-left="2.5" fit-margin-top="2.5" fit-margin-bottom="2.5" fit-margin-right="2.5" inkscape:pagecheckerboard="0" inkscape:window-width="1920" inkscape:window-height="1015" inkscape:window-x="0" inkscape:window-y="0" inkscape:window-maximized="1"></sodipodi:namedview> <metadata id="metadata5"> <rdf:rdf> <cc:work rdf:about=""> <dc:format>image/svg+xml</dc:format> <dc:type rdf:resource="http://purl.org/dc/dcmitype/StillImage"></dc:type> </cc:work> </rdf:rdf> </metadata> <g inkscape:label="Layer 1" inkscape:groupmode="layer" id="layer1" transform="translate(-81.690016,-63.702302)"> <text xml:space="preserve" style="font-size:5.64444px;line-height:1.25;font-family:Arial;-inkscape-font-specification:Arial;letter-spacing:0px;word-spacing:0px;stroke-width:0.264583" x="84.090797" y="70.151756" id="text191009"><tspan sodipodi:role="line" id="tspan191007" style="font-size:5.64444px;stroke-width:0.264583" x="84.090797" y="70.151756">temperature</tspan></text> <g id="g881"> <path style="fill:#214478;fill-opacity:1;fill-rule:nonzero;stroke:none;stroke-width:32.2375;stroke-miterlimit:4;stroke-dasharray:none" d="m 92.38582,81.018871 c 0,0.929445 -0.754755,1.6875 -1.680225,1.6875 -0.925477,0 -1.680277,-0.758055 -1.680277,-1.6875 0,-0.929438 0.7548,-1.6875 1.680277,-1.6875 0.92547,0 1.680225,0.758062 1.680225,1.6875 z m 0,0" id="path96390-0"></path> <text xml:space="preserve" style="font-size:5.64444px;line-height:1.25;font-family:Arial;-inkscape-font-specification:Arial;letter-spacing:0px;word-spacing:0px;stroke-width:0.264583" x="97.065254" y="83.039085" id="text193741"><tspan sodipodi:role="line" id="tspan193739" style="font-size:5.64444px;stroke-width:0.264583" x="97.065254" y="83.039085">18°C</tspan></text> </g> <g id="g886" transform="translate(0,-1.3229005)"> <path style="fill:#3d944c;fill-opacity:1;fill-rule:nonzero;stroke:none;stroke-width:1.68388" d="m 92.385823,91.722901 c 0,0.93603 -0.754733,1.6875 -1.68021,1.6875 -0.92547,0 -1.680278,-0.75147 -1.680278,-1.6875 0,-0.929438 0.754808,-1.6875 1.680278,-1.6875 0.925477,0 1.68021,0.758062 1.68021,1.6875 z m 0,0" id="path96410-2"></path> <text xml:space="preserve" style="font-size:5.64444px;line-height:1.25;font-family:Arial;-inkscape-font-specification:Arial;letter-spacing:0px;word-spacing:0px;stroke-width:0.264583" x="97.509438" y="93.743095" id="text194265"><tspan sodipodi:role="line" id="tspan194263" style="font-size:5.64444px;stroke-width:0.264583" x="97.509438" y="93.743095">22°C</tspan></text> </g> <g id="g891" transform="translate(0,-2.6458253)"> <path style="fill:#d9b424;fill-opacity:1;fill-rule:nonzero;stroke:none;stroke-width:1.68388" d="m 92.38582,102.42692 c 0,0.92944 -0.754755,1.6875 -1.680225,1.6875 -0.925477,0 -1.680277,-0.75806 -1.680277,-1.6875 0,-0.93604 0.7548,-1.6875 1.680277,-1.6875 0.92547,0 1.680225,0.75146 1.680225,1.6875 z m 0,0" id="path96430-3"></path> <text xml:space="preserve" style="font-size:5.64444px;line-height:1.25;font-family:Arial;-inkscape-font-specification:Arial;letter-spacing:0px;word-spacing:0px;stroke-width:0.264583" x="97.509438" y="104.44712" id="text195089"><tspan sodipodi:role="line" id="tspan195087" style="font-size:5.64444px;stroke-width:0.264583" x="97.509438" y="104.44712">26°C</tspan></text> </g> <g id="g896" transform="translate(0,-3.9687338)"> <path style="fill:#ff7f2a;fill-opacity:1;fill-rule:nonzero;stroke:none;stroke-width:1.68388" d="m 92.38582,113.13094 c 0,0.93604 -0.754755,1.6875 -1.680225,1.6875 -0.925477,0 -1.680277,-0.75146 -1.680277,-1.6875 0,-0.92945 0.7548,-1.6875 1.680277,-1.6875 0.92547,0 1.680225,0.75805 1.680225,1.6875 z m 0,0" id="path96450-9"></path> <text xml:space="preserve" style="font-size:5.64444px;line-height:1.25;font-family:Arial;-inkscape-font-specification:Arial;letter-spacing:0px;word-spacing:0px;stroke-width:0.264583" x="97.442848" y="115.14976" id="text195249"><tspan sodipodi:role="line" id="tspan195247" style="font-size:5.64444px;stroke-width:0.264583" x="97.442848" y="115.14976">30°C</tspan></text> </g> <g id="g901" transform="translate(0,-4.2333333)"> <path style="fill:#ff2800;fill-opacity:1;fill-rule:nonzero;stroke:none;stroke-width:1.68388" d="m 92.38582,122.77664 c 0,0.92944 -0.754732,1.6875 -1.680225,1.6875 -0.925477,0 -1.680277,-0.75806 -1.680277,-1.6875 0,-0.93604 0.7548,-1.6875 1.680277,-1.6875 0.925493,0 1.680225,0.75146 1.680225,1.6875 z m 0,0" id="path96470-8"></path> <text xml:space="preserve" style="font-size:5.64444px;line-height:1.25;font-family:Arial;-inkscape-font-specification:Arial;letter-spacing:0px;word-spacing:0px;stroke-width:0.264583" x="97.442848" y="124.79546" id="text195355"><tspan sodipodi:role="line" id="tspan195353" style="font-size:5.64444px;stroke-width:0.264583" x="97.442848" y="124.79546">33°C</tspan></text> </g> </g>
</svg>
