<?xml version="1.0"?>

<svg xmlns="http://www.w3.org/2000/svg" xmlns:xlink="http://www.w3.org/1999/xlink" width="254.602993" height="225.806803" viewBox="0 0 254.602993 225.806803" version="1.1">
<defs>
<g>
<symbol overflow="visible" id="glyph0-0">
<path style="stroke:none;" d="M 2 0 L 2 -10 L 10 -10 L 10 0 Z M 2.25 -0.25 L 9.75 -0.25 L 9.75 -9.75 L 2.25 -9.75 Z M 2.25 -0.25 "></path>
</symbol>
<symbol overflow="visible" id="glyph0-1">
<path style="stroke:none;" d="M 5.96875 0 L 4.5625 0 L 4.5625 -8.96875 C 4.21875 -8.644531 3.769531 -8.320312 3.21875 -8 C 2.675781 -7.675781 2.1875 -7.429688 1.75 -7.265625 L 1.75 -8.625 C 2.53125 -9 3.210938 -9.445312 3.796875 -9.96875 C 4.390625 -10.5 4.8125 -11.007812 5.0625 -11.5 L 5.96875 -11.5 Z M 5.96875 0 "></path>
</symbol>
<symbol overflow="visible" id="glyph0-2">
<path style="stroke:none;" d="M 2.828125 -6.21875 C 2.242188 -6.425781 1.8125 -6.726562 1.53125 -7.125 C 1.25 -7.519531 1.109375 -7.992188 1.109375 -8.546875 C 1.109375 -9.378906 1.40625 -10.078125 2 -10.640625 C 2.601562 -11.210938 3.40625 -11.5 4.40625 -11.5 C 5.40625 -11.5 6.207031 -11.207031 6.8125 -10.625 C 7.425781 -10.050781 7.734375 -9.347656 7.734375 -8.515625 C 7.734375 -7.984375 7.59375 -7.519531 7.3125 -7.125 C 7.03125 -6.726562 6.609375 -6.425781 6.046875 -6.21875 C 6.742188 -5.988281 7.273438 -5.617188 7.640625 -5.109375 C 8.015625 -4.597656 8.203125 -3.988281 8.203125 -3.28125 C 8.203125 -2.300781 7.851562 -1.472656 7.15625 -0.796875 C 6.46875 -0.128906 5.554688 0.203125 4.421875 0.203125 C 3.296875 0.203125 2.382812 -0.128906 1.6875 -0.796875 C 1 -1.472656 0.65625 -2.3125 0.65625 -3.3125 C 0.65625 -4.0625 0.84375 -4.6875 1.21875 -5.1875 C 1.59375 -5.6875 2.128906 -6.03125 2.828125 -6.21875 Z M 2.546875 -8.59375 C 2.546875 -8.050781 2.71875 -7.609375 3.0625 -7.265625 C 3.414062 -6.921875 3.875 -6.75 4.4375 -6.75 C 4.976562 -6.75 5.421875 -6.921875 5.765625 -7.265625 C 6.109375 -7.609375 6.28125 -8.023438 6.28125 -8.515625 C 6.28125 -9.035156 6.101562 -9.46875 5.75 -9.8125 C 5.394531 -10.164062 4.953125 -10.34375 4.421875 -10.34375 C 3.878906 -10.34375 3.429688 -10.171875 3.078125 -9.828125 C 2.722656 -9.484375 2.546875 -9.070312 2.546875 -8.59375 Z M 2.09375 -3.3125 C 2.09375 -2.90625 2.1875 -2.515625 2.375 -2.140625 C 2.570312 -1.765625 2.859375 -1.472656 3.234375 -1.265625 C 3.609375 -1.066406 4.007812 -0.96875 4.4375 -0.96875 C 5.113281 -0.96875 5.671875 -1.179688 6.109375 -1.609375 C 6.546875 -2.046875 6.765625 -2.597656 6.765625 -3.265625 C 6.765625 -3.941406 6.535156 -4.5 6.078125 -4.9375 C 5.628906 -5.382812 5.066406 -5.609375 4.390625 -5.609375 C 3.734375 -5.609375 3.1875 -5.390625 2.75 -4.953125 C 2.3125 -4.515625 2.09375 -3.96875 2.09375 -3.3125 Z M 2.09375 -3.3125 "></path>
</symbol>
<symbol overflow="visible" id="glyph0-3">
<path style="stroke:none;" d="M 5.171875 0 L 5.171875 -2.75 L 0.203125 -2.75 L 0.203125 -4.03125 L 5.4375 -11.453125 L 6.578125 -11.453125 L 6.578125 -4.03125 L 8.125 -4.03125 L 8.125 -2.75 L 6.578125 -2.75 L 6.578125 0 Z M 5.171875 -4.03125 L 5.171875 -9.203125 L 1.59375 -4.03125 Z M 5.171875 -4.03125 "></path>
</symbol>
<symbol overflow="visible" id="glyph0-4">
<path style="stroke:none;" d="M 0.671875 -5.65625 C 0.671875 -7.007812 0.804688 -8.097656 1.078125 -8.921875 C 1.359375 -9.742188 1.773438 -10.378906 2.328125 -10.828125 C 2.878906 -11.273438 3.570312 -11.5 4.40625 -11.5 C 5.019531 -11.5 5.554688 -11.375 6.015625 -11.125 C 6.484375 -10.882812 6.867188 -10.53125 7.171875 -10.0625 C 7.472656 -9.59375 7.707031 -9.023438 7.875 -8.359375 C 8.050781 -7.691406 8.140625 -6.789062 8.140625 -5.65625 C 8.140625 -4.3125 8 -3.222656 7.71875 -2.390625 C 7.445312 -1.566406 7.035156 -0.925781 6.484375 -0.46875 C 5.929688 -0.0195312 5.238281 0.203125 4.40625 0.203125 C 3.300781 0.203125 2.429688 -0.195312 1.796875 -1 C 1.046875 -1.945312 0.671875 -3.5 0.671875 -5.65625 Z M 2.109375 -5.65625 C 2.109375 -3.769531 2.328125 -2.515625 2.765625 -1.890625 C 3.210938 -1.273438 3.757812 -0.96875 4.40625 -0.96875 C 5.050781 -0.96875 5.59375 -1.28125 6.03125 -1.90625 C 6.46875 -2.53125 6.6875 -3.78125 6.6875 -5.65625 C 6.6875 -7.539062 6.46875 -8.789062 6.03125 -9.40625 C 5.59375 -10.03125 5.046875 -10.34375 4.390625 -10.34375 C 3.742188 -10.34375 3.226562 -10.066406 2.84375 -9.515625 C 2.351562 -8.816406 2.109375 -7.53125 2.109375 -5.65625 Z M 2.109375 -5.65625 "></path>
</symbol>
<symbol overflow="visible" id="glyph0-5">
<path style="stroke:none;" d="M 7.96875 -8.65625 L 6.5625 -8.546875 C 6.4375 -9.097656 6.257812 -9.5 6.03125 -9.75 C 5.65625 -10.144531 5.1875 -10.34375 4.625 -10.34375 C 4.175781 -10.34375 3.785156 -10.21875 3.453125 -9.96875 C 3.003906 -9.644531 2.648438 -9.171875 2.390625 -8.546875 C 2.140625 -7.929688 2.007812 -7.050781 2 -5.90625 C 2.34375 -6.425781 2.757812 -6.8125 3.25 -7.0625 C 3.738281 -7.3125 4.25 -7.4375 4.78125 -7.4375 C 5.71875 -7.4375 6.515625 -7.085938 7.171875 -6.390625 C 7.835938 -5.703125 8.171875 -4.8125 8.171875 -3.71875 C 8.171875 -3 8.015625 -2.332031 7.703125 -1.71875 C 7.390625 -1.101562 6.960938 -0.628906 6.421875 -0.296875 C 5.878906 0.0351562 5.265625 0.203125 4.578125 0.203125 C 3.410156 0.203125 2.457031 -0.226562 1.71875 -1.09375 C 0.976562 -1.957031 0.609375 -3.378906 0.609375 -5.359375 C 0.609375 -7.578125 1.015625 -9.1875 1.828125 -10.1875 C 2.546875 -11.0625 3.507812 -11.5 4.71875 -11.5 C 5.613281 -11.5 6.347656 -11.242188 6.921875 -10.734375 C 7.503906 -10.234375 7.851562 -9.539062 7.96875 -8.65625 Z M 2.21875 -3.71875 C 2.21875 -3.226562 2.320312 -2.757812 2.53125 -2.3125 C 2.738281 -1.875 3.023438 -1.539062 3.390625 -1.3125 C 3.765625 -1.082031 4.15625 -0.96875 4.5625 -0.96875 C 5.15625 -0.96875 5.664062 -1.207031 6.09375 -1.6875 C 6.519531 -2.164062 6.734375 -2.816406 6.734375 -3.640625 C 6.734375 -4.429688 6.519531 -5.050781 6.09375 -5.5 C 5.675781 -5.957031 5.144531 -6.1875 4.5 -6.1875 C 3.863281 -6.1875 3.320312 -5.957031 2.875 -5.5 C 2.4375 -5.050781 2.21875 -4.457031 2.21875 -3.71875 Z M 2.21875 -3.71875 "></path>
</symbol>
<symbol overflow="visible" id="glyph0-6">
<path style="stroke:none;" d="M 8.0625 -1.359375 L 8.0625 0 L 0.484375 0 C 0.472656 -0.34375 0.53125 -0.671875 0.65625 -0.984375 C 0.84375 -1.492188 1.148438 -2 1.578125 -2.5 C 2.003906 -3 2.617188 -3.578125 3.421875 -4.234375 C 4.660156 -5.253906 5.5 -6.0625 5.9375 -6.65625 C 6.375 -7.257812 6.59375 -7.828125 6.59375 -8.359375 C 6.59375 -8.910156 6.394531 -9.378906 6 -9.765625 C 5.601562 -10.148438 5.082031 -10.34375 4.4375 -10.34375 C 3.757812 -10.34375 3.21875 -10.140625 2.8125 -9.734375 C 2.40625 -9.328125 2.203125 -8.765625 2.203125 -8.046875 L 0.75 -8.1875 C 0.851562 -9.269531 1.226562 -10.09375 1.875 -10.65625 C 2.519531 -11.21875 3.382812 -11.5 4.46875 -11.5 C 5.570312 -11.5 6.441406 -11.191406 7.078125 -10.578125 C 7.722656 -9.972656 8.046875 -9.222656 8.046875 -8.328125 C 8.046875 -7.867188 7.953125 -7.414062 7.765625 -6.96875 C 7.578125 -6.53125 7.265625 -6.066406 6.828125 -5.578125 C 6.390625 -5.085938 5.664062 -4.414062 4.65625 -3.5625 C 3.8125 -2.851562 3.269531 -2.367188 3.03125 -2.109375 C 2.789062 -1.859375 2.59375 -1.609375 2.4375 -1.359375 Z M 8.0625 -1.359375 "></path>
</symbol>
<symbol overflow="visible" id="glyph0-7">
<path style="stroke:none;" d="M 4.125 -1.265625 L 4.328125 -0.015625 C 3.929688 0.0664062 3.578125 0.109375 3.265625 0.109375 C 2.753906 0.109375 2.359375 0.03125 2.078125 -0.125 C 1.796875 -0.289062 1.597656 -0.503906 1.484375 -0.765625 C 1.367188 -1.035156 1.3125 -1.59375 1.3125 -2.4375 L 1.3125 -7.203125 L 0.28125 -7.203125 L 0.28125 -8.296875 L 1.3125 -8.296875 L 1.3125 -10.359375 L 2.71875 -11.203125 L 2.71875 -8.296875 L 4.125 -8.296875 L 4.125 -7.203125 L 2.71875 -7.203125 L 2.71875 -2.359375 C 2.71875 -1.953125 2.738281 -1.691406 2.78125 -1.578125 C 2.832031 -1.460938 2.914062 -1.367188 3.03125 -1.296875 C 3.144531 -1.234375 3.304688 -1.203125 3.515625 -1.203125 C 3.671875 -1.203125 3.875 -1.222656 4.125 -1.265625 Z M 4.125 -1.265625 "></path>
</symbol>
<symbol overflow="visible" id="glyph0-8">
<path style="stroke:none;" d="M 6.734375 -2.671875 L 8.1875 -2.5 C 7.957031 -1.644531 7.53125 -0.984375 6.90625 -0.515625 C 6.289062 -0.046875 5.503906 0.1875 4.546875 0.1875 C 3.328125 0.1875 2.363281 -0.1875 1.65625 -0.9375 C 0.945312 -1.6875 0.59375 -2.734375 0.59375 -4.078125 C 0.59375 -5.472656 0.953125 -6.554688 1.671875 -7.328125 C 2.390625 -8.097656 3.320312 -8.484375 4.46875 -8.484375 C 5.570312 -8.484375 6.472656 -8.101562 7.171875 -7.34375 C 7.878906 -6.59375 8.234375 -5.535156 8.234375 -4.171875 C 8.234375 -4.085938 8.234375 -3.960938 8.234375 -3.796875 L 2.046875 -3.796875 C 2.097656 -2.878906 2.351562 -2.175781 2.8125 -1.6875 C 3.28125 -1.207031 3.859375 -0.96875 4.546875 -0.96875 C 5.066406 -0.96875 5.507812 -1.101562 5.875 -1.375 C 6.238281 -1.644531 6.523438 -2.078125 6.734375 -2.671875 Z M 2.125 -4.953125 L 6.75 -4.953125 C 6.6875 -5.648438 6.507812 -6.171875 6.21875 -6.515625 C 5.769531 -7.054688 5.191406 -7.328125 4.484375 -7.328125 C 3.835938 -7.328125 3.289062 -7.109375 2.84375 -6.671875 C 2.40625 -6.242188 2.164062 -5.671875 2.125 -4.953125 Z M 2.125 -4.953125 "></path>
</symbol>
<symbol overflow="visible" id="glyph0-9">
<path style="stroke:none;" d="M 1.0625 0 L 1.0625 -8.296875 L 2.3125 -8.296875 L 2.3125 -7.140625 C 2.570312 -7.546875 2.914062 -7.867188 3.34375 -8.109375 C 3.78125 -8.359375 4.273438 -8.484375 4.828125 -8.484375 C 5.441406 -8.484375 5.945312 -8.351562 6.34375 -8.09375 C 6.738281 -7.84375 7.015625 -7.488281 7.171875 -7.03125 C 7.828125 -8 8.679688 -8.484375 9.734375 -8.484375 C 10.554688 -8.484375 11.1875 -8.253906 11.625 -7.796875 C 12.070312 -7.347656 12.296875 -6.648438 12.296875 -5.703125 L 12.296875 0 L 10.90625 0 L 10.90625 -5.234375 C 10.90625 -5.796875 10.859375 -6.195312 10.765625 -6.4375 C 10.671875 -6.6875 10.503906 -6.882812 10.265625 -7.03125 C 10.023438 -7.1875 9.742188 -7.265625 9.421875 -7.265625 C 8.835938 -7.265625 8.351562 -7.070312 7.96875 -6.6875 C 7.582031 -6.300781 7.390625 -5.679688 7.390625 -4.828125 L 7.390625 0 L 5.984375 0 L 5.984375 -5.390625 C 5.984375 -6.015625 5.867188 -6.484375 5.640625 -6.796875 C 5.410156 -7.109375 5.035156 -7.265625 4.515625 -7.265625 C 4.117188 -7.265625 3.753906 -7.160156 3.421875 -6.953125 C 3.085938 -6.742188 2.84375 -6.4375 2.6875 -6.03125 C 2.539062 -5.632812 2.46875 -5.0625 2.46875 -4.3125 L 2.46875 0 Z M 1.0625 0 "></path>
</symbol>
<symbol overflow="visible" id="glyph0-10">
<path style="stroke:none;" d="M 1.0625 3.1875 L 1.0625 -8.296875 L 2.34375 -8.296875 L 2.34375 -7.21875 C 2.644531 -7.644531 2.984375 -7.960938 3.359375 -8.171875 C 3.742188 -8.378906 4.207031 -8.484375 4.75 -8.484375 C 5.457031 -8.484375 6.082031 -8.300781 6.625 -7.9375 C 7.164062 -7.570312 7.570312 -7.054688 7.84375 -6.390625 C 8.125 -5.734375 8.265625 -5.007812 8.265625 -4.21875 C 8.265625 -3.363281 8.109375 -2.597656 7.796875 -1.921875 C 7.492188 -1.242188 7.050781 -0.722656 6.46875 -0.359375 C 5.894531 0.00390625 5.285156 0.1875 4.640625 0.1875 C 4.171875 0.1875 3.75 0.0859375 3.375 -0.109375 C 3.007812 -0.304688 2.707031 -0.554688 2.46875 -0.859375 L 2.46875 3.1875 Z M 2.328125 -4.109375 C 2.328125 -3.035156 2.539062 -2.242188 2.96875 -1.734375 C 3.40625 -1.222656 3.929688 -0.96875 4.546875 -0.96875 C 5.171875 -0.96875 5.707031 -1.234375 6.15625 -1.765625 C 6.601562 -2.296875 6.828125 -3.113281 6.828125 -4.21875 C 6.828125 -5.28125 6.609375 -6.070312 6.171875 -6.59375 C 5.734375 -7.125 5.210938 -7.390625 4.609375 -7.390625 C 4.015625 -7.390625 3.484375 -7.109375 3.015625 -6.546875 C 2.554688 -5.984375 2.328125 -5.171875 2.328125 -4.109375 Z M 2.328125 -4.109375 "></path>
</symbol>
<symbol overflow="visible" id="glyph0-11">
<path style="stroke:none;" d="M 1.046875 0 L 1.046875 -8.296875 L 2.3125 -8.296875 L 2.3125 -7.046875 C 2.632812 -7.628906 2.929688 -8.015625 3.203125 -8.203125 C 3.472656 -8.390625 3.773438 -8.484375 4.109375 -8.484375 C 4.578125 -8.484375 5.054688 -8.332031 5.546875 -8.03125 L 5.0625 -6.734375 C 4.71875 -6.929688 4.375 -7.03125 4.03125 -7.03125 C 3.726562 -7.03125 3.453125 -6.9375 3.203125 -6.75 C 2.960938 -6.570312 2.789062 -6.316406 2.6875 -5.984375 C 2.53125 -5.484375 2.453125 -4.9375 2.453125 -4.34375 L 2.453125 0 Z M 1.046875 0 "></path>
</symbol>
<symbol overflow="visible" id="glyph0-12">
<path style="stroke:none;" d="M 6.46875 -1.03125 C 5.945312 -0.582031 5.445312 -0.265625 4.96875 -0.078125 C 4.488281 0.0976562 3.972656 0.1875 3.421875 0.1875 C 2.503906 0.1875 1.800781 -0.0351562 1.3125 -0.484375 C 0.820312 -0.929688 0.578125 -1.5 0.578125 -2.1875 C 0.578125 -2.59375 0.671875 -2.960938 0.859375 -3.296875 C 1.046875 -3.640625 1.285156 -3.910156 1.578125 -4.109375 C 1.878906 -4.316406 2.21875 -4.472656 2.59375 -4.578125 C 2.875 -4.648438 3.289062 -4.71875 3.84375 -4.78125 C 4.976562 -4.914062 5.816406 -5.078125 6.359375 -5.265625 C 6.359375 -5.460938 6.359375 -5.585938 6.359375 -5.640625 C 6.359375 -6.210938 6.226562 -6.613281 5.96875 -6.84375 C 5.601562 -7.164062 5.066406 -7.328125 4.359375 -7.328125 C 3.703125 -7.328125 3.210938 -7.207031 2.890625 -6.96875 C 2.578125 -6.738281 2.347656 -6.332031 2.203125 -5.75 L 0.828125 -5.9375 C 0.953125 -6.519531 1.15625 -6.992188 1.4375 -7.359375 C 1.726562 -7.722656 2.144531 -8 2.6875 -8.1875 C 3.226562 -8.382812 3.851562 -8.484375 4.5625 -8.484375 C 5.269531 -8.484375 5.84375 -8.398438 6.28125 -8.234375 C 6.726562 -8.066406 7.054688 -7.859375 7.265625 -7.609375 C 7.472656 -7.359375 7.617188 -7.039062 7.703125 -6.65625 C 7.753906 -6.414062 7.78125 -5.984375 7.78125 -5.359375 L 7.78125 -3.484375 C 7.78125 -2.171875 7.804688 -1.34375 7.859375 -1 C 7.921875 -0.65625 8.039062 -0.320312 8.21875 0 L 6.75 0 C 6.601562 -0.289062 6.507812 -0.632812 6.46875 -1.03125 Z M 6.359375 -4.171875 C 5.847656 -3.960938 5.082031 -3.785156 4.0625 -3.640625 C 3.476562 -3.554688 3.066406 -3.460938 2.828125 -3.359375 C 2.585938 -3.253906 2.398438 -3.097656 2.265625 -2.890625 C 2.140625 -2.691406 2.078125 -2.472656 2.078125 -2.234375 C 2.078125 -1.859375 2.21875 -1.546875 2.5 -1.296875 C 2.789062 -1.046875 3.207031 -0.921875 3.75 -0.921875 C 4.289062 -0.921875 4.769531 -1.035156 5.1875 -1.265625 C 5.613281 -1.503906 5.925781 -1.832031 6.125 -2.25 C 6.28125 -2.5625 6.359375 -3.03125 6.359375 -3.65625 Z M 6.359375 -4.171875 "></path>
</symbol>
<symbol overflow="visible" id="glyph0-13">
<path style="stroke:none;" d="M 6.5 0 L 6.5 -1.21875 C 5.851562 -0.28125 4.972656 0.1875 3.859375 0.1875 C 3.367188 0.1875 2.910156 0.09375 2.484375 -0.09375 C 2.066406 -0.28125 1.753906 -0.515625 1.546875 -0.796875 C 1.335938 -1.085938 1.191406 -1.4375 1.109375 -1.84375 C 1.054688 -2.125 1.03125 -2.5625 1.03125 -3.15625 L 1.03125 -8.296875 L 2.4375 -8.296875 L 2.4375 -3.703125 C 2.4375 -2.960938 2.460938 -2.46875 2.515625 -2.21875 C 2.609375 -1.84375 2.796875 -1.550781 3.078125 -1.34375 C 3.367188 -1.132812 3.722656 -1.03125 4.140625 -1.03125 C 4.566406 -1.03125 4.960938 -1.132812 5.328125 -1.34375 C 5.703125 -1.5625 5.960938 -1.859375 6.109375 -2.234375 C 6.265625 -2.609375 6.34375 -3.148438 6.34375 -3.859375 L 6.34375 -8.296875 L 7.75 -8.296875 L 7.75 0 Z M 6.5 0 "></path>
</symbol>
<symbol overflow="visible" id="glyph0-14">
<path style="stroke:none;" d=""></path>
</symbol>
<symbol overflow="visible" id="glyph0-15">
<path style="stroke:none;" d="M 3.75 3.375 C 2.96875 2.394531 2.304688 1.25 1.765625 -0.0625 C 1.234375 -1.382812 0.96875 -2.75 0.96875 -4.15625 C 0.96875 -5.394531 1.171875 -6.582031 1.578125 -7.71875 C 2.046875 -9.03125 2.769531 -10.34375 3.75 -11.65625 L 4.75 -11.65625 C 4.125 -10.570312 3.707031 -9.796875 3.5 -9.328125 C 3.1875 -8.609375 2.9375 -7.859375 2.75 -7.078125 C 2.53125 -6.109375 2.421875 -5.128906 2.421875 -4.140625 C 2.421875 -1.640625 3.195312 0.863281 4.75 3.375 Z M 3.75 3.375 "></path>
</symbol>
<symbol overflow="visible" id="glyph0-16">
<path style="stroke:none;" d="M 1 -9.484375 C 1 -10.085938 1.210938 -10.597656 1.640625 -11.015625 C 2.066406 -11.441406 2.578125 -11.65625 3.171875 -11.65625 C 3.773438 -11.65625 4.285156 -11.441406 4.703125 -11.015625 C 5.128906 -10.597656 5.34375 -10.085938 5.34375 -9.484375 C 5.34375 -8.890625 5.128906 -8.378906 4.703125 -7.953125 C 4.273438 -7.523438 3.765625 -7.3125 3.171875 -7.3125 C 2.578125 -7.3125 2.066406 -7.519531 1.640625 -7.9375 C 1.210938 -8.363281 1 -8.878906 1 -9.484375 Z M 1.859375 -9.484375 C 1.859375 -9.117188 1.984375 -8.804688 2.234375 -8.546875 C 2.492188 -8.296875 2.804688 -8.171875 3.171875 -8.171875 C 3.535156 -8.171875 3.84375 -8.296875 4.09375 -8.546875 C 4.351562 -8.804688 4.484375 -9.117188 4.484375 -9.484375 C 4.484375 -9.847656 4.351562 -10.160156 4.09375 -10.421875 C 3.84375 -10.679688 3.535156 -10.8125 3.171875 -10.8125 C 2.804688 -10.8125 2.492188 -10.679688 2.234375 -10.421875 C 1.984375 -10.160156 1.859375 -9.847656 1.859375 -9.484375 Z M 1.859375 -9.484375 "></path>
</symbol>
<symbol overflow="visible" id="glyph0-17">
<path style="stroke:none;" d="M 9.40625 -4.015625 L 10.921875 -3.640625 C 10.609375 -2.390625 10.035156 -1.4375 9.203125 -0.78125 C 8.378906 -0.125 7.375 0.203125 6.1875 0.203125 C 4.945312 0.203125 3.941406 -0.046875 3.171875 -0.546875 C 2.398438 -1.054688 1.8125 -1.785156 1.40625 -2.734375 C 1 -3.691406 0.796875 -4.71875 0.796875 -5.8125 C 0.796875 -7.007812 1.023438 -8.050781 1.484375 -8.9375 C 1.941406 -9.820312 2.585938 -10.492188 3.421875 -10.953125 C 4.265625 -11.421875 5.191406 -11.65625 6.203125 -11.65625 C 7.347656 -11.65625 8.3125 -11.363281 9.09375 -10.78125 C 9.875 -10.195312 10.421875 -9.375 10.734375 -8.3125 L 9.234375 -7.96875 C 8.972656 -8.800781 8.585938 -9.40625 8.078125 -9.78125 C 7.578125 -10.164062 6.941406 -10.359375 6.171875 -10.359375 C 5.296875 -10.359375 4.5625 -10.144531 3.96875 -9.71875 C 3.375 -9.300781 2.957031 -8.734375 2.71875 -8.015625 C 2.476562 -7.304688 2.359375 -6.578125 2.359375 -5.828125 C 2.359375 -4.847656 2.5 -3.992188 2.78125 -3.265625 C 3.070312 -2.546875 3.515625 -2.003906 4.109375 -1.640625 C 4.710938 -1.285156 5.363281 -1.109375 6.0625 -1.109375 C 6.90625 -1.109375 7.617188 -1.351562 8.203125 -1.84375 C 8.796875 -2.332031 9.195312 -3.054688 9.40625 -4.015625 Z M 9.40625 -4.015625 "></path>
</symbol>
<symbol overflow="visible" id="glyph0-18">
<path style="stroke:none;" d="M 1.984375 3.375 L 0.96875 3.375 C 2.53125 0.863281 3.3125 -1.640625 3.3125 -4.140625 C 3.3125 -5.117188 3.195312 -6.09375 2.96875 -7.0625 C 2.789062 -7.84375 2.546875 -8.59375 2.234375 -9.3125 C 2.023438 -9.78125 1.601562 -10.5625 0.96875 -11.65625 L 1.984375 -11.65625 C 2.960938 -10.34375 3.6875 -9.03125 4.15625 -7.71875 C 4.550781 -6.582031 4.75 -5.394531 4.75 -4.15625 C 4.75 -2.75 4.476562 -1.382812 3.9375 -0.0625 C 3.40625 1.25 2.753906 2.394531 1.984375 3.375 Z M 1.984375 3.375 "></path>
</symbol>
<symbol overflow="visible" id="glyph0-19">
<path style="stroke:none;" d="M 0.671875 -3.03125 L 2.078125 -3.21875 C 2.242188 -2.414062 2.519531 -1.835938 2.90625 -1.484375 C 3.289062 -1.140625 3.765625 -0.96875 4.328125 -0.96875 C 4.984375 -0.96875 5.539062 -1.195312 6 -1.65625 C 6.457031 -2.113281 6.6875 -2.679688 6.6875 -3.359375 C 6.6875 -4.003906 6.472656 -4.535156 6.046875 -4.953125 C 5.628906 -5.367188 5.09375 -5.578125 4.4375 -5.578125 C 4.175781 -5.578125 3.847656 -5.523438 3.453125 -5.421875 L 3.609375 -6.65625 C 3.703125 -6.644531 3.773438 -6.640625 3.828125 -6.640625 C 4.429688 -6.640625 4.972656 -6.796875 5.453125 -7.109375 C 5.929688 -7.421875 6.171875 -7.90625 6.171875 -8.5625 C 6.171875 -9.070312 5.992188 -9.492188 5.640625 -9.828125 C 5.296875 -10.171875 4.847656 -10.34375 4.296875 -10.34375 C 3.742188 -10.34375 3.285156 -10.171875 2.921875 -9.828125 C 2.554688 -9.484375 2.320312 -8.96875 2.21875 -8.28125 L 0.8125 -8.53125 C 0.988281 -9.476562 1.378906 -10.207031 1.984375 -10.71875 C 2.597656 -11.238281 3.359375 -11.5 4.265625 -11.5 C 4.890625 -11.5 5.460938 -11.363281 5.984375 -11.09375 C 6.515625 -10.832031 6.914062 -10.46875 7.1875 -10 C 7.46875 -9.539062 7.609375 -9.050781 7.609375 -8.53125 C 7.609375 -8.03125 7.472656 -7.578125 7.203125 -7.171875 C 6.941406 -6.765625 6.550781 -6.441406 6.03125 -6.203125 C 6.707031 -6.046875 7.234375 -5.722656 7.609375 -5.234375 C 7.984375 -4.742188 8.171875 -4.128906 8.171875 -3.390625 C 8.171875 -2.390625 7.804688 -1.539062 7.078125 -0.84375 C 6.347656 -0.144531 5.425781 0.203125 4.3125 0.203125 C 3.3125 0.203125 2.476562 -0.09375 1.8125 -0.6875 C 1.144531 -1.289062 0.765625 -2.070312 0.671875 -3.03125 Z M 0.671875 -3.03125 "></path>
</symbol>
<symbol overflow="visible" id="glyph1-0">
<path style="stroke:none;" d="M 0 -2 L -10 -2 L -10 -10 L 0 -10 Z M -0.25 -2.25 L -0.25 -9.75 L -9.75 -9.75 L -9.75 -2.25 Z M -0.25 -2.25 "></path>
</symbol>
<symbol overflow="visible" id="glyph1-1">
<path style="stroke:none;" d="M -5.015625 -0.875 L -6.328125 -0.875 L -9.53125 -8.46875 L -8.125 -8.46875 L -5.65625 -2.453125 L -3.171875 -8.46875 L -1.765625 -8.46875 Z M -5.015625 -0.875 "></path>
</symbol>
<symbol overflow="visible" id="glyph1-2">
<path style="stroke:none;" d="M 3.1875 -1.0625 L -8.296875 -1.0625 L -8.296875 -2.34375 L -7.21875 -2.34375 C -7.644531 -2.644531 -7.960938 -2.984375 -8.171875 -3.359375 C -8.378906 -3.742188 -8.484375 -4.207031 -8.484375 -4.75 C -8.484375 -5.457031 -8.300781 -6.082031 -7.9375 -6.625 C -7.570312 -7.164062 -7.054688 -7.570312 -6.390625 -7.84375 C -5.734375 -8.125 -5.007812 -8.265625 -4.21875 -8.265625 C -3.363281 -8.265625 -2.597656 -8.109375 -1.921875 -7.796875 C -1.242188 -7.492188 -0.722656 -7.050781 -0.359375 -6.46875 C 0.00390625 -5.894531 0.1875 -5.285156 0.1875 -4.640625 C 0.1875 -4.171875 0.0859375 -3.75 -0.109375 -3.375 C -0.304688 -3.007812 -0.554688 -2.707031 -0.859375 -2.46875 L 3.1875 -2.46875 Z M -4.109375 -2.328125 C -3.035156 -2.328125 -2.242188 -2.539062 -1.734375 -2.96875 C -1.222656 -3.40625 -0.96875 -3.929688 -0.96875 -4.546875 C -0.96875 -5.171875 -1.234375 -5.707031 -1.765625 -6.15625 C -2.296875 -6.601562 -3.113281 -6.828125 -4.21875 -6.828125 C -5.28125 -6.828125 -6.070312 -6.609375 -6.59375 -6.171875 C -7.125 -5.734375 -7.390625 -5.210938 -7.390625 -4.609375 C -7.390625 -4.015625 -7.109375 -3.484375 -6.546875 -3.015625 C -5.984375 -2.554688 -5.171875 -2.328125 -4.109375 -2.328125 Z M -4.109375 -2.328125 "></path>
</symbol>
<symbol overflow="visible" id="glyph1-3">
<path style="stroke:none;" d="M -2.671875 -6.734375 L -2.5 -8.1875 C -1.644531 -7.957031 -0.984375 -7.53125 -0.515625 -6.90625 C -0.046875 -6.289062 0.1875 -5.503906 0.1875 -4.546875 C 0.1875 -3.328125 -0.1875 -2.363281 -0.9375 -1.65625 C -1.6875 -0.945312 -2.734375 -0.59375 -4.078125 -0.59375 C -5.472656 -0.59375 -6.554688 -0.953125 -7.328125 -1.671875 C -8.097656 -2.390625 -8.484375 -3.320312 -8.484375 -4.46875 C -8.484375 -5.570312 -8.101562 -6.472656 -7.34375 -7.171875 C -6.59375 -7.878906 -5.535156 -8.234375 -4.171875 -8.234375 C -4.085938 -8.234375 -3.960938 -8.234375 -3.796875 -8.234375 L -3.796875 -2.046875 C -2.878906 -2.097656 -2.175781 -2.351562 -1.6875 -2.8125 C -1.207031 -3.28125 -0.96875 -3.859375 -0.96875 -4.546875 C -0.96875 -5.066406 -1.101562 -5.507812 -1.375 -5.875 C -1.644531 -6.238281 -2.078125 -6.523438 -2.671875 -6.734375 Z M -4.953125 -2.125 L -4.953125 -6.75 C -5.648438 -6.6875 -6.171875 -6.507812 -6.515625 -6.21875 C -7.054688 -5.769531 -7.328125 -5.191406 -7.328125 -4.484375 C -7.328125 -3.835938 -7.109375 -3.289062 -6.671875 -2.84375 C -6.242188 -2.40625 -5.671875 -2.164062 -4.953125 -2.125 Z M -4.953125 -2.125 "></path>
</symbol>
<symbol overflow="visible" id="glyph1-4">
<path style="stroke:none;" d="M 0 -1.046875 L -8.296875 -1.046875 L -8.296875 -2.3125 L -7.046875 -2.3125 C -7.628906 -2.632812 -8.015625 -2.929688 -8.203125 -3.203125 C -8.390625 -3.472656 -8.484375 -3.773438 -8.484375 -4.109375 C -8.484375 -4.578125 -8.332031 -5.054688 -8.03125 -5.546875 L -6.734375 -5.0625 C -6.929688 -4.71875 -7.03125 -4.375 -7.03125 -4.03125 C -7.03125 -3.726562 -6.9375 -3.453125 -6.75 -3.203125 C -6.570312 -2.960938 -6.316406 -2.789062 -5.984375 -2.6875 C -5.484375 -2.53125 -4.9375 -2.453125 -4.34375 -2.453125 L 0 -2.453125 Z M 0 -1.046875 "></path>
</symbol>
<symbol overflow="visible" id="glyph1-5">
<path style="stroke:none;" d="M -2.484375 -0.5 L -2.703125 -1.890625 C -2.140625 -1.960938 -1.707031 -2.175781 -1.40625 -2.53125 C -1.113281 -2.894531 -0.96875 -3.394531 -0.96875 -4.03125 C -0.96875 -4.675781 -1.097656 -5.15625 -1.359375 -5.46875 C -1.628906 -5.78125 -1.941406 -5.9375 -2.296875 -5.9375 C -2.609375 -5.9375 -2.859375 -5.800781 -3.046875 -5.53125 C -3.171875 -5.332031 -3.328125 -4.851562 -3.515625 -4.09375 C -3.773438 -3.0625 -4 -2.34375 -4.1875 -1.9375 C -4.382812 -1.539062 -4.648438 -1.238281 -4.984375 -1.03125 C -5.316406 -0.832031 -5.6875 -0.734375 -6.09375 -0.734375 C -6.46875 -0.734375 -6.8125 -0.816406 -7.125 -0.984375 C -7.4375 -1.148438 -7.695312 -1.378906 -7.90625 -1.671875 C -8.070312 -1.890625 -8.207031 -2.1875 -8.3125 -2.5625 C -8.425781 -2.945312 -8.484375 -3.351562 -8.484375 -3.78125 C -8.484375 -4.4375 -8.390625 -5.007812 -8.203125 -5.5 C -8.015625 -5.988281 -7.757812 -6.347656 -7.4375 -6.578125 C -7.125 -6.816406 -6.695312 -6.984375 -6.15625 -7.078125 L -5.96875 -5.703125 C -6.394531 -5.640625 -6.726562 -5.457031 -6.96875 -5.15625 C -7.207031 -4.851562 -7.328125 -4.429688 -7.328125 -3.890625 C -7.328125 -3.242188 -7.21875 -2.78125 -7 -2.5 C -6.789062 -2.226562 -6.546875 -2.09375 -6.265625 -2.09375 C -6.078125 -2.09375 -5.910156 -2.148438 -5.765625 -2.265625 C -5.617188 -2.378906 -5.492188 -2.554688 -5.390625 -2.796875 C -5.335938 -2.941406 -5.21875 -3.359375 -5.03125 -4.046875 C -4.769531 -5.035156 -4.550781 -5.726562 -4.375 -6.125 C -4.207031 -6.519531 -3.960938 -6.828125 -3.640625 -7.046875 C -3.316406 -7.273438 -2.914062 -7.390625 -2.4375 -7.390625 C -1.96875 -7.390625 -1.523438 -7.25 -1.109375 -6.96875 C -0.703125 -6.695312 -0.382812 -6.300781 -0.15625 -5.78125 C 0.0703125 -5.269531 0.1875 -4.691406 0.1875 -4.046875 C 0.1875 -2.960938 -0.0351562 -2.140625 -0.484375 -1.578125 C -0.929688 -1.015625 -1.597656 -0.65625 -2.484375 -0.5 Z M -2.484375 -0.5 "></path>
</symbol>
<symbol overflow="visible" id="glyph1-6">
<path style="stroke:none;" d="M -9.84375 -1.0625 L -11.453125 -1.0625 L -11.453125 -2.46875 L -9.84375 -2.46875 Z M 0 -1.0625 L -8.296875 -1.0625 L -8.296875 -2.46875 L 0 -2.46875 Z M 0 -1.0625 "></path>
</symbol>
<symbol overflow="visible" id="glyph1-7">
<path style="stroke:none;" d="M -1.265625 -4.125 L -0.015625 -4.328125 C 0.0664062 -3.929688 0.109375 -3.578125 0.109375 -3.265625 C 0.109375 -2.753906 0.03125 -2.359375 -0.125 -2.078125 C -0.289062 -1.796875 -0.503906 -1.597656 -0.765625 -1.484375 C -1.035156 -1.367188 -1.59375 -1.3125 -2.4375 -1.3125 L -7.203125 -1.3125 L -7.203125 -0.28125 L -8.296875 -0.28125 L -8.296875 -1.3125 L -10.359375 -1.3125 L -11.203125 -2.71875 L -8.296875 -2.71875 L -8.296875 -4.125 L -7.203125 -4.125 L -7.203125 -2.71875 L -2.359375 -2.71875 C -1.953125 -2.71875 -1.691406 -2.738281 -1.578125 -2.78125 C -1.460938 -2.832031 -1.367188 -2.914062 -1.296875 -3.03125 C -1.234375 -3.144531 -1.203125 -3.304688 -1.203125 -3.515625 C -1.203125 -3.671875 -1.222656 -3.875 -1.265625 -4.125 Z M -1.265625 -4.125 "></path>
</symbol>
<symbol overflow="visible" id="glyph1-8">
<path style="stroke:none;" d="M 0 -1.0625 L -8.296875 -1.0625 L -8.296875 -2.328125 L -7.125 -2.328125 C -8.03125 -2.929688 -8.484375 -3.8125 -8.484375 -4.96875 C -8.484375 -5.46875 -8.394531 -5.925781 -8.21875 -6.34375 C -8.039062 -6.757812 -7.804688 -7.070312 -7.515625 -7.28125 C -7.222656 -7.488281 -6.875 -7.632812 -6.46875 -7.71875 C -6.207031 -7.769531 -5.753906 -7.796875 -5.109375 -7.796875 L 0 -7.796875 L 0 -6.390625 L -5.046875 -6.390625 C -5.617188 -6.390625 -6.046875 -6.332031 -6.328125 -6.21875 C -6.617188 -6.113281 -6.847656 -5.921875 -7.015625 -5.640625 C -7.179688 -5.367188 -7.265625 -5.046875 -7.265625 -4.671875 C -7.265625 -4.066406 -7.070312 -3.546875 -6.6875 -3.109375 C -6.3125 -2.679688 -5.59375 -2.46875 -4.53125 -2.46875 L 0 -2.46875 Z M 0 -1.0625 "></path>
</symbol>
<symbol overflow="visible" id="glyph1-9">
<path style="stroke:none;" d="M -3.046875 -6.46875 L -2.859375 -7.859375 C -1.910156 -7.703125 -1.164062 -7.3125 -0.625 -6.6875 C -0.0820312 -6.070312 0.1875 -5.3125 0.1875 -4.40625 C 0.1875 -3.269531 -0.179688 -2.351562 -0.921875 -1.65625 C -1.671875 -0.96875 -2.738281 -0.625 -4.125 -0.625 C -5.019531 -0.625 -5.800781 -0.769531 -6.46875 -1.0625 C -7.144531 -1.363281 -7.648438 -1.816406 -7.984375 -2.421875 C -8.316406 -3.035156 -8.484375 -3.695312 -8.484375 -4.40625 C -8.484375 -5.3125 -8.253906 -6.050781 -7.796875 -6.625 C -7.347656 -7.195312 -6.703125 -7.5625 -5.859375 -7.71875 L -5.65625 -6.359375 C -6.207031 -6.222656 -6.625 -5.988281 -6.90625 -5.65625 C -7.1875 -5.332031 -7.328125 -4.9375 -7.328125 -4.46875 C -7.328125 -3.757812 -7.070312 -3.179688 -6.5625 -2.734375 C -6.0625 -2.296875 -5.257812 -2.078125 -4.15625 -2.078125 C -3.039062 -2.078125 -2.226562 -2.289062 -1.71875 -2.71875 C -1.21875 -3.144531 -0.96875 -3.703125 -0.96875 -4.390625 C -0.96875 -4.941406 -1.132812 -5.398438 -1.46875 -5.765625 C -1.8125 -6.140625 -2.335938 -6.375 -3.046875 -6.46875 Z M -3.046875 -6.46875 "></path>
</symbol>
<symbol overflow="visible" id="glyph1-10">
<path style="stroke:none;" d=""></path>
</symbol>
<symbol overflow="visible" id="glyph1-11">
<path style="stroke:none;" d="M 0 -1.0625 L -8.296875 -1.0625 L -8.296875 -2.3125 L -7.140625 -2.3125 C -7.546875 -2.570312 -7.867188 -2.914062 -8.109375 -3.34375 C -8.359375 -3.78125 -8.484375 -4.273438 -8.484375 -4.828125 C -8.484375 -5.441406 -8.351562 -5.945312 -8.09375 -6.34375 C -7.84375 -6.738281 -7.488281 -7.015625 -7.03125 -7.171875 C -8 -7.828125 -8.484375 -8.679688 -8.484375 -9.734375 C -8.484375 -10.554688 -8.253906 -11.1875 -7.796875 -11.625 C -7.347656 -12.070312 -6.648438 -12.296875 -5.703125 -12.296875 L 0 -12.296875 L 0 -10.90625 L -5.234375 -10.90625 C -5.796875 -10.90625 -6.195312 -10.859375 -6.4375 -10.765625 C -6.6875 -10.671875 -6.882812 -10.503906 -7.03125 -10.265625 C -7.1875 -10.023438 -7.265625 -9.742188 -7.265625 -9.421875 C -7.265625 -8.835938 -7.070312 -8.351562 -6.6875 -7.96875 C -6.300781 -7.582031 -5.679688 -7.390625 -4.828125 -7.390625 L 0 -7.390625 L 0 -5.984375 L -5.390625 -5.984375 C -6.015625 -5.984375 -6.484375 -5.867188 -6.796875 -5.640625 C -7.109375 -5.410156 -7.265625 -5.035156 -7.265625 -4.515625 C -7.265625 -4.117188 -7.160156 -3.753906 -6.953125 -3.421875 C -6.742188 -3.085938 -6.4375 -2.84375 -6.03125 -2.6875 C -5.632812 -2.539062 -5.0625 -2.46875 -4.3125 -2.46875 L 0 -2.46875 Z M 0 -1.0625 "></path>
</symbol>
<symbol overflow="visible" id="glyph1-12">
<path style="stroke:none;" d="M -5.015625 -8.46875 L -1.765625 -0.875 L -3.171875 -0.875 L -5.65625 -6.890625 L -8.125 -0.875 L -9.53125 -0.875 L -6.328125 -8.46875 Z M -5.015625 -8.46875 "></path>
</symbol>
<symbol overflow="visible" id="glyph1-13">
<path style="stroke:none;" d="M 3.375 -3.75 C 2.394531 -2.96875 1.25 -2.304688 -0.0625 -1.765625 C -1.382812 -1.234375 -2.75 -0.96875 -4.15625 -0.96875 C -5.394531 -0.96875 -6.582031 -1.171875 -7.71875 -1.578125 C -9.03125 -2.046875 -10.34375 -2.769531 -11.65625 -3.75 L -11.65625 -4.75 C -10.570312 -4.125 -9.796875 -3.707031 -9.328125 -3.5 C -8.609375 -3.1875 -7.859375 -2.9375 -7.078125 -2.75 C -6.109375 -2.53125 -5.128906 -2.421875 -4.140625 -2.421875 C -1.640625 -2.421875 0.863281 -3.195312 3.375 -4.75 Z M 3.375 -3.75 "></path>
</symbol>
<symbol overflow="visible" id="glyph1-14">
<path style="stroke:none;" d="M 3.375 -1.984375 L 3.375 -0.96875 C 0.863281 -2.53125 -1.640625 -3.3125 -4.140625 -3.3125 C -5.117188 -3.3125 -6.09375 -3.195312 -7.0625 -2.96875 C -7.84375 -2.789062 -8.59375 -2.546875 -9.3125 -2.234375 C -9.78125 -2.023438 -10.5625 -1.601562 -11.65625 -0.96875 L -11.65625 -1.984375 C -10.34375 -2.960938 -9.03125 -3.6875 -7.71875 -4.15625 C -6.582031 -4.550781 -5.394531 -4.75 -4.15625 -4.75 C -2.75 -4.75 -1.382812 -4.476562 -0.0625 -3.9375 C 1.25 -3.40625 2.394531 -2.753906 3.375 -1.984375 Z M 3.375 -1.984375 "></path>
</symbol>
</g>
</defs>
<g id="surface1">
<path style="fill:none;stroke-width:0.605301;stroke-linecap:butt;stroke-linejoin:round;stroke:rgb(49.803922%,49.803922%,49.803922%);stroke-opacity:0.65098;stroke-miterlimit:10;" d="M 29.517879 138.684655 L 41.294938 161.286893 L 53.071997 167.847733 " transform="matrix(3.779528,0,0,3.779528,-0.700357,-491.365602)"></path>
<path style="fill:none;stroke-width:0.605301;stroke-linecap:butt;stroke-linejoin:round;stroke:rgb(49.803922%,49.803922%,49.803922%);stroke-opacity:0.65098;stroke-miterlimit:10;" d="M 29.517879 159.475117 L 41.294938 168.524694 " transform="matrix(3.779528,0,0,3.779528,-0.700357,-491.365602)"></path>
<path style="fill:none;stroke-width:0.605301;stroke-linecap:butt;stroke-linejoin:round;stroke:rgb(49.803922%,49.803922%,49.803922%);stroke-opacity:0.65098;stroke-miterlimit:10;" d="M 41.294938 172.696016 L 53.071997 173.120796 " transform="matrix(3.779528,0,0,3.779528,-0.700357,-491.365602)"></path>
<path style="fill:none;stroke-width:0.605301;stroke-linecap:butt;stroke-linejoin:round;stroke:rgb(49.803922%,49.803922%,49.803922%);stroke-opacity:0.65098;stroke-miterlimit:10;" d="M 29.517879 159.996016 L 41.294938 169.715319 L 53.071997 170.591752 " transform="matrix(3.779528,0,0,3.779528,-0.700357,-491.365602)"></path>
<path style="fill:none;stroke-width:0.605301;stroke-linecap:butt;stroke-linejoin:round;stroke:rgb(49.803922%,49.803922%,49.803922%);stroke-opacity:0.65098;stroke-miterlimit:10;" d="M 29.517879 158.893241 L 41.294938 163.914123 L 53.071997 171.957043 " transform="matrix(3.779528,0,0,3.779528,-0.700357,-491.365602)"></path>
<path style="fill:none;stroke-width:0.605301;stroke-linecap:butt;stroke-linejoin:round;stroke:rgb(49.803922%,49.803922%,49.803922%);stroke-opacity:0.65098;stroke-miterlimit:10;" d="M 29.517879 150.943339 L 41.294938 170.716809 " transform="matrix(3.779528,0,0,3.779528,-0.700357,-491.365602)"></path>
<path style="fill:none;stroke-width:0.605301;stroke-linecap:butt;stroke-linejoin:round;stroke:rgb(49.803922%,49.803922%,49.803922%);stroke-opacity:0.65098;stroke-miterlimit:10;" d="M 17.74082 162.147823 L 29.517879 173.4939 L 41.294938 172.201989 L 53.071997 174.608044 " transform="matrix(3.779528,0,0,3.779528,-0.700357,-491.365602)"></path>
<path style="fill:none;stroke-width:0.605301;stroke-linecap:butt;stroke-linejoin:round;stroke:rgb(49.803922%,49.803922%,49.803922%);stroke-opacity:0.65098;stroke-miterlimit:10;" d="M 17.74082 161.610388 L 29.517879 167.46326 L 41.294938 169.531351 L 53.071997 162.187097 L 61.904533 170.422253 " transform="matrix(3.779528,0,0,3.779528,-0.700357,-491.365602)"></path>
<path style="fill:none;stroke-width:0.4;stroke-linecap:butt;stroke-linejoin:round;stroke:rgb(13.725491%,13.725491%,13.725491%);stroke-opacity:0.14902;stroke-miterlimit:10;" d="M 17.74082 175.855513 L 17.74082 134.844063 " transform="matrix(3.779528,0,0,3.779528,-0.700357,-491.365602)"></path>
<path style="fill:none;stroke-width:0.4;stroke-linecap:butt;stroke-linejoin:round;stroke:rgb(13.725491%,13.725491%,13.725491%);stroke-opacity:0.14902;stroke-miterlimit:10;" d="M 29.517879 175.855513 L 29.517879 134.844063 " transform="matrix(3.779528,0,0,3.779528,-0.700357,-491.365602)"></path>
<path style="fill:none;stroke-width:0.4;stroke-linecap:butt;stroke-linejoin:round;stroke:rgb(13.725491%,13.725491%,13.725491%);stroke-opacity:0.14902;stroke-miterlimit:10;" d="M 41.294938 175.855513 L 41.294938 134.844063 " transform="matrix(3.779528,0,0,3.779528,-0.700357,-491.365602)"></path>
<path style="fill:none;stroke-width:0.4;stroke-linecap:butt;stroke-linejoin:round;stroke:rgb(13.725491%,13.725491%,13.725491%);stroke-opacity:0.14902;stroke-miterlimit:10;" d="M 53.071997 175.855513 L 53.071997 134.844063 " transform="matrix(3.779528,0,0,3.779528,-0.700357,-491.365602)"></path>
<path style="fill:none;stroke-width:0.4;stroke-linecap:butt;stroke-linejoin:round;stroke:rgb(13.725491%,13.725491%,13.725491%);stroke-opacity:0.14902;stroke-miterlimit:10;" d="M 61.904533 175.855513 L 61.904533 134.844063 " transform="matrix(3.779528,0,0,3.779528,-0.700357,-491.365602)"></path>
<path style="fill:none;stroke-width:0.4;stroke-linecap:square;stroke-linejoin:round;stroke:rgb(13.725491%,13.725491%,13.725491%);stroke-opacity:1;stroke-miterlimit:10;" d="M 14.796297 175.855513 L 64.849056 175.855513 " transform="matrix(3.779528,0,0,3.779528,-0.700357,-491.365602)"></path>
<path style="fill:none;stroke-width:0.4;stroke-linecap:square;stroke-linejoin:round;stroke:rgb(13.725491%,13.725491%,13.725491%);stroke-opacity:1;stroke-miterlimit:10;" d="M 17.74082 175.855513 L 17.74082 175.355285 " transform="matrix(3.779528,0,0,3.779528,-0.700357,-491.365602)"></path>
<path style="fill:none;stroke-width:0.4;stroke-linecap:square;stroke-linejoin:round;stroke:rgb(13.725491%,13.725491%,13.725491%);stroke-opacity:1;stroke-miterlimit:10;" d="M 29.517879 175.855513 L 29.517879 175.355285 " transform="matrix(3.779528,0,0,3.779528,-0.700357,-491.365602)"></path>
<path style="fill:none;stroke-width:0.4;stroke-linecap:square;stroke-linejoin:round;stroke:rgb(13.725491%,13.725491%,13.725491%);stroke-opacity:1;stroke-miterlimit:10;" d="M 41.294938 175.855513 L 41.294938 175.355285 " transform="matrix(3.779528,0,0,3.779528,-0.700357,-491.365602)"></path>
<path style="fill:none;stroke-width:0.4;stroke-linecap:square;stroke-linejoin:round;stroke:rgb(13.725491%,13.725491%,13.725491%);stroke-opacity:1;stroke-miterlimit:10;" d="M 53.071997 175.855513 L 53.071997 175.355285 " transform="matrix(3.779528,0,0,3.779528,-0.700357,-491.365602)"></path>
<path style="fill:none;stroke-width:0.4;stroke-linecap:square;stroke-linejoin:round;stroke:rgb(13.725491%,13.725491%,13.725491%);stroke-opacity:1;stroke-miterlimit:10;" d="M 61.904533 175.855513 L 61.904533 175.355285 " transform="matrix(3.779528,0,0,3.779528,-0.700357,-491.365602)"></path>
<path style="fill:none;stroke-width:0.4;stroke-linecap:square;stroke-linejoin:round;stroke:rgb(13.725491%,13.725491%,13.725491%);stroke-opacity:1;stroke-miterlimit:10;" d="M 14.796297 175.855513 L 14.796297 134.844063 " transform="matrix(3.779528,0,0,3.779528,-0.700357,-491.365602)"></path>
<path style="fill:none;stroke-width:0.4;stroke-linecap:square;stroke-linejoin:round;stroke:rgb(13.725491%,13.725491%,13.725491%);stroke-opacity:1;stroke-miterlimit:10;" d="M 14.796297 175.855513 L 15.296525 175.855513 " transform="matrix(3.779528,0,0,3.779528,-0.700357,-491.365602)"></path>
<path style="fill:none;stroke-width:0.4;stroke-linecap:square;stroke-linejoin:round;stroke:rgb(13.725491%,13.725491%,13.725491%);stroke-opacity:1;stroke-miterlimit:10;" d="M 14.796297 165.602909 L 15.296525 165.602909 " transform="matrix(3.779528,0,0,3.779528,-0.700357,-491.365602)"></path>
<path style="fill:none;stroke-width:0.4;stroke-linecap:square;stroke-linejoin:round;stroke:rgb(13.725491%,13.725491%,13.725491%);stroke-opacity:1;stroke-miterlimit:10;" d="M 14.796297 155.349271 L 15.296525 155.349271 " transform="matrix(3.779528,0,0,3.779528,-0.700357,-491.365602)"></path>
<path style="fill:none;stroke-width:0.4;stroke-linecap:square;stroke-linejoin:round;stroke:rgb(13.725491%,13.725491%,13.725491%);stroke-opacity:1;stroke-miterlimit:10;" d="M 14.796297 145.096667 L 15.296525 145.096667 " transform="matrix(3.779528,0,0,3.779528,-0.700357,-491.365602)"></path>
<path style="fill:none;stroke-width:0.4;stroke-linecap:square;stroke-linejoin:round;stroke:rgb(13.725491%,13.725491%,13.725491%);stroke-opacity:1;stroke-miterlimit:10;" d="M 14.796297 134.844063 L 15.296525 134.844063 " transform="matrix(3.779528,0,0,3.779528,-0.700357,-491.365602)"></path>
<path style=" stroke:none;fill-rule:nonzero;fill:rgb(0%,20%,97.254902%);fill-opacity:1;" d="M 70.476562 71.855469 C 70.476562 69.574219 68.628906 67.726562 66.351562 67.726562 C 64.070312 67.726562 62.222656 69.574219 62.222656 71.855469 C 62.222656 74.132812 64.070312 75.984375 66.351562 75.984375 C 68.628906 75.984375 70.476562 74.132812 70.476562 71.855469 Z M 70.476562 71.855469 "></path>
<path style=" stroke:none;fill-rule:nonzero;fill:rgb(0%,20%,97.254902%);fill-opacity:1;" d="M 70.476562 121.476562 C 70.476562 119.199219 68.628906 117.347656 66.351562 117.347656 C 64.070312 117.347656 62.222656 119.199219 62.222656 121.476562 C 62.222656 123.757812 64.070312 125.605469 66.351562 125.605469 C 68.628906 125.605469 70.476562 123.757812 70.476562 121.476562 Z M 70.476562 121.476562 "></path>
<path style=" stroke:none;fill-rule:nonzero;fill:rgb(0%,20%,97.254902%);fill-opacity:1;" d="M 70.476562 119.445312 C 70.476562 117.167969 68.628906 115.316406 66.351562 115.316406 C 64.070312 115.316406 62.222656 117.167969 62.222656 119.445312 C 62.222656 121.726562 64.070312 123.574219 66.351562 123.574219 C 68.628906 123.574219 70.476562 121.726562 70.476562 119.445312 Z M 70.476562 119.445312 "></path>
<path style=" stroke:none;fill-rule:nonzero;fill:rgb(23.921569%,58.039218%,29.803923%);fill-opacity:1;" d="M 114.992188 79.128906 C 114.992188 76.847656 113.140625 75 110.863281 75 C 108.582031 75 106.734375 76.847656 106.734375 79.128906 C 106.734375 81.40625 108.582031 83.257812 110.863281 83.257812 C 113.140625 83.257812 114.992188 81.40625 114.992188 79.128906 Z M 114.992188 79.128906 "></path>
<path style=" stroke:none;fill-rule:nonzero;fill:rgb(23.921569%,58.039218%,29.803923%);fill-opacity:1;" d="M 114.992188 164.359375 C 114.992188 162.082031 113.140625 160.230469 110.863281 160.230469 C 108.582031 160.230469 106.734375 162.082031 106.734375 164.359375 C 106.734375 166.640625 108.582031 168.488281 110.863281 168.488281 C 113.140625 168.488281 114.992188 166.640625 114.992188 164.359375 Z M 114.992188 164.359375 "></path>
<path style=" stroke:none;fill-rule:nonzero;fill:rgb(23.921569%,58.039218%,29.803923%);fill-opacity:1;" d="M 114.992188 141.566406 C 114.992188 139.285156 113.140625 137.4375 110.863281 137.4375 C 108.582031 137.4375 106.734375 139.285156 106.734375 141.566406 C 106.734375 143.84375 108.582031 145.695312 110.863281 145.695312 C 113.140625 145.695312 114.992188 143.84375 114.992188 141.566406 Z M 114.992188 141.566406 "></path>
<path style=" stroke:none;fill-rule:nonzero;fill:rgb(23.921569%,58.039218%,29.803923%);fill-opacity:1;" d="M 114.992188 32.796875 C 114.992188 30.515625 113.140625 28.667969 110.863281 28.667969 C 108.582031 28.667969 106.734375 30.515625 106.734375 32.796875 C 106.734375 35.074219 108.582031 36.925781 110.863281 36.925781 C 113.140625 36.925781 114.992188 35.074219 114.992188 32.796875 Z M 114.992188 32.796875 "></path>
<path style=" stroke:none;fill-rule:nonzero;fill:rgb(23.921569%,58.039218%,29.803923%);fill-opacity:1;" d="M 114.992188 111.375 C 114.992188 109.09375 113.140625 107.246094 110.863281 107.246094 C 108.582031 107.246094 106.734375 109.09375 106.734375 111.375 C 106.734375 113.65625 108.582031 115.5 110.863281 115.5 C 113.140625 115.5 114.992188 113.65625 114.992188 111.375 Z M 114.992188 111.375 "></path>
<path style=" stroke:none;fill-rule:nonzero;fill:rgb(23.921569%,58.039218%,29.803923%);fill-opacity:1;" d="M 114.992188 113.34375 C 114.992188 111.0625 113.140625 109.21875 110.863281 109.21875 C 108.582031 109.21875 106.734375 111.0625 106.734375 113.34375 C 106.734375 115.625 108.582031 117.472656 110.863281 117.472656 C 113.140625 117.472656 114.992188 115.625 114.992188 113.34375 Z M 114.992188 113.34375 "></path>
<path style=" stroke:none;fill-rule:nonzero;fill:rgb(23.921569%,58.039218%,29.803923%);fill-opacity:1;" d="M 114.992188 109.175781 C 114.992188 106.898438 113.140625 105.046875 110.863281 105.046875 C 108.582031 105.046875 106.734375 106.898438 106.734375 109.175781 C 106.734375 111.457031 108.582031 113.304688 110.863281 113.304688 C 113.140625 113.304688 114.992188 111.457031 114.992188 109.175781 Z M 114.992188 109.175781 "></path>
<path style=" stroke:none;fill-rule:nonzero;fill:rgb(70.19608%,74.901962%,9.803922%);fill-opacity:1;" d="M 159.503906 153.863281 C 159.503906 151.582031 157.652344 149.734375 155.375 149.734375 C 153.097656 149.734375 151.246094 151.582031 151.246094 153.863281 C 151.246094 156.140625 153.097656 157.992188 155.375 157.992188 C 157.652344 157.992188 159.503906 156.140625 159.503906 153.863281 Z M 159.503906 153.863281 "></path>
<path style=" stroke:none;fill-rule:nonzero;fill:rgb(70.19608%,74.901962%,9.803922%);fill-opacity:1;" d="M 159.503906 159.476562 C 159.503906 157.199219 157.652344 155.351562 155.375 155.351562 C 153.097656 155.351562 151.246094 157.199219 151.246094 159.476562 C 151.246094 161.757812 153.097656 163.605469 155.375 163.605469 C 157.652344 163.605469 159.503906 161.757812 159.503906 159.476562 Z M 159.503906 159.476562 "></path>
<path style=" stroke:none;fill-rule:nonzero;fill:rgb(70.19608%,74.901962%,9.803922%);fill-opacity:1;" d="M 159.503906 149.382812 C 159.503906 147.101562 157.652344 145.253906 155.375 145.253906 C 153.097656 145.253906 151.246094 147.101562 151.246094 149.382812 C 151.246094 151.660156 153.097656 153.507812 155.375 153.507812 C 157.652344 153.507812 159.503906 151.660156 159.503906 149.382812 Z M 159.503906 149.382812 "></path>
<path style=" stroke:none;fill-rule:nonzero;fill:rgb(70.19608%,74.901962%,9.803922%);fill-opacity:1;" d="M 159.503906 118.222656 C 159.503906 115.941406 157.652344 114.09375 155.375 114.09375 C 153.097656 114.09375 151.246094 115.941406 151.246094 118.222656 C 151.246094 120.5 153.097656 122.347656 155.375 122.347656 C 157.652344 122.347656 159.503906 120.5 159.503906 118.222656 Z M 159.503906 118.222656 "></path>
<path style=" stroke:none;fill-rule:nonzero;fill:rgb(70.19608%,74.901962%,9.803922%);fill-opacity:1;" d="M 159.503906 145.578125 C 159.503906 143.296875 157.652344 141.449219 155.375 141.449219 C 153.097656 141.449219 151.246094 143.296875 151.246094 145.578125 C 151.246094 147.863281 153.097656 149.707031 155.375 149.707031 C 157.652344 149.707031 159.503906 147.863281 159.503906 145.578125 Z M 159.503906 145.578125 "></path>
<path style=" stroke:none;fill-rule:nonzero;fill:rgb(70.19608%,74.901962%,9.803922%);fill-opacity:1;" d="M 159.503906 161.34375 C 159.503906 159.0625 157.652344 157.214844 155.375 157.214844 C 153.097656 157.214844 151.246094 159.0625 151.246094 161.34375 C 151.246094 163.621094 153.097656 165.472656 155.375 165.472656 C 157.652344 165.472656 159.503906 163.621094 159.503906 161.34375 Z M 159.503906 161.34375 "></path>
<path style=" stroke:none;fill-rule:nonzero;fill:rgb(70.19608%,74.901962%,9.803922%);fill-opacity:1;" d="M 159.503906 150.078125 C 159.503906 147.800781 157.652344 145.949219 155.375 145.949219 C 153.097656 145.949219 151.246094 147.800781 151.246094 150.078125 C 151.246094 152.363281 153.097656 154.207031 155.375 154.207031 C 157.652344 154.207031 159.503906 152.363281 159.503906 150.078125 Z M 159.503906 150.078125 "></path>
<path style=" stroke:none;fill-rule:nonzero;fill:rgb(70.19608%,74.901962%,9.803922%);fill-opacity:1;" d="M 159.503906 128.152344 C 159.503906 125.871094 157.652344 124.023438 155.375 124.023438 C 153.097656 124.023438 151.246094 125.871094 151.246094 128.152344 C 151.246094 130.429688 153.097656 132.277344 155.375 132.277344 C 157.652344 132.277344 159.503906 130.429688 159.503906 128.152344 Z M 159.503906 128.152344 "></path>
<path style=" stroke:none;fill-rule:nonzero;fill:rgb(100%,63.921571%,6.666667%);fill-opacity:1;" d="M 204.015625 168.570312 C 204.015625 166.289062 202.171875 164.441406 199.886719 164.441406 C 197.605469 164.441406 195.757812 166.289062 195.757812 168.570312 C 195.757812 170.847656 197.605469 172.699219 199.886719 172.699219 C 202.171875 172.699219 204.015625 170.847656 204.015625 168.570312 Z M 204.015625 168.570312 "></path>
<path style=" stroke:none;fill-rule:nonzero;fill:rgb(100%,63.921571%,6.666667%);fill-opacity:1;" d="M 204.015625 121.625 C 204.015625 119.347656 202.171875 117.496094 199.886719 117.496094 C 197.605469 117.496094 195.757812 119.347656 195.757812 121.625 C 195.757812 123.90625 197.605469 125.753906 199.886719 125.753906 C 202.171875 125.753906 204.015625 123.90625 204.015625 121.625 Z M 204.015625 121.625 "></path>
<path style=" stroke:none;fill-rule:nonzero;fill:rgb(100%,63.921571%,6.666667%);fill-opacity:1;" d="M 204.015625 143.019531 C 204.015625 140.742188 202.171875 138.890625 199.886719 138.890625 C 197.605469 138.890625 195.757812 140.742188 195.757812 143.019531 C 195.757812 145.300781 197.605469 147.148438 199.886719 147.148438 C 202.171875 147.148438 204.015625 145.300781 204.015625 143.019531 Z M 204.015625 143.019531 "></path>
<path style=" stroke:none;fill-rule:nonzero;fill:rgb(100%,63.921571%,6.666667%);fill-opacity:1;" d="M 204.015625 162.949219 C 204.015625 160.667969 202.171875 158.820312 199.886719 158.820312 C 197.605469 158.820312 195.757812 160.667969 195.757812 162.949219 C 195.757812 165.226562 197.605469 167.078125 199.886719 167.078125 C 202.171875 167.078125 204.015625 165.226562 204.015625 162.949219 Z M 204.015625 162.949219 "></path>
<path style=" stroke:none;fill-rule:nonzero;fill:rgb(100%,63.921571%,6.666667%);fill-opacity:1;" d="M 204.015625 153.390625 C 204.015625 151.113281 202.171875 149.265625 199.886719 149.265625 C 197.605469 149.265625 195.757812 151.113281 195.757812 153.390625 C 195.757812 155.671875 197.605469 157.519531 199.886719 157.519531 C 202.171875 157.519531 204.015625 155.671875 204.015625 153.390625 Z M 204.015625 153.390625 "></path>
<path style=" stroke:none;fill-rule:nonzero;fill:rgb(100%,63.921571%,6.666667%);fill-opacity:1;" d="M 204.015625 158.550781 C 204.015625 156.269531 202.171875 154.421875 199.886719 154.421875 C 197.605469 154.421875 195.757812 156.269531 195.757812 158.550781 C 195.757812 160.828125 197.605469 162.679688 199.886719 162.679688 C 202.171875 162.679688 204.015625 160.828125 204.015625 158.550781 Z M 204.015625 158.550781 "></path>
<path style=" stroke:none;fill-rule:nonzero;fill:rgb(100%,15.686275%,0%);fill-opacity:1;" d="M 237.398438 152.75 C 237.398438 150.472656 235.550781 148.625 233.269531 148.625 C 230.992188 148.625 229.140625 150.472656 229.140625 152.75 C 229.140625 155.03125 230.992188 156.878906 233.269531 156.878906 C 235.550781 156.878906 237.398438 155.03125 237.398438 152.75 Z M 237.398438 152.75 "></path>
<path style=" stroke:none;fill-rule:nonzero;fill:rgb(100%,15.686275%,0%);fill-opacity:1;" d="M 237.398438 154.347656 C 237.398438 152.0625 235.550781 150.21875 233.269531 150.21875 C 230.992188 150.21875 229.140625 152.0625 229.140625 154.347656 C 229.140625 156.628906 230.992188 158.476562 233.269531 158.476562 C 235.550781 158.476562 237.398438 156.628906 237.398438 154.347656 Z M 237.398438 154.347656 "></path>
<path style=" stroke:none;fill-rule:nonzero;fill:rgb(100%,15.686275%,0%);fill-opacity:1;" d="M 237.398438 166.042969 C 237.398438 163.765625 235.550781 161.914062 233.269531 161.914062 C 230.992188 161.914062 229.140625 163.765625 229.140625 166.042969 C 229.140625 168.324219 230.992188 170.171875 233.269531 170.171875 C 235.550781 170.171875 237.398438 168.324219 237.398438 166.042969 Z M 237.398438 166.042969 "></path>
<path style=" stroke:none;fill-rule:nonzero;fill:rgb(100%,15.686275%,0%);fill-opacity:1;" d="M 237.398438 173.285156 C 237.398438 171.003906 235.550781 169.15625 233.269531 169.15625 C 230.992188 169.15625 229.140625 171.003906 229.140625 173.285156 C 229.140625 175.566406 230.992188 177.414062 233.269531 177.414062 C 235.550781 177.414062 237.398438 175.566406 237.398438 173.285156 Z M 237.398438 173.285156 "></path>
<g style="fill:rgb(0%,0%,0%);fill-opacity:1;"> <use xlink:href="#glyph0-1" x="30.71875" y="20.948111"></use> <use xlink:href="#glyph0-2" x="39.613927" y="20.948111"></use>
</g>
<g style="fill:rgb(0%,0%,0%);fill-opacity:1;"> <use xlink:href="#glyph0-1" x="30.789062" y="59.795768"></use> <use xlink:href="#glyph0-3" x="39.68424" y="59.795768"></use>
</g>
<g style="fill:rgb(0%,0%,0%);fill-opacity:1;"> <use xlink:href="#glyph0-1" x="30.78125" y="98.452018"></use> <use xlink:href="#glyph0-4" x="39.676427" y="98.452018"></use>
</g>
<g style="fill:rgb(0%,0%,0%);fill-opacity:1;"> <use xlink:href="#glyph0-5" x="39.648437" y="137.202018"></use>
</g>
<g style="fill:rgb(0%,0%,0%);fill-opacity:1;"> <use xlink:href="#glyph0-6" x="39.757812" y="176.049674"></use>
</g>
<g style="fill:rgb(0%,0%,0%);fill-opacity:1;"> <use xlink:href="#glyph1-1" x="21.096549" y="175.070313"></use> <use xlink:href="#glyph1-2" x="21.096549" y="165.732222"></use> <use xlink:href="#glyph1-3" x="21.096549" y="156.837045"></use> <use xlink:href="#glyph1-4" x="21.096549" y="147.941868"></use> <use xlink:href="#glyph1-5" x="21.096549" y="142.615834"></use> <use xlink:href="#glyph1-6" x="21.096549" y="134.617557"></use> <use xlink:href="#glyph1-5" x="21.096549" y="131.066868"></use> <use xlink:href="#glyph1-7" x="21.096549" y="123.06859"></use> <use xlink:href="#glyph1-3" x="21.096549" y="118.624692"></use> <use xlink:href="#glyph1-8" x="21.096549" y="109.729515"></use> <use xlink:href="#glyph1-9" x="21.096549" y="100.834338"></use> <use xlink:href="#glyph1-3" x="21.096549" y="92.836061"></use> <use xlink:href="#glyph1-10" x="21.096549" y="83.940883"></use> <use xlink:href="#glyph1-7" x="21.096549" y="79.496986"></use> <use xlink:href="#glyph1-6" x="21.096549" y="75.053088"></use> <use xlink:href="#glyph1-11" x="21.096549" y="71.502399"></use> <use xlink:href="#glyph1-3" x="21.096549" y="58.178088"></use> <use xlink:href="#glyph1-12" x="21.096549" y="49.282911"></use> <use xlink:href="#glyph1-10" x="21.096549" y="39.94482"></use> <use xlink:href="#glyph1-13" x="21.096549" y="35.500923"></use> <use xlink:href="#glyph1-5" x="21.096549" y="30.174889"></use> <use xlink:href="#glyph1-14" x="21.096549" y="22.176612"></use>
</g>
<g style="fill:rgb(0%,0%,0%);fill-opacity:1;"> <use xlink:href="#glyph0-7" x="90.296875" y="212.99108"></use> <use xlink:href="#glyph0-8" x="94.740773" y="212.99108"></use> <use xlink:href="#glyph0-9" x="103.63595" y="212.99108"></use> <use xlink:href="#glyph0-10" x="116.960261" y="212.99108"></use> <use xlink:href="#glyph0-8" x="125.855438" y="212.99108"></use> <use xlink:href="#glyph0-11" x="134.750615" y="212.99108"></use> <use xlink:href="#glyph0-12" x="140.076649" y="212.99108"></use> <use xlink:href="#glyph0-7" x="148.971826" y="212.99108"></use> <use xlink:href="#glyph0-13" x="153.415723" y="212.99108"></use> <use xlink:href="#glyph0-11" x="162.310901" y="212.99108"></use> <use xlink:href="#glyph0-8" x="167.636934" y="212.99108"></use> <use xlink:href="#glyph0-14" x="176.532111" y="212.99108"></use> <use xlink:href="#glyph0-15" x="180.976009" y="212.99108"></use> <use xlink:href="#glyph0-16" x="186.302042" y="212.99108"></use> <use xlink:href="#glyph0-17" x="192.69845" y="212.99108"></use> <use xlink:href="#glyph0-18" x="204.247416" y="212.99108"></use>
</g>
<g style="fill:rgb(0%,0%,0%);fill-opacity:1;"> <use xlink:href="#glyph0-1" x="56.933594" y="192.315299"></use> <use xlink:href="#glyph0-2" x="65.828771" y="192.315299"></use>
</g>
<g style="fill:rgb(0%,0%,0%);fill-opacity:1;"> <use xlink:href="#glyph0-6" x="102.144531" y="192.315299"></use> <use xlink:href="#glyph0-6" x="111.039708" y="192.315299"></use>
</g>
<g style="fill:rgb(0%,0%,0%);fill-opacity:1;"> <use xlink:href="#glyph0-6" x="146.601562" y="192.315299"></use> <use xlink:href="#glyph0-5" x="155.49674" y="192.315299"></use>
</g>
<g style="fill:rgb(0%,0%,0%);fill-opacity:1;"> <use xlink:href="#glyph0-19" x="191.035156" y="192.315299"></use> <use xlink:href="#glyph0-4" x="199.930333" y="192.315299"></use>
</g>
<g style="fill:rgb(0%,0%,0%);fill-opacity:1;"> <use xlink:href="#glyph0-19" x="224.398437" y="192.315299"></use> <use xlink:href="#glyph0-19" x="233.293615" y="192.315299"></use>
</g>
</g>
</svg>
