<?xml version="1.0"?>

<svg width="125.76059" height="108.56845" viewBox="0 0 125.76059 108.56845" version="1.1" id="svg8" inkscape:version="1.1 (c4e8f9ed74, 2021-05-24)" sodipodi:docname="artr_binsignal.svg" xmlns:inkscape="http://www.inkscape.org/namespaces/inkscape" xmlns:sodipodi="http://sodipodi.sourceforge.net/DTD/sodipodi-0.dtd" xmlns="http://www.w3.org/2000/svg" xmlns:svg="http://www.w3.org/2000/svg" xmlns:rdf="http://www.w3.org/1999/02/22-rdf-syntax-ns#" xmlns:cc="http://creativecommons.org/ns#" xmlns:dc="http://purl.org/dc/elements/1.1/"> <defs id="defs2"> <clipPath clipPathUnits="userSpaceOnUse" id="clipPath1604"> <path d="M 0,0 H 936 V 545 H 0 Z" id="path1602" inkscape:connector-curvature="0"></path> </clipPath> </defs> <sodipodi:namedview id="base" pagecolor="#ffffff" bordercolor="#666666" borderopacity="1.0" inkscape:pageopacity="0.0" inkscape:pageshadow="2" inkscape:zoom="1.0259626" inkscape:cx="270.96505" inkscape:cy="119.88741" inkscape:document-units="mm" inkscape:current-layer="layer1" inkscape:document-rotation="0" showgrid="false" fit-margin-left="2.5" fit-margin-top="2.5" fit-margin-bottom="2.5" fit-margin-right="2.5" inkscape:pagecheckerboard="0" inkscape:window-width="1920" inkscape:window-height="1015" inkscape:window-x="0" inkscape:window-y="0" inkscape:window-maximized="1"></sodipodi:namedview> <metadata id="metadata5"> <rdf:rdf> <cc:work rdf:about=""> <dc:format>image/svg+xml</dc:format> <dc:type rdf:resource="http://purl.org/dc/dcmitype/StillImage"></dc:type> </cc:work> </rdf:rdf> </metadata> <g inkscape:label="Layer 1" inkscape:groupmode="layer" id="layer1" transform="translate(-47.338218,-68.836274)"> <g transform="matrix(0.07573844,0.34455166,-0.34455166,0.07573844,-154.78695,74.00682)" id="g4474"> <g id="g4458"></g> <g id="g4472"> <g transform="rotate(-118.33029,554.75246,39.17812)" style="opacity:0.794702" id="g4470" clip-path="url(#clipPath1604)"> <g id="g4468"> <g id="g4462"></g> </g> </g> </g> </g> <g transform="matrix(0.22678674,0,0,0.22678674,-46.661205,331.99465)" id="g77056"></g> <g transform="matrix(0.22678674,0,0,0.22678674,-46.661205,331.99465)" id="g77060"></g> <g transform="matrix(0.22678674,0,0,0.22678674,-46.661205,331.99465)" id="g119814"></g> <g transform="matrix(0.22678674,0,0,0.22678674,-46.661205,331.99465)" id="g119818"></g> <text xml:space="preserve" style="font-style:normal;font-variant:normal;font-weight:normal;font-stretch:normal;font-size:5.64444px;line-height:1.25;font-family:sans-serif;-inkscape-font-specification:'sans-serif, Normal';font-variant-ligatures:normal;font-variant-caps:normal;font-variant-numeric:normal;font-variant-east-asian:normal;letter-spacing:0px;word-spacing:0px;fill:#000000;fill-opacity:1;stroke:none;stroke-width:0.289219" x="148.28595" y="144.50229" id="text153421"><tspan sodipodi:role="line" id="tspan153419" style="font-style:normal;font-variant:normal;font-weight:normal;font-stretch:normal;font-size:5.64444px;font-family:sans-serif;-inkscape-font-specification:'sans-serif, Normal';font-variant-ligatures:normal;font-variant-caps:normal;font-variant-numeric:normal;font-variant-east-asian:normal;stroke-width:0.289219" x="148.28595" y="144.50229" dy="0">T=30°C</tspan></text> <text id="text153433" y="110.70795" x="148.77692" style="font-style:normal;font-variant:normal;font-weight:normal;font-stretch:normal;font-size:5.64444px;line-height:1.25;font-family:sans-serif;-inkscape-font-specification:'sans-serif, Normal';font-variant-ligatures:normal;font-variant-caps:normal;font-variant-numeric:normal;font-variant-east-asian:normal;letter-spacing:0px;word-spacing:0px;fill:#000000;fill-opacity:1;stroke:none;stroke-width:0.289219" xml:space="preserve"><tspan dy="0" y="110.70795" x="148.77692" style="font-style:normal;font-variant:normal;font-weight:normal;font-stretch:normal;font-size:5.64444px;font-family:sans-serif;-inkscape-font-specification:'sans-serif, Normal';font-variant-ligatures:normal;font-variant-caps:normal;font-variant-numeric:normal;font-variant-east-asian:normal;stroke-width:0.289219" id="tspan153431" sodipodi:role="line">T=26°C</tspan></text> <text xml:space="preserve" style="font-style:normal;font-variant:normal;font-weight:normal;font-stretch:normal;font-size:5.64444px;line-height:1.25;font-family:sans-serif;-inkscape-font-specification:'sans-serif, Normal';font-variant-ligatures:normal;font-variant-caps:normal;font-variant-numeric:normal;font-variant-east-asian:normal;letter-spacing:0px;word-spacing:0px;fill:#000000;fill-opacity:1;stroke:none;stroke-width:0.289219" x="148.78171" y="77.233429" id="text153461"><tspan sodipodi:role="line" id="tspan153459" style="font-style:normal;font-variant:normal;font-weight:normal;font-stretch:normal;font-size:5.64444px;font-family:sans-serif;-inkscape-font-specification:'sans-serif, Normal';font-variant-ligatures:normal;font-variant-caps:normal;font-variant-numeric:normal;font-variant-east-asian:normal;stroke-width:0.289219" x="148.78171" y="77.233429" dy="0">T=22°C</tspan></text> <path style="fill:none;stroke:#3d944c;stroke-width:0.75;stroke-linecap:butt;stroke-linejoin:round;stroke-miterlimit:10;stroke-dasharray:none;stroke-opacity:1" d="m 49.838219,79.56795 h 12.563448 l 0.08053,19.69534 0.08053,-19.69534 h 3.058993 l 0.08053,19.69534 0.08053,-19.69534 h 0.2417 l 0.08053,19.69534 h 0.240408 l 0.08053,-19.69534 h 0.402849 l 0.08053,19.69534 h 0.24171 l 0.08053,-19.69534 h 0.08053 l 0.08053,19.69534 0.08053,-19.69534 h 0.723817 l 0.08053,19.69534 0.08053,-19.69534 0.08053,19.69534 h 0.725109 l 0.08053,-19.69534 h 1.448927 l 0.08053,19.69534 h 0.08053 l 0.08053,-19.69534 h 0.16113 l 0.08053,19.69534 h 0.965517 l 0.08053,-19.69534 h 9.902098 l 0.08053,19.69534 h 0.402839 l 0.08053,-19.69534 0.08053,19.69534 h 1.207227 l 0.08053,-19.69534 0.08053,19.69534 0.08053,-19.69534 h 0.08053 l 0.08053,19.69534 h 1.448927 l 0.08053,-19.69534 0.08053,19.69534 h 0.965517 l 0.08053,-19.69534 h 4.910769 l 0.08053,19.69534 h 0.32227 l 0.08053,-19.69534 0.08053,19.69534 h 0.2417 l 0.08053,-19.69534 0.08053,19.69534 h 1.126657 l 0.08053,-19.69534 0.08053,19.69534 h 1.771206 l 0.08053,-19.69534 h 9.499263 l 0.0805,19.69534 0.0805,-19.69534 h 0.2417 l 0.0805,19.69534 h 0.2417 l 0.0805,-19.69534 0.0805,19.69534 h 0.0805 l 0.0805,-19.69534 h 0.0805 l 0.0793,19.69534 h 0.0805 l 0.0805,-19.69534 h 6.19986 l 0.0805,19.69534 0.0805,-19.69534 h 2.49501 l 0.0805,19.69534 h 2.8173 l 0.0805,-19.69534 h 0.0805 l 0.0805,19.69534 h 0.0805 l 0.0805,-19.69534 0.0805,19.69534 0.0805,-19.69534 h 1.20722 l 0.0805,19.69534 0.0805,-19.69534 h 0.16114 l 0.0805,19.69534 h 3.94524 l 0.0805,-19.69534 0.0805,19.69534 h 6.35969 l 0.0805,-19.69534 h 0.24171 l 0.0805,19.69534 h 0.2404 l 0.0805,-19.69534 h 8.69487 l 0.0805,19.69534 0.0805,-19.69534 h 5.39418 l 0.0805,19.69534 0.0805,-19.69534 h 2.41446 l 0.0805,19.69534 h 0.0805 l 0.0805,-19.69534 0.0805,19.69534 0.0805,-19.69534 h 0.24171 l 0.0805,19.69534 0.0805,-19.69534 0.0805,19.69534 h 0.0805 l 0.0805,-19.69534 h 0.32227 l 0.0805,19.69534 0.0805,-19.69534 0.0793,19.69534 0.0805,-19.69534 0.0805,19.69534 h 0.0805 l 0.0805,-19.69534 0.0805,19.69534 h 3.38127 l 0.0805,-19.69534 h 0.16114 l 0.0805,19.69534 0.0805,-19.69534 0.0805,19.69534 h 0.16113 l 0.0805,-19.69534 h 0.0805 l 0.0805,19.69534 h 1.12666 l 0.0805,-19.69534 h 0.0805 l 0.0805,19.69534 h 0.16114 l 0.0805,-19.69534 h 0.32227 l 0.0805,19.69534 h 0.24041 l 0.0805,-19.69534 0.0805,19.69534 h 3.22013 l 0.0805,-19.69534 h 0.16114 l 0.0805,19.69534 0.0805,-19.69534 h 0.88626 l 0.0805,19.69534 h 0.0805 l 0.0793,-19.69534 h 8.29593" id="path79750-8"></path> <path style="fill:none;stroke:#d9b424;stroke-width:0.75;stroke-linecap:butt;stroke-linejoin:round;stroke-miterlimit:10;stroke-dasharray:none;stroke-opacity:1" d="m 49.838219,112.82844 h 0.809585 l 0.08053,19.69534 h 0.08053 l 0.08053,-19.69534 h 0.562678 l 0.08053,19.69534 0.08053,-19.69534 h 0.966818 l 0.08053,19.69534 h 0.482108 l 0.08053,-19.69534 0.08053,19.69534 h 2.576885 l 0.08053,-19.69534 0.08053,19.69534 h 1.287796 l 0.08053,-19.69534 0.08053,19.69534 0.08053,-19.69534 h 2.333884 l 0.08053,19.69534 h 0.805679 l 0.08053,-19.69534 h 1.126657 l 0.08053,19.69534 h 3.703542 l 0.08053,-19.69534 h 1.368357 l 0.08053,19.69534 0.08053,-19.69534 0.08053,19.69534 h 0.241709 l 0.08053,-19.69534 h 1.287787 l 0.08053,19.69534 0.08053,-19.69534 0.08053,19.69534 0.08053,-19.69534 h 0.16113 l 0.08053,19.69534 0.08053,-19.69534 0.08053,19.69534 h 0.482108 l 0.08053,-19.69534 h 3.058993 l 0.08053,19.69534 0.08053,-19.69534 h 0.16113 l 0.08053,19.69534 h 0.563979 l 0.08053,-19.69534 0.08053,19.69534 h 0.08053 l 0.08053,-19.69534 0.08053,19.69534 h 0.08053 l 0.07931,-19.69534 h 2.738025 l 0.08053,19.69534 0.08053,-19.69534 h 0.08053 l 0.08053,19.69534 0.08053,-19.69534 0.08053,19.69534 h 0.159838 l 0.08053,-19.69534 0.08053,19.69534 0.08053,-19.69534 h 3.461842 l 0.08053,19.69534 h 0.08053 l 0.08053,-19.69534 h 0.24171 l 0.08053,19.69534 h 0.08053 l 0.08053,-19.69534 h 0.08053 l 0.08053,19.69534 h 1.448927 l 0.08053,-19.69534 0.08053,19.69534 h 0.16113 l 0.08053,-19.69534 0.08053,19.69534 h 0.240408 l 0.08053,-19.69534 h 0.40284 l 0.08053,19.69534 h 0.644539 l 0.08053,-19.69534 h 2.253314 l 0.08053,19.69534 0.08053,-19.69534 h 0.2417 l 0.08053,19.69534 h 0.08053 l 0.08053,-19.69534 0.08053,19.69534 h 0.884947 l 0.08053,-19.69534 0.08053,19.69534 0.08053,-19.69534 h 2.738025 l 0.08053,19.69534 h 0.723817 l 0.08053,-19.69534 0.08053,19.69534 h 0.16114 l 0.08053,-19.69534 0.08053,19.69534 0.08053,-19.69534 h 1.771197 l 0.08053,19.69534 h 0.562677 l 0.08053,-19.69534 h 0.08053 l 0.08053,19.69534 h 0.322269 l 0.08053,-19.69534 h 0.644549 l 0.08053,19.69534 h 4.346792 l 0.0805,-19.69534 0.0805,19.69534 0.0805,-19.69534 0.0805,19.69534 0.0805,-19.69534 h 0.0805 l 0.0805,19.69534 h 0.24041 l 0.0805,-19.69534 h 4.18695 l 0.0805,19.69534 h 0.88495 l 0.0805,-19.69534 h 5.71644 l 0.0805,19.69534 0.0805,-19.69534 h 0.16114 l 0.0805,19.69534 h 0.24171 l 0.0805,-19.69534 h 0.96552 l 0.0805,19.69534 h 0.24171 l 0.0805,-19.69534 0.0805,19.69534 h 0.0805 l 0.0805,-19.69534 0.0805,19.69534 0.0793,-19.69534 h 0.0805 l 0.0805,19.69534 0.0805,-19.69534 0.0805,19.69534 h 0.16114 l 0.0805,-19.69534 0.0805,19.69534 h 0.16114 l 0.0805,-19.69534 h 1.28778 l 0.0805,19.69534 h 0.0805 l 0.0805,-19.69534 0.0805,19.69534 h 2.73673 l 0.0805,-19.69534 0.0805,19.69534 h 0.64455 l 0.0805,-19.69534 h 2.97842 l 0.0805,19.69534 0.0805,-19.69534 h 0.72511 l 0.0793,19.69534 0.0805,-19.69534 h 0.0805 l 0.0805,19.69534 0.0805,-19.69534 0.0805,19.69534 h 0.96682 l 0.0805,-19.69534 0.0805,19.69534 h 0.32097 l 0.0805,-19.69534 0.0805,19.69534 0.0805,-19.69534 0.0805,19.69534 0.0805,-19.69534 0.0805,19.69534 h 0.56398 l 0.0805,-19.69534 h 1.28779 l 0.0805,19.69534 h 4.02581 l 0.0793,-19.69534 0.0805,19.69534 h 0.40284 l 0.0805,-19.69534 0.0805,19.69534 h 0.32227 l 0.0805,-19.69534 h 1.61006 l 0.0805,19.69534 h 1.36835 l 0.0805,-19.69534 h 1.5295 l 0.0805,19.69534 0.0805,-19.69534 h 0.72511 l 0.0805,19.69534 h 1.12666 l 0.0805,-19.69534 h 0.0805 l 0.0805,19.69534 h 0.0805 l 0.0805,-19.69534 h 0.40155 l 0.0805,19.69534 0.0805,-19.69534 h 0.64454 l 0.0805,19.69534 h 0.0805 l 0.0805,-19.69534 h 0.0805 l 0.0805,19.69534 h 2.49503 l 0.0805,-19.69534 h 2.33517 l 0.0805,19.69534 h 0.2417 l 0.0793,-19.69534 h 0.0805 l 0.0805,19.69534 0.0805,-19.69534 0.0805,19.69534 0.0805,-19.69534 0.0805,19.69534 0.0805,-19.69534 h 0.24171 l 0.0805,19.69534 h 1.5295 l 0.0805,-19.69534 h 0.2417 l 0.0805,19.69534 0.0805,-19.69534 0.0805,19.69534 0.0805,-19.69534 h 2.81729 l 0.0805,19.69534 0.0805,-19.69534 h 1.20723 l 0.0805,19.69534 0.0805,-19.69534 0.0805,19.69534 h 0.16113 l 0.0805,-19.69534 0.0805,19.69534 0.0805,-19.69534 h 2.17405 l 0.0793,19.69534 h 1.12796 l 0.0805,-19.69534 0.0805,19.69534 h 0.0805 l 0.0805,-19.69534 h 1.7712 l 0.0793,19.69534 0.0805,-19.69534 0.0805,19.69534 h 0.80568 l 0.0805,-19.69534 0.0805,19.69534 h 0.0805 l 0.0805,-19.69534 h 0.16114 l 0.0805,19.69534 h 0.80439 l 0.0805,-19.69534 0.0805,19.69534 h 0.0805 l 0.0805,-19.69534 h 0.80438 l 0.0805,19.69534 h 1.12796 l 0.0805,-19.69534 h 0.0805 l 0.0805,19.69534 0.0805,-19.69534 h 1.45152" id="path79752-9"></path> <path style="fill:none;stroke:#ff7f2a;stroke-width:0.75;stroke-linecap:butt;stroke-linejoin:round;stroke-miterlimit:10;stroke-dasharray:none;stroke-opacity:1" d="m 50.301605,147.15122 0.0039,-1.06163 h 0.159884 l 0.08059,19.69404 h 0.07929 l 0.08055,-19.69404 h 0.718836 l 0.07933,19.69404 h 0.07933 l 0.08055,-19.69404 h 0.718826 l 0.07933,19.69404 h 0.08055 l 0.07933,-19.69404 h 0.639543 l 0.07933,19.69404 h 0.55894 l 0.08055,-19.69404 h 0.158584 l 0.08055,19.69404 h 0.07933 l 0.08055,-19.69404 h 2.474965 l 0.08055,19.69404 h 0.399064 l 0.08055,-19.69404 h 1.676838 l 0.07933,19.69404 h 0.319772 l 0.07933,-19.69404 0.08055,19.69404 h 1.516962 l 0.08055,-19.69404 h 0.798127 l 0.07933,19.69404 h 1.038597 l 0.08055,-19.69404 h 0.558949 l 0.07933,19.69404 0.08055,-19.69404 h 0.07933 l 0.08055,19.69404 h 0.07933 l 0.07933,-19.69404 h 0.08055 l 0.07933,19.69404 h 2.955916 l 0.07933,-19.69404 h 0.319772 l 0.07933,19.69404 0.08055,-19.69404 h 2.395664 l 0.07933,19.69404 h 0.799429 l 0.07933,-19.69404 h 2.316371 l 0.07933,19.69404 h 0.08055 l 0.07933,-19.69404 0.08055,19.69404 0.07933,-19.69404 h 2.395664 l 0.08055,19.69404 h 0.878721 l 0.07933,-19.69404 h 2.075893 l 0.08055,19.69404 h 0.958004 l 0.08055,-19.69404 h 1.037304 l 0.08055,19.69404 h 1.11789 l 0.07933,-19.69404 0.08055,19.69404 h 0.239177 l 0.08055,-19.69404 h 0.318461 l 0.08055,19.69404 h 0.239365 l 0.08055,-19.69404 0.07933,19.69404 0.07933,-19.69404 0.08055,19.69404 h 1.117889 l 0.07933,-19.69404 h 0.159805 l 0.08055,19.69404 0.07933,-19.69404 h 1.43766 l 0.08055,19.69404 h 0.638242 l 0.08055,-19.69404 0.07933,19.69404 h 0.07923 l 0.08055,-19.69404 h 0.07933 l 0.08055,19.69404 h 0.718834 l 0.07933,-19.69404 h 0.159885 l 0.07933,19.69404 0.08055,-19.69404 0.07933,19.69404 h 0.639544 l 0.07933,-19.69404 h 0.159886 l 0.08055,19.69404 h 0.399054 l 0.07933,-19.69404 0.08055,19.69404 0.07933,-19.69404 0.08055,19.69404 h 0.239178 l 0.07933,-19.69404 h 1.836725 l 0.08055,19.69404 0.07933,-19.69404 h 0.718825 l 0.08055,19.69404 h 0.239178 l 0.08055,-19.69404 0.07933,19.69404 h 0.638241 l 0.08055,-19.69404 h 0.159885 l 0.07933,19.69404 0.08055,-19.69404 h 0.798127 l 0.08055,19.69404 0.07933,-19.69404 0.07933,19.69404 h 0.159887 l 0.08055,-19.69404 0.07933,19.69404 h 0.958013 l 0.08055,-19.69404 h 1.117889 l 0.08055,19.69404 h 0.07933 l 0.07933,-19.69404 h 1.83803 l 0.0792,19.69404 h 0.0793 l 0.0806,-19.69404 0.0793,19.69404 h 0.71883 l 0.0806,-19.69404 0.0793,19.69404 h 0.0806 l 0.0793,-19.69404 h 0.0793 l 0.0806,19.69404 h 0.39907 l 0.0806,-19.69404 h 1.0373 l 0.0805,19.69404 h 0.0793 l 0.0805,-19.69404 h 0.31847 l 0.0806,19.69404 h 0.87871 l 0.0793,-19.69404 0.0793,19.69404 0.0806,-19.69404 h 0.55895 l 0.0793,19.69404 h 0.0806 l 0.0793,-19.69404 0.0806,19.69404 0.0793,-19.69404 h 0.63954 l 0.0793,19.69404 0.0805,-19.69404 0.0793,19.69404 h 1.59754 l 0.0793,-19.69404 0.0806,19.69404 0.0793,-19.69404 0.0806,19.69404 h 0.71883 l 0.0793,-19.69404 h 0.15989 l 0.0793,19.69404 h 0.0806 l 0.0793,-19.69404 h 0.39906 l 0.0806,19.69404 h 0.31976 l 0.0793,-19.69404 h 1.19849 l 0.0793,19.69404 h 0.87872 l 0.0793,-19.69404 h 1.19848 l 0.0793,19.69404 h 0.31977 l 0.0806,-19.69404 h 0.0793 l 0.0806,19.69404 h 0.0793 l 0.0793,-19.69404 0.0806,19.69404 h 1.0386 l 0.0793,-19.69404 0.0793,19.69404 h 0.0806 l 0.0793,-19.69404 h 1.43766 l 0.0806,19.69404 0.0793,-19.69404 0.0806,19.69404 0.0793,-19.69404 0.0793,19.69404 0.0806,-19.69404 h 1.0386 l 0.0793,19.69404 h 0.23918 l 0.0805,-19.69404 h 1.43766 l 0.0793,19.69404 h 0.15989 l 0.0793,-19.69404 0.0806,19.69404 h 0.39906 l 0.0806,-19.69404 h 0.71883 l 0.0793,19.69404 h 0.87872 l 0.0793,-19.69404 h 1.11789 l 0.0806,19.69404 h 0.0793 l 0.0806,-19.69404 h 0.23918 l 0.0793,19.69404 h 0.15988 l 0.0806,-19.69404 0.0793,19.69404 0.0806,-19.69404 0.0793,19.69404 h 0.95801 l 0.0805,-19.69404 h 1.0386 l 0.0793,19.69404 0.0793,-19.69404 h 0.0805 l 0.0793,19.69404 h 0.47965 l 0.0793,-19.69404 h 1.27777 l 0.0805,19.69404 0.0793,-19.69404 h 0.31977 l 0.0805,19.69404 0.0793,-19.69404 0.0793,19.69404 h 0.31978 l 0.0806,-19.69404 0.0793,19.69404 h 0.71882 l 0.0793,-19.69404 h 0.24048 l 0.0793,19.69404 h 0.0806 l 0.0793,-19.69404 h 0.0805 l 0.0793,19.69404 h 0.15989 l 0.0793,-19.69404 0.0805,19.69404 h 0.15988 l 0.0793,-19.69404 H 136.88 l 0.0793,19.69404 0.0793,-19.69404 h 0.15988 l 0.0805,19.69404 h 0.47836 l 0.0805,-19.69404 0.0793,19.69404 h 0.0805 l 0.0793,-19.69404 h 1.11789 l 0.0805,19.69404 h 1.19719 l 0.0805,-19.69404 0.0793,19.69404 h 0.0805 l 0.0793,-19.69404 h 0.23918 l 0.0805,19.69404 h 0.23918 l 0.0805,-19.69404 h 0.0793 l 0.0793,19.69404 h 0.47966 l 0.0805,-19.69404 h 0.71883 l 0.0793,19.69404 h 0.958 l 0.0805,-19.69404 0.0793,19.69404 h 0.15989 l 0.0793,-19.69404 0.0805,19.69404 h 0.0793 l 0.0805,-19.69404 h 1.19718 l 0.0805,19.69404 h 0.31977 l 0.0793,-19.69404 h 0.0793 l 0.0805,19.69404 h 0.39905 l 0.0805,-19.69404 h 0.39907 l 0.0793,19.69404 0.0805,-19.69404 h 1.11788 l 0.0793,19.69404 0.0805,-19.69404 h 0.0793 l 0.0805,19.69404 h 0.79812 l 0.0793,-19.69404 h 0.15988 l 0.0805,19.69404 h 0.0793 l 0.0805,-19.69404 h 0.0793 l 0.0793,19.69404 h 0.15989 l 0.0805,-19.69404 h 1.43766 l 0.0793,19.69404 h 0.0805 l 0.0793,-19.69404 h 0.15988 l 0.0793,19.69404 h 0.40036 l 0.0793,-19.69404 h 0.79813 l 0.0805,19.69404 h 0.95801 l 0.0805,-19.69404 h 0.0793 l 0.0793,19.69404 h 0.56024 l 0.0793,-19.69404 h 0.15989 l 0.0793,19.69404 0.0805,-19.69404 h 1.11788 l 0.0793,19.69404 h 0.87872 l 0.0805,-19.69404 h 1.75613 l 0.0805,19.69404 h 1.35708 l 0.0805,-19.69404 h 0.87741 l 0.0805,19.69404 h 0.0793 l 0.0805,-19.69404 0.0793,19.69404 h 0.63953 l 0.0793,-19.69404 h 0.24048 l 0.0793,19.69404 h 0.0793 l 0.0805,-19.69404 h 0.79812 l 0.0805,19.69404 h 0.15988 l 0.0793,-19.69404 0.0793,19.69404 h 0.15988 l 0.0805,-19.69404 h 1.43766 l 0.0793,19.69404 h 0.15988 l 0.0793,-19.69404 0.0805,19.69404 h 0.79811 l 0.0805,-19.69404 h 1.27778 l 0.0793,19.69404 0.0805,-19.69404 0.0793,19.69404 h 0.64214" id="path79754-3"></path> <path style="fill:none;stroke:#000000;stroke-width:0.942999;stroke-linecap:butt;stroke-linejoin:round;stroke-miterlimit:10;stroke-dasharray:none;stroke-opacity:1" d="M 50.148623,168.26874 H 74.100787" id="path79756-6"></path> <text xml:space="preserve" style="font-style:normal;font-variant:normal;font-weight:normal;font-stretch:normal;font-size:5.64444px;line-height:1.25;font-family:sans-serif;-inkscape-font-specification:'sans-serif, Normal';font-variant-ligatures:normal;font-variant-caps:normal;font-variant-numeric:normal;font-variant-east-asian:normal;letter-spacing:0px;word-spacing:0px;fill:#000000;fill-opacity:1;stroke:none;stroke-width:0.249501" x="57.003918" y="174.8248" id="text79801"><tspan sodipodi:role="line" id="tspan79799" style="font-style:normal;font-variant:normal;font-weight:normal;font-stretch:normal;font-size:5.64444px;font-family:sans-serif;-inkscape-font-specification:'sans-serif, Normal';font-variant-ligatures:normal;font-variant-caps:normal;font-variant-numeric:normal;font-variant-east-asian:normal;stroke-width:0.249501" x="57.003918" y="174.8248">60s</tspan></text> <text xml:space="preserve" style="font-style:normal;font-variant:normal;font-weight:normal;font-stretch:normal;font-size:5.64444px;line-height:1.25;font-family:sans-serif;-inkscape-font-specification:'sans-serif, Normal';font-variant-ligatures:normal;font-variant-caps:normal;font-variant-numeric:normal;font-variant-east-asian:normal;letter-spacing:0px;word-spacing:0px;fill:#000000;fill-opacity:1;stroke:none;stroke-width:0.264583" x="49.325588" y="75.624725" id="text81339"><tspan sodipodi:role="line" id="tspan81337" style="font-style:normal;font-variant:normal;font-weight:normal;font-stretch:normal;font-size:5.64444px;font-family:sans-serif;-inkscape-font-specification:'sans-serif, Normal';font-variant-ligatures:normal;font-variant-caps:normal;font-variant-numeric:normal;font-variant-east-asian:normal;stroke-width:0.264583" x="49.325588" y="75.624725">m<tspan style="font-style:normal;font-variant:normal;font-weight:normal;font-stretch:normal;font-size:5.64444px;font-family:sans-serif;-inkscape-font-specification:'sans-serif, Normal';font-variant-ligatures:normal;font-variant-caps:normal;font-variant-numeric:normal;font-variant-east-asian:normal;baseline-shift:sub" id="tspan81341">L</tspan> - m<tspan style="font-style:normal;font-variant:normal;font-weight:normal;font-stretch:normal;font-size:5.64444px;font-family:sans-serif;-inkscape-font-specification:'sans-serif, Normal';font-variant-ligatures:normal;font-variant-caps:normal;font-variant-numeric:normal;font-variant-east-asian:normal;baseline-shift:sub" id="tspan81343">R</tspan> (binarized)</tspan></text> <text id="text222869" y="110.71175" x="49.284248" style="font-style:normal;font-variant:normal;font-weight:normal;font-stretch:normal;font-size:5.64444px;line-height:1.25;font-family:sans-serif;-inkscape-font-specification:'sans-serif, Normal';font-variant-ligatures:normal;font-variant-caps:normal;font-variant-numeric:normal;font-variant-east-asian:normal;letter-spacing:0px;word-spacing:0px;fill:#000000;fill-opacity:1;stroke:none;stroke-width:0.264583" xml:space="preserve"><tspan y="110.71175" x="49.284248" style="font-style:normal;font-variant:normal;font-weight:normal;font-stretch:normal;font-size:5.64444px;font-family:sans-serif;-inkscape-font-specification:'sans-serif, Normal';font-variant-ligatures:normal;font-variant-caps:normal;font-variant-numeric:normal;font-variant-east-asian:normal;stroke-width:0.264583" id="tspan222867" sodipodi:role="line">Left state</tspan></text> <text xml:space="preserve" style="font-style:normal;font-variant:normal;font-weight:normal;font-stretch:normal;font-size:5.64444px;line-height:1.25;font-family:sans-serif;-inkscape-font-specification:'sans-serif, Normal';font-variant-ligatures:normal;font-variant-caps:normal;font-variant-numeric:normal;font-variant-east-asian:normal;letter-spacing:0px;word-spacing:0px;fill:#000000;fill-opacity:1;stroke:none;stroke-width:0.264583" x="49.284248" y="137.6992" id="text222873"><tspan sodipodi:role="line" id="tspan222871" style="font-style:normal;font-variant:normal;font-weight:normal;font-stretch:normal;font-size:5.64444px;font-family:sans-serif;-inkscape-font-specification:'sans-serif, Normal';font-variant-ligatures:normal;font-variant-caps:normal;font-variant-numeric:normal;font-variant-east-asian:normal;stroke-width:0.264583" x="49.284248" y="137.6992">Right state</tspan></text> <text xml:space="preserve" style="font-size:10.5833px;line-height:1.25;font-family:helvetica;-inkscape-font-specification:helvetica;letter-spacing:0px;word-spacing:0px;stroke-width:0.264583" x="-153.11821" y="237.08636" id="text44410"><tspan sodipodi:role="line" id="tspan44408" x="-153.11821" y="237.08636" style="stroke-width:0.264583"></tspan></text> <text xml:space="preserve" style="font-size:10.5833px;line-height:1.25;font-family:helvetica;-inkscape-font-specification:helvetica;letter-spacing:0px;word-spacing:0px;stroke-width:0.264583" x="-141.72485" y="249.24254" id="text44414"><tspan sodipodi:role="line" id="tspan44412" x="-141.72485" y="249.24254" style="stroke-width:0.264583"></tspan></text> </g>
</svg>
