<?xml version="1.0"?>

<svg width="164.34326" height="159.67899" viewBox="0 0 164.34326 159.67899" version="1.1" id="svg8" inkscape:version="1.1 (c4e8f9ed74, 2021-05-24)" sodipodi:docname="pdf_position_baseline.svg" xmlns:inkscape="http://www.inkscape.org/namespaces/inkscape" xmlns:sodipodi="http://sodipodi.sourceforge.net/DTD/sodipodi-0.dtd" xmlns="http://www.w3.org/2000/svg" xmlns:svg="http://www.w3.org/2000/svg" xmlns:rdf="http://www.w3.org/1999/02/22-rdf-syntax-ns#" xmlns:cc="http://creativecommons.org/ns#" xmlns:dc="http://purl.org/dc/elements/1.1/"> <defs id="defs2"> <g id="g1130"> <symbol overflow="visible" id="glyph0-0"> <path style="stroke:none" d="m 1.5,0 v -7.5 h 6 V 0 Z m 0.1875,-0.1875 h 5.625 v -7.125 h -5.625 z m 0,0" id="path899"></path> </symbol> <symbol overflow="visible" id="glyph0-1"> <path style="stroke:none" d="m 0.5,-4.234375 c 0,-1.019531 0.101562,-1.835937 0.3125,-2.453125 0.207031,-0.625 0.515625,-1.101562 0.921875,-1.4375 0.414063,-0.332031 0.9375,-0.5 1.5625,-0.5 0.457031,0 0.859375,0.09375 1.203125,0.28125 0.351562,0.1875 0.644531,0.460938 0.875,0.8125 0.226562,0.34375 0.40625,0.765625 0.53125,1.265625 0.125,0.5 0.1875,1.179687 0.1875,2.03125 0,1.011719 -0.105469,1.824219 -0.3125,2.4375 -0.199219,0.617187 -0.507812,1.09375 -0.921875,1.4375 -0.40625,0.3359375 -0.929687,0.5 -1.5625,0.5 C 2.472656,0.140625 1.820312,-0.15625 1.34375,-0.75 0.78125,-1.457031 0.5,-2.617188 0.5,-4.234375 Z m 1.078125,0 c 0,1.40625 0.164063,2.34375 0.5,2.8125 0.332031,0.46875 0.738281,0.703125 1.21875,0.703125 0.488281,0 0.894531,-0.234375 1.21875,-0.703125 0.332031,-0.46875 0.5,-1.40625 0.5,-2.8125 0,-1.414063 -0.167969,-2.351563 -0.5,-2.8125 C 4.191406,-7.515625 3.78125,-7.75 3.28125,-7.75 c -0.480469,0 -0.867188,0.203125 -1.15625,0.609375 -0.367188,0.523437 -0.546875,1.492187 -0.546875,2.90625 z m 0,0" id="path902"></path> </symbol> <symbol overflow="visible" id="glyph0-2"> <path style="stroke:none" d="M 6.046875,-1.015625 V 0 h -5.6875 c 0,-0.25 0.039063,-0.492188 0.125,-0.734375 C 0.628906,-1.117188 0.859375,-1.5 1.171875,-1.875 1.492188,-2.25 1.957031,-2.679688 2.5625,-3.171875 3.5,-3.941406 4.128906,-4.550781 4.453125,-5 c 0.332031,-0.445312 0.5,-0.867188 0.5,-1.265625 C 4.953125,-6.679688 4.800781,-7.03125 4.5,-7.3125 4.195312,-7.601562 3.804688,-7.75 3.328125,-7.75 c -0.511719,0 -0.917969,0.152344 -1.21875,0.453125 -0.304687,0.304687 -0.460937,0.726563 -0.46875,1.265625 L 0.5625,-6.140625 c 0.070312,-0.8125 0.347656,-1.425781 0.828125,-1.84375 C 1.878906,-8.410156 2.535156,-8.625 3.359375,-8.625 c 0.820313,0 1.472656,0.230469 1.953125,0.6875 0.476562,0.460938 0.71875,1.027344 0.71875,1.703125 0,0.34375 -0.074219,0.683594 -0.21875,1.015625 -0.136719,0.324219 -0.371094,0.671875 -0.703125,1.046875 -0.324219,0.367187 -0.859375,0.867187 -1.609375,1.5 -0.636719,0.53125 -1.046875,0.898437 -1.234375,1.09375 -0.179687,0.1875 -0.324219,0.375 -0.4375,0.5625 z m 0,0" id="path905"></path> </symbol> <symbol overflow="visible" id="glyph0-3"> <path style="stroke:none" d="M 3.875,0 V -2.0625 H 0.15625 v -0.96875 l 3.921875,-5.5625 H 4.9375 v 5.5625 H 6.09375 V -2.0625 H 4.9375 V 0 Z m 0,-3.03125 V -6.890625 L 1.1875,-3.03125 Z m 0,0" id="path908"></path> </symbol> <symbol overflow="visible" id="glyph0-4"> <path style="stroke:none" d="M 5.96875,-6.484375 4.921875,-6.40625 C 4.828125,-6.820312 4.695312,-7.125 4.53125,-7.3125 4.238281,-7.613281 3.882812,-7.765625 3.46875,-7.765625 c -0.335938,0 -0.632812,0.09375 -0.890625,0.28125 -0.324219,0.25 -0.585937,0.609375 -0.78125,1.078125 -0.1875,0.460938 -0.289063,1.117188 -0.296875,1.96875 0.25,-0.382812 0.554688,-0.671875 0.921875,-0.859375 0.375,-0.1875 0.765625,-0.28125 1.171875,-0.28125 0.695312,0 1.289062,0.261719 1.78125,0.78125 0.5,0.523437 0.75,1.1875 0.75,2 0,0.542969 -0.121094,1.046875 -0.359375,1.515625 -0.230469,0.460938 -0.546875,0.8125 -0.953125,1.0625 -0.40625,0.2382812 -0.867188,0.359375 -1.375,0.359375 -0.886719,0 -1.605469,-0.320313 -2.15625,-0.96875 -0.554688,-0.644531 -0.828125,-1.707031 -0.828125,-3.1875 0,-1.664063 0.304687,-2.875 0.921875,-3.625 0.53125,-0.65625 1.25,-0.984375 2.15625,-0.984375 0.675781,0 1.226562,0.195312 1.65625,0.578125 0.4375,0.375 0.695312,0.898437 0.78125,1.5625 z M 1.671875,-2.78125 c 0,0.367188 0.070313,0.714844 0.21875,1.046875 0.15625,0.324219 0.367187,0.574219 0.640625,0.75 0.28125,0.179687 0.578125,0.265625 0.890625,0.265625 0.4375,0 0.816406,-0.175781 1.140625,-0.53125 0.320312,-0.363281 0.484375,-0.851562 0.484375,-1.46875 0,-0.59375 -0.164063,-1.0625 -0.484375,-1.40625 C 4.25,-4.46875 3.851562,-4.640625 3.375,-4.640625 c -0.480469,0 -0.886719,0.171875 -1.21875,0.515625 -0.324219,0.34375 -0.484375,0.792969 -0.484375,1.34375 z m 0,0" id="path911"></path> </symbol> <symbol overflow="visible" id="glyph0-5"> <path style="stroke:none" d="M 2.125,-4.65625 C 1.6875,-4.820312 1.359375,-5.050781 1.140625,-5.34375 0.929688,-5.644531 0.828125,-6 0.828125,-6.40625 0.828125,-7.03125 1.050781,-7.554688 1.5,-7.984375 1.957031,-8.410156 2.554688,-8.625 3.296875,-8.625 c 0.75,0 1.351563,0.21875 1.8125,0.65625 0.457031,0.4375 0.6875,0.96875 0.6875,1.59375 0,0.398438 -0.105469,0.742188 -0.3125,1.03125 -0.210937,0.292969 -0.527344,0.523438 -0.953125,0.6875 0.53125,0.167969 0.929688,0.445312 1.203125,0.828125 0.269531,0.386719 0.40625,0.84375 0.40625,1.375 0,0.730469 -0.261719,1.34375 -0.78125,1.84375 -0.511719,0.5 -1.195313,0.75 -2.046875,0.75 -0.84375,0 -1.527344,-0.25 -2.046875,-0.75 -0.523437,-0.5 -0.78125,-1.125 -0.78125,-1.875 0,-0.5625 0.140625,-1.03125 0.421875,-1.40625 0.289062,-0.375 0.695312,-0.628906 1.21875,-0.765625 z M 1.90625,-6.453125 c 0,0.40625 0.128906,0.742187 0.390625,1 0.269531,0.261719 0.613281,0.390625 1.03125,0.390625 0.40625,0 0.738281,-0.125 1,-0.375 0.257813,-0.257812 0.390625,-0.578125 0.390625,-0.953125 0,-0.382813 -0.136719,-0.707031 -0.40625,-0.96875 -0.273438,-0.269531 -0.605469,-0.40625 -1,-0.40625 -0.40625,0 -0.746094,0.132813 -1.015625,0.390625 -0.261719,0.261719 -0.390625,0.570312 -0.390625,0.921875 z m -0.328125,3.96875 c 0,0.304687 0.066406,0.59375 0.203125,0.875 0.144531,0.28125 0.359375,0.5 0.640625,0.65625 0.28125,0.15625 0.582031,0.234375 0.90625,0.234375 0.5,0 0.910156,-0.160156 1.234375,-0.484375 0.332031,-0.320313 0.5,-0.734375 0.5,-1.234375 0,-0.507812 -0.167969,-0.929688 -0.5,-1.265625 -0.335938,-0.332031 -0.757812,-0.5 -1.265625,-0.5 -0.5,0 -0.914063,0.167969 -1.234375,0.5 -0.324219,0.324219 -0.484375,0.730469 -0.484375,1.21875 z m 0,0" id="path914"></path> </symbol> <symbol overflow="visible" id="glyph0-6"> <path style="stroke:none" d="M 4.46875,0 H 3.421875 V -6.71875 C 3.160156,-6.476562 2.820312,-6.234375 2.40625,-5.984375 2,-5.742188 1.632812,-5.566406 1.3125,-5.453125 V -6.46875 c 0.582031,-0.28125 1.09375,-0.613281 1.53125,-1 C 3.289062,-7.863281 3.609375,-8.25 3.796875,-8.625 H 4.46875 Z m 0,0" id="path917"></path> </symbol> <symbol overflow="visible" id="glyph0-7"> <path style="stroke:none" d="M 1.09375,0 V -1.203125 H 2.296875 V 0 Z m 0,0" id="path920"></path> </symbol> <symbol overflow="visible" id="glyph0-8"> <path style="stroke:none" d="m 0.5,-2.25 1.109375,-0.09375 c 0.082031,0.542969 0.269531,0.949219 0.5625,1.21875 0.300781,0.273438 0.664063,0.40625 1.09375,0.40625 0.5,0 0.925781,-0.191406 1.28125,-0.578125 C 4.898438,-1.679688 5.078125,-2.1875 5.078125,-2.8125 5.078125,-3.414062 4.90625,-3.890625 4.5625,-4.234375 4.226562,-4.585938 3.785156,-4.765625 3.234375,-4.765625 2.898438,-4.765625 2.59375,-4.6875 2.3125,-4.53125 2.039062,-4.375 1.828125,-4.175781 1.671875,-3.9375 L 0.6875,-4.0625 1.515625,-8.46875 h 4.28125 v 1 h -3.4375 l -0.453125,2.3125 c 0.507812,-0.363281 1.046875,-0.546875 1.609375,-0.546875 0.75,0 1.378906,0.261719 1.890625,0.78125 0.519531,0.523437 0.78125,1.195313 0.78125,2.015625 0,0.773438 -0.226562,1.445312 -0.671875,2.015625 -0.554687,0.6875 -1.304687,1.03125 -2.25,1.03125 -0.78125,0 -1.421875,-0.21875 -1.921875,-0.65625 C 0.851562,-0.953125 0.570312,-1.53125 0.5,-2.25 Z m 0,0" id="path923"></path> </symbol> <symbol overflow="visible" id="glyph0-9"> <path style="stroke:none" d="M 0.5,-2.265625 1.5625,-2.40625 c 0.113281,0.59375 0.316406,1.027344 0.609375,1.296875 0.289063,0.261719 0.644531,0.390625 1.0625,0.390625 0.5,0 0.921875,-0.171875 1.265625,-0.515625 0.34375,-0.34375 0.515625,-0.769531 0.515625,-1.28125 0,-0.476563 -0.164063,-0.875 -0.484375,-1.1875 C 4.21875,-4.023438 3.816406,-4.1875 3.328125,-4.1875 c -0.199219,0 -0.449219,0.042969 -0.75,0.125 L 2.703125,-5 c 0.070313,0.011719 0.128906,0.015625 0.171875,0.015625 0.445312,0 0.847656,-0.113281 1.203125,-0.34375 C 4.441406,-5.566406 4.625,-5.929688 4.625,-6.421875 4.625,-6.804688 4.492188,-7.125 4.234375,-7.375 3.972656,-7.632812 3.632812,-7.765625 3.21875,-7.765625 c -0.40625,0 -0.75,0.132813 -1.03125,0.390625 -0.273438,0.261719 -0.445312,0.648438 -0.515625,1.15625 l -1.0625,-0.1875 c 0.125,-0.695312 0.414063,-1.238281 0.875,-1.625 C 1.941406,-8.425781 2.507812,-8.625 3.1875,-8.625 c 0.46875,0 0.898438,0.105469 1.296875,0.3125 0.394531,0.199219 0.695313,0.46875 0.90625,0.8125 0.207031,0.34375 0.3125,0.714844 0.3125,1.109375 0,0.367187 -0.101563,0.703125 -0.296875,1.015625 -0.199219,0.304688 -0.492188,0.542969 -0.875,0.71875 0.5,0.117188 0.890625,0.359375 1.171875,0.734375 0.28125,0.367187 0.421875,0.828125 0.421875,1.390625 0,0.75 -0.277344,1.386719 -0.828125,1.90625 -0.542969,0.523438 -1.230469,0.78125 -2.0625,0.78125 -0.75,0 -1.375,-0.2226562 -1.875,-0.671875 -0.5,-0.457031 -0.789063,-1.039063 -0.859375,-1.75 z m 0,0" id="path926"></path> </symbol> <symbol overflow="visible" id="glyph1-0"> <path style="stroke:none" d="M 1.65625,0 V -8.25 H 8.25 V 0 Z m 0.203125,-0.203125 h 6.1875 v -7.84375 h -6.1875 z m 0,0" id="path929"></path> </symbol> <symbol overflow="visible" id="glyph1-1"> <path style="stroke:none" d="m 0.875,2.625 v -9.46875 h 1.046875 v 0.890625 c 0.25,-0.351563 0.53125,-0.613281 0.84375,-0.78125 C 3.085938,-6.910156 3.46875,-7 3.90625,-7 4.5,-7 5.015625,-6.847656 5.453125,-6.546875 c 0.445313,0.304687 0.785156,0.730469 1.015625,1.28125 0.226562,0.542969 0.34375,1.140625 0.34375,1.796875 0,0.699219 -0.125,1.328125 -0.375,1.890625 -0.25,0.5625 -0.617188,0.996094 -1.09375,1.296875 -0.480469,0.2890625 -0.984375,0.4375 -1.515625,0.4375 -0.386719,0 -0.734375,-0.078125 -1.046875,-0.234375 -0.304688,-0.164063 -0.554688,-0.375 -0.75,-0.625 V 2.625 Z m 1.046875,-6.015625 c 0,0.886719 0.175781,1.542969 0.53125,1.96875 0.351563,0.417969 0.785156,0.625 1.296875,0.625 0.519531,0 0.960938,-0.21875 1.328125,-0.65625 0.363281,-0.4375 0.546875,-1.113281 0.546875,-2.03125 0,-0.875 -0.183594,-1.523437 -0.546875,-1.953125 -0.355469,-0.4375 -0.78125,-0.65625 -1.28125,-0.65625 -0.492187,0 -0.929687,0.234375 -1.3125,0.703125 -0.375,0.460937 -0.5625,1.125 -0.5625,2 z m 0,0" id="path932"></path> </symbol> <symbol overflow="visible" id="glyph1-2"> <path style="stroke:none" d="m 0.4375,-3.421875 c 0,-1.269531 0.351562,-2.207031 1.0625,-2.8125 C 2.082031,-6.742188 2.800781,-7 3.65625,-7 c 0.9375,0 1.703125,0.308594 2.296875,0.921875 0.601563,0.617187 0.90625,1.46875 0.90625,2.5625 0,0.875 -0.136719,1.570313 -0.40625,2.078125 -0.261719,0.5 -0.648437,0.890625 -1.15625,1.171875 -0.5,0.28125 -1.046875,0.421875 -1.640625,0.421875 -0.960938,0 -1.734375,-0.304688 -2.328125,-0.921875 -0.59375,-0.613281 -0.890625,-1.5 -0.890625,-2.65625 z m 1.1875,0 c 0,0.875 0.191406,1.53125 0.578125,1.96875 0.382813,0.4375 0.867187,0.65625 1.453125,0.65625 0.570312,0 1.046875,-0.21875 1.421875,-0.65625 0.382813,-0.4375 0.578125,-1.109375 0.578125,-2.015625 0,-0.84375 -0.195312,-1.484375 -0.578125,-1.921875 -0.386719,-0.4375 -0.859375,-0.65625 -1.421875,-0.65625 -0.585938,0 -1.070312,0.21875 -1.453125,0.65625 -0.386719,0.4375 -0.578125,1.09375 -0.578125,1.96875 z m 0,0" id="path935"></path> </symbol> <symbol overflow="visible" id="glyph1-3"> <path style="stroke:none" d="M 0.40625,-2.046875 1.546875,-2.21875 c 0.070313,0.460938 0.253906,0.8125 0.546875,1.0625 0.289062,0.242188 0.703125,0.359375 1.234375,0.359375 0.53125,0 0.925781,-0.109375 1.1875,-0.328125 0.257813,-0.21875 0.390625,-0.472656 0.390625,-0.765625 0,-0.257813 -0.117188,-0.46875 -0.34375,-0.625 C 4.394531,-2.609375 4,-2.738281 3.375,-2.90625 2.519531,-3.113281 1.925781,-3.296875 1.59375,-3.453125 c -0.324219,-0.15625 -0.574219,-0.375 -0.75,-0.65625 -0.167969,-0.28125 -0.25,-0.585937 -0.25,-0.921875 0,-0.300781 0.066406,-0.582031 0.203125,-0.84375 C 0.941406,-6.132812 1.132812,-6.351562 1.375,-6.53125 1.5625,-6.65625 1.804688,-6.765625 2.109375,-6.859375 2.421875,-6.953125 2.757812,-7 3.125,-7 c 0.53125,0 1,0.078125 1.40625,0.234375 0.40625,0.15625 0.703125,0.367187 0.890625,0.625 0.195313,0.261719 0.332031,0.617187 0.40625,1.0625 l -1.125,0.15625 C 4.648438,-5.273438 4.5,-5.550781 4.25,-5.75 4,-5.945312 3.648438,-6.046875 3.203125,-6.046875 c -0.53125,0 -0.914063,0.089844 -1.140625,0.265625 -0.230469,0.179688 -0.34375,0.386719 -0.34375,0.625 0,0.148438 0.046875,0.28125 0.140625,0.40625 0.09375,0.117188 0.242187,0.214844 0.453125,0.296875 0.113281,0.042969 0.453125,0.140625 1.015625,0.296875 0.820313,0.21875 1.394531,0.402344 1.71875,0.546875 C 5.367188,-3.472656 5.625,-3.269531 5.8125,-3 6,-2.738281 6.09375,-2.410156 6.09375,-2.015625 c 0,0.386719 -0.117188,0.75 -0.34375,1.09375 C 5.53125,-0.578125 5.207031,-0.3125 4.78125,-0.125 4.351562,0.0625 3.867188,0.15625 3.328125,0.15625 c -0.886719,0 -1.5625,-0.1796875 -2.03125,-0.546875 -0.46875,-0.375 -0.765625,-0.925781 -0.890625,-1.65625 z m 0,0" id="path938"></path> </symbol> <symbol overflow="visible" id="glyph1-4"> <path style="stroke:none" d="m 0.875,-8.109375 v -1.34375 h 1.15625 v 1.34375 z M 0.875,0 V -6.84375 H 2.03125 V 0 Z m 0,0" id="path941"></path> </symbol> <symbol overflow="visible" id="glyph1-5"> <path style="stroke:none" d="m 3.40625,-1.03125 0.171875,1.015625 C 3.242188,0.0546875 2.945312,0.09375 2.6875,0.09375 2.269531,0.09375 1.941406,0.0234375 1.703125,-0.109375 1.472656,-0.242188 1.3125,-0.414062 1.21875,-0.625 1.125,-0.84375 1.078125,-1.300781 1.078125,-2 v -3.9375 h -0.84375 v -0.90625 h 0.84375 v -1.703125 l 1.15625,-0.6875 V -6.84375 H 3.40625 V -5.9375 H 2.234375 v 4 c 0,0.335938 0.019531,0.546875 0.0625,0.640625 C 2.335938,-1.203125 2.40625,-1.128906 2.5,-1.078125 2.59375,-1.023438 2.722656,-1 2.890625,-1 3.023438,-1 3.195312,-1.007812 3.40625,-1.03125 Z m 0,0" id="path944"></path> </symbol> <symbol overflow="visible" id="glyph1-6"> <path style="stroke:none" d="M 0.875,0 V -6.84375 H 1.921875 V -5.875 C 2.421875,-6.625 3.144531,-7 4.09375,-7 4.507812,-7 4.890625,-6.925781 5.234375,-6.78125 5.578125,-6.632812 5.832031,-6.4375 6,-6.1875 c 0.175781,0.242188 0.300781,0.523438 0.375,0.84375 0.039062,0.21875 0.0625,0.601562 0.0625,1.140625 V 0 H 5.28125 v -4.171875 c 0,-0.46875 -0.046875,-0.816406 -0.140625,-1.046875 C 5.046875,-5.457031 4.882812,-5.644531 4.65625,-5.78125 4.425781,-5.925781 4.15625,-6 3.84375,-6 3.351562,-6 2.925781,-5.835938 2.5625,-5.515625 c -0.355469,0.3125 -0.53125,0.90625 -0.53125,1.78125 V 0 Z m 0,0" id="path947"></path> </symbol> <symbol overflow="visible" id="glyph1-7"> <path style="stroke:none" d="" id="path950"></path> </symbol> <symbol overflow="visible" id="glyph1-8"> <path style="stroke:none" d="M 3.09375,2.78125 C 2.445312,1.96875 1.898438,1.019531 1.453125,-0.0625 c -0.4375,-1.082031 -0.65625,-2.203125 -0.65625,-3.359375 0,-1.019531 0.164063,-2 0.5,-2.9375 0.382813,-1.09375 0.984375,-2.175781 1.796875,-3.25 h 0.828125 c -0.523437,0.898437 -0.867187,1.53125 -1.03125,1.90625 -0.261719,0.59375 -0.46875,1.214844 -0.625,1.859375 -0.1875,0.804688 -0.28125,1.609375 -0.28125,2.421875 0,2.074219 0.644531,4.140625 1.9375,6.203125 z m 0,0" id="path953"></path> </symbol> <symbol overflow="visible" id="glyph1-9"> <path style="stroke:none" d="m 0.875,0 v -6.84375 h 1.03125 v 0.953125 C 2.125,-6.222656 2.410156,-6.488281 2.765625,-6.6875 3.117188,-6.894531 3.523438,-7 3.984375,-7 c 0.507813,0 0.925781,0.105469 1.25,0.3125 0.320313,0.210938 0.550781,0.507812 0.6875,0.890625 C 6.460938,-6.597656 7.164062,-7 8.03125,-7 c 0.675781,0 1.195312,0.1875 1.5625,0.5625 0.363281,0.375 0.546875,0.953125 0.546875,1.734375 V 0 H 9 v -4.3125 c 0,-0.46875 -0.042969,-0.800781 -0.125,-1 -0.074219,-0.207031 -0.210938,-0.375 -0.40625,-0.5 C 8.269531,-5.9375 8.039062,-6 7.78125,-6 7.289062,-6 6.882812,-5.835938 6.5625,-5.515625 6.25,-5.191406 6.09375,-4.679688 6.09375,-3.984375 V 0 H 4.9375 v -4.453125 c 0,-0.507813 -0.09375,-0.894531 -0.28125,-1.15625 C 4.46875,-5.867188 4.15625,-6 3.71875,-6 c -0.324219,0 -0.625,0.089844 -0.90625,0.265625 -0.273438,0.167969 -0.46875,0.417969 -0.59375,0.75 -0.125,0.335937 -0.1875,0.8125 -0.1875,1.4375 V 0 Z m 0,0" id="path956"></path> </symbol> <symbol overflow="visible" id="glyph1-10"> <path style="stroke:none" d="M 1.625,2.78125 H 0.796875 c 1.289063,-2.0625 1.9375,-4.128906 1.9375,-6.203125 0,-0.800781 -0.09375,-1.601563 -0.28125,-2.40625 -0.148437,-0.632813 -0.351563,-1.25 -0.609375,-1.84375 -0.179688,-0.394531 -0.527344,-1.039063 -1.046875,-1.9375 H 1.625 c 0.8125,1.074219 1.410156,2.15625 1.796875,3.25 0.332031,0.9375 0.5,1.917969 0.5,2.9375 0,1.15625 -0.226563,2.277344 -0.671875,3.359375 C 2.800781,1.019531 2.257812,1.96875 1.625,2.78125 Z m 0,0" id="path959"></path> </symbol> <symbol overflow="visible" id="glyph1-11"> <path style="stroke:none" d="M 5.5625,-2.203125 6.75,-2.0625 C 6.5625,-1.351562 6.210938,-0.804688 5.703125,-0.421875 5.191406,-0.0351562 4.539062,0.15625 3.75,0.15625 c -1,0 -1.796875,-0.304688 -2.390625,-0.921875 -0.585937,-0.625 -0.875,-1.488281 -0.875,-2.59375 0,-1.15625 0.296875,-2.050781 0.890625,-2.6875 C 1.96875,-6.679688 2.738281,-7 3.6875,-7 c 0.90625,0 1.648438,0.3125 2.234375,0.9375 0.582031,0.625 0.875,1.5 0.875,2.625 0,0.074219 -0.00781,0.179688 -0.015625,0.3125 H 1.6875 c 0.039062,0.75 0.25,1.328125 0.625,1.734375 0.382812,0.398437 0.863281,0.59375 1.4375,0.59375 0.425781,0 0.789062,-0.109375 1.09375,-0.328125 0.300781,-0.226562 0.539062,-0.585938 0.71875,-1.078125 z M 1.75,-4.078125 H 5.5625 C 5.519531,-4.648438 5.375,-5.082031 5.125,-5.375 4.757812,-5.820312 4.28125,-6.046875 3.6875,-6.046875 c -0.53125,0 -0.980469,0.179687 -1.34375,0.53125 -0.355469,0.355469 -0.554688,0.835937 -0.59375,1.4375 z m 0,0" id="path962"></path> </symbol> <symbol overflow="visible" id="glyph1-12"> <path style="stroke:none" d="M 0.859375,0 V -6.84375 H 1.90625 V -5.8125 C 2.164062,-6.289062 2.410156,-6.609375 2.640625,-6.765625 2.867188,-6.921875 3.117188,-7 3.390625,-7 c 0.382813,0 0.78125,0.125 1.1875,0.375 l -0.40625,1.078125 c -0.28125,-0.164063 -0.5625,-0.25 -0.84375,-0.25 -0.25,0 -0.480469,0.078125 -0.6875,0.234375 -0.199219,0.148438 -0.339844,0.355469 -0.421875,0.625 -0.136719,0.417969 -0.203125,0.871094 -0.203125,1.359375 V 0 Z m 0,0" id="path965"></path> </symbol> <symbol overflow="visible" id="glyph1-13"> <path style="stroke:none" d="m 5.34375,-0.84375 c -0.4375,0.367188 -0.855469,0.625 -1.25,0.78125 -0.398438,0.1445312 -0.824219,0.21875 -1.28125,0.21875 -0.75,0 -1.328125,-0.1796875 -1.734375,-0.546875 -0.398437,-0.375 -0.59375,-0.847656 -0.59375,-1.421875 0,-0.332031 0.070313,-0.632812 0.21875,-0.90625 0.15625,-0.28125 0.351563,-0.503906 0.59375,-0.671875 0.25,-0.164063 0.53125,-0.289063 0.84375,-0.375 0.226563,-0.0625 0.570313,-0.125 1.03125,-0.1875 0.9375,-0.101563 1.625,-0.234375 2.0625,-0.390625 C 5.242188,-4.5 5.25,-4.597656 5.25,-4.640625 c 0,-0.476563 -0.109375,-0.8125 -0.328125,-1 -0.304687,-0.269531 -0.746094,-0.40625 -1.328125,-0.40625 -0.542969,0 -0.945312,0.101563 -1.203125,0.296875 C 2.128906,-5.5625 1.9375,-5.222656 1.8125,-4.734375 L 0.671875,-4.890625 C 0.773438,-5.378906 0.945312,-5.769531 1.1875,-6.0625 1.425781,-6.363281 1.765625,-6.59375 2.203125,-6.75 2.648438,-6.914062 3.171875,-7 3.765625,-7 c 0.582031,0 1.054687,0.070312 1.421875,0.203125 0.363281,0.136719 0.628906,0.308594 0.796875,0.515625 0.175781,0.210938 0.300781,0.476562 0.375,0.796875 0.039063,0.199219 0.0625,0.554687 0.0625,1.0625 V -2.875 c 0,1.085938 0.019531,1.773438 0.0625,2.0625 C 6.535156,-0.53125 6.632812,-0.257812 6.78125,0 H 5.5625 C 5.445312,-0.238281 5.375,-0.519531 5.34375,-0.84375 Z M 5.234375,-3.4375 C 4.816406,-3.257812 4.1875,-3.113281 3.34375,-3 2.863281,-2.925781 2.523438,-2.847656 2.328125,-2.765625 2.128906,-2.679688 1.976562,-2.554688 1.875,-2.390625 1.769531,-2.222656 1.71875,-2.039062 1.71875,-1.84375 c 0,0.3125 0.113281,0.574219 0.34375,0.78125 0.238281,0.210938 0.582031,0.3125 1.03125,0.3125 0.445312,0 0.84375,-0.097656 1.1875,-0.296875 0.351562,-0.195313 0.609375,-0.460937 0.765625,-0.796875 0.125,-0.269531 0.1875,-0.660156 0.1875,-1.171875 z m 0,0" id="path968"></path> </symbol> <symbol overflow="visible" id="glyph1-14"> <path style="stroke:none" d="M 5.359375,0 V -1 C 4.828125,-0.226562 4.101562,0.15625 3.1875,0.15625 2.78125,0.15625 2.398438,0.078125 2.046875,-0.078125 1.703125,-0.234375 1.441406,-0.425781 1.265625,-0.65625 1.097656,-0.894531 0.984375,-1.179688 0.921875,-1.515625 0.867188,-1.742188 0.84375,-2.109375 0.84375,-2.609375 V -6.84375 H 2 v 3.796875 c 0,0.605469 0.023438,1.011719 0.078125,1.21875 0.070313,0.3125 0.222656,0.558594 0.453125,0.734375 0.238281,0.167969 0.535156,0.25 0.890625,0.25 0.34375,0 0.664063,-0.085938 0.96875,-0.265625 0.3125,-0.175781 0.53125,-0.414063 0.65625,-0.71875 0.125,-0.3125 0.1875,-0.757813 0.1875,-1.34375 V -6.84375 h 1.15625 V 0 Z m 0,0" id="path971"></path> </symbol> <symbol overflow="visible" id="glyph1-15"> <path style="stroke:none" d="m 0.828125,-7.828125 c 0,-0.488281 0.171875,-0.90625 0.515625,-1.25 0.351562,-0.351563 0.773438,-0.53125 1.265625,-0.53125 0.5,0 0.921875,0.179687 1.265625,0.53125 0.351562,0.34375 0.53125,0.761719 0.53125,1.25 0,0.5 -0.179688,0.929687 -0.53125,1.28125 -0.34375,0.34375 -0.765625,0.515625 -1.265625,0.515625 -0.492187,0 -0.914063,-0.171875 -1.265625,-0.515625 C 1,-6.898438 0.828125,-7.328125 0.828125,-7.828125 Z m 0.703125,0 c 0,0.304687 0.101562,0.5625 0.3125,0.78125 0.21875,0.210937 0.476562,0.3125 0.78125,0.3125 0.289062,0 0.539062,-0.101563 0.75,-0.3125 0.21875,-0.21875 0.328125,-0.476563 0.328125,-0.78125 0,-0.300781 -0.109375,-0.554687 -0.328125,-0.765625 -0.210938,-0.21875 -0.460938,-0.328125 -0.75,-0.328125 -0.304688,0 -0.5625,0.109375 -0.78125,0.328125 -0.210938,0.210938 -0.3125,0.464844 -0.3125,0.765625 z m 0,0" id="path974"></path> </symbol> <symbol overflow="visible" id="glyph1-16"> <path style="stroke:none" d="M 7.765625,-3.3125 9.015625,-3 C 8.753906,-1.96875 8.28125,-1.179688 7.59375,-0.640625 6.914062,-0.109375 6.082031,0.15625 5.09375,0.15625 4.082031,0.15625 3.253906,-0.046875 2.609375,-0.453125 1.972656,-0.867188 1.488281,-1.46875 1.15625,-2.25 c -0.335938,-0.789062 -0.5,-1.640625 -0.5,-2.546875 0,-0.976563 0.1875,-1.832031 0.5625,-2.5625 0.375,-0.738281 0.910156,-1.296875 1.609375,-1.671875 0.695313,-0.382812 1.460937,-0.578125 2.296875,-0.578125 0.9375,0 1.726562,0.242187 2.375,0.71875 0.644531,0.480469 1.09375,1.15625 1.34375,2.03125 L 7.625,-6.5625 C 7.40625,-7.25 7.085938,-7.75 6.671875,-8.0625 6.253906,-8.382812 5.726562,-8.546875 5.09375,-8.546875 c -0.730469,0 -1.339844,0.179687 -1.828125,0.53125 -0.480469,0.34375 -0.820313,0.8125 -1.015625,1.40625 -0.199219,0.585937 -0.296875,1.1875 -0.296875,1.8125 0,0.804687 0.113281,1.507813 0.34375,2.109375 0.238281,0.59375 0.601563,1.042969 1.09375,1.34375 0.488281,0.292969 1.023437,0.4375 1.609375,0.4375 0.695312,0 1.285156,-0.203125 1.765625,-0.609375 0.488281,-0.40625 0.820313,-1.003906 1,-1.796875 z m 0,0" id="path977"></path> </symbol> <symbol overflow="visible" id="glyph2-0"> <path style="stroke:none" d="M 0,-1.65625 H -8.25 V -8.25 H 0 Z m -0.203125,-0.203125 v -6.1875 h -7.84375 v 6.1875 z m 0,0" id="path980"></path> </symbol> <symbol overflow="visible" id="glyph2-1"> <path style="stroke:none" d="m -4.125,-0.71875 h -1.09375 l -2.640625,-6.265625 h 1.15625 l 2.03125,4.96875 2.0625,-4.96875 h 1.15625 z m 0,0" id="path983"></path> </symbol> <symbol overflow="visible" id="glyph2-2"> <path style="stroke:none" d="m 2.625,-0.875 h -9.46875 v -1.046875 h 0.890625 c -0.351563,-0.25 -0.613281,-0.53125 -0.78125,-0.84375 C -6.910156,-3.085938 -7,-3.46875 -7,-3.90625 -7,-4.5 -6.847656,-5.015625 -6.546875,-5.453125 c 0.304687,-0.445313 0.730469,-0.785156 1.28125,-1.015625 0.542969,-0.226562 1.140625,-0.34375 1.796875,-0.34375 0.699219,0 1.328125,0.125 1.890625,0.375 0.5625,0.25 0.996094,0.617188 1.296875,1.09375 0.2890625,0.480469 0.4375,0.984375 0.4375,1.515625 0,0.386719 -0.078125,0.734375 -0.234375,1.046875 -0.164063,0.304688 -0.375,0.554688 -0.625,0.75 H 2.625 Z m -6.015625,-1.046875 c 0.886719,0 1.542969,-0.175781 1.96875,-0.53125 0.417969,-0.351563 0.625,-0.785156 0.625,-1.296875 0,-0.519531 -0.21875,-0.960938 -0.65625,-1.328125 -0.4375,-0.363281 -1.113281,-0.546875 -2.03125,-0.546875 -0.875,0 -1.523437,0.183594 -1.953125,0.546875 -0.4375,0.355469 -0.65625,0.78125 -0.65625,1.28125 0,0.492187 0.234375,0.929687 0.703125,1.3125 0.460937,0.375 1.125,0.5625 2,0.5625 z m 0,0" id="path986"></path> </symbol> <symbol overflow="visible" id="glyph2-3"> <path style="stroke:none" d="m 0,-5.3125 h -0.859375 c 0.679687,0.4375 1.015625,1.078125 1.015625,1.921875 0,0.542969 -0.15234375,1.042969 -0.453125,1.5 -0.300781,0.460937 -0.71875,0.8125 -1.25,1.0625 -0.539063,0.25 -1.164063,0.375 -1.875,0.375 -0.675781,0 -1.289063,-0.113281 -1.84375,-0.34375 -0.5625,-0.226563 -0.988281,-0.566406 -1.28125,-1.015625 C -6.847656,-2.269531 -7,-2.78125 -7,-3.34375 c 0,-0.414062 0.089844,-0.785156 0.265625,-1.109375 0.167969,-0.320313 0.390625,-0.582031 0.671875,-0.78125 h -3.390625 v -1.15625 H 0 Z m -3.421875,3.671875 c 0.875,0 1.53125,-0.179687 1.96875,-0.546875 0.4375,-0.375 0.65625,-0.8125 0.65625,-1.3125 0,-0.507812 -0.207031,-0.941406 -0.625,-1.296875 -0.414063,-0.351563 -1.046875,-0.53125 -1.890625,-0.53125 -0.9375,0 -1.625,0.183594 -2.0625,0.546875 -0.445312,0.355469 -0.671875,0.796875 -0.671875,1.328125 0,0.511719 0.214844,0.945313 0.640625,1.296875 0.417969,0.34375 1.078125,0.515625 1.984375,0.515625 z m 0,0" id="path989"></path> </symbol> <symbol overflow="visible" id="glyph2-4"> <path style="stroke:none" d="M 0,-1.140625 H -5.9375 V -0.125 h -0.90625 v -1.015625 h -0.734375 c -0.457031,0 -0.796875,-0.039063 -1.015625,-0.125 -0.300781,-0.113281 -0.546875,-0.3125 -0.734375,-0.59375 -0.1875,-0.28125 -0.28125,-0.675781 -0.28125,-1.1875 0,-0.320313 0.039063,-0.679687 0.109375,-1.078125 l 1.015625,0.171875 c -0.039063,0.242187 -0.0625,0.46875 -0.0625,0.6875 0,0.355469 0.078125,0.605469 0.234375,0.75 0.148438,0.148437 0.421875,0.21875 0.828125,0.21875 h 0.640625 v -1.34375 h 0.90625 v 1.34375 H 0 Z m 0,0" id="path992"></path> </symbol> <symbol overflow="visible" id="glyph2-5"> <path style="stroke:none" d="m -4.125,-6.984375 2.671875,6.265625 h -1.15625 l -2.0625,-4.953125 -2.03125,4.953125 h -1.15625 l 2.640625,-6.265625 z m 0,0" id="path995"></path> </symbol> <symbol overflow="visible" id="glyph2-6"> <path style="stroke:none" d="" id="path998"></path> </symbol> <symbol overflow="visible" id="glyph2-7"> <path style="stroke:none" d="m 2.78125,-3.09375 c -0.8125,0.648438 -1.761719,1.195312 -2.84375,1.640625 -1.082031,0.4375 -2.203125,0.65625 -3.359375,0.65625 -1.019531,0 -2,-0.164063 -2.9375,-0.5 -1.09375,-0.382813 -2.175781,-0.984375 -3.25,-1.796875 v -0.828125 c 0.898437,0.523437 1.53125,0.867187 1.90625,1.03125 0.59375,0.261719 1.214844,0.46875 1.859375,0.625 0.804688,0.1875 1.609375,0.28125 2.421875,0.28125 2.074219,0 4.140625,-0.644531 6.203125,-1.9375 z m 0,0" id="path1001"></path> </symbol> <symbol overflow="visible" id="glyph2-8"> <path style="stroke:none" d="m 0,-1.9375 v 1.078125 H -9.453125 V -2.03125 h 3.375 C -6.691406,-2.519531 -7,-3.144531 -7,-3.90625 c 0,-0.414062 0.089844,-0.8125 0.265625,-1.1875 0.167969,-0.375 0.40625,-0.679688 0.71875,-0.921875 0.304687,-0.25 0.671875,-0.441406 1.109375,-0.578125 0.429688,-0.132812 0.886719,-0.203125 1.375,-0.203125 1.179688,0 2.089844,0.292969 2.734375,0.875 0.636719,0.574219 0.953125,1.265625 0.953125,2.078125 0,0.8125 -0.335938,1.449219 -1.015625,1.90625 z m -3.46875,0.015625 c 0.8125,0 1.402344,-0.113281 1.765625,-0.34375 0.605469,-0.363281 0.90625,-0.859375 0.90625,-1.484375 0,-0.5 -0.21875,-0.929688 -0.65625,-1.296875 -0.445313,-0.375 -1.109375,-0.5625 -1.984375,-0.5625 -0.882812,0 -1.539062,0.179687 -1.96875,0.53125 -0.425781,0.355469 -0.640625,0.78125 -0.640625,1.28125 0,0.511719 0.226563,0.953125 0.671875,1.328125 0.4375,0.367188 1.074219,0.546875 1.90625,0.546875 z m 0,0" id="path1004"></path> </symbol> <symbol overflow="visible" id="glyph2-9"> <path style="stroke:none" d="m -0.84375,-5.34375 c 0.367188,0.4375 0.625,0.855469 0.78125,1.25 0.1445312,0.398438 0.21875,0.824219 0.21875,1.28125 0,0.75 -0.1796875,1.328125 -0.546875,1.734375 -0.375,0.398437 -0.847656,0.59375 -1.421875,0.59375 -0.332031,0 -0.632812,-0.070313 -0.90625,-0.21875 -0.28125,-0.15625 -0.503906,-0.351563 -0.671875,-0.59375 -0.164063,-0.25 -0.289063,-0.53125 -0.375,-0.84375 -0.0625,-0.226563 -0.125,-0.570313 -0.1875,-1.03125 -0.101563,-0.9375 -0.234375,-1.625 -0.390625,-2.0625 C -4.5,-5.242188 -4.597656,-5.25 -4.640625,-5.25 c -0.476563,0 -0.8125,0.109375 -1,0.328125 -0.269531,0.304687 -0.40625,0.746094 -0.40625,1.328125 0,0.542969 0.101563,0.945312 0.296875,1.203125 0.1875,0.261719 0.527344,0.453125 1.015625,0.578125 l -0.15625,1.140625 C -5.378906,-0.773438 -5.769531,-0.945312 -6.0625,-1.1875 -6.363281,-1.425781 -6.59375,-1.765625 -6.75,-2.203125 -6.914062,-2.648438 -7,-3.171875 -7,-3.765625 c 0,-0.582031 0.070312,-1.054687 0.203125,-1.421875 0.136719,-0.363281 0.308594,-0.628906 0.515625,-0.796875 0.210938,-0.175781 0.476562,-0.300781 0.796875,-0.375 0.199219,-0.039063 0.554687,-0.0625 1.0625,-0.0625 H -2.875 c 1.085938,0 1.773438,-0.019531 2.0625,-0.0625 C -0.53125,-6.535156 -0.257812,-6.632812 0,-6.78125 v 1.21875 c -0.238281,0.117188 -0.519531,0.1875 -0.84375,0.21875 z m -2.59375,0.109375 c 0.179688,0.417969 0.324219,1.046875 0.4375,1.890625 0.074219,0.480469 0.152344,0.820312 0.234375,1.015625 0.085937,0.199219 0.210937,0.351563 0.375,0.453125 0.167969,0.105469 0.351563,0.15625 0.546875,0.15625 0.3125,0 0.574219,-0.113281 0.78125,-0.34375 0.210938,-0.238281 0.3125,-0.582031 0.3125,-1.03125 0,-0.445312 -0.097656,-0.84375 -0.296875,-1.1875 -0.195313,-0.351562 -0.460937,-0.609375 -0.796875,-0.765625 -0.269531,-0.125 -0.660156,-0.1875 -1.171875,-0.1875 z m 0,0" id="path1007"></path> </symbol> <symbol overflow="visible" id="glyph2-10"> <path style="stroke:none" d="M -2.046875,-0.40625 -2.21875,-1.546875 c 0.460938,-0.070313 0.8125,-0.253906 1.0625,-0.546875 0.242188,-0.289062 0.359375,-0.703125 0.359375,-1.234375 0,-0.53125 -0.109375,-0.925781 -0.328125,-1.1875 -0.21875,-0.257813 -0.472656,-0.390625 -0.765625,-0.390625 -0.257813,0 -0.46875,0.117188 -0.625,0.34375 -0.09375,0.167969 -0.222656,0.5625 -0.390625,1.1875 -0.207031,0.855469 -0.390625,1.449219 -0.546875,1.78125 -0.15625,0.324219 -0.375,0.574219 -0.65625,0.75 -0.28125,0.167969 -0.585937,0.25 -0.921875,0.25 -0.300781,0 -0.582031,-0.066406 -0.84375,-0.203125 C -6.132812,-0.941406 -6.351562,-1.132812 -6.53125,-1.375 -6.65625,-1.5625 -6.765625,-1.804688 -6.859375,-2.109375 -6.953125,-2.421875 -7,-2.757812 -7,-3.125 c 0,-0.53125 0.078125,-1 0.234375,-1.40625 0.15625,-0.40625 0.367187,-0.703125 0.625,-0.890625 0.261719,-0.195313 0.617187,-0.332031 1.0625,-0.40625 l 0.15625,1.125 C -5.273438,-4.648438 -5.550781,-4.5 -5.75,-4.25 c -0.195312,0.25 -0.296875,0.601562 -0.296875,1.046875 0,0.53125 0.089844,0.914063 0.265625,1.140625 0.179688,0.230469 0.386719,0.34375 0.625,0.34375 0.148438,0 0.28125,-0.046875 0.40625,-0.140625 0.117188,-0.09375 0.214844,-0.242187 0.296875,-0.453125 0.042969,-0.113281 0.140625,-0.453125 0.296875,-1.015625 0.21875,-0.820313 0.402344,-1.394531 0.546875,-1.71875 C -3.472656,-5.367188 -3.269531,-5.625 -3,-5.8125 -2.738281,-6 -2.410156,-6.09375 -2.015625,-6.09375 c 0.386719,0 0.75,0.117188 1.09375,0.34375 0.34375,0.21875 0.609375,0.542969 0.796875,0.96875 0.1875,0.429688 0.28125,0.914062 0.28125,1.453125 0,0.886719 -0.1796875,1.5625 -0.546875,2.03125 -0.375,0.46875 -0.925781,0.765625 -1.65625,0.890625 z m 0,0" id="path1010"></path> </symbol> <symbol overflow="visible" id="glyph2-11"> <path style="stroke:none" d="M -2.203125,-5.5625 -2.0625,-6.75 c 0.710938,0.1875 1.257812,0.539062 1.640625,1.046875 0.3867188,0.511719 0.578125,1.164063 0.578125,1.953125 0,1 -0.304688,1.796875 -0.921875,2.390625 -0.625,0.585937 -1.488281,0.875 -2.59375,0.875 -1.15625,0 -2.050781,-0.296875 -2.6875,-0.890625 C -6.679688,-1.96875 -7,-2.738281 -7,-3.6875 c 0,-0.90625 0.3125,-1.648438 0.9375,-2.234375 0.625,-0.582031 1.5,-0.875 2.625,-0.875 0.074219,0 0.179688,0.00781 0.3125,0.015625 v 5.09375 c 0.75,-0.039062 1.328125,-0.25 1.734375,-0.625 0.398437,-0.382812 0.59375,-0.863281 0.59375,-1.4375 0,-0.425781 -0.109375,-0.789062 -0.328125,-1.09375 -0.226562,-0.300781 -0.585938,-0.539062 -1.078125,-0.71875 z m -1.875,3.8125 v -3.8125 c -0.570313,0.042969 -1.003906,0.1875 -1.296875,0.4375 -0.445312,0.367188 -0.671875,0.84375 -0.671875,1.4375 0,0.53125 0.179687,0.980469 0.53125,1.34375 0.355469,0.355469 0.835937,0.554688 1.4375,0.59375 z m 0,0" id="path1013"></path> </symbol> <symbol overflow="visible" id="glyph2-12"> <path style="stroke:none" d="M 0,-0.84375 H -9.453125 V -2 H 0 Z m 0,0" id="path1016"></path> </symbol> <symbol overflow="visible" id="glyph2-13"> <path style="stroke:none" d="m -8.109375,-0.875 h -1.34375 v -1.15625 h 1.34375 z M 0,-0.875 H -6.84375 V -2.03125 H 0 Z m 0,0" id="path1019"></path> </symbol> <symbol overflow="visible" id="glyph2-14"> <path style="stroke:none" d="M 0,-0.875 H -6.84375 V -1.921875 H -5.875 C -6.625,-2.421875 -7,-3.144531 -7,-4.09375 -7,-4.507812 -6.925781,-4.890625 -6.78125,-5.234375 -6.632812,-5.578125 -6.4375,-5.832031 -6.1875,-6 c 0.242188,-0.175781 0.523438,-0.300781 0.84375,-0.375 0.21875,-0.039062 0.601562,-0.0625 1.140625,-0.0625 H 0 v 1.15625 h -4.171875 c -0.46875,0 -0.816406,0.046875 -1.046875,0.140625 -0.238281,0.09375 -0.425781,0.257813 -0.5625,0.484375 -0.144531,0.230469 -0.21875,0.5 -0.21875,0.8125 0,0.492188 0.164062,0.917969 0.484375,1.28125 0.3125,0.355469 0.90625,0.53125 1.78125,0.53125 H 0 Z m 0,0" id="path1022"></path> </symbol> <symbol overflow="visible" id="glyph2-15"> <path style="stroke:none" d="m 2.78125,-1.625 v 0.828125 c -2.0625,-1.289063 -4.128906,-1.9375 -6.203125,-1.9375 -0.800781,0 -1.601563,0.09375 -2.40625,0.28125 -0.632813,0.148437 -1.25,0.351563 -1.84375,0.609375 -0.394531,0.179688 -1.039063,0.527344 -1.9375,1.046875 V -1.625 c 1.074219,-0.8125 2.15625,-1.410156 3.25,-1.796875 0.9375,-0.332031 1.917969,-0.5 2.9375,-0.5 1.15625,0 2.277344,0.226563 3.359375,0.671875 1.082031,0.449219 2.03125,0.992188 2.84375,1.625 z m 0,0" id="path1025"></path> </symbol> <symbol overflow="visible" id="glyph2-16"> <path style="stroke:none" d="m -1.03125,-3.40625 1.015625,-0.171875 c 0.0703125,0.335937 0.109375,0.632813 0.109375,0.890625 0,0.417969 -0.0703125,0.746094 -0.203125,0.984375 C -0.242188,-1.472656 -0.414062,-1.3125 -0.625,-1.21875 -0.84375,-1.125 -1.300781,-1.078125 -2,-1.078125 h -3.9375 v 0.84375 h -0.90625 v -0.84375 h -1.703125 l -0.6875,-1.15625 H -6.84375 V -3.40625 h 0.90625 v 1.171875 h 4 c 0.335938,0 0.546875,-0.019531 0.640625,-0.0625 C -1.203125,-2.335938 -1.128906,-2.40625 -1.078125,-2.5 -1.023438,-2.59375 -1,-2.722656 -1,-2.890625 -1,-3.023438 -1.007812,-3.195312 -1.03125,-3.40625 Z m 0,0" id="path1028"></path> </symbol> <symbol overflow="visible" id="glyph2-17"> <path style="stroke:none" d="m 0,-4.921875 v 1.15625 h -7.390625 c 0.261719,0.28125 0.527344,0.652344 0.796875,1.109375 0.261719,0.449219 0.460938,0.855469 0.59375,1.21875 h -1.125 c -0.300781,-0.644531 -0.664062,-1.210938 -1.09375,-1.703125 -0.4375,-0.488281 -0.859375,-0.832031 -1.265625,-1.03125 v -0.75 z m 0,0" id="path1031"></path> </symbol> <symbol overflow="visible" id="glyph2-18"> <path style="stroke:none" d="m -4.65625,-0.546875 c -1.125,0 -2.023438,-0.113281 -2.703125,-0.34375 -0.675781,-0.226563 -1.195313,-0.566406 -1.5625,-1.015625 -0.375,-0.457031 -0.5625,-1.03125 -0.5625,-1.71875 0,-0.507812 0.105469,-0.953125 0.3125,-1.328125 0.199219,-0.382813 0.492187,-0.703125 0.875,-0.953125 0.386719,-0.25 0.855469,-0.445312 1.40625,-0.59375 0.554687,-0.144531 1.296875,-0.21875 2.234375,-0.21875 1.105469,0 2,0.117188 2.6875,0.34375 0.679688,0.230469 1.203125,0.574219 1.578125,1.03125 0.3671875,0.449219 0.546875,1.023438 0.546875,1.71875 0,0.90625 -0.320312,1.621094 -0.96875,2.140625 -0.789062,0.625 -2.070312,0.9375 -3.84375,0.9375 z m 0,-1.1875 c 1.554688,0 2.585938,-0.179687 3.09375,-0.546875 0.511719,-0.363281 0.765625,-0.8125 0.765625,-1.34375 0,-0.53125 -0.253906,-0.976562 -0.765625,-1.34375 -0.519531,-0.363281 -1.550781,-0.546875 -3.09375,-0.546875 -1.5625,0 -2.597656,0.183594 -3.109375,0.546875 -0.507813,0.367188 -0.765625,0.820312 -0.765625,1.359375 0,0.53125 0.226562,0.953125 0.671875,1.265625 0.585937,0.40625 1.652344,0.609375 3.203125,0.609375 z m 0,0" id="path1034"></path> </symbol> <symbol overflow="visible" id="glyph2-19"> <path style="stroke:none" d="m -7.1875,-0.765625 c -0.664062,0 -1.234375,-0.164063 -1.703125,-0.5 -0.476563,-0.34375 -0.71875,-0.835937 -0.71875,-1.484375 0,-0.59375 0.214844,-1.082031 0.640625,-1.46875 0.417969,-0.394531 1.039062,-0.59375 1.859375,-0.59375 0.804687,0 1.421875,0.199219 1.859375,0.59375 0.429688,0.398438 0.640625,0.882812 0.640625,1.453125 0,0.574219 -0.210937,1.054687 -0.640625,1.4375 -0.425781,0.375 -1.070312,0.5625 -1.9375,0.5625 z m -1.625,-2.015625 c 0,0.28125 0.125,0.523438 0.375,0.71875 0.25,0.1875 0.710938,0.28125 1.375,0.28125 0.605469,0 1.03125,-0.09375 1.28125,-0.28125 0.242188,-0.195312 0.359375,-0.4375 0.359375,-0.71875 0,-0.289062 -0.117187,-0.53125 -0.359375,-0.71875 -0.25,-0.195312 -0.707031,-0.296875 -1.375,-0.296875 -0.613281,0 -1.039062,0.101563 -1.28125,0.296875 -0.25,0.1875 -0.375,0.429688 -0.375,0.71875 z M 0.34375,-2.796875 -9.609375,-7.96875 v -0.9375 L 0.34375,-3.75 Z M -2.21875,-6.875 c -0.675781,0 -1.25,-0.164062 -1.71875,-0.5 -0.46875,-0.34375 -0.703125,-0.84375 -0.703125,-1.5 0,-0.59375 0.214844,-1.082031 0.640625,-1.46875 0.417969,-0.382812 1.039062,-0.578125 1.859375,-0.578125 0.792969,0 1.40625,0.199219 1.84375,0.59375 0.425781,0.386719 0.640625,0.871094 0.640625,1.453125 0,0.574219 -0.214844,1.054688 -0.640625,1.4375 -0.425781,0.375 -1.066406,0.5625 -1.921875,0.5625 z m -1.625,-2.03125 c 0,0.292969 0.125,0.539062 0.375,0.734375 0.25,0.1875 0.703125,0.28125 1.359375,0.28125 0.605469,0 1.03125,-0.09375 1.28125,-0.28125 0.25,-0.195313 0.375,-0.4375 0.375,-0.71875 0,-0.300781 -0.125,-0.546875 -0.375,-0.734375 -0.25,-0.195312 -0.703125,-0.296875 -1.359375,-0.296875 -0.613281,0 -1.039062,0.101563 -1.28125,0.296875 -0.25,0.199219 -0.375,0.4375 -0.375,0.71875 z m 0,0" id="path1037"></path> </symbol> <symbol overflow="visible" id="glyph2-20"> <path style="stroke:none" d="m -3.421875,-0.4375 c -1.269531,0 -2.207031,-0.351562 -2.8125,-1.0625 C -6.742188,-2.082031 -7,-2.800781 -7,-3.65625 c 0,-0.9375 0.308594,-1.703125 0.921875,-2.296875 0.617187,-0.601563 1.46875,-0.90625 2.5625,-0.90625 0.875,0 1.570313,0.136719 2.078125,0.40625 0.5,0.261719 0.890625,0.648437 1.171875,1.15625 0.28125,0.5 0.421875,1.046875 0.421875,1.640625 0,0.960938 -0.304688,1.734375 -0.921875,2.328125 -0.613281,0.59375 -1.5,0.890625 -2.65625,0.890625 z m 0,-1.1875 c 0.875,0 1.53125,-0.191406 1.96875,-0.578125 0.4375,-0.382813 0.65625,-0.867187 0.65625,-1.453125 0,-0.570312 -0.21875,-1.046875 -0.65625,-1.421875 -0.4375,-0.382813 -1.109375,-0.578125 -2.015625,-0.578125 -0.84375,0 -1.484375,0.195312 -1.921875,0.578125 -0.4375,0.386719 -0.65625,0.859375 -0.65625,1.421875 0,0.585938 0.21875,1.070312 0.65625,1.453125 0.4375,0.386719 1.09375,0.578125 1.96875,0.578125 z m 0,0" id="path1040"></path> </symbol> <symbol overflow="visible" id="glyph2-21"> <path style="stroke:none" d="m 0.5625,-0.65625 0.171875,-1.125 C 1.078125,-1.832031 1.332031,-1.960938 1.5,-2.171875 c 0.207031,-0.289063 0.3125,-0.6875 0.3125,-1.1875 0,-0.539063 -0.109375,-0.957031 -0.328125,-1.25 C 1.273438,-4.898438 0.976562,-5.097656 0.59375,-5.203125 0.351562,-5.253906 -0.140625,-5.28125 -0.890625,-5.28125 -0.296875,-4.769531 0,-4.140625 0,-3.390625 c 0,0.949219 -0.335938,1.683594 -1.015625,2.203125 -0.675781,0.511719 -1.492187,0.765625 -2.453125,0.765625 -0.644531,0 -1.242188,-0.117187 -1.796875,-0.359375 C -5.816406,-1.019531 -6.242188,-1.363281 -6.546875,-1.8125 -6.847656,-2.257812 -7,-2.785156 -7,-3.390625 c 0,-0.8125 0.328125,-1.476563 0.984375,-2 H -6.84375 v -1.0625 h 5.921875 c 1.0625,0 1.8125,0.109375 2.25,0.328125 0.445313,0.210938 0.800781,0.554688 1.0625,1.03125 0.257813,0.46875 0.390625,1.046875 0.390625,1.734375 0,0.8125 -0.1875,1.476563 -0.5625,1.984375 -0.367188,0.5 -0.917969,0.742188 -1.65625,0.71875 z M -3.546875,-1.625 c 0.898437,0 1.554687,-0.175781 1.96875,-0.53125 0.417969,-0.351562 0.625,-0.800781 0.625,-1.34375 0,-0.53125 -0.203125,-0.972656 -0.609375,-1.328125 C -1.976562,-5.191406 -2.625,-5.375 -3.5,-5.375 c -0.84375,0 -1.476562,0.1875 -1.90625,0.5625 -0.425781,0.367188 -0.640625,0.8125 -0.640625,1.34375 0,0.511719 0.214844,0.949219 0.640625,1.3125 0.417969,0.355469 1.039062,0.53125 1.859375,0.53125 z m 0,0" id="path1043"></path> </symbol> <symbol overflow="visible" id="glyph2-22"> <path style="stroke:none" d="M 0,-0.859375 H -6.84375 V -1.90625 H -5.8125 C -6.289062,-2.164062 -6.609375,-2.410156 -6.765625,-2.640625 -6.921875,-2.867188 -7,-3.117188 -7,-3.390625 c 0,-0.382813 0.125,-0.78125 0.375,-1.1875 l 1.078125,0.40625 c -0.164063,0.28125 -0.25,0.5625 -0.25,0.84375 0,0.25 0.078125,0.480469 0.234375,0.6875 0.148438,0.199219 0.355469,0.339844 0.625,0.421875 0.417969,0.136719 0.871094,0.203125 1.359375,0.203125 H 0 Z m 0,0" id="path1046"></path> </symbol> <symbol overflow="visible" id="glyph3-0"> <path style="stroke:none" d="m 0,-1.328125 h -6.609375 v -5.28125 H 0 Z m -0.171875,-0.15625 V -6.4375 H -6.4375 v 4.953125 z m 0,0" id="path1049"></path> </symbol> <symbol overflow="visible" id="glyph3-1"> <path style="stroke:none" d="M 0,-1.546875 V -0.6875 H -7.5625 V -1.625 h 2.703125 c -0.488281,-0.382812 -0.734375,-0.882812 -0.734375,-1.5 0,-0.332031 0.070312,-0.648438 0.203125,-0.953125 C -5.253906,-4.378906 -5.0625,-4.625 -4.8125,-4.8125 c 0.242188,-0.195312 0.53125,-0.347656 0.875,-0.453125 0.34375,-0.113281 0.714844,-0.171875 1.109375,-0.171875 0.949219,0 1.679687,0.234375 2.1875,0.703125 0.511719,0.460937 0.765625,1.011719 0.765625,1.65625 0,0.648437 -0.269531,1.15625 -0.8125,1.53125 z m -2.78125,0 c 0.65625,0 1.132812,-0.085937 1.421875,-0.265625 0.480469,-0.289062 0.71875,-0.6875 0.71875,-1.1875 0,-0.40625 -0.175781,-0.753906 -0.53125,-1.046875 -0.351563,-0.289063 -0.878906,-0.4375 -1.578125,-0.4375 -0.707031,0 -1.234375,0.140625 -1.578125,0.421875 -0.34375,0.28125 -0.515625,0.625 -0.515625,1.03125 0,0.40625 0.179688,0.757812 0.53125,1.046875 0.355469,0.292969 0.867188,0.4375 1.53125,0.4375 z m 0,0" id="path1052"></path> </symbol> <symbol overflow="visible" id="glyph3-2"> <path style="stroke:none" d="m -0.671875,-4.265625 c 0.292969,0.34375 0.5,0.679687 0.625,1 C 0.0664062,-2.953125 0.125,-2.613281 0.125,-2.25 c 0,0.605469 -0.1445312,1.070312 -0.4375,1.390625 -0.300781,0.324219 -0.675781,0.484375 -1.125,0.484375 -0.269531,0 -0.515625,-0.0625 -0.734375,-0.1875 -0.226563,-0.125 -0.40625,-0.285156 -0.53125,-0.484375 -0.132813,-0.195313 -0.238281,-0.421875 -0.3125,-0.671875 -0.050781,-0.175781 -0.097656,-0.445312 -0.140625,-0.8125 -0.09375,-0.75 -0.195312,-1.300781 -0.3125,-1.65625 -0.132812,-0.00781 -0.21875,-0.015625 -0.25,-0.015625 -0.375,0 -0.640625,0.089844 -0.796875,0.265625 -0.207031,0.242188 -0.3125,0.59375 -0.3125,1.0625 0,0.4375 0.078125,0.761719 0.234375,0.96875 0.148438,0.210938 0.414062,0.359375 0.796875,0.453125 l -0.125,0.90625 c -0.382813,-0.082031 -0.695313,-0.21875 -0.9375,-0.40625 -0.238281,-0.1875 -0.421875,-0.457031 -0.546875,-0.8125 -0.125,-0.363281 -0.1875,-0.78125 -0.1875,-1.25 0,-0.46875 0.058594,-0.847656 0.171875,-1.140625 0.105469,-0.289062 0.242187,-0.503906 0.40625,-0.640625 0.167969,-0.132813 0.375,-0.226563 0.625,-0.28125 0.15625,-0.03125 0.445313,-0.046875 0.859375,-0.046875 h 1.234375 c 0.867187,0 1.414063,-0.019531 1.640625,-0.0625 C -0.425781,-5.226562 -0.207031,-5.304688 0,-5.421875 v 0.96875 c -0.1875,0.09375 -0.410156,0.15625 -0.671875,0.1875 z M -2.75,-4.1875 c 0.136719,0.335938 0.257812,0.839844 0.359375,1.515625 0.054687,0.375 0.117187,0.648437 0.1875,0.8125 0.0625,0.15625 0.164063,0.277344 0.296875,0.359375 0.125,0.085938 0.273438,0.125 0.4375,0.125 0.25,0 0.460938,-0.09375 0.625,-0.28125 0.15625,-0.1875 0.234375,-0.457031 0.234375,-0.8125 0,-0.363281 -0.078125,-0.679688 -0.234375,-0.953125 C -1,-3.703125 -1.210938,-3.910156 -1.484375,-4.046875 -1.691406,-4.140625 -2,-4.1875 -2.40625,-4.1875 Z m 0,0" id="path1055"></path> </symbol> <symbol overflow="visible" id="glyph3-3"> <path style="stroke:none" d="m -0.828125,-2.71875 0.8125,-0.140625 c 0.0625,0.261719 0.09375,0.496094 0.09375,0.703125 0,0.335938 -0.0546875,0.59375 -0.15625,0.78125 -0.113281,0.1875 -0.253906,0.324219 -0.421875,0.40625 -0.175781,0.074219 -0.546875,0.109375 -1.109375,0.109375 H -4.75 V -0.1875 h -0.734375 v -0.671875 h -1.34375 l -0.5625,-0.9375 h 1.90625 V -2.71875 H -4.75 v 0.921875 h 3.203125 c 0.261719,0 0.433594,-0.015625 0.515625,-0.046875 C -0.957031,-1.875 -0.898438,-1.925781 -0.859375,-2 c 0.042969,-0.070312 0.0625,-0.175781 0.0625,-0.3125 0,-0.101562 -0.007813,-0.238281 -0.03125,-0.40625 z m 0,0" id="path1058"></path> </symbol> <symbol overflow="visible" id="glyph3-4"> <path style="stroke:none" d="M -2,-4.265625 -1.890625,-5.1875 c 0.636719,0.105469 1.132813,0.367188 1.484375,0.78125 C -0.0507812,-4 0.125,-3.5 0.125,-2.90625 c 0,0.75 -0.242188,1.355469 -0.734375,1.8125 -0.488281,0.460938 -1.191406,0.6875 -2.109375,0.6875 -0.59375,0 -1.109375,-0.097656 -1.546875,-0.296875 -0.445313,-0.195313 -0.78125,-0.492187 -1,-0.890625 C -5.484375,-2 -5.59375,-2.4375 -5.59375,-2.90625 c 0,-0.59375 0.152344,-1.078125 0.453125,-1.453125 0.292969,-0.382813 0.714844,-0.628906 1.265625,-0.734375 l 0.140625,0.90625 C -4.097656,-4.101562 -4.375,-3.953125 -4.5625,-3.734375 -4.75,-3.515625 -4.84375,-3.25 -4.84375,-2.9375 c 0,0.460938 0.171875,0.839844 0.515625,1.140625 0.335937,0.292969 0.859375,0.4375 1.578125,0.4375 0.742188,0 1.277344,-0.140625 1.609375,-0.421875 0.335937,-0.289062 0.5,-0.660156 0.5,-1.109375 0,-0.363281 -0.109375,-0.664063 -0.328125,-0.90625 -0.226562,-0.25 -0.570312,-0.40625 -1.03125,-0.46875 z m 0,0" id="path1061"></path> </symbol> <symbol overflow="visible" id="glyph3-5"> <path style="stroke:none" d="M 0,-0.703125 H -7.5625 V -1.625 h 2.71875 c -0.5,-0.4375 -0.75,-0.984375 -0.75,-1.640625 0,-0.40625 0.078125,-0.753906 0.234375,-1.046875 0.15625,-0.300781 0.375,-0.515625 0.65625,-0.640625 0.28125,-0.132813 0.695313,-0.203125 1.234375,-0.203125 H 0 v 0.921875 h -3.46875 c -0.46875,0 -0.804688,0.105469 -1.015625,0.3125 -0.207031,0.199219 -0.3125,0.480469 -0.3125,0.84375 0,0.28125 0.074219,0.542969 0.21875,0.78125 C -4.441406,-2.054688 -4.25,-1.882812 -4,-1.78125 c 0.242188,0.105469 0.574219,0.15625 1,0.15625 h 3 z m 0,0" id="path1064"></path> </symbol> <symbol overflow="visible" id="glyph4-0"> <path style="stroke:none" d="M 1.34375,0 V -6.75 H 6.75 V 0 Z m 0.171875,-0.171875 h 5.0625 v -6.40625 h -5.0625 z m 0,0" id="path1067"></path> </symbol> <symbol overflow="visible" id="glyph4-1"> <path style="stroke:none" d="M 0.796875,0 V -7.734375 H 3.6875 c 0.59375,0 1.066406,0.078125 1.421875,0.234375 0.351563,0.15625 0.628906,0.402344 0.828125,0.734375 C 6.144531,-6.441406 6.25,-6.101562 6.25,-5.75 c 0,0.335938 -0.089844,0.648438 -0.265625,0.9375 -0.179687,0.292969 -0.449219,0.527344 -0.8125,0.703125 C 5.640625,-3.972656 6,-3.738281 6.25,-3.40625 c 0.25,0.324219 0.375,0.714844 0.375,1.171875 0,0.355469 -0.078125,0.6875 -0.234375,1 -0.148437,0.3125 -0.335937,0.554687 -0.5625,0.71875 -0.21875,0.167969 -0.5,0.296875 -0.84375,0.390625 C 4.640625,-0.0390625 4.222656,0 3.734375,0 Z M 1.8125,-4.484375 h 1.671875 c 0.457031,0 0.78125,-0.03125 0.96875,-0.09375 0.257813,-0.070313 0.457031,-0.195313 0.59375,-0.375 C 5.179688,-5.128906 5.25,-5.351562 5.25,-5.625 5.25,-5.882812 5.1875,-6.109375 5.0625,-6.296875 4.9375,-6.492188 4.757812,-6.628906 4.53125,-6.703125 4.300781,-6.773438 3.910156,-6.8125 3.359375,-6.8125 H 1.8125 Z m 0,3.578125 h 1.921875 c 0.332031,0 0.566406,-0.015625 0.703125,-0.046875 0.226562,-0.039063 0.421875,-0.109375 0.578125,-0.203125 0.164063,-0.101562 0.296875,-0.25 0.390625,-0.4375 0.101562,-0.1875 0.15625,-0.398438 0.15625,-0.640625 0,-0.289063 -0.074219,-0.539063 -0.21875,-0.75 C 5.195312,-3.203125 4.992188,-3.351562 4.734375,-3.4375 4.472656,-3.519531 4.09375,-3.5625 3.59375,-3.5625 H 1.8125 Z m 0,0" id="path1070"></path> </symbol> <symbol overflow="visible" id="glyph4-2"> <path style="stroke:none" d="m 4.359375,-0.6875 c -0.34375,0.292969 -0.683594,0.5 -1.015625,0.625 C 3.019531,0.0625 2.671875,0.125 2.296875,0.125 1.679688,0.125 1.207031,-0.0234375 0.875,-0.328125 0.550781,-0.628906 0.390625,-1.007812 0.390625,-1.46875 c 0,-0.28125 0.0625,-0.53125 0.1875,-0.75 0.125,-0.226562 0.285156,-0.410156 0.484375,-0.546875 0.207031,-0.144531 0.4375,-0.25 0.6875,-0.3125 0.1875,-0.050781 0.46875,-0.097656 0.84375,-0.140625 0.769531,-0.09375 1.332031,-0.203125 1.6875,-0.328125 0.00781,-0.132813 0.015625,-0.21875 0.015625,-0.25 0,-0.382813 -0.09375,-0.660156 -0.28125,-0.828125 C 3.773438,-4.832031 3.414062,-4.9375 2.9375,-4.9375 c -0.449219,0 -0.777344,0.078125 -0.984375,0.234375 -0.210937,0.15625 -0.367187,0.433594 -0.46875,0.828125 L 0.546875,-4 c 0.09375,-0.394531 0.234375,-0.710938 0.421875,-0.953125 0.195312,-0.25 0.476562,-0.4375 0.84375,-0.5625 0.363281,-0.132813 0.785156,-0.203125 1.265625,-0.203125 0.476563,0 0.863281,0.058594 1.15625,0.171875 0.300781,0.105469 0.519531,0.246094 0.65625,0.421875 0.144531,0.167969 0.25,0.382812 0.3125,0.640625 0.03125,0.15625 0.046875,0.449219 0.046875,0.875 v 1.265625 c 0,0.886719 0.015625,1.445312 0.046875,1.671875 0.039063,0.230469 0.125,0.453125 0.25,0.671875 H 4.5625 C 4.457031,-0.195312 4.390625,-0.425781 4.359375,-0.6875 Z M 4.28125,-2.8125 C 3.9375,-2.664062 3.421875,-2.546875 2.734375,-2.453125 2.347656,-2.390625 2.070312,-2.320312 1.90625,-2.25 1.75,-2.1875 1.625,-2.085938 1.53125,-1.953125 1.445312,-1.816406 1.40625,-1.664062 1.40625,-1.5 c 0,0.25 0.09375,0.464844 0.28125,0.640625 0.195312,0.167969 0.476562,0.25 0.84375,0.25 0.363281,0 0.6875,-0.078125 0.96875,-0.234375 0.289062,-0.164062 0.503906,-0.390625 0.640625,-0.671875 0.09375,-0.207031 0.140625,-0.523437 0.140625,-0.953125 z m 0,0" id="path1073"></path> </symbol> <symbol overflow="visible" id="glyph4-3"> <path style="stroke:none" d="m 0.328125,-1.671875 0.9375,-0.140625 c 0.050781,0.375 0.195313,0.664062 0.4375,0.859375 0.25,0.199219 0.585937,0.296875 1.015625,0.296875 0.4375,0 0.757812,-0.085938 0.96875,-0.265625 C 3.894531,-1.097656 4,-1.304688 4,-1.546875 c 0,-0.207031 -0.089844,-0.375 -0.265625,-0.5 C 3.597656,-2.128906 3.269531,-2.238281 2.75,-2.375 2.0625,-2.550781 1.582031,-2.703125 1.3125,-2.828125 c -0.273438,-0.125 -0.480469,-0.300781 -0.625,-0.53125 -0.136719,-0.226563 -0.203125,-0.476563 -0.203125,-0.75 0,-0.25 0.054687,-0.476563 0.171875,-0.6875 0.113281,-0.21875 0.269531,-0.394531 0.46875,-0.53125 0.144531,-0.113281 0.34375,-0.207031 0.59375,-0.28125 0.257812,-0.070313 0.535156,-0.109375 0.828125,-0.109375 0.4375,0 0.820313,0.0625 1.15625,0.1875 0.332031,0.125 0.578125,0.296875 0.734375,0.515625 0.164062,0.210937 0.273438,0.496094 0.328125,0.859375 l -0.921875,0.125 c -0.042969,-0.28125 -0.167969,-0.5 -0.375,-0.65625 -0.199219,-0.164062 -0.480469,-0.25 -0.84375,-0.25 -0.4375,0 -0.75,0.074219 -0.9375,0.21875 -0.1875,0.136719 -0.28125,0.304688 -0.28125,0.5 0,0.125 0.039062,0.234375 0.125,0.328125 0.070312,0.105469 0.191406,0.1875 0.359375,0.25 0.09375,0.042969 0.367187,0.125 0.828125,0.25 0.675781,0.179687 1.144531,0.324219 1.40625,0.4375 0.269531,0.117187 0.476562,0.28125 0.625,0.5 0.15625,0.21875 0.234375,0.492187 0.234375,0.8125 0,0.3125 -0.09375,0.609375 -0.28125,0.890625 C 4.515625,-0.46875 4.25,-0.25 3.90625,-0.09375 3.5625,0.0507812 3.164062,0.125 2.71875,0.125 2,0.125 1.445312,-0.0234375 1.0625,-0.328125 c -0.386719,-0.300781 -0.632812,-0.75 -0.734375,-1.34375 z m 0,0" id="path1076"></path> </symbol> <symbol overflow="visible" id="glyph4-4"> <path style="stroke:none" d="M 4.546875,-1.796875 5.53125,-1.6875 C 5.375,-1.113281 5.082031,-0.664062 4.65625,-0.34375 4.238281,-0.03125 3.707031,0.125 3.0625,0.125 c -0.824219,0 -1.476562,-0.25 -1.953125,-0.75 -0.480469,-0.507812 -0.71875,-1.21875 -0.71875,-2.125 0,-0.945312 0.238281,-1.675781 0.71875,-2.1875 0.488281,-0.519531 1.125,-0.78125 1.90625,-0.78125 0.75,0 1.359375,0.257812 1.828125,0.765625 0.476562,0.5 0.71875,1.214844 0.71875,2.140625 0,0.0625 -0.00781,0.148438 -0.015625,0.25 H 1.375 c 0.03125,0.617188 0.203125,1.089844 0.515625,1.421875 0.3125,0.324219 0.703125,0.484375 1.171875,0.484375 0.351562,0 0.648438,-0.085938 0.890625,-0.265625 0.25,-0.1875 0.445313,-0.476563 0.59375,-0.875 z m -3.125,-1.546875 H 4.5625 C 4.507812,-3.8125 4.390625,-4.160156 4.203125,-4.390625 3.898438,-4.753906 3.503906,-4.9375 3.015625,-4.9375 c -0.4375,0 -0.808594,0.148438 -1.109375,0.4375 -0.292969,0.292969 -0.453125,0.679688 -0.484375,1.15625 z m 0,0" id="path1079"></path> </symbol> <symbol overflow="visible" id="glyph4-5"> <path style="stroke:none" d="M 0.6875,0 V -7.734375 H 1.640625 V 0 Z m 0,0" id="path1082"></path> </symbol> <symbol overflow="visible" id="glyph4-6"> <path style="stroke:none" d="m 0.71875,-6.640625 v -1.09375 h 0.953125 v 1.09375 z M 0.71875,0 V -5.59375 H 1.671875 V 0 Z m 0,0" id="path1085"></path> </symbol> <symbol overflow="visible" id="glyph4-7"> <path style="stroke:none" d="M 0.71875,0 V -5.59375 H 1.5625 v 0.796875 c 0.414062,-0.613281 1.007812,-0.921875 1.78125,-0.921875 0.34375,0 0.65625,0.0625 0.9375,0.1875 0.28125,0.117188 0.488281,0.273438 0.625,0.46875 0.144531,0.199219 0.242188,0.433594 0.296875,0.703125 0.039063,0.179687 0.0625,0.484375 0.0625,0.921875 V 0 H 4.3125 v -3.40625 c 0,-0.382812 -0.039062,-0.671875 -0.109375,-0.859375 C 4.128906,-4.460938 4,-4.617188 3.8125,-4.734375 3.625,-4.847656 3.398438,-4.90625 3.140625,-4.90625 c -0.398437,0 -0.746094,0.132812 -1.046875,0.390625 -0.292969,0.25 -0.4375,0.734375 -0.4375,1.453125 V 0 Z m 0,0" id="path1088"></path> </symbol> <symbol overflow="visible" id="glyph4-8"> <path style="stroke:none" d="m 5.90625,-7.734375 h 1.015625 v 4.46875 c 0,0.78125 -0.089844,1.402344 -0.265625,1.859375 -0.167969,0.449219 -0.480469,0.820312 -0.9375,1.109375 C 5.257812,-0.015625 4.65625,0.125 3.90625,0.125 3.1875,0.125 2.59375,0.00390625 2.125,-0.234375 1.664062,-0.484375 1.335938,-0.84375 1.140625,-1.3125 0.941406,-1.789062 0.84375,-2.441406 0.84375,-3.265625 v -4.46875 H 1.875 v 4.46875 c 0,0.667969 0.0625,1.164063 0.1875,1.484375 0.125,0.3125 0.335938,0.558594 0.640625,0.734375 0.300781,0.167969 0.671875,0.25 1.109375,0.25 0.75,0 1.285156,-0.164063 1.609375,-0.5 0.320313,-0.34375 0.484375,-1 0.484375,-1.96875 z m 0,0" id="path1091"></path> </symbol> <symbol overflow="visible" id="glyph4-9"> <path style="stroke:none" d="M 0.9375,0 V -4.859375 H 0.09375 V -5.59375 H 0.9375 V -6.1875 c 0,-0.382812 0.03125,-0.664062 0.09375,-0.84375 0.09375,-0.25 0.253906,-0.445312 0.484375,-0.59375 0.226563,-0.15625 0.550781,-0.234375 0.96875,-0.234375 0.269531,0 0.566406,0.03125 0.890625,0.09375 L 3.234375,-6.9375 c -0.199219,-0.03125 -0.386719,-0.046875 -0.5625,-0.046875 -0.292969,0 -0.5,0.0625 -0.625,0.1875 C 1.929688,-6.679688 1.875,-6.453125 1.875,-6.109375 v 0.515625 h 1.09375 v 0.734375 H 1.875 V 0 Z m 0,0" id="path1094"></path> </symbol> <symbol overflow="visible" id="glyph4-10"> <path style="stroke:none" d="m 0.359375,-2.796875 c 0,-1.039063 0.285156,-1.8125 0.859375,-2.3125 0.488281,-0.40625 1.078125,-0.609375 1.765625,-0.609375 0.769531,0 1.398437,0.25 1.890625,0.75 0.488281,0.5 0.734375,1.199219 0.734375,2.09375 0,0.71875 -0.109375,1.289062 -0.328125,1.703125 C 5.0625,-0.765625 4.742188,-0.445312 4.328125,-0.21875 3.921875,0.0078125 3.472656,0.125 2.984375,0.125 c -0.78125,0 -1.417969,-0.25 -1.90625,-0.75 -0.480469,-0.5 -0.71875,-1.222656 -0.71875,-2.171875 z m 0.96875,0 c 0,0.71875 0.15625,1.257813 0.46875,1.609375 0.3125,0.355469 0.707031,0.53125 1.1875,0.53125 0.46875,0 0.859375,-0.175781 1.171875,-0.53125 C 4.46875,-1.550781 4.625,-2.097656 4.625,-2.828125 4.625,-3.523438 4.46875,-4.050781 4.15625,-4.40625 3.84375,-4.757812 3.453125,-4.9375 2.984375,-4.9375 c -0.480469,0 -0.875,0.179688 -1.1875,0.53125 -0.3125,0.355469 -0.46875,0.890625 -0.46875,1.609375 z m 0,0" id="path1097"></path> </symbol> <symbol overflow="visible" id="glyph4-11"> <path style="stroke:none" d="M 0.703125,0 V -5.59375 H 1.5625 V -4.75 c 0.207031,-0.394531 0.40625,-0.65625 0.59375,-0.78125 0.1875,-0.125 0.390625,-0.1875 0.609375,-0.1875 0.320313,0 0.648437,0.101562 0.984375,0.296875 l -0.328125,0.875 C 3.179688,-4.679688 2.945312,-4.75 2.71875,-4.75 2.507812,-4.75 2.320312,-4.6875 2.15625,-4.5625 1.988281,-4.4375 1.875,-4.257812 1.8125,-4.03125 1.707031,-3.695312 1.65625,-3.332031 1.65625,-2.9375 V 0 Z m 0,0" id="path1100"></path> </symbol> <symbol overflow="visible" id="glyph4-12"> <path style="stroke:none" d="M 0.71875,0 V -5.59375 H 1.5625 v 0.78125 c 0.175781,-0.269531 0.410156,-0.488281 0.703125,-0.65625 0.289063,-0.164062 0.625,-0.25 1,-0.25 0.40625,0 0.738281,0.089844 1,0.265625 0.269531,0.167969 0.460937,0.402344 0.578125,0.703125 0.4375,-0.644531 1.007812,-0.96875 1.71875,-0.96875 0.5625,0 0.988281,0.15625 1.28125,0.46875 0.300781,0.304688 0.453125,0.773438 0.453125,1.40625 V 0 h -0.9375 v -3.53125 c 0,-0.375 -0.03125,-0.644531 -0.09375,-0.8125 -0.0625,-0.164062 -0.179687,-0.300781 -0.34375,-0.40625 -0.15625,-0.101562 -0.34375,-0.15625 -0.5625,-0.15625 -0.398437,0 -0.726563,0.132812 -0.984375,0.390625 C 5.113281,-4.253906 4.984375,-3.832031 4.984375,-3.25 V 0 H 4.03125 v -3.640625 c 0,-0.414063 -0.078125,-0.726563 -0.234375,-0.9375 -0.148437,-0.21875 -0.398437,-0.328125 -0.75,-0.328125 -0.273437,0 -0.523437,0.074219 -0.75,0.21875 C 2.078125,-4.550781 1.914062,-4.347656 1.8125,-4.078125 1.707031,-3.804688 1.65625,-3.414062 1.65625,-2.90625 V 0 Z m 0,0" id="path1103"></path> </symbol> <symbol overflow="visible" id="glyph4-13"> <path style="stroke:none" d="M 4.453125,-3.03125 V -3.9375 H 7.71875 v 2.859375 c -0.5,0.40625 -1.023438,0.710937 -1.5625,0.90625 C 5.625,0.0234375 5.078125,0.125 4.515625,0.125 c -0.75,0 -1.4375,-0.1601562 -2.0625,-0.484375 -0.617187,-0.320313 -1.085937,-0.789063 -1.40625,-1.40625 -0.3125,-0.613281 -0.46875,-1.300781 -0.46875,-2.0625 0,-0.75 0.15625,-1.445313 0.46875,-2.09375 C 1.359375,-6.578125 1.8125,-7.0625 2.40625,-7.375 3,-7.695312 3.675781,-7.859375 4.4375,-7.859375 c 0.5625,0 1.066406,0.09375 1.515625,0.28125 0.457031,0.179687 0.8125,0.429687 1.0625,0.75 0.257813,0.324219 0.457031,0.746094 0.59375,1.265625 L 6.6875,-5.3125 C 6.570312,-5.707031 6.425781,-6.015625 6.25,-6.234375 6.082031,-6.460938 5.835938,-6.644531 5.515625,-6.78125 5.191406,-6.914062 4.835938,-6.984375 4.453125,-6.984375 c -0.46875,0 -0.875,0.074219 -1.21875,0.21875 -0.34375,0.136719 -0.621094,0.324219 -0.828125,0.5625 -0.210938,0.230469 -0.371094,0.480469 -0.484375,0.75 -0.199219,0.480469 -0.296875,1 -0.296875,1.5625 0,0.6875 0.117188,1.265625 0.359375,1.734375 0.238281,0.460938 0.582031,0.804688 1.03125,1.03125 0.457031,0.21875 0.941406,0.328125 1.453125,0.328125 0.4375,0 0.863281,-0.082031 1.28125,-0.25 0.425781,-0.164063 0.75,-0.347656 0.96875,-0.546875 v -1.4375 z m 0,0" id="path1106"></path> </symbol> <symbol overflow="visible" id="glyph4-14"> <path style="stroke:none" d="M 4.34375,0 V -0.703125 C 3.988281,-0.148438 3.46875,0.125 2.78125,0.125 c -0.449219,0 -0.859375,-0.12109375 -1.234375,-0.359375 -0.375,-0.25 -0.667969,-0.59375 -0.875,-1.03125 C 0.472656,-1.710938 0.375,-2.222656 0.375,-2.796875 c 0,-0.550781 0.085938,-1.054687 0.265625,-1.515625 0.1875,-0.457031 0.46875,-0.804688 0.84375,-1.046875 0.375,-0.238281 0.789063,-0.359375 1.25,-0.359375 0.34375,0 0.644531,0.074219 0.90625,0.21875 0.257813,0.136719 0.472656,0.320312 0.640625,0.546875 v -2.78125 h 0.9375 V 0 Z m -3,-2.796875 c 0,0.71875 0.148438,1.257813 0.453125,1.609375 0.300781,0.355469 0.660156,0.53125 1.078125,0.53125 0.40625,0 0.753906,-0.164062 1.046875,-0.5 0.289063,-0.34375 0.4375,-0.863281 0.4375,-1.5625 0,-0.757812 -0.152344,-1.316406 -0.453125,-1.671875 C 3.613281,-4.753906 3.253906,-4.9375 2.828125,-4.9375 c -0.429687,0 -0.78125,0.171875 -1.0625,0.515625 -0.28125,0.34375 -0.421875,0.886719 -0.421875,1.625 z m 0,0" id="path1109"></path> </symbol> <symbol overflow="visible" id="glyph4-15"> <path style="stroke:none" d="m 2.78125,-0.84375 0.140625,0.828125 c -0.273437,0.0625 -0.511719,0.09375 -0.71875,0.09375 -0.34375,0 -0.609375,-0.0546875 -0.796875,-0.15625 C 1.21875,-0.191406 1.082031,-0.335938 1,-0.515625 0.925781,-0.691406 0.890625,-1.066406 0.890625,-1.640625 v -3.21875 H 0.1875 V -5.59375 h 0.703125 v -1.390625 l 0.9375,-0.5625 V -5.59375 H 2.78125 v 0.734375 H 1.828125 v 3.265625 c 0,0.273438 0.015625,0.449219 0.046875,0.53125 0.03125,0.074219 0.082031,0.136719 0.15625,0.1875 0.082031,0.042969 0.191406,0.0625 0.328125,0.0625 0.113281,0 0.253906,-0.007812 0.421875,-0.03125 z m 0,0" id="path1112"></path> </symbol> <symbol overflow="visible" id="glyph4-16"> <path style="stroke:none" d="m 0.953125,0 v -1.078125 h 1.09375 V 0 c 0,0.394531 -0.074219,0.710938 -0.21875,0.953125 C 1.691406,1.203125 1.46875,1.394531 1.15625,1.53125 L 0.890625,1.125 C 1.097656,1.03125 1.25,0.898438 1.34375,0.734375 1.4375,0.566406 1.488281,0.320312 1.5,0 Z m 0,0" id="path1115"></path> </symbol> <symbol overflow="visible" id="glyph4-17"> <path style="stroke:none" d="" id="path1118"></path> </symbol> <symbol overflow="visible" id="glyph4-18"> <path style="stroke:none" d="M 0.453125,-2.03125 1.4375,-2.109375 c 0.082031,0.492187 0.253906,0.855469 0.515625,1.09375 0.269531,0.242187 0.597656,0.359375 0.984375,0.359375 0.445312,0 0.828125,-0.171875 1.140625,-0.515625 C 4.398438,-1.515625 4.5625,-1.96875 4.5625,-2.53125 4.5625,-3.070312 4.410156,-3.5 4.109375,-3.8125 3.804688,-4.125 3.410156,-4.28125 2.921875,-4.28125 c -0.3125,0 -0.59375,0.070312 -0.84375,0.203125 C 1.835938,-3.941406 1.644531,-3.757812 1.5,-3.53125 l -0.890625,-0.125 0.75,-3.96875 h 3.84375 v 0.90625 H 2.125 L 1.703125,-4.640625 C 2.171875,-4.960938 2.660156,-5.125 3.171875,-5.125 c 0.675781,0 1.242187,0.234375 1.703125,0.703125 0.46875,0.46875 0.703125,1.070313 0.703125,1.796875 0,0.699219 -0.210937,1.304688 -0.625,1.8125 C 4.460938,-0.1875 3.789062,0.125 2.9375,0.125 c -0.710938,0 -1.289062,-0.1914062 -1.734375,-0.578125 -0.4375,-0.394531 -0.6875,-0.921875 -0.75,-1.578125 z m 0,0" id="path1121"></path> </symbol> <symbol overflow="visible" id="glyph4-19"> <path style="stroke:none" d="m 0.453125,-3.8125 c 0,-0.914062 0.09375,-1.648438 0.28125,-2.203125 0.1875,-0.5625 0.460937,-0.992187 0.828125,-1.296875 0.375,-0.300781 0.84375,-0.453125 1.40625,-0.453125 0.414062,0 0.78125,0.085937 1.09375,0.25 0.3125,0.167969 0.566406,0.414063 0.765625,0.734375 0.207031,0.3125 0.367187,0.699219 0.484375,1.15625 0.113281,0.449219 0.171875,1.054688 0.171875,1.8125 0,0.90625 -0.09375,1.640625 -0.28125,2.203125 -0.1875,0.554687 -0.46875,0.980469 -0.84375,1.28125 C 3.992188,-0.0234375 3.53125,0.125 2.96875,0.125 c -0.75,0 -1.335938,-0.265625 -1.75,-0.796875 C 0.707031,-1.316406 0.453125,-2.363281 0.453125,-3.8125 Z m 0.96875,0 c 0,1.273438 0.144531,2.117188 0.4375,2.53125 0.300781,0.417969 0.671875,0.625 1.109375,0.625 0.4375,0 0.800781,-0.207031 1.09375,-0.625 0.300781,-0.414062 0.453125,-1.257812 0.453125,-2.53125 0,-1.269531 -0.152344,-2.113281 -0.453125,-2.53125 -0.292969,-0.414062 -0.664062,-0.625 -1.109375,-0.625 -0.4375,0 -0.789063,0.183594 -1.046875,0.546875 -0.324219,0.46875 -0.484375,1.339844 -0.484375,2.609375 z m 0,0" id="path1124"></path> </symbol> <symbol overflow="visible" id="glyph4-20"> <path style="stroke:none" d="m 0.625,-5.875 c 0,-0.550781 0.132812,-1.019531 0.40625,-1.40625 0.28125,-0.382812 0.6875,-0.578125 1.21875,-0.578125 0.488281,0 0.890625,0.171875 1.203125,0.515625 C 3.773438,-7 3.9375,-6.488281 3.9375,-5.8125 c 0,0.65625 -0.164062,1.164062 -0.484375,1.515625 -0.324219,0.34375 -0.71875,0.515625 -1.1875,0.515625 -0.46875,0 -0.859375,-0.171875 -1.171875,-0.515625 C 0.78125,-4.640625 0.625,-5.164062 0.625,-5.875 Z m 1.65625,-1.328125 c -0.242188,0 -0.4375,0.105469 -0.59375,0.3125 -0.15625,0.199219 -0.234375,0.570313 -0.234375,1.109375 0,0.5 0.078125,0.855469 0.234375,1.0625 0.15625,0.199219 0.351562,0.296875 0.59375,0.296875 0.238281,0 0.4375,-0.101563 0.59375,-0.3125 0.15625,-0.207031 0.234375,-0.582031 0.234375,-1.125 0,-0.488281 -0.085937,-0.832031 -0.25,-1.03125 -0.15625,-0.207031 -0.351563,-0.3125 -0.578125,-0.3125 z m 0,7.484375 4.234375,-8.140625 H 7.28125 L 3.0625,0.28125 Z M 5.625,-1.8125 c 0,-0.550781 0.132812,-1.019531 0.40625,-1.40625 0.28125,-0.382812 0.6875,-0.578125 1.21875,-0.578125 0.488281,0 0.890625,0.171875 1.203125,0.515625 C 8.773438,-2.9375 8.9375,-2.425781 8.9375,-1.75 c 0,0.648438 -0.164062,1.148438 -0.484375,1.5 -0.324219,0.351562 -0.71875,0.53125 -1.1875,0.53125 -0.46875,0 -0.859375,-0.171875 -1.171875,-0.515625 C 5.78125,-0.585938 5.625,-1.113281 5.625,-1.8125 Z m 1.65625,-1.328125 c -0.242188,0 -0.4375,0.105469 -0.59375,0.3125 -0.15625,0.199219 -0.234375,0.570313 -0.234375,1.109375 0,0.492188 0.078125,0.839844 0.234375,1.046875 0.15625,0.199219 0.351562,0.296875 0.59375,0.296875 0.238281,0 0.4375,-0.097656 0.59375,-0.296875 0.15625,-0.207031 0.234375,-0.582031 0.234375,-1.125 0,-0.5 -0.078125,-0.847656 -0.234375,-1.046875 C 7.71875,-3.039062 7.519531,-3.140625 7.28125,-3.140625 Z m 0,0" id="path1127"></path> </symbol> </g> <g id="g1076"> <symbol overflow="visible" id="glyph0-0-3"> <path style="stroke:none" d="m 0,-1.5 h -7.5 v -6 H 0 Z m -0.1875,-0.1875 v -5.625 h -7.125 v 5.625 z m 0,0" id="path1034-6"></path> </symbol> <symbol overflow="visible" id="glyph0-1-7"> <path style="stroke:none" d="m 2.53125,-2.8125 c -0.742188,0.585938 -1.601562,1.078125 -2.578125,1.484375 -0.988281,0.398437 -2.007813,0.59375 -3.0625,0.59375 -0.925781,0 -1.816406,-0.144531 -2.671875,-0.4375 -0.988281,-0.351563 -1.972656,-0.898437 -2.953125,-1.640625 v -0.75 c 0.8125,0.46875 1.390625,0.78125 1.734375,0.9375 0.542969,0.242188 1.105469,0.429688 1.6875,0.5625 0.730469,0.167969 1.464844,0.25 2.203125,0.25 1.886719,0 3.765625,-0.582031 5.640625,-1.75 z m 0,0" id="path1037-5"></path> </symbol> <symbol overflow="visible" id="glyph0-2-3"> <path style="stroke:none" d="M 0.515625,-0.59375 0.671875,-1.625 c 0.3125,-0.039062 0.539063,-0.160156 0.6875,-0.359375 0.195313,-0.257813 0.296875,-0.613281 0.296875,-1.0625 0,-0.488281 -0.101562,-0.863281 -0.296875,-1.125 C 1.160156,-4.441406 0.890625,-4.625 0.546875,-4.71875 0.328125,-4.78125 -0.125,-4.804688 -0.8125,-4.796875 -0.269531,-4.335938 0,-3.765625 0,-3.078125 c 0,0.855469 -0.304688,1.515625 -0.921875,1.984375 -0.625,0.46875 -1.363281,0.703125 -2.21875,0.703125 -0.59375,0 -1.140625,-0.101563 -1.640625,-0.3125 -0.507812,-0.21875 -0.898438,-0.53125 -1.171875,-0.9375 -0.269531,-0.40625 -0.40625,-0.882813 -0.40625,-1.4375 0,-0.738281 0.296875,-1.347656 0.890625,-1.828125 h -0.75 V -5.875 h 5.375 c 0.96875,0 1.65625,0.101562 2.0625,0.296875 0.40625,0.199219 0.722656,0.511719 0.953125,0.9375 0.238281,0.429687 0.359375,0.953125 0.359375,1.578125 0,0.742188 -0.167969,1.339844 -0.5,1.796875 -0.335938,0.460937 -0.839844,0.683594 -1.515625,0.671875 z m -3.734375,-0.875 c 0.8125,0 1.40625,-0.160156 1.78125,-0.484375 0.375,-0.320313 0.5625,-0.726563 0.5625,-1.21875 0,-0.488281 -0.1875,-0.894531 -0.5625,-1.21875 -0.375,-0.332031 -0.957031,-0.5 -1.75,-0.5 -0.757812,0 -1.332031,0.171875 -1.71875,0.515625 -0.382812,0.335938 -0.578125,0.742188 -0.578125,1.21875 0,0.46875 0.195313,0.871094 0.578125,1.203125 0.375,0.324219 0.9375,0.484375 1.6875,0.484375 z m 0,0" id="path1040-5"></path> </symbol> <symbol overflow="visible" id="glyph0-3-6"> <path style="stroke:none" d="m 0,-0.78125 h -6.21875 v -0.953125 h 0.9375 c -0.4375,-0.238281 -0.722656,-0.457031 -0.859375,-0.65625 -0.144531,-0.207031 -0.21875,-0.4375 -0.21875,-0.6875 0,-0.351563 0.109375,-0.710937 0.328125,-1.078125 l 0.984375,0.359375 c -0.15625,0.261719 -0.234375,0.515625 -0.234375,0.765625 0,0.242188 0.074219,0.453125 0.21875,0.640625 0.136719,0.179687 0.328125,0.304687 0.578125,0.375 0.375,0.125 0.78125,0.1875 1.21875,0.1875 H 0 Z m 0,0" id="path1043-2"></path> </symbol> <symbol overflow="visible" id="glyph0-4-9"> <path style="stroke:none" d="m -0.765625,-4.859375 c 0.335937,0.398437 0.570313,0.777344 0.703125,1.140625 0.1328125,0.355469 0.203125,0.742188 0.203125,1.15625 0,0.6875 -0.1640625,1.214844 -0.5,1.578125 -0.332031,0.367187 -0.757813,0.546875 -1.28125,0.546875 -0.300781,0 -0.578125,-0.066406 -0.828125,-0.203125 -0.257812,-0.132813 -0.460938,-0.316406 -0.609375,-0.546875 -0.15625,-0.226562 -0.269531,-0.484375 -0.34375,-0.765625 -0.0625,-0.195313 -0.117187,-0.507813 -0.171875,-0.9375 -0.09375,-0.84375 -0.210938,-1.46875 -0.359375,-1.875 -0.144531,0 -0.234375,0 -0.265625,0 -0.4375,0 -0.742188,0.101563 -0.921875,0.296875 -0.226563,0.273438 -0.34375,0.671875 -0.34375,1.203125 0,0.492187 0.089844,0.855469 0.265625,1.09375 0.167969,0.242187 0.46875,0.417969 0.90625,0.53125 l -0.140625,1.03125 c -0.4375,-0.09375 -0.789063,-0.25 -1.0625,-0.46875 -0.269531,-0.21875 -0.476563,-0.53125 -0.625,-0.9375 -0.144531,-0.40625 -0.21875,-0.875 -0.21875,-1.40625 0,-0.53125 0.0625,-0.960937 0.1875,-1.296875 0.125,-0.332031 0.28125,-0.578125 0.46875,-0.734375 0.1875,-0.15625 0.429687,-0.265625 0.71875,-0.328125 0.179687,-0.03125 0.5,-0.046875 0.96875,-0.046875 h 1.40625 c 0.980469,0 1.601563,-0.019531 1.859375,-0.0625 0.261719,-0.050781 0.511719,-0.144531 0.75,-0.28125 V -5.0625 c -0.21875,0.105469 -0.472656,0.171875 -0.765625,0.203125 z M -3.125,-4.765625 c 0.15625,0.386719 0.292969,0.960937 0.40625,1.71875 0.0625,0.4375 0.136719,0.746094 0.21875,0.921875 0.074219,0.179688 0.183594,0.320312 0.328125,0.421875 0.148437,0.09375 0.3125,0.140625 0.5,0.140625 0.28125,0 0.515625,-0.101562 0.703125,-0.3125 0.1875,-0.21875 0.28125,-0.53125 0.28125,-0.9375 0,-0.40625 -0.085938,-0.765625 -0.265625,-1.078125 C -1.128906,-4.210938 -1.375,-4.445312 -1.6875,-4.59375 -1.925781,-4.707031 -2.273438,-4.765625 -2.734375,-4.765625 Z m 0,0" id="path1046-1"></path> </symbol> <symbol overflow="visible" id="glyph0-5-2"> <path style="stroke:none" d="m 0,-4.828125 h -0.78125 c 0.617188,0.398437 0.921875,0.976563 0.921875,1.734375 0,0.5 -0.13671875,0.960938 -0.40625,1.375 -0.28125,0.417969 -0.664063,0.742188 -1.15625,0.96875 -0.488281,0.230469 -1.050781,0.34375 -1.6875,0.34375 -0.613281,0 -1.175781,-0.101562 -1.6875,-0.3125 -0.507813,-0.207031 -0.894531,-0.519531 -1.15625,-0.9375 -0.269531,-0.414062 -0.40625,-0.878906 -0.40625,-1.390625 0,-0.375 0.078125,-0.707031 0.234375,-1 0.15625,-0.289063 0.359375,-0.53125 0.609375,-0.71875 H -8.59375 V -5.8125 H 0 Z M -3.109375,-1.5 c 0.804687,0 1.402344,-0.164062 1.796875,-0.5 0.386719,-0.332031 0.578125,-0.726562 0.578125,-1.1875 0,-0.457031 -0.1875,-0.847656 -0.5625,-1.171875 -0.375,-0.320313 -0.945313,-0.484375 -1.71875,-0.484375 -0.851563,0 -1.476563,0.167969 -1.875,0.5 -0.394531,0.324219 -0.59375,0.726562 -0.59375,1.203125 0,0.46875 0.195313,0.859375 0.578125,1.171875 0.375,0.3125 0.976562,0.46875 1.796875,0.46875 z m 0,0" id="path1049-7"></path> </symbol> <symbol overflow="visible" id="glyph0-6-0"> <path style="stroke:none" d="m -7.375,-0.796875 h -1.21875 v -1.0625 H -7.375 Z m 7.375,0 h -6.21875 v -1.0625 H 0 Z m 0,0" id="path1052-9"></path> </symbol> <symbol overflow="visible" id="glyph0-7-3"> <path style="stroke:none" d="m -2,-5.046875 0.125,-1.09375 c 0.636719,0.167969 1.132812,0.484375 1.484375,0.953125 0.3554688,0.46875 0.53125,1.0625 0.53125,1.78125 0,0.90625 -0.28125,1.632812 -0.84375,2.171875 -0.5625,0.53125 -1.347656,0.796875 -2.359375,0.796875 -1.039062,0 -1.847656,-0.269531 -2.421875,-0.8125 -0.582031,-0.539062 -0.875,-1.238281 -0.875,-2.09375 0,-0.832031 0.28125,-1.507812 0.84375,-2.03125 0.5625,-0.53125 1.359375,-0.796875 2.390625,-0.796875 0.0625,0 0.15625,0 0.28125,0 v 4.640625 c 0.6875,-0.039062 1.214844,-0.234375 1.578125,-0.578125 0.355469,-0.34375 0.53125,-0.773437 0.53125,-1.296875 0,-0.382812 -0.097656,-0.710938 -0.296875,-0.984375 -0.207031,-0.28125 -0.53125,-0.5 -0.96875,-0.65625 z M -3.703125,-1.59375 V -5.0625 c -0.53125,0.042969 -0.925781,0.171875 -1.1875,0.390625 -0.40625,0.34375 -0.609375,0.78125 -0.609375,1.3125 0,0.492187 0.164062,0.902344 0.484375,1.234375 0.324219,0.324219 0.761719,0.5 1.3125,0.53125 z m 0,0" id="path1055-6"></path> </symbol> <symbol overflow="visible" id="glyph0-8-0"> <path style="stroke:none" d="m 0,-0.796875 h -6.21875 v -0.9375 h 0.875 c -0.675781,-0.457031 -1.015625,-1.117187 -1.015625,-1.984375 0,-0.375 0.070313,-0.71875 0.203125,-1.03125 0.136719,-0.320312 0.3125,-0.5625 0.53125,-0.71875 0.21875,-0.15625 0.476562,-0.265625 0.765625,-0.328125 0.199219,-0.03125 0.542969,-0.046875 1.03125,-0.046875 H 0 v 1.046875 h -3.78125 c -0.4375,0 -0.757812,0.042969 -0.96875,0.125 -0.207031,0.085937 -0.375,0.230469 -0.5,0.4375 -0.132812,0.210937 -0.203125,0.453125 -0.203125,0.734375 0,0.449219 0.148437,0.839844 0.4375,1.171875 0.28125,0.324219 0.820313,0.484375 1.609375,0.484375 H 0 Z m 0,0" id="path1058-6"></path> </symbol> <symbol overflow="visible" id="glyph0-9-2"> <path style="stroke:none" d="M -0.9375,-3.09375 -0.015625,-3.25 c 0.0625,0.304688 0.09375,0.570312 0.09375,0.796875 0,0.386719 -0.0585938,0.683594 -0.171875,0.890625 -0.125,0.210938 -0.285156,0.359375 -0.484375,0.453125 -0.195313,0.085937 -0.613281,0.125 -1.25,0.125 H -5.40625 v 0.765625 h -0.8125 v -0.765625 h -1.546875 l -0.625,-1.046875 h 2.171875 v -1.0625 h 0.8125 v 1.0625 h 3.640625 c 0.304687,0 0.496094,-0.015625 0.578125,-0.046875 0.085938,-0.039063 0.152344,-0.101563 0.203125,-0.1875 0.054687,-0.082031 0.078125,-0.203125 0.078125,-0.359375 0,-0.125 -0.007812,-0.28125 -0.03125,-0.46875 z m 0,0" id="path1061-6"></path> </symbol> <symbol overflow="visible" id="glyph0-10"> <path style="stroke:none" d="m 2.53125,-1.484375 v 0.75 c -1.875,-1.164063 -3.753906,-1.75 -5.640625,-1.75 -0.726563,0 -1.457031,0.085937 -2.1875,0.25 -0.582031,0.136719 -1.144531,0.324219 -1.6875,0.5625 -0.34375,0.15625 -0.925781,0.46875 -1.75,0.9375 v -0.75 c 0.980469,-0.726563 1.964844,-1.269531 2.953125,-1.625 0.855469,-0.300781 1.746094,-0.453125 2.671875,-0.453125 1.054687,0 2.074219,0.203125 3.0625,0.609375 0.976563,0.40625 1.835937,0.898437 2.578125,1.46875 z m 0,0" id="path1064-1"></path> </symbol> <symbol overflow="visible" id="glyph1-0-8"> <path style="stroke:none" d="m 2.75,0 v -13.75 h 11 V 0 Z m 0.34375,-0.34375 h 10.3125 v -13.0625 H 3.09375 Z m 0,0" id="path1067-7"></path> </symbol> <symbol overflow="visible" id="glyph1-1-9"> <path style="stroke:none" d="m -0.03125,0 6.046875,-15.75 h 2.25 L 14.703125,0 h -2.375 L 10.5,-4.765625 H 3.90625 L 2.1875,0 Z M 4.515625,-6.46875 H 9.84375 l -1.640625,-4.359375 c -0.5,-1.320313 -0.871094,-2.410156 -1.109375,-3.265625 -0.199219,1.011719 -0.484375,2.011719 -0.859375,3 z m 0,0" id="path1070-2"></path> </symbol> <symbol overflow="visible" id="glyph1-2-0"> <path style="stroke:none" d="m 1.609375,0 v -15.75 h 5.90625 c 1.207031,0 2.171875,0.164062 2.890625,0.484375 0.726562,0.3125 1.296875,0.804687 1.703125,1.46875 0.414063,0.65625 0.625,1.351563 0.625,2.078125 0,0.679688 -0.183594,1.3125 -0.546875,1.90625 -0.367188,0.59375 -0.917969,1.074219 -1.65625,1.4375 0.957031,0.28125 1.691406,0.761719 2.203125,1.4375 0.507813,0.667969 0.765625,1.460938 0.765625,2.375 0,0.742188 -0.15625,1.429688 -0.46875,2.0625 -0.3125,0.625 -0.699219,1.109375 -1.15625,1.453125 -0.460938,0.34375 -1.03125,0.605469 -1.71875,0.78125 C 9.46875,-0.0859375 8.617188,0 7.609375,0 Z m 2.09375,-9.125 H 7.09375 c 0.925781,0 1.59375,-0.0625 2,-0.1875 0.53125,-0.15625 0.925781,-0.414062 1.1875,-0.78125 0.269531,-0.363281 0.40625,-0.820312 0.40625,-1.375 0,-0.519531 -0.125,-0.976562 -0.375,-1.375 -0.25,-0.40625 -0.609375,-0.679688 -1.078125,-0.828125 -0.460937,-0.144531 -1.257813,-0.21875 -2.390625,-0.21875 H 3.703125 Z m 0,7.265625 h 3.90625 c 0.675781,0 1.148437,-0.023437 1.421875,-0.078125 0.476562,-0.082031 0.878906,-0.222656 1.203125,-0.421875 0.320313,-0.207031 0.585937,-0.5 0.796875,-0.875 0.207031,-0.382813 0.3125,-0.828125 0.3125,-1.328125 0,-0.59375 -0.152344,-1.101562 -0.453125,-1.53125 C 10.585938,-6.53125 10.171875,-6.832031 9.640625,-7 9.109375,-7.175781 8.34375,-7.265625 7.34375,-7.265625 H 3.703125 Z m 0,0" id="path1073-2"></path> </symbol> </g> <g id="g1108"> <symbol overflow="visible" id="glyph0-0-36"> <path style="stroke:none" d="m 0,-1.5 h -7.5 v -6 H 0 Z m -0.1875,-0.1875 v -5.625 h -7.125 v 5.625 z m 0,0" id="path1066"></path> </symbol> <symbol overflow="visible" id="glyph0-1-75"> <path style="stroke:none" d="m 2.53125,-2.8125 c -0.742188,0.585938 -1.601562,1.078125 -2.578125,1.484375 -0.988281,0.398437 -2.007813,0.59375 -3.0625,0.59375 -0.925781,0 -1.816406,-0.144531 -2.671875,-0.4375 -0.988281,-0.351563 -1.972656,-0.898437 -2.953125,-1.640625 v -0.75 c 0.8125,0.46875 1.390625,0.78125 1.734375,0.9375 0.542969,0.242188 1.105469,0.429688 1.6875,0.5625 0.730469,0.167969 1.464844,0.25 2.203125,0.25 1.886719,0 3.765625,-0.582031 5.640625,-1.75 z m 0,0" id="path1069"></path> </symbol> <symbol overflow="visible" id="glyph0-2-35"> <path style="stroke:none" d="M 0.515625,-0.59375 0.671875,-1.625 c 0.3125,-0.039062 0.539063,-0.160156 0.6875,-0.359375 0.195313,-0.257813 0.296875,-0.613281 0.296875,-1.0625 0,-0.488281 -0.101562,-0.863281 -0.296875,-1.125 C 1.160156,-4.441406 0.890625,-4.625 0.546875,-4.71875 0.328125,-4.78125 -0.125,-4.804688 -0.8125,-4.796875 -0.269531,-4.335938 0,-3.765625 0,-3.078125 c 0,0.855469 -0.304688,1.515625 -0.921875,1.984375 -0.625,0.46875 -1.363281,0.703125 -2.21875,0.703125 -0.59375,0 -1.140625,-0.101563 -1.640625,-0.3125 -0.507812,-0.21875 -0.898438,-0.53125 -1.171875,-0.9375 -0.269531,-0.40625 -0.40625,-0.882813 -0.40625,-1.4375 0,-0.738281 0.296875,-1.347656 0.890625,-1.828125 h -0.75 V -5.875 h 5.375 c 0.96875,0 1.65625,0.101562 2.0625,0.296875 0.40625,0.199219 0.722656,0.511719 0.953125,0.9375 0.238281,0.429687 0.359375,0.953125 0.359375,1.578125 0,0.742188 -0.167969,1.339844 -0.5,1.796875 -0.335938,0.460937 -0.839844,0.683594 -1.515625,0.671875 z m -3.734375,-0.875 c 0.8125,0 1.40625,-0.160156 1.78125,-0.484375 0.375,-0.320313 0.5625,-0.726563 0.5625,-1.21875 0,-0.488281 -0.1875,-0.894531 -0.5625,-1.21875 -0.375,-0.332031 -0.957031,-0.5 -1.75,-0.5 -0.757812,0 -1.332031,0.171875 -1.71875,0.515625 -0.382812,0.335938 -0.578125,0.742188 -0.578125,1.21875 0,0.46875 0.195313,0.871094 0.578125,1.203125 0.375,0.324219 0.9375,0.484375 1.6875,0.484375 z m 0,0" id="path1072"></path> </symbol> <symbol overflow="visible" id="glyph0-3-62"> <path style="stroke:none" d="m 0,-0.78125 h -6.21875 v -0.953125 h 0.9375 c -0.4375,-0.238281 -0.722656,-0.457031 -0.859375,-0.65625 -0.144531,-0.207031 -0.21875,-0.4375 -0.21875,-0.6875 0,-0.351563 0.109375,-0.710937 0.328125,-1.078125 l 0.984375,0.359375 c -0.15625,0.261719 -0.234375,0.515625 -0.234375,0.765625 0,0.242188 0.074219,0.453125 0.21875,0.640625 0.136719,0.179687 0.328125,0.304687 0.578125,0.375 0.375,0.125 0.78125,0.1875 1.21875,0.1875 H 0 Z m 0,0" id="path1075"></path> </symbol> <symbol overflow="visible" id="glyph0-4-91"> <path style="stroke:none" d="m -0.765625,-4.859375 c 0.335937,0.398437 0.570313,0.777344 0.703125,1.140625 0.1328125,0.355469 0.203125,0.742188 0.203125,1.15625 0,0.6875 -0.1640625,1.214844 -0.5,1.578125 -0.332031,0.367187 -0.757813,0.546875 -1.28125,0.546875 -0.300781,0 -0.578125,-0.066406 -0.828125,-0.203125 -0.257812,-0.132813 -0.460938,-0.316406 -0.609375,-0.546875 -0.15625,-0.226562 -0.269531,-0.484375 -0.34375,-0.765625 -0.0625,-0.195313 -0.117187,-0.507813 -0.171875,-0.9375 -0.09375,-0.84375 -0.210938,-1.46875 -0.359375,-1.875 -0.144531,0 -0.234375,0 -0.265625,0 -0.4375,0 -0.742188,0.101563 -0.921875,0.296875 -0.226563,0.273438 -0.34375,0.671875 -0.34375,1.203125 0,0.492187 0.089844,0.855469 0.265625,1.09375 0.167969,0.242187 0.46875,0.417969 0.90625,0.53125 l -0.140625,1.03125 c -0.4375,-0.09375 -0.789063,-0.25 -1.0625,-0.46875 -0.269531,-0.21875 -0.476563,-0.53125 -0.625,-0.9375 -0.144531,-0.40625 -0.21875,-0.875 -0.21875,-1.40625 0,-0.53125 0.0625,-0.960937 0.1875,-1.296875 0.125,-0.332031 0.28125,-0.578125 0.46875,-0.734375 0.1875,-0.15625 0.429687,-0.265625 0.71875,-0.328125 0.179687,-0.03125 0.5,-0.046875 0.96875,-0.046875 h 1.40625 c 0.980469,0 1.601563,-0.019531 1.859375,-0.0625 0.261719,-0.050781 0.511719,-0.144531 0.75,-0.28125 V -5.0625 c -0.21875,0.105469 -0.472656,0.171875 -0.765625,0.203125 z M -3.125,-4.765625 c 0.15625,0.386719 0.292969,0.960937 0.40625,1.71875 0.0625,0.4375 0.136719,0.746094 0.21875,0.921875 0.074219,0.179688 0.183594,0.320312 0.328125,0.421875 0.148437,0.09375 0.3125,0.140625 0.5,0.140625 0.28125,0 0.515625,-0.101562 0.703125,-0.3125 0.1875,-0.21875 0.28125,-0.53125 0.28125,-0.9375 0,-0.40625 -0.085938,-0.765625 -0.265625,-1.078125 C -1.128906,-4.210938 -1.375,-4.445312 -1.6875,-4.59375 -1.925781,-4.707031 -2.273438,-4.765625 -2.734375,-4.765625 Z m 0,0" id="path1078"></path> </symbol> <symbol overflow="visible" id="glyph0-5-27"> <path style="stroke:none" d="m 0,-4.828125 h -0.78125 c 0.617188,0.398437 0.921875,0.976563 0.921875,1.734375 0,0.5 -0.13671875,0.960938 -0.40625,1.375 -0.28125,0.417969 -0.664063,0.742188 -1.15625,0.96875 -0.488281,0.230469 -1.050781,0.34375 -1.6875,0.34375 -0.613281,0 -1.175781,-0.101562 -1.6875,-0.3125 -0.507813,-0.207031 -0.894531,-0.519531 -1.15625,-0.9375 -0.269531,-0.414062 -0.40625,-0.878906 -0.40625,-1.390625 0,-0.375 0.078125,-0.707031 0.234375,-1 0.15625,-0.289063 0.359375,-0.53125 0.609375,-0.71875 H -8.59375 V -5.8125 H 0 Z M -3.109375,-1.5 c 0.804687,0 1.402344,-0.164062 1.796875,-0.5 0.386719,-0.332031 0.578125,-0.726562 0.578125,-1.1875 0,-0.457031 -0.1875,-0.847656 -0.5625,-1.171875 -0.375,-0.320313 -0.945313,-0.484375 -1.71875,-0.484375 -0.851563,0 -1.476563,0.167969 -1.875,0.5 -0.394531,0.324219 -0.59375,0.726562 -0.59375,1.203125 0,0.46875 0.195313,0.859375 0.578125,1.171875 0.375,0.3125 0.976562,0.46875 1.796875,0.46875 z m 0,0" id="path1081"></path> </symbol> <symbol overflow="visible" id="glyph0-6-09"> <path style="stroke:none" d="m -7.375,-0.796875 h -1.21875 v -1.0625 H -7.375 Z m 7.375,0 h -6.21875 v -1.0625 H 0 Z m 0,0" id="path1084"></path> </symbol> <symbol overflow="visible" id="glyph0-7-36"> <path style="stroke:none" d="m -2,-5.046875 0.125,-1.09375 c 0.636719,0.167969 1.132812,0.484375 1.484375,0.953125 0.3554688,0.46875 0.53125,1.0625 0.53125,1.78125 0,0.90625 -0.28125,1.632812 -0.84375,2.171875 -0.5625,0.53125 -1.347656,0.796875 -2.359375,0.796875 -1.039062,0 -1.847656,-0.269531 -2.421875,-0.8125 -0.582031,-0.539062 -0.875,-1.238281 -0.875,-2.09375 0,-0.832031 0.28125,-1.507812 0.84375,-2.03125 0.5625,-0.53125 1.359375,-0.796875 2.390625,-0.796875 0.0625,0 0.15625,0 0.28125,0 v 4.640625 c 0.6875,-0.039062 1.214844,-0.234375 1.578125,-0.578125 0.355469,-0.34375 0.53125,-0.773437 0.53125,-1.296875 0,-0.382812 -0.097656,-0.710938 -0.296875,-0.984375 -0.207031,-0.28125 -0.53125,-0.5 -0.96875,-0.65625 z M -3.703125,-1.59375 V -5.0625 c -0.53125,0.042969 -0.925781,0.171875 -1.1875,0.390625 -0.40625,0.34375 -0.609375,0.78125 -0.609375,1.3125 0,0.492187 0.164062,0.902344 0.484375,1.234375 0.324219,0.324219 0.761719,0.5 1.3125,0.53125 z m 0,0" id="path1087"></path> </symbol> <symbol overflow="visible" id="glyph0-8-06"> <path style="stroke:none" d="m 0,-0.796875 h -6.21875 v -0.9375 h 0.875 c -0.675781,-0.457031 -1.015625,-1.117187 -1.015625,-1.984375 0,-0.375 0.070313,-0.71875 0.203125,-1.03125 0.136719,-0.320312 0.3125,-0.5625 0.53125,-0.71875 0.21875,-0.15625 0.476562,-0.265625 0.765625,-0.328125 0.199219,-0.03125 0.542969,-0.046875 1.03125,-0.046875 H 0 v 1.046875 h -3.78125 c -0.4375,0 -0.757812,0.042969 -0.96875,0.125 -0.207031,0.085937 -0.375,0.230469 -0.5,0.4375 -0.132812,0.210937 -0.203125,0.453125 -0.203125,0.734375 0,0.449219 0.148437,0.839844 0.4375,1.171875 0.28125,0.324219 0.820313,0.484375 1.609375,0.484375 H 0 Z m 0,0" id="path1090"></path> </symbol> <symbol overflow="visible" id="glyph0-9-26"> <path style="stroke:none" d="M -0.9375,-3.09375 -0.015625,-3.25 c 0.0625,0.304688 0.09375,0.570312 0.09375,0.796875 0,0.386719 -0.0585938,0.683594 -0.171875,0.890625 -0.125,0.210938 -0.285156,0.359375 -0.484375,0.453125 -0.195313,0.085937 -0.613281,0.125 -1.25,0.125 H -5.40625 v 0.765625 h -0.8125 v -0.765625 h -1.546875 l -0.625,-1.046875 h 2.171875 v -1.0625 h 0.8125 v 1.0625 h 3.640625 c 0.304687,0 0.496094,-0.015625 0.578125,-0.046875 0.085938,-0.039063 0.152344,-0.101563 0.203125,-0.1875 0.054687,-0.082031 0.078125,-0.203125 0.078125,-0.359375 0,-0.125 -0.007812,-0.28125 -0.03125,-0.46875 z m 0,0" id="path1093"></path> </symbol> <symbol overflow="visible" id="glyph0-10-1"> <path style="stroke:none" d="m 2.53125,-1.484375 v 0.75 c -1.875,-1.164063 -3.753906,-1.75 -5.640625,-1.75 -0.726563,0 -1.457031,0.085937 -2.1875,0.25 -0.582031,0.136719 -1.144531,0.324219 -1.6875,0.5625 -0.34375,0.15625 -0.925781,0.46875 -1.75,0.9375 v -0.75 c 0.980469,-0.726563 1.964844,-1.269531 2.953125,-1.625 0.855469,-0.300781 1.746094,-0.453125 2.671875,-0.453125 1.054687,0 2.074219,0.203125 3.0625,0.609375 0.976563,0.40625 1.835937,0.898437 2.578125,1.46875 z m 0,0" id="path1096"></path> </symbol> <symbol overflow="visible" id="glyph1-0-87"> <path style="stroke:none" d="m 2.75,0 v -13.75 h 11 V 0 Z m 0.34375,-0.34375 h 10.3125 v -13.0625 H 3.09375 Z m 0,0" id="path1099"></path> </symbol> <symbol overflow="visible" id="glyph1-1-92"> <path style="stroke:none" d="m -0.03125,0 6.046875,-15.75 h 2.25 L 14.703125,0 h -2.375 L 10.5,-4.765625 H 3.90625 L 2.1875,0 Z M 4.515625,-6.46875 H 9.84375 l -1.640625,-4.359375 c -0.5,-1.320313 -0.871094,-2.410156 -1.109375,-3.265625 -0.199219,1.011719 -0.484375,2.011719 -0.859375,3 z m 0,0" id="path1102"></path> </symbol> <symbol overflow="visible" id="glyph1-2-02"> <path style="stroke:none" d="m 1.609375,0 v -15.75 h 5.90625 c 1.207031,0 2.171875,0.164062 2.890625,0.484375 0.726562,0.3125 1.296875,0.804687 1.703125,1.46875 0.414063,0.65625 0.625,1.351563 0.625,2.078125 0,0.679688 -0.183594,1.3125 -0.546875,1.90625 -0.367188,0.59375 -0.917969,1.074219 -1.65625,1.4375 0.957031,0.28125 1.691406,0.761719 2.203125,1.4375 0.507813,0.667969 0.765625,1.460938 0.765625,2.375 0,0.742188 -0.15625,1.429688 -0.46875,2.0625 -0.3125,0.625 -0.699219,1.109375 -1.15625,1.453125 -0.460938,0.34375 -1.03125,0.605469 -1.71875,0.78125 C 9.46875,-0.0859375 8.617188,0 7.609375,0 Z m 2.09375,-9.125 H 7.09375 c 0.925781,0 1.59375,-0.0625 2,-0.1875 0.53125,-0.15625 0.925781,-0.414062 1.1875,-0.78125 0.269531,-0.363281 0.40625,-0.820312 0.40625,-1.375 0,-0.519531 -0.125,-0.976562 -0.375,-1.375 -0.25,-0.40625 -0.609375,-0.679688 -1.078125,-0.828125 -0.460937,-0.144531 -1.257813,-0.21875 -2.390625,-0.21875 H 3.703125 Z m 0,7.265625 h 3.90625 c 0.675781,0 1.148437,-0.023437 1.421875,-0.078125 0.476562,-0.082031 0.878906,-0.222656 1.203125,-0.421875 0.320313,-0.207031 0.585937,-0.5 0.796875,-0.875 0.207031,-0.382813 0.3125,-0.828125 0.3125,-1.328125 0,-0.59375 -0.152344,-1.101562 -0.453125,-1.53125 C 10.585938,-6.53125 10.171875,-6.832031 9.640625,-7 9.109375,-7.175781 8.34375,-7.265625 7.34375,-7.265625 H 3.703125 Z m 0,0" id="path1105"></path> </symbol> </g> </defs> <sodipodi:namedview id="base" pagecolor="#ffffff" bordercolor="#666666" borderopacity="1.0" inkscape:pageopacity="0.0" inkscape:pageshadow="2" inkscape:zoom="4.4597723" inkscape:cx="552.04612" inkscape:cy="498.9044" inkscape:document-units="mm" inkscape:current-layer="layer1" inkscape:document-rotation="0" showgrid="false" fit-margin-left="2.5" fit-margin-top="2.5" fit-margin-bottom="2.5" fit-margin-right="2.5" inkscape:pagecheckerboard="0" inkscape:window-width="1920" inkscape:window-height="1015" inkscape:window-x="0" inkscape:window-y="0" inkscape:window-maximized="1"></sodipodi:namedview> <metadata id="metadata5"> <rdf:rdf> <cc:work rdf:about=""> <dc:format>image/svg+xml</dc:format> <dc:type rdf:resource="http://purl.org/dc/dcmitype/StillImage"></dc:type> </cc:work> </rdf:rdf> </metadata> <g inkscape:label="Layer 1" inkscape:groupmode="layer" id="layer1" transform="translate(-22.420026,-23.11345)"> <text xml:space="preserve" style="font-size:6.35px;line-height:1.25;font-family:Arial;-inkscape-font-specification:Arial;letter-spacing:0px;word-spacing:0px;stroke-width:0.264583" x="36.78093" y="110.7979" id="text18679"><tspan sodipodi:role="line" id="tspan18677" style="font-size:6.35px;stroke-width:0.264583" x="36.78093" y="110.7979">0.01</tspan></text> <text xml:space="preserve" style="font-size:6.35px;line-height:1.25;font-family:Arial;-inkscape-font-specification:Arial;letter-spacing:0px;word-spacing:0px;stroke-width:0.264583" x="35.949974" y="59.058086" id="text21837"><tspan sodipodi:role="line" id="tspan21835" style="font-size:6.35px;stroke-width:0.264583" x="35.949974" y="59.058086">0.02</tspan></text> <text xml:space="preserve" style="font-size:6.35px;line-height:1.25;font-family:Arial;-inkscape-font-specification:Arial;letter-spacing:0px;word-spacing:0px;stroke-width:0.264583" x="44.746334" y="162.53911" id="text24519"><tspan sodipodi:role="line" id="tspan24517" style="font-size:6.35px;stroke-width:0.264583" x="44.746334" y="162.53911">0</tspan></text> <g id="g71086" transform="translate(0,-1.0583333)"> <text xml:space="preserve" style="font-size:6.35px;line-height:1.25;font-family:Arial;-inkscape-font-specification:Arial;letter-spacing:0px;word-spacing:0px;stroke-width:0.264583" x="49.274742" y="170.35568" id="text30235"><tspan sodipodi:role="line" id="tspan30233" style="font-size:6.35px;stroke-width:0.264583" x="49.274742" y="170.35568">0</tspan></text> <text xml:space="preserve" style="font-size:6.35px;line-height:1.25;font-family:Arial;-inkscape-font-specification:Arial;letter-spacing:0px;word-spacing:0px;stroke-width:0.264583" x="70.828201" y="170.35568" id="text30685"><tspan sodipodi:role="line" id="tspan30683" style="font-size:6.35px;stroke-width:0.264583" x="70.828201" y="170.35568">20</tspan></text> <text xml:space="preserve" style="font-size:6.35px;line-height:1.25;font-family:Arial;-inkscape-font-specification:Arial;letter-spacing:0px;word-spacing:0px;stroke-width:0.264583" x="94.167107" y="170.35568" id="text30689"><tspan sodipodi:role="line" id="tspan30687" style="font-size:6.35px;stroke-width:0.264583" x="94.167107" y="170.35568">40</tspan></text> <text xml:space="preserve" style="font-size:6.35px;line-height:1.25;font-family:Arial;-inkscape-font-specification:Arial;letter-spacing:0px;word-spacing:0px;stroke-width:0.264583" x="117.37138" y="170.35568" id="text30693"><tspan sodipodi:role="line" id="tspan30691" style="font-size:6.35px;stroke-width:0.264583" x="117.37138" y="170.35568">60</tspan></text> <text xml:space="preserve" style="font-size:6.35px;line-height:1.25;font-family:Arial;-inkscape-font-specification:Arial;letter-spacing:0px;word-spacing:0px;stroke-width:0.264583" x="140.64542" y="170.35568" id="text30697"><tspan sodipodi:role="line" id="tspan30695" style="font-size:6.35px;stroke-width:0.264583" x="140.64542" y="170.35568">80</tspan></text> <text xml:space="preserve" style="font-size:6.35px;line-height:1.25;font-family:Arial;-inkscape-font-specification:Arial;letter-spacing:0px;word-spacing:0px;stroke-width:0.264583" x="161.94591" y="170.35568" id="text30701"><tspan sodipodi:role="line" id="tspan30699" style="font-size:6.35px;stroke-width:0.264583" x="161.94591" y="170.35568">100</tspan></text> </g> <text xml:space="preserve" style="font-size:6.35px;line-height:1.25;font-family:Arial;-inkscape-font-specification:Arial;letter-spacing:0px;word-spacing:0px;stroke-width:0.264583" x="-106.82054" y="29.542999" id="text61325" transform="rotate(-90)"><tspan sodipodi:role="line" id="tspan61323" style="font-size:6.35px;stroke-width:0.264583" x="-106.82054" y="29.542999">pdf</tspan></text> <text xml:space="preserve" style="font-size:6.35px;line-height:1.25;font-family:Arial;-inkscape-font-specification:Arial;letter-spacing:0px;word-spacing:0px;stroke-width:0.264583" x="89.904305" y="178.95609" id="text65447"><tspan sodipodi:role="line" id="tspan65445" style="font-size:6.35px;stroke-width:0.264583" x="89.904305" y="178.95609">position (mm)</tspan></text> <path style="fill:none;stroke:#0a1726;stroke-width:0.75;stroke-linecap:square;stroke-linejoin:round;stroke-miterlimit:10;stroke-dasharray:none;stroke-opacity:1" d="M 51.020373,160.29583 H 167.43704" id="path1138"></path> <path style="fill:none;stroke:#0a1726;stroke-width:0.75;stroke-linecap:square;stroke-linejoin:round;stroke-miterlimit:10;stroke-dasharray:none;stroke-opacity:1" d="m 51.020373,160.29583 v -1.16444" id="path1140"></path> <path style="fill:none;stroke:#0a1726;stroke-width:0.75;stroke-linecap:square;stroke-linejoin:round;stroke-miterlimit:10;stroke-dasharray:none;stroke-opacity:1" d="m 74.303706,160.29583 v -1.16444" id="path1142"></path> <path style="fill:none;stroke:#0a1726;stroke-width:0.75;stroke-linecap:square;stroke-linejoin:round;stroke-miterlimit:10;stroke-dasharray:none;stroke-opacity:1" d="m 97.587043,160.29583 v -1.16444" id="path1144"></path> <path style="fill:none;stroke:#0a1726;stroke-width:0.75;stroke-linecap:square;stroke-linejoin:round;stroke-miterlimit:10;stroke-dasharray:none;stroke-opacity:1" d="m 120.87037,160.29583 v -1.16444" id="path1146"></path> <path style="fill:none;stroke:#0a1726;stroke-width:0.75;stroke-linecap:square;stroke-linejoin:round;stroke-miterlimit:10;stroke-dasharray:none;stroke-opacity:1" d="m 144.1537,160.29583 v -1.16444" id="path1148"></path> <path style="fill:none;stroke:#0a1726;stroke-width:0.75;stroke-linecap:square;stroke-linejoin:round;stroke-miterlimit:10;stroke-dasharray:none;stroke-opacity:1" d="m 167.43704,160.29583 v -1.16444" id="path1150"></path> <path style="fill:none;stroke:#0a1726;stroke-width:0.75;stroke-linecap:butt;stroke-linejoin:bevel;stroke-miterlimit:1;stroke-dasharray:4.49999, 2.7;stroke-dashoffset:0;stroke-opacity:1" d="M 51.020373,108.55463 H 167.43704" id="path1328"></path> <path style="fill:none;stroke:#0a1726;stroke-width:0.75;stroke-linecap:square;stroke-linejoin:round;stroke-miterlimit:10;stroke-dasharray:none;stroke-opacity:1" d="M 51.020373,160.29583 V 43.879167" id="path1216"></path> <path style="fill:none;stroke:#0a1726;stroke-width:0.75;stroke-linecap:square;stroke-linejoin:round;stroke-miterlimit:10;stroke-dasharray:none;stroke-opacity:1" d="m 51.020373,160.29583 h 1.164441" id="path1218"></path> <path style="fill:none;stroke:#0a1726;stroke-width:0.75;stroke-linecap:square;stroke-linejoin:round;stroke-miterlimit:10;stroke-dasharray:none;stroke-opacity:1" d="m 51.020373,108.55463 h 1.164441" id="path1222"></path> <path style="fill:none;stroke:#0a1726;stroke-width:0.75;stroke-linecap:square;stroke-linejoin:round;stroke-miterlimit:10;stroke-dasharray:none;stroke-opacity:1" d="m 51.020373,56.814812 h 1.164441" id="path1226"></path> <path style="fill:#0a1726;fill-opacity:0.27451;fill-rule:nonzero;stroke:none;stroke-width:0.352778" d="m 91.766207,115.70114 2.328884,1.20303 2.327508,1.20165 2.328884,1.30362 2.327507,1.305 2.32888,1.06798 2.32889,0.8158 2.32751,0.6339 2.32888,0.15985 2.32751,-0.68902 2.32888,-1.42075 2.32888,-1.68672 2.32751,-1.57786 2.32889,-1.36288 2.3275,-1.19751 2.32889,-1.40836 2.32888,-2.41432 2.32751,-3.28249 2.32888,-3.72208 2.32751,-3.97977 2.32888,-4.047303 2.32889,-3.855748 2.32751,-3.497464 2.32888,-2.834622 2.32751,-1.030774 2.32888,1.988509 2.32888,5.157999 2.32751,8.210353 2.32889,11.01466 2.3275,12.84193 2.32889,12.67244 2.32888,10.3284 2.32751,6.86401 v -2.07119 l -2.32751,-9.4244 -2.32888,-15.46435 -2.32889,-19.4896 -2.3275,-18.691705 -2.32889,-13.621907 -2.32751,-6.855739 -2.32888,-0.793752 -2.32888,2.66926 -2.32751,3.205318 -2.32888,3.064757 -2.32751,3.551202 -2.32889,4.132739 -2.32888,4.486892 -2.32751,4.707379 -2.32888,4.847939 -2.32751,4.661897 -2.32888,3.6835 -2.32889,1.50344 -2.3275,-1.19063 -2.32889,-1.78869 -2.32751,0.20533 -2.32888,2.64583 -2.32888,3.45612 -2.32751,2.51079 -2.32888,0.95085 -2.32751,-0.46165 -2.32889,-1.54064 -2.32888,-2.20073 -2.327507,-2.33302 -2.328884,-1.95819 -2.327508,-1.4938 -2.328884,-1.59576 -2.328883,-2.29719 -2.327508,-2.742302 -2.328884,-1.937519 -2.327508,0.355533 -2.328883,3.042708 -2.328884,4.23884 -2.327508,2.91456 -2.328884,0.56912 -2.327508,-0.66696 -2.328883,-0.91916 -2.328885,-0.85162 -2.327506,-0.60083 -2.328885,0.21773 -2.327507,2.1773 -2.328884,5.39227 -2.328884,8.84562 -2.327507,10.80796 v 8.89523 l 2.327507,-8.84011 2.328884,-7.89478 2.328884,-5.497 2.327507,-2.72162 2.328885,-0.54019 2.327506,0.49609 2.328885,0.57189 2.328883,0.16123 2.327508,-0.61323 2.328884,-1.44556 2.327508,-1.45108 2.328884,-0.95498 2.328883,-0.39825 2.327508,0.27836 2.328884,0.87092 2.327508,1.20303 z m 0,0" id="path1324"></path> <path style="fill:none;stroke:#0a1726;stroke-width:1.5;stroke-linecap:butt;stroke-linejoin:round;stroke-miterlimit:10;stroke-dasharray:none;stroke-opacity:1" d="m 52.184814,136.76445 2.327508,-9.82541 2.328884,-8.3702 2.328883,-5.44463 2.327508,-2.44878 2.328884,-0.37896 2.327508,0.54846 2.328883,0.71245 2.328884,0.54019 2.327508,0.0262 2.328883,-1.00734 2.327508,-2.18282 2.328884,-2.59622 2.328883,-1.72117 2.327508,-0.0386 2.328884,1.40422 2.327508,1.97335 2.328883,1.78042 2.328884,1.40009 2.327508,1.34634 2.328883,1.6316 2.32751,1.81901 2.32888,1.63435 2.32889,1.17822 2.3275,0.54709 2.32889,-0.3955 2.3275,-1.59853 2.32889,-2.43912 2.32888,-2.16628 2.32751,-0.89159 2.32888,0.2136 2.32751,-0.004 2.32888,-1.45521 2.32889,-3.0496 2.32751,-3.9715 2.32888,-4.285704 2.32751,-4.343574 2.32888,-4.266407 2.32889,-3.994933 2.3275,-3.525022 2.32889,-2.949001 2.3275,-2.118045 2.32889,-0.340376 2.32888,2.975184 2.32751,7.533735 2.32888,12.318283 2.32751,15.76751 2.32888,16.08033 2.32889,12.89706 2.32751,8.14421" id="path1326"></path> <g id="g70368" transform="translate(0.17052933,-10.311263)"> <path style="fill:none;stroke:#0a1726;stroke-width:1;stroke-linecap:butt;stroke-linejoin:round;stroke-miterlimit:10;stroke-dasharray:none;stroke-opacity:1" d="M 61.343971,65.070032 H 71.9273" id="path1348"></path> <text xml:space="preserve" style="font-size:6.35px;line-height:1.25;font-family:Arial;-inkscape-font-specification:Arial;letter-spacing:0px;word-spacing:0px;stroke-width:0.264583" x="74.289986" y="67.305557" id="text70176"><tspan sodipodi:role="line" id="tspan70174" style="font-size:6.35px;stroke-width:0.264583" x="74.289986" y="67.305557">Baseline</tspan></text> </g> </g>
</svg>
