<?xml version="1.0"?>

<svg xmlns="http://www.w3.org/2000/svg" xmlns:xlink="http://www.w3.org/1999/xlink" width="154.241126" height="371.460297" viewBox="0 0 154.241126 371.460297" version="1.1">
<defs>
<g>
<symbol overflow="visible" id="glyph0-0">
<path style="stroke:none;" d="M 8 0 L 8 -40 L 40 -40 L 40 0 Z M 9 -1 L 39 -1 L 39 -39 L 9 -39 Z M 9 -1 "></path>
</symbol>
<symbol overflow="visible" id="glyph0-1">
<path style="stroke:none;" d="M -0.09375 0 L 17.5 -45.8125 L 24.03125 -45.8125 L 42.78125 0 L 35.875 0 L 30.53125 -13.875 L 11.375 -13.875 L 6.34375 0 Z M 13.125 -18.8125 L 28.65625 -18.8125 L 23.875 -31.5 C 22.414062 -35.351562 21.332031 -38.519531 20.625 -41 C 20.039062 -38.0625 19.21875 -35.144531 18.15625 -32.25 Z M 13.125 -18.8125 "></path>
</symbol>
<symbol overflow="visible" id="glyph0-2">
<path style="stroke:none;" d="M 4.21875 0 L 4.21875 -33.1875 L 9.28125 -33.1875 L 9.28125 -28.46875 C 11.71875 -32.113281 15.238281 -33.9375 19.84375 -33.9375 C 21.84375 -33.9375 23.679688 -33.578125 25.359375 -32.859375 C 27.035156 -32.140625 28.289062 -31.195312 29.125 -30.03125 C 29.957031 -28.863281 30.539062 -27.476562 30.875 -25.875 C 31.082031 -24.832031 31.1875 -23.007812 31.1875 -20.40625 L 31.1875 0 L 25.5625 0 L 25.5625 -20.1875 C 25.5625 -22.476562 25.34375 -24.191406 24.90625 -25.328125 C 24.46875 -26.460938 23.691406 -27.367188 22.578125 -28.046875 C 21.460938 -28.722656 20.15625 -29.0625 18.65625 -29.0625 C 16.257812 -29.0625 14.191406 -28.300781 12.453125 -26.78125 C 10.710938 -25.257812 9.84375 -22.375 9.84375 -18.125 L 9.84375 0 Z M 4.21875 0 "></path>
</symbol>
<symbol overflow="visible" id="glyph0-3">
<path style="stroke:none;" d="M 16.5 -5.03125 L 17.3125 -0.0625 C 15.726562 0.269531 14.3125 0.4375 13.0625 0.4375 C 11.019531 0.4375 9.4375 0.113281 8.3125 -0.53125 C 7.1875 -1.175781 6.394531 -2.023438 5.9375 -3.078125 C 5.476562 -4.128906 5.25 -6.34375 5.25 -9.71875 L 5.25 -28.8125 L 1.125 -28.8125 L 1.125 -33.1875 L 5.25 -33.1875 L 5.25 -41.40625 L 10.84375 -44.78125 L 10.84375 -33.1875 L 16.5 -33.1875 L 16.5 -28.8125 L 10.84375 -28.8125 L 10.84375 -9.40625 C 10.84375 -7.800781 10.941406 -6.769531 11.140625 -6.3125 C 11.335938 -5.851562 11.660156 -5.488281 12.109375 -5.21875 C 12.554688 -4.945312 13.195312 -4.8125 14.03125 -4.8125 C 14.65625 -4.8125 15.476562 -4.882812 16.5 -5.03125 Z M 16.5 -5.03125 "></path>
</symbol>
<symbol overflow="visible" id="glyph0-4">
<path style="stroke:none;" d="M 5.8125 0 L 5.8125 -6.40625 L 12.21875 -6.40625 L 12.21875 0 Z M 5.8125 0 "></path>
</symbol>
<symbol overflow="visible" id="glyph0-5">
<path style="stroke:none;" d="M 4.9375 0 L 4.9375 -45.8125 L 22.21875 -45.8125 C 25.257812 -45.8125 27.582031 -45.664062 29.1875 -45.375 C 31.4375 -45 33.320312 -44.285156 34.84375 -43.234375 C 36.363281 -42.179688 37.585938 -40.707031 38.515625 -38.8125 C 39.441406 -36.914062 39.90625 -34.832031 39.90625 -32.5625 C 39.90625 -28.664062 38.664062 -25.367188 36.1875 -22.671875 C 33.707031 -19.972656 29.226562 -18.625 22.75 -18.625 L 11 -18.625 L 11 0 Z M 11 -24.03125 L 22.84375 -24.03125 C 26.757812 -24.03125 29.539062 -24.757812 31.1875 -26.21875 C 32.832031 -27.675781 33.65625 -29.726562 33.65625 -32.375 C 33.65625 -34.289062 33.171875 -35.929688 32.203125 -37.296875 C 31.234375 -38.660156 29.957031 -39.5625 28.375 -40 C 27.351562 -40.269531 25.46875 -40.40625 22.71875 -40.40625 L 11 -40.40625 Z M 11 -24.03125 "></path>
</symbol>
<symbol overflow="visible" id="glyph0-6">
<path style="stroke:none;" d="M 2.125 -16.59375 C 2.125 -22.738281 3.832031 -27.289062 7.25 -30.25 C 10.101562 -32.707031 13.582031 -33.9375 17.6875 -33.9375 C 22.25 -33.9375 25.976562 -32.441406 28.875 -29.453125 C 31.769531 -26.460938 33.21875 -22.332031 33.21875 -17.0625 C 33.21875 -12.789062 32.578125 -9.429688 31.296875 -6.984375 C 30.015625 -4.535156 28.148438 -2.632812 25.703125 -1.28125 C 23.253906 0.0703125 20.582031 0.75 17.6875 0.75 C 13.039062 0.75 9.285156 -0.738281 6.421875 -3.71875 C 3.554688 -6.695312 2.125 -10.988281 2.125 -16.59375 Z M 7.90625 -16.59375 C 7.90625 -12.34375 8.832031 -9.160156 10.6875 -7.046875 C 12.539062 -4.929688 14.875 -3.875 17.6875 -3.875 C 20.476562 -3.875 22.800781 -4.9375 24.65625 -7.0625 C 26.507812 -9.1875 27.4375 -12.425781 27.4375 -16.78125 C 27.4375 -20.882812 26.503906 -23.992188 24.640625 -26.109375 C 22.773438 -28.222656 20.457031 -29.28125 17.6875 -29.28125 C 14.875 -29.28125 12.539062 -28.226562 10.6875 -26.125 C 8.832031 -24.019531 7.90625 -20.84375 7.90625 -16.59375 Z M 7.90625 -16.59375 "></path>
</symbol>
<symbol overflow="visible" id="glyph0-7">
<path style="stroke:none;" d="M 1.96875 -9.90625 L 7.53125 -10.78125 C 7.84375 -8.550781 8.710938 -6.84375 10.140625 -5.65625 C 11.566406 -4.46875 13.5625 -3.875 16.125 -3.875 C 18.707031 -3.875 20.625 -4.398438 21.875 -5.453125 C 23.125 -6.503906 23.75 -7.738281 23.75 -9.15625 C 23.75 -10.425781 23.195312 -11.425781 22.09375 -12.15625 C 21.320312 -12.65625 19.40625 -13.289062 16.34375 -14.0625 C 12.21875 -15.101562 9.359375 -16.003906 7.765625 -16.765625 C 6.171875 -17.523438 4.960938 -18.578125 4.140625 -19.921875 C 3.316406 -21.265625 2.90625 -22.75 2.90625 -24.375 C 2.90625 -25.851562 3.242188 -27.222656 3.921875 -28.484375 C 4.597656 -29.742188 5.519531 -30.789062 6.6875 -31.625 C 7.5625 -32.269531 8.753906 -32.816406 10.265625 -33.265625 C 11.773438 -33.710938 13.394531 -33.9375 15.125 -33.9375 C 17.726562 -33.9375 20.015625 -33.5625 21.984375 -32.8125 C 23.953125 -32.0625 25.40625 -31.046875 26.34375 -29.765625 C 27.28125 -28.484375 27.925781 -26.769531 28.28125 -24.625 L 22.78125 -23.875 C 22.53125 -25.582031 21.804688 -26.914062 20.609375 -27.875 C 19.410156 -28.832031 17.71875 -29.3125 15.53125 -29.3125 C 12.945312 -29.3125 11.101562 -28.882812 10 -28.03125 C 8.894531 -27.175781 8.34375 -26.175781 8.34375 -25.03125 C 8.34375 -24.300781 8.570312 -23.644531 9.03125 -23.0625 C 9.488281 -22.457031 10.207031 -21.957031 11.1875 -21.5625 C 11.75 -21.351562 13.40625 -20.875 16.15625 -20.125 C 20.132812 -19.0625 22.910156 -18.191406 24.484375 -17.515625 C 26.054688 -16.835938 27.289062 -15.851562 28.1875 -14.5625 C 29.082031 -13.269531 29.53125 -11.664062 29.53125 -9.75 C 29.53125 -7.875 28.984375 -6.109375 27.890625 -4.453125 C 26.796875 -2.796875 25.21875 -1.515625 23.15625 -0.609375 C 21.09375 0.296875 18.757812 0.75 16.15625 0.75 C 11.84375 0.75 8.554688 -0.144531 6.296875 -1.9375 C 4.035156 -3.726562 2.59375 -6.382812 1.96875 -9.90625 Z M 1.96875 -9.90625 "></path>
</symbol>
</g>
</defs>
<g id="surface1">
<path style="fill:none;stroke-width:2;stroke-linecap:butt;stroke-linejoin:miter;stroke:rgb(78.431374%,78.431374%,78.431374%);stroke-opacity:1;stroke-miterlimit:4;" d="M 93.102122 153.349423 C 93.102122 132.185857 93.102122 111.022291 93.102122 89.858725 " transform="matrix(3.779528,0,0,3.779528,-274.760944,-274.033684)"></path>
<g style="fill:rgb(78.431374%,78.431374%,78.431374%);fill-opacity:1;"> <use xlink:href="#glyph0-1" x="23.027344" y="55.260981"></use> <use xlink:href="#glyph0-2" x="65.70943" y="55.260981"></use> <use xlink:href="#glyph0-3" x="101.301212" y="55.260981"></use> <use xlink:href="#glyph0-4" x="119.080493" y="55.260981"></use>
</g>
<g style="fill:rgb(78.431374%,78.431374%,78.431374%);fill-opacity:1;"> <use xlink:href="#glyph0-5" x="4.511719" y="361.260981"></use> <use xlink:href="#glyph0-6" x="47.193805" y="361.260981"></use> <use xlink:href="#glyph0-7" x="82.785587" y="361.260981"></use> <use xlink:href="#glyph0-3" x="114.782388" y="361.260981"></use> <use xlink:href="#glyph0-4" x="132.56167" y="361.260981"></use>
</g>
</g>
</svg>
