<?xml version="1.0"?>

<svg xmlns="http://www.w3.org/2000/svg" xmlns:xlink="http://www.w3.org/1999/xlink" width="1337.431756" height="781.688204" viewBox="0 0 1337.431756 781.688204" version="1.1">
<defs>
<g>
<symbol overflow="visible" id="glyph0-0">
<path style="stroke:none;" d="M 6 0 L 6 -30 L 30 -30 L 30 0 Z M 6.75 -0.75 L 29.25 -0.75 L 29.25 -29.25 L 6.75 -29.25 Z M 6.75 -0.75 "></path>
</symbol>
<symbol overflow="visible" id="glyph0-1">
<path style="stroke:none;" d="M 3.1875 -29.515625 L 3.1875 -34.359375 L 7.40625 -34.359375 L 7.40625 -29.515625 Z M 3.1875 0 L 3.1875 -24.890625 L 7.40625 -24.890625 L 7.40625 0 Z M 3.1875 0 "></path>
</symbol>
<symbol overflow="visible" id="glyph0-2">
<path style="stroke:none;" d="M 3.171875 0 L 3.171875 -24.890625 L 6.96875 -24.890625 L 6.96875 -21.359375 C 8.789062 -24.085938 11.429688 -25.453125 14.890625 -25.453125 C 16.390625 -25.453125 17.765625 -25.179688 19.015625 -24.640625 C 20.273438 -24.109375 21.21875 -23.40625 21.84375 -22.53125 C 22.46875 -21.65625 22.90625 -20.613281 23.15625 -19.40625 C 23.3125 -18.625 23.390625 -17.257812 23.390625 -15.3125 L 23.390625 0 L 19.171875 0 L 19.171875 -15.140625 C 19.171875 -16.859375 19.003906 -18.144531 18.671875 -19 C 18.347656 -19.851562 17.769531 -20.53125 16.9375 -21.03125 C 16.101562 -21.539062 15.125 -21.796875 14 -21.796875 C 12.195312 -21.796875 10.644531 -21.222656 9.34375 -20.078125 C 8.039062 -18.941406 7.390625 -16.78125 7.390625 -13.59375 L 7.390625 0 Z M 3.171875 0 "></path>
</symbol>
<symbol overflow="visible" id="glyph0-3">
<path style="stroke:none;" d="M 12.375 -3.78125 L 12.984375 -0.046875 C 11.796875 0.203125 10.734375 0.328125 9.796875 0.328125 C 8.265625 0.328125 7.078125 0.0859375 6.234375 -0.390625 C 5.390625 -0.878906 4.796875 -1.519531 4.453125 -2.3125 C 4.109375 -3.101562 3.9375 -4.765625 3.9375 -7.296875 L 3.9375 -21.609375 L 0.84375 -21.609375 L 0.84375 -24.890625 L 3.9375 -24.890625 L 3.9375 -31.0625 L 8.140625 -33.59375 L 8.140625 -24.890625 L 12.375 -24.890625 L 12.375 -21.609375 L 8.140625 -21.609375 L 8.140625 -7.0625 C 8.140625 -5.851562 8.210938 -5.078125 8.359375 -4.734375 C 8.503906 -4.390625 8.742188 -4.113281 9.078125 -3.90625 C 9.421875 -3.707031 9.90625 -3.609375 10.53125 -3.609375 C 11 -3.609375 11.613281 -3.664062 12.375 -3.78125 Z M 12.375 -3.78125 "></path>
</symbol>
<symbol overflow="visible" id="glyph0-4">
<path style="stroke:none;" d="M 20.203125 -8.015625 L 24.5625 -7.484375 C 23.875 -4.929688 22.597656 -2.953125 20.734375 -1.546875 C 18.878906 -0.140625 16.507812 0.5625 13.625 0.5625 C 9.976562 0.5625 7.085938 -0.554688 4.953125 -2.796875 C 2.828125 -5.046875 1.765625 -8.191406 1.765625 -12.234375 C 1.765625 -16.421875 2.84375 -19.671875 5 -21.984375 C 7.15625 -24.296875 9.953125 -25.453125 13.390625 -25.453125 C 16.710938 -25.453125 19.425781 -24.316406 21.53125 -22.046875 C 23.644531 -19.785156 24.703125 -16.601562 24.703125 -12.5 C 24.703125 -12.25 24.695312 -11.875 24.6875 -11.375 L 6.125 -11.375 C 6.28125 -8.632812 7.050781 -6.535156 8.4375 -5.078125 C 9.832031 -3.628906 11.566406 -2.90625 13.640625 -2.90625 C 15.191406 -2.90625 16.515625 -3.3125 17.609375 -4.125 C 18.703125 -4.9375 19.566406 -6.234375 20.203125 -8.015625 Z M 6.359375 -14.84375 L 20.25 -14.84375 C 20.0625 -16.9375 19.53125 -18.503906 18.65625 -19.546875 C 17.3125 -21.171875 15.570312 -21.984375 13.4375 -21.984375 C 11.5 -21.984375 9.867188 -21.332031 8.546875 -20.03125 C 7.222656 -18.738281 6.492188 -17.007812 6.359375 -14.84375 Z M 6.359375 -14.84375 "></path>
</symbol>
<symbol overflow="visible" id="glyph0-5">
<path style="stroke:none;" d="M 3.125 0 L 3.125 -24.890625 L 6.921875 -24.890625 L 6.921875 -21.125 C 7.890625 -22.882812 8.78125 -24.046875 9.59375 -24.609375 C 10.414062 -25.171875 11.320312 -25.453125 12.3125 -25.453125 C 13.726562 -25.453125 15.171875 -25 16.640625 -24.09375 L 15.1875 -20.1875 C 14.15625 -20.789062 13.125 -21.09375 12.09375 -21.09375 C 11.175781 -21.09375 10.347656 -20.816406 9.609375 -20.265625 C 8.878906 -19.710938 8.359375 -18.941406 8.046875 -17.953125 C 7.578125 -16.453125 7.34375 -14.8125 7.34375 -13.03125 L 7.34375 0 Z M 3.125 0 "></path>
</symbol>
<symbol overflow="visible" id="glyph0-6">
<path style="stroke:none;" d="M 19.40625 -3.078125 C 17.84375 -1.742188 16.335938 -0.800781 14.890625 -0.25 C 13.453125 0.289062 11.90625 0.5625 10.25 0.5625 C 7.507812 0.5625 5.40625 -0.101562 3.9375 -1.4375 C 2.46875 -2.78125 1.734375 -4.488281 1.734375 -6.5625 C 1.734375 -7.78125 2.007812 -8.894531 2.5625 -9.90625 C 3.125 -10.914062 3.851562 -11.722656 4.75 -12.328125 C 5.644531 -12.941406 6.65625 -13.40625 7.78125 -13.71875 C 8.613281 -13.9375 9.863281 -14.144531 11.53125 -14.34375 C 14.9375 -14.75 17.445312 -15.234375 19.0625 -15.796875 C 19.070312 -16.378906 19.078125 -16.75 19.078125 -16.90625 C 19.078125 -18.625 18.679688 -19.832031 17.890625 -20.53125 C 16.804688 -21.488281 15.203125 -21.96875 13.078125 -21.96875 C 11.097656 -21.96875 9.632812 -21.617188 8.6875 -20.921875 C 7.738281 -20.222656 7.039062 -18.992188 6.59375 -17.234375 L 2.46875 -17.796875 C 2.84375 -19.554688 3.457031 -20.976562 4.3125 -22.0625 C 5.175781 -23.15625 6.421875 -23.992188 8.046875 -24.578125 C 9.671875 -25.160156 11.550781 -25.453125 13.6875 -25.453125 C 15.8125 -25.453125 17.535156 -25.203125 18.859375 -24.703125 C 20.191406 -24.203125 21.171875 -23.570312 21.796875 -22.8125 C 22.421875 -22.0625 22.859375 -21.109375 23.109375 -19.953125 C 23.253906 -19.234375 23.328125 -17.9375 23.328125 -16.0625 L 23.328125 -10.4375 C 23.328125 -6.507812 23.414062 -4.023438 23.59375 -2.984375 C 23.769531 -1.953125 24.125 -0.957031 24.65625 0 L 20.25 0 C 19.8125 -0.875 19.53125 -1.898438 19.40625 -3.078125 Z M 19.0625 -12.5 C 17.53125 -11.875 15.234375 -11.34375 12.171875 -10.90625 C 10.429688 -10.65625 9.203125 -10.375 8.484375 -10.0625 C 7.765625 -9.75 7.207031 -9.289062 6.8125 -8.6875 C 6.425781 -8.082031 6.234375 -7.414062 6.234375 -6.6875 C 6.234375 -5.5625 6.660156 -4.625 7.515625 -3.875 C 8.367188 -3.125 9.613281 -2.75 11.25 -2.75 C 12.875 -2.75 14.316406 -3.101562 15.578125 -3.8125 C 16.847656 -4.519531 17.78125 -5.492188 18.375 -6.734375 C 18.832031 -7.679688 19.0625 -9.085938 19.0625 -10.953125 Z M 19.0625 -12.5 "></path>
</symbol>
<symbol overflow="visible" id="glyph0-7">
<path style="stroke:none;" d="M 3.078125 0 L 3.078125 -34.359375 L 7.296875 -34.359375 L 7.296875 0 Z M 3.078125 0 "></path>
</symbol>
<symbol overflow="visible" id="glyph0-8">
<path style="stroke:none;" d="M 19.3125 0 L 19.3125 -3.140625 C 17.738281 -0.671875 15.421875 0.5625 12.359375 0.5625 C 10.367188 0.5625 8.539062 0.015625 6.875 -1.078125 C 5.21875 -2.171875 3.929688 -3.695312 3.015625 -5.65625 C 2.097656 -7.625 1.640625 -9.878906 1.640625 -12.421875 C 1.640625 -14.910156 2.050781 -17.164062 2.875 -19.1875 C 3.707031 -21.207031 4.953125 -22.753906 6.609375 -23.828125 C 8.265625 -24.910156 10.117188 -25.453125 12.171875 -25.453125 C 13.671875 -25.453125 15.003906 -25.132812 16.171875 -24.5 C 17.347656 -23.875 18.300781 -23.050781 19.03125 -22.03125 L 19.03125 -34.359375 L 23.234375 -34.359375 L 23.234375 0 Z M 5.984375 -12.421875 C 5.984375 -9.234375 6.65625 -6.847656 8 -5.265625 C 9.34375 -3.691406 10.925781 -2.90625 12.75 -2.90625 C 14.59375 -2.90625 16.160156 -3.660156 17.453125 -5.171875 C 18.742188 -6.679688 19.390625 -8.984375 19.390625 -12.078125 C 19.390625 -15.484375 18.734375 -17.984375 17.421875 -19.578125 C 16.109375 -21.171875 14.488281 -21.96875 12.5625 -21.96875 C 10.6875 -21.96875 9.117188 -21.203125 7.859375 -19.671875 C 6.609375 -18.140625 5.984375 -15.722656 5.984375 -12.421875 Z M 5.984375 -12.421875 "></path>
</symbol>
<symbol overflow="visible" id="glyph0-9">
<path style="stroke:none;" d="M 2.984375 9.59375 L 2.515625 5.625 C 3.429688 5.875 4.234375 6 4.921875 6 C 5.859375 6 6.609375 5.84375 7.171875 5.53125 C 7.734375 5.21875 8.195312 4.78125 8.5625 4.21875 C 8.820312 3.800781 9.25 2.753906 9.84375 1.078125 C 9.925781 0.847656 10.050781 0.503906 10.21875 0.046875 L 0.78125 -24.890625 L 5.328125 -24.890625 L 10.5 -10.484375 C 11.175781 -8.648438 11.78125 -6.726562 12.3125 -4.71875 C 12.789062 -6.65625 13.367188 -8.546875 14.046875 -10.390625 L 19.359375 -24.890625 L 23.578125 -24.890625 L 14.109375 0.421875 C 13.097656 3.160156 12.3125 5.046875 11.75 6.078125 C 11 7.460938 10.140625 8.476562 9.171875 9.125 C 8.203125 9.78125 7.046875 10.109375 5.703125 10.109375 C 4.890625 10.109375 3.984375 9.9375 2.984375 9.59375 Z M 2.984375 9.59375 "></path>
</symbol>
<symbol overflow="visible" id="glyph0-10">
<path style="stroke:none;" d="M 3.171875 0 L 3.171875 -24.890625 L 6.9375 -24.890625 L 6.9375 -21.40625 C 7.71875 -22.625 8.753906 -23.601562 10.046875 -24.34375 C 11.347656 -25.082031 12.828125 -25.453125 14.484375 -25.453125 C 16.328125 -25.453125 17.835938 -25.066406 19.015625 -24.296875 C 20.203125 -23.535156 21.035156 -22.46875 21.515625 -21.09375 C 23.484375 -24 26.046875 -25.453125 29.203125 -25.453125 C 31.671875 -25.453125 33.566406 -24.769531 34.890625 -23.40625 C 36.222656 -22.039062 36.890625 -19.9375 36.890625 -17.09375 L 36.890625 0 L 32.703125 0 L 32.703125 -15.6875 C 32.703125 -17.375 32.5625 -18.585938 32.28125 -19.328125 C 32.007812 -20.066406 31.515625 -20.660156 30.796875 -21.109375 C 30.078125 -21.566406 29.234375 -21.796875 28.265625 -21.796875 C 26.515625 -21.796875 25.0625 -21.210938 23.90625 -20.046875 C 22.75 -18.890625 22.171875 -17.03125 22.171875 -14.46875 L 22.171875 0 L 17.953125 0 L 17.953125 -16.171875 C 17.953125 -18.046875 17.609375 -19.453125 16.921875 -20.390625 C 16.234375 -21.328125 15.109375 -21.796875 13.546875 -21.796875 C 12.359375 -21.796875 11.257812 -21.484375 10.25 -20.859375 C 9.25 -20.234375 8.519531 -19.316406 8.0625 -18.109375 C 7.613281 -16.910156 7.390625 -15.179688 7.390625 -12.921875 L 7.390625 0 Z M 3.171875 0 "></path>
</symbol>
<symbol overflow="visible" id="glyph0-11">
<path style="stroke:none;" d="M 19.40625 -9.125 L 23.5625 -8.578125 C 23.101562 -5.722656 21.941406 -3.484375 20.078125 -1.859375 C 18.210938 -0.242188 15.921875 0.5625 13.203125 0.5625 C 9.796875 0.5625 7.054688 -0.550781 4.984375 -2.78125 C 2.910156 -5.007812 1.875 -8.203125 1.875 -12.359375 C 1.875 -15.046875 2.316406 -17.394531 3.203125 -19.40625 C 4.097656 -21.425781 5.457031 -22.9375 7.28125 -23.9375 C 9.101562 -24.945312 11.082031 -25.453125 13.21875 -25.453125 C 15.925781 -25.453125 18.140625 -24.769531 19.859375 -23.40625 C 21.578125 -22.039062 22.675781 -20.097656 23.15625 -17.578125 L 19.0625 -16.953125 C 18.664062 -18.617188 17.972656 -19.875 16.984375 -20.71875 C 15.992188 -21.5625 14.796875 -21.984375 13.390625 -21.984375 C 11.265625 -21.984375 9.535156 -21.222656 8.203125 -19.703125 C 6.878906 -18.179688 6.21875 -15.769531 6.21875 -12.46875 C 6.21875 -9.125 6.859375 -6.691406 8.140625 -5.171875 C 9.421875 -3.660156 11.09375 -2.90625 13.15625 -2.90625 C 14.8125 -2.90625 16.191406 -3.410156 17.296875 -4.421875 C 18.410156 -5.441406 19.113281 -7.007812 19.40625 -9.125 Z M 19.40625 -9.125 "></path>
</symbol>
<symbol overflow="visible" id="glyph0-12">
<path style="stroke:none;" d="M 1.484375 -7.4375 L 5.65625 -8.09375 C 5.882812 -6.414062 6.535156 -5.128906 7.609375 -4.234375 C 8.679688 -3.347656 10.175781 -2.90625 12.09375 -2.90625 C 14.03125 -2.90625 15.46875 -3.300781 16.40625 -4.09375 C 17.34375 -4.882812 17.8125 -5.8125 17.8125 -6.875 C 17.8125 -7.820312 17.398438 -8.570312 16.578125 -9.125 C 15.992188 -9.5 14.554688 -9.972656 12.265625 -10.546875 C 9.171875 -11.328125 7.023438 -12.003906 5.828125 -12.578125 C 4.628906 -13.148438 3.722656 -13.9375 3.109375 -14.9375 C 2.492188 -15.945312 2.1875 -17.0625 2.1875 -18.28125 C 2.1875 -19.394531 2.4375 -20.421875 2.9375 -21.359375 C 3.445312 -22.304688 4.140625 -23.09375 5.015625 -23.71875 C 5.671875 -24.207031 6.566406 -24.617188 7.703125 -24.953125 C 8.835938 -25.285156 10.050781 -25.453125 11.34375 -25.453125 C 13.300781 -25.453125 15.015625 -25.171875 16.484375 -24.609375 C 17.960938 -24.046875 19.050781 -23.285156 19.75 -22.328125 C 20.457031 -21.367188 20.945312 -20.082031 21.21875 -18.46875 L 17.09375 -17.90625 C 16.90625 -19.1875 16.359375 -20.1875 15.453125 -20.90625 C 14.554688 -21.625 13.289062 -21.984375 11.65625 -21.984375 C 9.71875 -21.984375 8.332031 -21.660156 7.5 -21.015625 C 6.675781 -20.378906 6.265625 -19.632812 6.265625 -18.78125 C 6.265625 -18.226562 6.4375 -17.734375 6.78125 -17.296875 C 7.125 -16.847656 7.660156 -16.472656 8.390625 -16.171875 C 8.816406 -16.015625 10.0625 -15.65625 12.125 -15.09375 C 15.101562 -14.300781 17.179688 -13.648438 18.359375 -13.140625 C 19.546875 -12.628906 20.472656 -11.890625 21.140625 -10.921875 C 21.816406 -9.953125 22.15625 -8.75 22.15625 -7.3125 C 22.15625 -5.90625 21.742188 -4.582031 20.921875 -3.34375 C 20.097656 -2.101562 18.910156 -1.140625 17.359375 -0.453125 C 15.816406 0.222656 14.070312 0.5625 12.125 0.5625 C 8.882812 0.5625 6.414062 -0.109375 4.71875 -1.453125 C 3.03125 -2.796875 1.953125 -4.789062 1.484375 -7.4375 Z M 1.484375 -7.4375 "></path>
</symbol>
<symbol overflow="visible" id="glyph0-13">
<path style="stroke:none;" d="M 3.171875 9.546875 L 3.171875 -24.890625 L 7.015625 -24.890625 L 7.015625 -21.65625 C 7.921875 -22.925781 8.941406 -23.875 10.078125 -24.5 C 11.222656 -25.132812 12.609375 -25.453125 14.234375 -25.453125 C 16.359375 -25.453125 18.234375 -24.90625 19.859375 -23.8125 C 21.484375 -22.71875 22.707031 -21.175781 23.53125 -19.1875 C 24.363281 -17.195312 24.78125 -15.015625 24.78125 -12.640625 C 24.78125 -10.085938 24.320312 -7.789062 23.40625 -5.75 C 22.488281 -3.71875 21.160156 -2.15625 19.421875 -1.0625 C 17.679688 0.0195312 15.847656 0.5625 13.921875 0.5625 C 12.515625 0.5625 11.253906 0.265625 10.140625 -0.328125 C 9.023438 -0.921875 8.109375 -1.671875 7.390625 -2.578125 L 7.390625 9.546875 Z M 6.984375 -12.3125 C 6.984375 -9.101562 7.628906 -6.734375 8.921875 -5.203125 C 10.222656 -3.671875 11.796875 -2.90625 13.640625 -2.90625 C 15.515625 -2.90625 17.117188 -3.695312 18.453125 -5.28125 C 19.796875 -6.875 20.46875 -9.332031 20.46875 -12.65625 C 20.46875 -15.832031 19.8125 -18.207031 18.5 -19.78125 C 17.195312 -21.363281 15.640625 -22.15625 13.828125 -22.15625 C 12.035156 -22.15625 10.445312 -21.3125 9.0625 -19.625 C 7.675781 -17.945312 6.984375 -15.507812 6.984375 -12.3125 Z M 6.984375 -12.3125 "></path>
</symbol>
<symbol overflow="visible" id="glyph0-14">
<path style="stroke:none;" d="M 19.484375 0 L 19.484375 -3.65625 C 17.546875 -0.84375 14.910156 0.5625 11.578125 0.5625 C 10.109375 0.5625 8.738281 0.28125 7.46875 -0.28125 C 6.195312 -0.84375 5.25 -1.550781 4.625 -2.40625 C 4.007812 -3.257812 3.578125 -4.300781 3.328125 -5.53125 C 3.160156 -6.363281 3.078125 -7.675781 3.078125 -9.46875 L 3.078125 -24.890625 L 7.296875 -24.890625 L 7.296875 -11.09375 C 7.296875 -8.882812 7.378906 -7.398438 7.546875 -6.640625 C 7.816406 -5.523438 8.378906 -4.648438 9.234375 -4.015625 C 10.097656 -3.390625 11.160156 -3.078125 12.421875 -3.078125 C 13.691406 -3.078125 14.878906 -3.398438 15.984375 -4.046875 C 17.097656 -4.691406 17.882812 -5.570312 18.34375 -6.6875 C 18.800781 -7.8125 19.03125 -9.4375 19.03125 -11.5625 L 19.03125 -24.890625 L 23.25 -24.890625 L 23.25 0 Z M 19.484375 0 "></path>
</symbol>
</g>
</defs>
<g id="surface1">
<path style="fill-rule:nonzero;fill:rgb(0%,50.980395%,0%);fill-opacity:1;stroke-width:3.10543;stroke-linecap:butt;stroke-linejoin:miter;stroke:rgb(0%,50.980395%,0%);stroke-opacity:1;stroke-miterlimit:4;" d="M 171.76374 50.963611 C 171.76374 58.390548 165.742402 64.410853 158.315465 64.410853 C 150.889562 64.410853 144.868224 58.390548 144.868224 50.963611 C 144.868224 43.537708 150.889562 37.51637 158.315465 37.51637 C 165.742402 37.51637 171.76374 43.537708 171.76374 50.963611 Z M 171.76374 50.963611 " transform="matrix(3.779528,0,0,3.779528,275.079836,78.967564)"></path>
<path style="fill-rule:nonzero;fill:rgb(0%,50.980395%,0%);fill-opacity:1;stroke-width:3.10543;stroke-linecap:butt;stroke-linejoin:miter;stroke:rgb(0%,50.980395%,0%);stroke-opacity:1;stroke-miterlimit:4;" d="M 107.723205 143.73521 C 107.723205 151.162147 101.7029 157.182451 94.275963 157.182451 C 86.849026 157.182451 80.828722 151.162147 80.828722 143.73521 C 80.828722 136.308273 86.849026 130.287968 94.275963 130.287968 C 101.7029 130.287968 107.723205 136.308273 107.723205 143.73521 Z M 107.723205 143.73521 " transform="matrix(3.779528,0,0,3.779528,275.079836,78.967564)"></path>
<path style="fill-rule:nonzero;fill:rgb(0%,50.980395%,0%);fill-opacity:1;stroke-width:3.10543;stroke-linecap:butt;stroke-linejoin:miter;stroke:rgb(0%,50.980395%,0%);stroke-opacity:1;stroke-miterlimit:4;" d="M 165.18533 116.039743 C 165.18533 123.465646 159.163992 129.486984 151.738089 129.486984 C 144.311152 129.486984 138.289814 123.465646 138.289814 116.039743 C 138.289814 108.612806 144.311152 102.592501 151.738089 102.592501 C 159.163992 102.592501 165.18533 108.612806 165.18533 116.039743 Z M 165.18533 116.039743 " transform="matrix(3.779528,0,0,3.779528,275.079836,78.967564)"></path>
<path style="fill-rule:nonzero;fill:rgb(0%,50.980395%,0%);fill-opacity:1;stroke-width:3.10543;stroke-linecap:butt;stroke-linejoin:miter;stroke:rgb(0%,50.980395%,0%);stroke-opacity:1;stroke-miterlimit:4;" d="M 68.114253 79.610958 C 68.114253 87.036862 62.093948 93.0582 54.667012 93.0582 C 47.240075 93.0582 41.21977 87.036862 41.21977 79.610958 C 41.21977 72.184022 47.240075 66.162684 54.667012 66.162684 C 62.093948 66.162684 68.114253 72.184022 68.114253 79.610958 Z M 68.114253 79.610958 " transform="matrix(3.779528,0,0,3.779528,275.079836,78.967564)"></path>
<path style="fill-rule:nonzero;fill:rgb(0%,50.980395%,0%);fill-opacity:1;stroke-width:3.10543;stroke-linecap:butt;stroke-linejoin:miter;stroke:rgb(0%,50.980395%,0%);stroke-opacity:1;stroke-miterlimit:4;" d="M 116.773815 26.711862 C 116.773815 34.138799 110.753511 40.159103 103.326574 40.159103 C 95.899637 40.159103 89.879332 34.138799 89.879332 26.711862 C 89.879332 19.285958 95.899637 13.26462 103.326574 13.26462 C 110.753511 13.26462 116.773815 19.285958 116.773815 26.711862 Z M 116.773815 26.711862 " transform="matrix(3.779528,0,0,3.779528,275.079836,78.967564)"></path>
<path style="fill-rule:nonzero;fill:rgb(0%,50.980395%,0%);fill-opacity:1;stroke-width:3.10543;stroke-linecap:butt;stroke-linejoin:miter;stroke:rgb(0%,50.980395%,0%);stroke-opacity:1;stroke-miterlimit:4;" d="M 118.887381 92.930042 C 118.887381 100.356979 112.867077 106.377283 105.44014 106.377283 C 98.013203 106.377283 91.992899 100.356979 91.992899 92.930042 C 91.992899 85.503105 98.013203 79.482801 105.44014 79.482801 C 112.867077 79.482801 118.887381 85.503105 118.887381 92.930042 Z M 118.887381 92.930042 " transform="matrix(3.779528,0,0,3.779528,275.079836,78.967564)"></path>
<path style="fill:none;stroke-width:3.18401;stroke-linecap:butt;stroke-linejoin:miter;stroke:rgb(0%,0%,0%);stroke-opacity:1;stroke-dasharray:3.18401,3.18401;stroke-miterlimit:4;" d="M 205.932197 88.427991 C 205.932197 140.016574 164.112527 181.836243 112.523945 181.836243 C 60.936396 181.836243 19.116727 140.016574 19.116727 88.427991 C 19.116727 36.840442 60.936396 -4.979227 112.523945 -4.979227 C 164.112527 -4.979227 205.932197 36.840442 205.932197 88.427991 Z M 205.932197 88.427991 " transform="matrix(3.779528,0,0,3.779528,275.079836,78.967564)"></path>
<path style="fill:none;stroke-width:2.25;stroke-linecap:butt;stroke-linejoin:miter;stroke:rgb(0%,0%,0%);stroke-opacity:1;stroke-miterlimit:4;" d="M 107.407978 133.775094 C 116.38004 129.716427 125.175369 125.736308 134.058548 121.717949 " transform="matrix(3.779528,0,0,3.779528,275.079836,78.967564)"></path>
<path style="fill-rule:evenodd;fill:rgb(0%,0%,0%);fill-opacity:1;stroke-width:1.333333;stroke-linecap:butt;stroke-linejoin:miter;stroke:rgb(0%,0%,0%);stroke-opacity:1;stroke-miterlimit:4;" d="M 5.770934 0.000280825 L -2.879192 5.000404 L -2.879554 -5.000034 Z M 5.770934 0.000280825 " transform="matrix(1.549567,-0.701085,0.701085,1.549567,781.756573,539.002512)"></path>
<path style="fill:none;stroke-width:2;stroke-linecap:butt;stroke-linejoin:miter;stroke:rgb(0%,0%,0%);stroke-opacity:1;stroke-miterlimit:4;" d="M 112.766824 140.090988 C 121.738887 136.031287 130.534215 132.052202 139.417394 128.032809 " transform="matrix(3.779528,0,0,3.779528,275.079836,78.967564)"></path>
<path style="fill-rule:evenodd;fill:rgb(0%,0%,0%);fill-opacity:1;stroke-width:1.333333;stroke-linecap:butt;stroke-linejoin:miter;stroke:rgb(0%,0%,0%);stroke-opacity:1;stroke-miterlimit:4;" d="M 5.769324 0.000107429 L -2.879635 5.000446 L -2.881284 -4.999942 Z M 5.769324 0.000107429 " transform="matrix(-1.377393,0.623186,-0.623186,-1.377393,701.286538,608.443847)"></path>
<path style="fill:none;stroke-width:2;stroke-linecap:butt;stroke-linejoin:miter;stroke:rgb(0%,0%,0%);stroke-opacity:1;stroke-miterlimit:4;" d="M 120.643346 82.940988 C 128.139529 76.554814 135.487918 70.294731 142.909687 63.971603 " transform="matrix(3.779528,0,0,3.779528,275.079836,78.967564)"></path>
<path style="fill-rule:evenodd;fill:rgb(0%,0%,0%);fill-opacity:1;stroke-width:1.333333;stroke-linecap:butt;stroke-linejoin:miter;stroke:rgb(0%,0%,0%);stroke-opacity:1;stroke-miterlimit:4;" d="M 5.770115 0.000453412 L -2.880963 4.999275 L -2.879295 -4.999145 Z M 5.770115 0.000453412 " transform="matrix(1.150799,-0.980425,0.980425,1.150799,815.210872,320.750394)"></path>
<path style="fill:none;stroke-width:2;stroke-linecap:butt;stroke-linejoin:miter;stroke:rgb(0%,0%,0%);stroke-opacity:1;stroke-miterlimit:4;" d="M 90.043664 89.749874 C 83.666792 88.353577 77.416011 86.985185 71.102184 85.602324 " transform="matrix(3.779528,0,0,3.779528,275.079836,78.967564)"></path>
<path style="fill-rule:evenodd;fill:rgb(0%,0%,0%);fill-opacity:1;stroke-width:1.333333;stroke-linecap:butt;stroke-linejoin:miter;stroke:rgb(0%,0%,0%);stroke-opacity:1;stroke-miterlimit:4;" d="M 5.77016 -0.00122064 L -2.879041 5.000388 L -2.881141 -5 Z M 5.77016 -0.00122064 " transform="matrix(-1.476828,-0.323344,0.323344,-1.476828,543.810992,402.504572)"></path>
<path style="fill:none;stroke-width:1;stroke-linecap:butt;stroke-linejoin:miter;stroke:rgb(0%,0%,0%);stroke-opacity:1;stroke-miterlimit:4;" d="M 104.078983 43.674134 C 104.54407 53.750005 105.008125 63.825875 105.472179 73.900713 " transform="matrix(3.779528,0,0,3.779528,275.079836,78.967564)"></path>
<path style="fill-rule:evenodd;fill:rgb(0%,0%,0%);fill-opacity:1;stroke-width:1.333333;stroke-linecap:butt;stroke-linejoin:miter;stroke:rgb(0%,0%,0%);stroke-opacity:1;stroke-miterlimit:4;" d="M 5.77154 -0.0013243 L -2.880865 5.000615 L -2.880369 -4.999021 Z M 5.77154 -0.0013243 " transform="matrix(0.0348043,0.755104,-0.755104,0.0348043,673.716094,358.278653)"></path>
<path style="fill:none;stroke-width:1.75;stroke-linecap:butt;stroke-linejoin:miter;stroke:rgb(0%,0%,0%);stroke-opacity:1;stroke-miterlimit:4;" d="M 57.542288 95.933476 C 65.510794 107.334331 73.4793 118.736219 81.447806 130.137073 " transform="matrix(3.779528,0,0,3.779528,275.079836,78.967564)"></path>
<path style="fill-rule:evenodd;fill:rgb(0%,0%,0%);fill-opacity:1;stroke-width:1.333333;stroke-linecap:butt;stroke-linejoin:miter;stroke:rgb(0%,0%,0%);stroke-opacity:1;stroke-miterlimit:4;" d="M 5.770248 -0.000784473 L -2.879967 4.999178 L -2.881001 -4.999137 Z M 5.770248 -0.000784473 " transform="matrix(0.757828,1.084245,-1.084245,0.757828,582.915356,570.822354)"></path>
<path style="fill:none;stroke-width:1.5;stroke-linecap:butt;stroke-linejoin:miter;stroke:rgb(0%,0%,0%);stroke-opacity:1;stroke-miterlimit:4;" d="M 159.146422 67.392583 C 158.079821 77.372335 157.014253 87.344853 155.947651 97.321505 " transform="matrix(3.779528,0,0,3.779528,275.079836,78.967564)"></path>
<path style="fill-rule:evenodd;fill:rgb(0%,0%,0%);fill-opacity:1;stroke-width:1.333333;stroke-linecap:butt;stroke-linejoin:miter;stroke:rgb(0%,0%,0%);stroke-opacity:1;stroke-miterlimit:4;" d="M 5.769293 -0.00108513 L -2.880881 5.001639 L -2.879624 -5.001158 Z M 5.769293 -0.00108513 " transform="matrix(-0.120528,1.127434,-1.127434,-0.120528,864.487105,446.796152)"></path>
<path style="fill:none;stroke-width:3;stroke-linecap:butt;stroke-linejoin:miter;stroke:rgb(0%,0%,0%);stroke-opacity:1;stroke-miterlimit:4;" d="M 64.555814 65.727568 C 72.617337 57.559591 80.708833 49.360608 88.785859 41.177129 " transform="matrix(3.779528,0,0,3.779528,275.079836,78.967564)"></path>
<path style="fill-rule:evenodd;fill:rgb(0%,0%,0%);fill-opacity:1;stroke-width:1.333333;stroke-linecap:butt;stroke-linejoin:miter;stroke:rgb(0%,0%,0%);stroke-opacity:1;stroke-miterlimit:4;" d="M 5.770044 0.000408673 L -2.880554 4.999641 L -2.880551 -5.000562 Z M 5.770044 0.000408673 " transform="matrix(1.592936,-1.61403,1.61403,1.592936,610.647874,234.597529)"></path>
<path style="fill:none;stroke-width:3;stroke-linecap:round;stroke-linejoin:miter;stroke:rgb(0%,0%,0%);stroke-opacity:1;stroke-miterlimit:4;" d="M 167.00124 5.057369 C 189.505293 -2.15666 212.008312 -9.37069 218.172277 -3.420666 C 224.336242 2.530392 214.160119 21.644471 203.985029 40.758549 " transform="matrix(3.779528,0,0,3.779528,275.079836,78.967564)"></path>
<path style="fill-rule:evenodd;fill:rgb(0%,0%,0%);fill-opacity:1;stroke-width:0.625;stroke-linecap:butt;stroke-linejoin:round;stroke:rgb(0%,0%,0%);stroke-opacity:1;stroke-miterlimit:4;" d="M 8.718996 4.033911 L -2.208038 0.0158201 L 8.718593 -4.001878 C 6.973444 -1.630068 6.982944 1.615963 8.718996 4.033911 Z M 8.718996 4.033911 " transform="matrix(1.598469,-3.0026,3.0026,1.598469,1042.368698,239.922983)"></path>
<path style="fill:none;stroke-width:3;stroke-linecap:round;stroke-linejoin:miter;stroke:rgb(0%,0%,0%);stroke-opacity:1;stroke-miterlimit:4;" d="M -22.899313 17.568234 C -8.85676 26.645716 5.185794 35.724231 19.228348 44.801714 " transform="matrix(3.779528,0,0,3.779528,275.079836,78.967564)"></path>
<path style="fill-rule:evenodd;fill:rgb(0%,0%,0%);fill-opacity:1;stroke-width:0.625;stroke-linecap:butt;stroke-linejoin:round;stroke:rgb(0%,0%,0%);stroke-opacity:1;stroke-miterlimit:4;" d="M 8.719004 4.034097 L -2.207455 0.0158419 L 8.718902 -4.002123 C 6.973573 -1.629533 6.983435 1.6158 8.719004 4.034097 Z M 8.719004 4.034097 " transform="matrix(-2.856672,-1.846656,1.846656,-2.856672,354.324928,252.543063)"></path>
<path style="fill:none;stroke-width:3;stroke-linecap:round;stroke-linejoin:miter;stroke:rgb(0%,0%,0%);stroke-opacity:1;stroke-miterlimit:4;" d="M -32.558672 135.786341 C -16.4811 131.191272 -0.402495 126.597238 15.675076 122.003203 " transform="matrix(3.779528,0,0,3.779528,275.079836,78.967564)"></path>
<path style="fill-rule:evenodd;fill:rgb(0%,0%,0%);fill-opacity:1;stroke-width:0.625;stroke-linecap:butt;stroke-linejoin:round;stroke:rgb(0%,0%,0%);stroke-opacity:1;stroke-miterlimit:4;" d="M 8.719176 4.033327 L -2.207686 0.0164944 L 8.718605 -4.002268 C 6.972989 -1.629905 6.983154 1.615597 8.719176 4.033327 Z M 8.719176 4.033327 " transform="matrix(-3.27067,0.934573,-0.934573,-3.27067,341.845584,537.933598)"></path>
<path style="fill:none;stroke-width:2;stroke-linecap:butt;stroke-linejoin:miter;stroke:rgb(0%,0%,0%);stroke-opacity:1;stroke-miterlimit:4;" d="M 114.31195 41.454114 C 124.055024 60.661211 133.797065 79.868307 143.54014 99.075403 " transform="matrix(3.779528,0,0,3.779528,275.079836,78.967564)"></path>
<path style="fill-rule:evenodd;fill:rgb(0%,0%,0%);fill-opacity:1;stroke-width:1.333333;stroke-linecap:butt;stroke-linejoin:miter;stroke:rgb(0%,0%,0%);stroke-opacity:1;stroke-miterlimit:4;" d="M 5.769375 0.000390309 L -2.879878 5.000052 L -2.879787 -5.001142 Z M 5.769375 0.000390309 " transform="matrix(0.683915,1.34827,-1.34827,0.683915,817.593826,453.424181)"></path>
<g style="fill:rgb(0%,0%,0%);fill-opacity:1;"> <use xlink:href="#glyph0-1" x="1127.101562" y="43.808963"></use> <use xlink:href="#glyph0-2" x="1137.764702" y="43.808963"></use> <use xlink:href="#glyph0-3" x="1164.457616" y="43.808963"></use> <use xlink:href="#glyph0-4" x="1177.793" y="43.808963"></use> <use xlink:href="#glyph0-5" x="1204.485913" y="43.808963"></use> <use xlink:href="#glyph0-2" x="1220.467704" y="43.808963"></use> <use xlink:href="#glyph0-6" x="1247.160618" y="43.808963"></use> <use xlink:href="#glyph0-7" x="1273.853531" y="43.808963"></use>
</g>
<g style="fill:rgb(0%,0%,0%);fill-opacity:1;"> <use xlink:href="#glyph0-8" x="1127.101562" y="103.808963"></use> <use xlink:href="#glyph0-9" x="1153.794476" y="103.808963"></use> <use xlink:href="#glyph0-2" x="1177.793" y="103.808963"></use> <use xlink:href="#glyph0-6" x="1204.485913" y="103.808963"></use> <use xlink:href="#glyph0-10" x="1231.178826" y="103.808963"></use> <use xlink:href="#glyph0-1" x="1271.162832" y="103.808963"></use> <use xlink:href="#glyph0-11" x="1281.825972" y="103.808963"></use> <use xlink:href="#glyph0-12" x="1305.824496" y="103.808963"></use>
</g>
<g style="fill:rgb(0%,0%,0%);fill-opacity:1;"> <use xlink:href="#glyph0-1" x="36.894531" y="143.55115"></use> <use xlink:href="#glyph0-2" x="47.557671" y="143.55115"></use> <use xlink:href="#glyph0-13" x="74.250584" y="143.55115"></use> <use xlink:href="#glyph0-14" x="100.943498" y="143.55115"></use> <use xlink:href="#glyph0-3" x="127.636411" y="143.55115"></use> <use xlink:href="#glyph0-12" x="140.971795" y="143.55115"></use>
</g>
<g style="fill:rgb(0%,0%,0%);fill-opacity:1;"> <use xlink:href="#glyph0-1" x="6.261719" y="613.055057"></use> <use xlink:href="#glyph0-2" x="16.924859" y="613.055057"></use> <use xlink:href="#glyph0-13" x="43.617772" y="613.055057"></use> <use xlink:href="#glyph0-14" x="70.310685" y="613.055057"></use> <use xlink:href="#glyph0-3" x="97.003599" y="613.055057"></use> <use xlink:href="#glyph0-12" x="110.338983" y="613.055057"></use>
</g>
</g>
</svg>
