<?xml version="1.0"?>

<svg width="85.248863" height="65.29493" viewBox="0 0 85.248861 65.29493" version="1.1" id="svg8" xmlns="http://www.w3.org/2000/svg" xmlns:svg="http://www.w3.org/2000/svg" xmlns:rdf="http://www.w3.org/1999/02/22-rdf-syntax-ns#" xmlns:cc="http://creativecommons.org/ns#" xmlns:dc="http://purl.org/dc/elements/1.1/" xmlns:ns2="http://www.iki.fi/pav/software/textext/"> <defs id="defs2"> <g id="g900"> <symbol overflow="visible" id="glyph0-0"> <path style="stroke:none" d="m 1.5,0 v -7.5 h 6 V 0 Z m 0.1875,-0.1875 h 5.625 v -7.125 h -5.625 z m 0,0" id="path822"></path> </symbol> <symbol overflow="visible" id="glyph0-1"> <path style="stroke:none" d="m 0.375,-2.578125 v -1.0625 h 3.25 v 1.0625 z m 0,0" id="path825"></path> </symbol> <symbol overflow="visible" id="glyph0-2"> <path style="stroke:none" d="M 4.46875,0 H 3.421875 V -6.71875 C 3.160156,-6.476562 2.820312,-6.234375 2.40625,-5.984375 2,-5.742188 1.632812,-5.566406 1.3125,-5.453125 V -6.46875 c 0.582031,-0.28125 1.09375,-0.613281 1.53125,-1 C 3.289062,-7.863281 3.609375,-8.25 3.796875,-8.625 H 4.46875 Z m 0,0" id="path828"></path> </symbol> <symbol overflow="visible" id="glyph0-3"> <path style="stroke:none" d="m 0.5,-4.234375 c 0,-1.019531 0.101562,-1.835937 0.3125,-2.453125 0.207031,-0.625 0.515625,-1.101562 0.921875,-1.4375 0.414063,-0.332031 0.9375,-0.5 1.5625,-0.5 0.457031,0 0.859375,0.09375 1.203125,0.28125 0.351562,0.1875 0.644531,0.460938 0.875,0.8125 0.226562,0.34375 0.40625,0.765625 0.53125,1.265625 0.125,0.5 0.1875,1.179687 0.1875,2.03125 0,1.011719 -0.105469,1.824219 -0.3125,2.4375 -0.199219,0.617187 -0.507812,1.09375 -0.921875,1.4375 -0.40625,0.3359375 -0.929687,0.5 -1.5625,0.5 C 2.472656,0.140625 1.820312,-0.15625 1.34375,-0.75 0.78125,-1.457031 0.5,-2.617188 0.5,-4.234375 Z m 1.078125,0 c 0,1.40625 0.164063,2.34375 0.5,2.8125 0.332031,0.46875 0.738281,0.703125 1.21875,0.703125 0.488281,0 0.894531,-0.234375 1.21875,-0.703125 0.332031,-0.46875 0.5,-1.40625 0.5,-2.8125 0,-1.414063 -0.167969,-2.351563 -0.5,-2.8125 C 4.191406,-7.515625 3.78125,-7.75 3.28125,-7.75 c -0.480469,0 -0.867188,0.203125 -1.15625,0.609375 -0.367188,0.523437 -0.546875,1.492187 -0.546875,2.90625 z m 0,0" id="path831"></path> </symbol> <symbol overflow="visible" id="glyph0-4"> <path style="stroke:none" d="m 0.5,-2.25 1.109375,-0.09375 c 0.082031,0.542969 0.269531,0.949219 0.5625,1.21875 0.300781,0.273438 0.664063,0.40625 1.09375,0.40625 0.5,0 0.925781,-0.191406 1.28125,-0.578125 C 4.898438,-1.679688 5.078125,-2.1875 5.078125,-2.8125 5.078125,-3.414062 4.90625,-3.890625 4.5625,-4.234375 4.226562,-4.585938 3.785156,-4.765625 3.234375,-4.765625 2.898438,-4.765625 2.59375,-4.6875 2.3125,-4.53125 2.039062,-4.375 1.828125,-4.175781 1.671875,-3.9375 L 0.6875,-4.0625 1.515625,-8.46875 h 4.28125 v 1 h -3.4375 l -0.453125,2.3125 c 0.507812,-0.363281 1.046875,-0.546875 1.609375,-0.546875 0.75,0 1.378906,0.261719 1.890625,0.78125 0.519531,0.523437 0.78125,1.195313 0.78125,2.015625 0,0.773438 -0.226562,1.445312 -0.671875,2.015625 -0.554687,0.6875 -1.304687,1.03125 -2.25,1.03125 -0.78125,0 -1.421875,-0.21875 -1.921875,-0.65625 C 0.851562,-0.953125 0.570312,-1.53125 0.5,-2.25 Z m 0,0" id="path834"></path> </symbol> <symbol overflow="visible" id="glyph0-5"> <path style="stroke:none" d="M 1.09375,0 V -1.203125 H 2.296875 V 0 Z m 0,0" id="path837"></path> </symbol> <symbol overflow="visible" id="glyph0-6"> <path style="stroke:none" d="M 6.046875,-1.015625 V 0 h -5.6875 c 0,-0.25 0.039063,-0.492188 0.125,-0.734375 C 0.628906,-1.117188 0.859375,-1.5 1.171875,-1.875 1.492188,-2.25 1.957031,-2.679688 2.5625,-3.171875 3.5,-3.941406 4.128906,-4.550781 4.453125,-5 c 0.332031,-0.445312 0.5,-0.867188 0.5,-1.265625 C 4.953125,-6.679688 4.800781,-7.03125 4.5,-7.3125 4.195312,-7.601562 3.804688,-7.75 3.328125,-7.75 c -0.511719,0 -0.917969,0.152344 -1.21875,0.453125 -0.304687,0.304687 -0.460937,0.726563 -0.46875,1.265625 L 0.5625,-6.140625 c 0.070312,-0.8125 0.347656,-1.425781 0.828125,-1.84375 C 1.878906,-8.410156 2.535156,-8.625 3.359375,-8.625 c 0.820313,0 1.472656,0.230469 1.953125,0.6875 0.476562,0.460938 0.71875,1.027344 0.71875,1.703125 0,0.34375 -0.074219,0.683594 -0.21875,1.015625 -0.136719,0.324219 -0.371094,0.671875 -0.703125,1.046875 -0.324219,0.367187 -0.859375,0.867187 -1.609375,1.5 -0.636719,0.53125 -1.046875,0.898437 -1.234375,1.09375 -0.179687,0.1875 -0.324219,0.375 -0.4375,0.5625 z m 0,0" id="path840"></path> </symbol> <symbol overflow="visible" id="glyph0-7"> <path style="stroke:none" d="M 0.5,-2.265625 1.5625,-2.40625 c 0.113281,0.59375 0.316406,1.027344 0.609375,1.296875 0.289063,0.261719 0.644531,0.390625 1.0625,0.390625 0.5,0 0.921875,-0.171875 1.265625,-0.515625 0.34375,-0.34375 0.515625,-0.769531 0.515625,-1.28125 0,-0.476563 -0.164063,-0.875 -0.484375,-1.1875 C 4.21875,-4.023438 3.816406,-4.1875 3.328125,-4.1875 c -0.199219,0 -0.449219,0.042969 -0.75,0.125 L 2.703125,-5 c 0.070313,0.011719 0.128906,0.015625 0.171875,0.015625 0.445312,0 0.847656,-0.113281 1.203125,-0.34375 C 4.441406,-5.566406 4.625,-5.929688 4.625,-6.421875 4.625,-6.804688 4.492188,-7.125 4.234375,-7.375 3.972656,-7.632812 3.632812,-7.765625 3.21875,-7.765625 c -0.40625,0 -0.75,0.132813 -1.03125,0.390625 -0.273438,0.261719 -0.445312,0.648438 -0.515625,1.15625 l -1.0625,-0.1875 c 0.125,-0.695312 0.414063,-1.238281 0.875,-1.625 C 1.941406,-8.425781 2.507812,-8.625 3.1875,-8.625 c 0.46875,0 0.898438,0.105469 1.296875,0.3125 0.394531,0.199219 0.695313,0.46875 0.90625,0.8125 0.207031,0.34375 0.3125,0.714844 0.3125,1.109375 0,0.367187 -0.101563,0.703125 -0.296875,1.015625 -0.199219,0.304688 -0.492188,0.542969 -0.875,0.71875 0.5,0.117188 0.890625,0.359375 1.171875,0.734375 0.28125,0.367187 0.421875,0.828125 0.421875,1.390625 0,0.75 -0.277344,1.386719 -0.828125,1.90625 -0.542969,0.523438 -1.230469,0.78125 -2.0625,0.78125 -0.75,0 -1.375,-0.2226562 -1.875,-0.671875 -0.5,-0.457031 -0.789063,-1.039063 -0.859375,-1.75 z m 0,0" id="path843"></path> </symbol> <symbol overflow="visible" id="glyph0-8"> <path style="stroke:none" d="M 3.875,0 V -2.0625 H 0.15625 v -0.96875 l 3.921875,-5.5625 H 4.9375 v 5.5625 H 6.09375 V -2.0625 H 4.9375 V 0 Z m 0,-3.03125 V -6.890625 L 1.1875,-3.03125 Z m 0,0" id="path846"></path> </symbol> <symbol overflow="visible" id="glyph0-9"> <path style="stroke:none" d="M 5.96875,-6.484375 4.921875,-6.40625 C 4.828125,-6.820312 4.695312,-7.125 4.53125,-7.3125 4.238281,-7.613281 3.882812,-7.765625 3.46875,-7.765625 c -0.335938,0 -0.632812,0.09375 -0.890625,0.28125 -0.324219,0.25 -0.585937,0.609375 -0.78125,1.078125 -0.1875,0.460938 -0.289063,1.117188 -0.296875,1.96875 0.25,-0.382812 0.554688,-0.671875 0.921875,-0.859375 0.375,-0.1875 0.765625,-0.28125 1.171875,-0.28125 0.695312,0 1.289062,0.261719 1.78125,0.78125 0.5,0.523437 0.75,1.1875 0.75,2 0,0.542969 -0.121094,1.046875 -0.359375,1.515625 -0.230469,0.460938 -0.546875,0.8125 -0.953125,1.0625 -0.40625,0.2382812 -0.867188,0.359375 -1.375,0.359375 -0.886719,0 -1.605469,-0.320313 -2.15625,-0.96875 -0.554688,-0.644531 -0.828125,-1.707031 -0.828125,-3.1875 0,-1.664063 0.304687,-2.875 0.921875,-3.625 0.53125,-0.65625 1.25,-0.984375 2.15625,-0.984375 0.675781,0 1.226562,0.195312 1.65625,0.578125 0.4375,0.375 0.695312,0.898437 0.78125,1.5625 z M 1.671875,-2.78125 c 0,0.367188 0.070313,0.714844 0.21875,1.046875 0.15625,0.324219 0.367187,0.574219 0.640625,0.75 0.28125,0.179687 0.578125,0.265625 0.890625,0.265625 0.4375,0 0.816406,-0.175781 1.140625,-0.53125 0.320312,-0.363281 0.484375,-0.851562 0.484375,-1.46875 0,-0.59375 -0.164063,-1.0625 -0.484375,-1.40625 C 4.25,-4.46875 3.851562,-4.640625 3.375,-4.640625 c -0.480469,0 -0.886719,0.171875 -1.21875,0.515625 -0.324219,0.34375 -0.484375,0.792969 -0.484375,1.34375 z m 0,0" id="path849"></path> </symbol> <symbol overflow="visible" id="glyph0-10"> <path style="stroke:none" d="M 0.5625,-7.46875 V -8.484375 H 6.125 V -7.65625 C 5.582031,-7.070312 5.039062,-6.296875 4.5,-5.328125 3.96875,-4.367188 3.554688,-3.378906 3.265625,-2.359375 3.046875,-1.640625 2.910156,-0.851562 2.859375,0 H 1.765625 C 1.773438,-0.675781 1.90625,-1.492188 2.15625,-2.453125 2.414062,-3.410156 2.78125,-4.332031 3.25,-5.21875 c 0.476562,-0.882812 0.988281,-1.632812 1.53125,-2.25 z m 0,0" id="path852"></path> </symbol> <symbol overflow="visible" id="glyph0-11"> <path style="stroke:none" d="M 2.125,-4.65625 C 1.6875,-4.820312 1.359375,-5.050781 1.140625,-5.34375 0.929688,-5.644531 0.828125,-6 0.828125,-6.40625 0.828125,-7.03125 1.050781,-7.554688 1.5,-7.984375 1.957031,-8.410156 2.554688,-8.625 3.296875,-8.625 c 0.75,0 1.351563,0.21875 1.8125,0.65625 0.457031,0.4375 0.6875,0.96875 0.6875,1.59375 0,0.398438 -0.105469,0.742188 -0.3125,1.03125 -0.210937,0.292969 -0.527344,0.523438 -0.953125,0.6875 0.53125,0.167969 0.929688,0.445312 1.203125,0.828125 0.269531,0.386719 0.40625,0.84375 0.40625,1.375 0,0.730469 -0.261719,1.34375 -0.78125,1.84375 -0.511719,0.5 -1.195313,0.75 -2.046875,0.75 -0.84375,0 -1.527344,-0.25 -2.046875,-0.75 -0.523437,-0.5 -0.78125,-1.125 -0.78125,-1.875 0,-0.5625 0.140625,-1.03125 0.421875,-1.40625 0.289062,-0.375 0.695312,-0.628906 1.21875,-0.765625 z M 1.90625,-6.453125 c 0,0.40625 0.128906,0.742187 0.390625,1 0.269531,0.261719 0.613281,0.390625 1.03125,0.390625 0.40625,0 0.738281,-0.125 1,-0.375 0.257813,-0.257812 0.390625,-0.578125 0.390625,-0.953125 0,-0.382813 -0.136719,-0.707031 -0.40625,-0.96875 -0.273438,-0.269531 -0.605469,-0.40625 -1,-0.40625 -0.40625,0 -0.746094,0.132813 -1.015625,0.390625 -0.261719,0.261719 -0.390625,0.570312 -0.390625,0.921875 z m -0.328125,3.96875 c 0,0.304687 0.066406,0.59375 0.203125,0.875 0.144531,0.28125 0.359375,0.5 0.640625,0.65625 0.28125,0.15625 0.582031,0.234375 0.90625,0.234375 0.5,0 0.910156,-0.160156 1.234375,-0.484375 0.332031,-0.320313 0.5,-0.734375 0.5,-1.234375 0,-0.507812 -0.167969,-0.929688 -0.5,-1.265625 -0.335938,-0.332031 -0.757812,-0.5 -1.265625,-0.5 -0.5,0 -0.914063,0.167969 -1.234375,0.5 -0.324219,0.324219 -0.484375,0.730469 -0.484375,1.21875 z m 0,0" id="path855"></path> </symbol> <symbol overflow="visible" id="glyph1-0"> <path style="stroke:none" d="M 1.65625,0 V -8.25 H 8.25 V 0 Z m 6.390625,-0.21875 v -7.828125 h -6.1875 v 7.828125 z m 0,0" id="path858"></path> </symbol> <symbol overflow="visible" id="glyph1-1"> <path style="stroke:none" d="m 2.640625,0.203125 c -0.304687,0 -0.585937,-0.058594 -0.84375,-0.171875 -0.261719,-0.1132812 -0.492187,-0.273438 -0.6875,-0.484375 -0.199219,-0.21875 -0.34375,-0.457031 -0.4375,-0.71875 -0.09375,-0.269531 -0.140625,-0.5625 -0.140625,-0.875 0,-0.550781 0.128906,-1.082031 0.390625,-1.59375 0.257813,-0.519531 0.613281,-0.96875 1.0625,-1.34375 C 2.429688,-5.367188 2.921875,-5.625 3.453125,-5.75 3.191406,-6.226562 2.992188,-6.640625 2.859375,-6.984375 2.722656,-7.335938 2.65625,-7.691406 2.65625,-8.046875 c 0,-0.269531 0.0625,-0.503906 0.1875,-0.703125 0.125,-0.207031 0.296875,-0.367188 0.515625,-0.484375 0.21875,-0.113281 0.460937,-0.171875 0.734375,-0.171875 0.257812,0 0.78125,0.089844 1.5625,0.265625 0.195312,0.042969 0.296875,0.15625 0.296875,0.34375 0,0.148437 -0.054687,0.28125 -0.15625,0.40625 -0.105469,0.117187 -0.230469,0.171875 -0.375,0.171875 -0.117187,0 -0.214844,-0.019531 -0.296875,-0.0625 -0.085938,-0.050781 -0.21875,-0.140625 -0.40625,-0.265625 -0.1875,-0.125 -0.355469,-0.21875 -0.5,-0.28125 C 4.070312,-8.898438 3.921875,-8.9375 3.765625,-8.9375 c -0.179687,0 -0.339844,0.058594 -0.484375,0.171875 -0.148438,0.105469 -0.21875,0.246094 -0.21875,0.421875 0,0.28125 0.117188,0.605469 0.359375,0.96875 0.25,0.367188 0.601563,0.828125 1.0625,1.390625 0.519531,0.667969 0.78125,1.398437 0.78125,2.1875 0,0.398437 -0.058594,0.828125 -0.171875,1.296875 -0.117188,0.460938 -0.28125,0.890625 -0.5,1.296875 -0.210938,0.40625 -0.484375,0.746094 -0.828125,1.015625 -0.335937,0.2578125 -0.710937,0.390625 -1.125,0.390625 z m 0.03125,-0.359375 c 0.34375,0 0.632813,-0.175781 0.875,-0.53125 0.25,-0.363281 0.4375,-0.789062 0.5625,-1.28125 0.132813,-0.488281 0.203125,-0.898438 0.203125,-1.234375 0,-0.664063 -0.234375,-1.40625 -0.703125,-2.21875 -0.460937,0.125 -0.855469,0.398437 -1.1875,0.8125 -0.335937,0.40625 -0.589844,0.882813 -0.765625,1.421875 -0.167969,0.53125 -0.25,1.042969 -0.25,1.53125 0,0.417969 0.109375,0.773438 0.328125,1.0625 0.21875,0.292969 0.53125,0.4375 0.9375,0.4375 z m 0,0" id="path861"></path> </symbol> <symbol overflow="visible" id="glyph1-2"> <path style="stroke:none" d="m 2.125,0.140625 c -0.398438,0 -0.714844,-0.14453125 -0.953125,-0.4375 -0.242187,-0.289063 -0.40625,-0.640625 -0.5,-1.046875 -0.09375,-0.414062 -0.140625,-0.828125 -0.140625,-1.234375 0,-0.445313 0.039062,-0.90625 0.125,-1.375 0.082031,-0.46875 0.203125,-0.9375 0.359375,-1.40625 0.15625,-0.476563 0.328125,-0.898437 0.515625,-1.265625 0.132812,-0.257812 0.300781,-0.546875 0.5,-0.859375 0.207031,-0.320313 0.4375,-0.617187 0.6875,-0.890625 0.25,-0.28125 0.519531,-0.503906 0.8125,-0.671875 0.289062,-0.175781 0.582031,-0.265625 0.875,-0.265625 h 0.015625 c 0.320313,0 0.585937,0.089844 0.796875,0.265625 0.207031,0.179687 0.367188,0.40625 0.484375,0.6875 0.125,0.273437 0.207031,0.5625 0.25,0.875 0.050781,0.3125 0.078125,0.609375 0.078125,0.890625 0,0.667969 -0.089844,1.351562 -0.265625,2.046875 -0.179687,0.699219 -0.429687,1.371094 -0.75,2.015625 -0.125,0.242188 -0.292969,0.527344 -0.5,0.859375 C 4.304688,-1.335938 4.082031,-1.039062 3.84375,-0.78125 3.601562,-0.519531 3.332031,-0.300781 3.03125,-0.125 2.738281,0.0507812 2.441406,0.140625 2.140625,0.140625 Z m 0.03125,-0.34375 c 0.289062,0 0.566406,-0.15625 0.828125,-0.46875 0.269531,-0.3125 0.503906,-0.6875 0.703125,-1.125 0.207031,-0.445313 0.390625,-0.90625 0.546875,-1.375 0.15625,-0.46875 0.269531,-0.863281 0.34375,-1.1875 H 1.875 c -0.136719,0.554687 -0.246094,1.03125 -0.328125,1.4375 -0.074219,0.398437 -0.109375,0.792969 -0.109375,1.1875 0,1.023437 0.238281,1.53125 0.71875,1.53125 z m -0.171875,-4.625 H 4.6875 c 0.09375,-0.382813 0.164062,-0.707031 0.21875,-0.96875 0.0625,-0.257813 0.109375,-0.53125 0.140625,-0.8125 0.039063,-0.289063 0.0625,-0.5625 0.0625,-0.8125 0,-1.03125 -0.234375,-1.546875 -0.703125,-1.546875 -0.554688,0 -1.03125,0.453125 -1.4375,1.359375 -0.40625,0.898437 -0.734375,1.824219 -0.984375,2.78125 z m 0,0" id="path864"></path> </symbol> <symbol overflow="visible" id="glyph2-0"> <path style="stroke:none" d="M 1.65625,0 V -8.25 H 8.25 V 0 Z m 0.203125,-0.203125 h 6.1875 v -7.84375 h -6.1875 z m 0,0" id="path867"></path> </symbol> <symbol overflow="visible" id="glyph2-1"> <path style="stroke:none" d="" id="path870"></path> </symbol> <symbol overflow="visible" id="glyph2-2"> <path style="stroke:none" d="M 3.09375,2.78125 C 2.445312,1.96875 1.898438,1.019531 1.453125,-0.0625 c -0.4375,-1.082031 -0.65625,-2.203125 -0.65625,-3.359375 0,-1.019531 0.164063,-2 0.5,-2.9375 0.382813,-1.09375 0.984375,-2.175781 1.796875,-3.25 h 0.828125 c -0.523437,0.898437 -0.867187,1.53125 -1.03125,1.90625 -0.261719,0.59375 -0.46875,1.214844 -0.625,1.859375 -0.1875,0.804688 -0.28125,1.609375 -0.28125,2.421875 0,2.074219 0.644531,4.140625 1.9375,6.203125 z m 0,0" id="path873"></path> </symbol> <symbol overflow="visible" id="glyph2-3"> <path style="stroke:none" d="M 5.3125,0 V -0.859375 C 4.875,-0.179688 4.234375,0.15625 3.390625,0.15625 c -0.542969,0 -1.042969,-0.15234375 -1.5,-0.453125 -0.460937,-0.300781 -0.8125,-0.71875 -1.0625,-1.25 -0.25,-0.539063 -0.375,-1.164063 -0.375,-1.875 0,-0.675781 0.113281,-1.289063 0.34375,-1.84375 0.226563,-0.5625 0.566406,-0.988281 1.015625,-1.28125 C 2.269531,-6.847656 2.78125,-7 3.34375,-7 c 0.414062,0 0.785156,0.089844 1.109375,0.265625 0.320313,0.167969 0.582031,0.390625 0.78125,0.671875 v -3.390625 h 1.15625 V 0 Z M 1.640625,-3.421875 c 0,0.875 0.179687,1.53125 0.546875,1.96875 0.375,0.4375 0.8125,0.65625 1.3125,0.65625 0.507812,0 0.941406,-0.207031 1.296875,-0.625 0.351563,-0.414063 0.53125,-1.046875 0.53125,-1.890625 0,-0.9375 -0.183594,-1.625 -0.546875,-2.0625 -0.355469,-0.445312 -0.796875,-0.671875 -1.328125,-0.671875 -0.511719,0 -0.945313,0.214844 -1.296875,0.640625 -0.34375,0.417969 -0.515625,1.078125 -0.515625,1.984375 z m 0,0" id="path876"></path> </symbol> <symbol overflow="visible" id="glyph2-4"> <path style="stroke:none" d="M 5.5625,-2.203125 6.75,-2.0625 C 6.5625,-1.351562 6.210938,-0.804688 5.703125,-0.421875 5.191406,-0.0351562 4.539062,0.15625 3.75,0.15625 c -1,0 -1.796875,-0.304688 -2.390625,-0.921875 -0.585937,-0.625 -0.875,-1.488281 -0.875,-2.59375 0,-1.15625 0.296875,-2.050781 0.890625,-2.6875 C 1.96875,-6.679688 2.738281,-7 3.6875,-7 c 0.90625,0 1.648438,0.3125 2.234375,0.9375 0.582031,0.625 0.875,1.5 0.875,2.625 0,0.074219 -0.00781,0.179688 -0.015625,0.3125 H 1.6875 c 0.039062,0.75 0.25,1.328125 0.625,1.734375 0.382812,0.398437 0.863281,0.59375 1.4375,0.59375 0.425781,0 0.789062,-0.109375 1.09375,-0.328125 0.300781,-0.226562 0.539062,-0.585938 0.71875,-1.078125 z M 1.75,-4.078125 H 5.5625 C 5.519531,-4.648438 5.375,-5.082031 5.125,-5.375 4.757812,-5.820312 4.28125,-6.046875 3.6875,-6.046875 c -0.53125,0 -0.980469,0.179687 -1.34375,0.53125 -0.355469,0.355469 -0.554688,0.835937 -0.59375,1.4375 z m 0,0" id="path879"></path> </symbol> <symbol overflow="visible" id="glyph2-5"> <path style="stroke:none" d="m 0.65625,0.5625 1.125,0.171875 C 1.832031,1.078125 1.960938,1.332031 2.171875,1.5 c 0.289063,0.207031 0.6875,0.3125 1.1875,0.3125 0.539063,0 0.957031,-0.109375 1.25,-0.328125 C 4.898438,1.273438 5.097656,0.976562 5.203125,0.59375 5.253906,0.351562 5.28125,-0.140625 5.28125,-0.890625 4.769531,-0.296875 4.140625,0 3.390625,0 2.441406,0 1.707031,-0.335938 1.1875,-1.015625 0.675781,-1.691406 0.421875,-2.507812 0.421875,-3.46875 c 0,-0.644531 0.117187,-1.242188 0.359375,-1.796875 C 1.019531,-5.816406 1.363281,-6.242188 1.8125,-6.546875 2.257812,-6.847656 2.785156,-7 3.390625,-7 c 0.8125,0 1.476563,0.328125 2,0.984375 V -6.84375 h 1.0625 v 5.921875 c 0,1.0625 -0.109375,1.8125 -0.328125,2.25 C 5.914062,1.773438 5.570312,2.128906 5.09375,2.390625 4.625,2.648438 4.046875,2.78125 3.359375,2.78125 2.546875,2.78125 1.882812,2.59375 1.375,2.21875 0.875,1.851562 0.632812,1.300781 0.65625,0.5625 Z M 1.625,-3.546875 c 0,0.898437 0.175781,1.554687 0.53125,1.96875 0.351562,0.417969 0.800781,0.625 1.34375,0.625 0.53125,0 0.972656,-0.203125 1.328125,-0.609375 C 5.191406,-1.976562 5.375,-2.625 5.375,-3.5 5.375,-4.34375 5.1875,-4.976562 4.8125,-5.40625 4.445312,-5.832031 4,-6.046875 3.46875,-6.046875 c -0.511719,0 -0.949219,0.214844 -1.3125,0.640625 C 1.800781,-4.988281 1.625,-4.367188 1.625,-3.546875 Z m 0,0" id="path882"></path> </symbol> <symbol overflow="visible" id="glyph2-6"> <path style="stroke:none" d="M 1.625,2.78125 H 0.796875 c 1.289063,-2.0625 1.9375,-4.128906 1.9375,-6.203125 0,-0.800781 -0.09375,-1.601563 -0.28125,-2.40625 -0.148437,-0.632813 -0.351563,-1.25 -0.609375,-1.84375 -0.179688,-0.394531 -0.527344,-1.039063 -1.046875,-1.9375 H 1.625 c 0.8125,1.074219 1.410156,2.15625 1.796875,3.25 0.332031,0.9375 0.5,1.917969 0.5,2.9375 0,1.15625 -0.226563,2.277344 -0.671875,3.359375 C 2.800781,1.019531 2.257812,1.96875 1.625,2.78125 Z m 0,0" id="path885"></path> </symbol> <symbol overflow="visible" id="glyph3-0"> <path style="stroke:none" d="M 0,-1.65625 H -8.25 V -8.25 H 0 Z m -0.203125,-0.203125 v -6.1875 h -7.84375 v 6.1875 z m 0,0" id="path888"></path> </symbol> <symbol overflow="visible" id="glyph3-1"> <path style="stroke:none" d="m 2.625,-0.875 h -9.46875 v -1.046875 h 0.890625 c -0.351563,-0.25 -0.613281,-0.53125 -0.78125,-0.84375 C -6.910156,-3.085938 -7,-3.46875 -7,-3.90625 -7,-4.5 -6.847656,-5.015625 -6.546875,-5.453125 c 0.304687,-0.445313 0.730469,-0.785156 1.28125,-1.015625 0.542969,-0.226562 1.140625,-0.34375 1.796875,-0.34375 0.699219,0 1.328125,0.125 1.890625,0.375 0.5625,0.25 0.996094,0.617188 1.296875,1.09375 0.2890625,0.480469 0.4375,0.984375 0.4375,1.515625 0,0.386719 -0.078125,0.734375 -0.234375,1.046875 -0.164063,0.304688 -0.375,0.554688 -0.625,0.75 H 2.625 Z m -6.015625,-1.046875 c 0.886719,0 1.542969,-0.175781 1.96875,-0.53125 0.417969,-0.351563 0.625,-0.785156 0.625,-1.296875 0,-0.519531 -0.21875,-0.960938 -0.65625,-1.328125 -0.4375,-0.363281 -1.113281,-0.546875 -2.03125,-0.546875 -0.875,0 -1.523437,0.183594 -1.953125,0.546875 -0.4375,0.355469 -0.65625,0.78125 -0.65625,1.28125 0,0.492187 0.234375,0.929687 0.703125,1.3125 0.460937,0.375 1.125,0.5625 2,0.5625 z m 0,0" id="path891"></path> </symbol> <symbol overflow="visible" id="glyph3-2"> <path style="stroke:none" d="m 0,-5.3125 h -0.859375 c 0.679687,0.4375 1.015625,1.078125 1.015625,1.921875 0,0.542969 -0.15234375,1.042969 -0.453125,1.5 -0.300781,0.460937 -0.71875,0.8125 -1.25,1.0625 -0.539063,0.25 -1.164063,0.375 -1.875,0.375 -0.675781,0 -1.289063,-0.113281 -1.84375,-0.34375 -0.5625,-0.226563 -0.988281,-0.566406 -1.28125,-1.015625 C -6.847656,-2.269531 -7,-2.78125 -7,-3.34375 c 0,-0.414062 0.089844,-0.785156 0.265625,-1.109375 0.167969,-0.320313 0.390625,-0.582031 0.671875,-0.78125 h -3.390625 v -1.15625 H 0 Z m -3.421875,3.671875 c 0.875,0 1.53125,-0.179687 1.96875,-0.546875 0.4375,-0.375 0.65625,-0.8125 0.65625,-1.3125 0,-0.507812 -0.207031,-0.941406 -0.625,-1.296875 -0.414063,-0.351563 -1.046875,-0.53125 -1.890625,-0.53125 -0.9375,0 -1.625,0.183594 -2.0625,0.546875 -0.445312,0.355469 -0.671875,0.796875 -0.671875,1.328125 0,0.511719 0.214844,0.945313 0.640625,1.296875 0.417969,0.34375 1.078125,0.515625 1.984375,0.515625 z m 0,0" id="path894"></path> </symbol> <symbol overflow="visible" id="glyph3-3"> <path style="stroke:none" d="M 0,-1.140625 H -5.9375 V -0.125 h -0.90625 v -1.015625 h -0.734375 c -0.457031,0 -0.796875,-0.039063 -1.015625,-0.125 -0.300781,-0.113281 -0.546875,-0.3125 -0.734375,-0.59375 -0.1875,-0.28125 -0.28125,-0.675781 -0.28125,-1.1875 0,-0.320313 0.039063,-0.679687 0.109375,-1.078125 l 1.015625,0.171875 c -0.039063,0.242187 -0.0625,0.46875 -0.0625,0.6875 0,0.355469 0.078125,0.605469 0.234375,0.75 0.148438,0.148437 0.421875,0.21875 0.828125,0.21875 h 0.640625 v -1.34375 h 0.90625 v 1.34375 H 0 Z m 0,0" id="path897"></path> </symbol> </g> </defs> <metadata id="metadata5"> <rdf:rdf> <cc:work rdf:about=""> <dc:format>image/svg+xml</dc:format> <dc:type rdf:resource="http://purl.org/dc/dcmitype/StillImage"></dc:type> </cc:work> </rdf:rdf> </metadata> <g id="layer1" transform="translate(25.435387,-78.017675)"> <g id="g9625"> <path style="fill:#969696;fill-opacity:1;fill-rule:nonzero;stroke:none;stroke-width:0.0950289" d="m -13.547717,132.13834 v -0.007 h -0.0083 v 0.007 z m 0.588915,0 v -0.02 h -0.588915 v 0.02 z m 0.588915,0 v -0.03 h -0.588915 v 0.03 z m 0.588909,0 v -0.0133 h -0.588909 v 0.0133 z m 0.588915,0 v -0.01 h -0.588915 v 0.01 z m 0.588915,0 v -0.0233 h -0.588915 v 0.0233 z m 0.588914,0 v -0.0133 h -0.588914 v 0.0133 z m 0.5889152,0 v -0.02 h -0.5889152 v 0.02 z m 0.5889095,0 v -0.05 h -0.5889095 v 0.05 z m 0.5889147,0 v -0.0167 h -0.5889147 v 0.0167 z m 0.5889147,0 v -0.0413 h -0.5889147 v 0.0413 z m 0.5889147,0 v -0.0447 h -0.5889147 v 0.0447 z m 0.5889147,0 v -0.0413 h -0.5889147 v 0.0413 z m 0.5889095,0 v -0.0473 h -0.5889095 v 0.0473 z m 0.5889147,0 v -0.062 H -5.891841 v 0.062 z m 0.5889148,0 v -0.0853 h -0.5889148 v 0.0853 z m 0.5889146,0 v -0.0763 h -0.5889146 v 0.0763 z m 0.5889148,0 v -0.109 h -0.5889148 v 0.109 z m 0.5889095,0 V 132.003 h -0.5889095 v 0.13534 z m 0.5889147,0 V 131.982 h -0.5889147 v 0.15634 z m 0.5889147,0 V 131.997 h -0.5889147 v 0.14134 z m 0.5889147,0 V 131.982 h -0.5889147 v 0.15634 z m 0.5889147,0 v -0.17967 h -0.5889147 v 0.17967 z m 0.58890951,0 V 131.929 H -0.5916138 v 0.20934 z m 0.58891473,0 v -0.24467 h -0.58891473 v 0.24467 z m 0.58891466,0 v -0.33 H 0.58621044 v 0.33 z m 0.5889147,0 v -0.28867 H 1.1751251 v 0.28867 z m 0.5889148,0 v -0.38307 H 1.7640398 v 0.38307 z m 0.5889095,0 V 131.6904 H 2.3529546 v 0.44794 z m 0.5889146,0 v -0.486 H 2.9418641 v 0.486 z m 0.5889148,0 v -0.5982 H 3.5307787 v 0.5982 z m 0.5889173,0 v -0.75418 H 4.1196935 v 0.75418 z m 0.5889149,0 V 131.3547 H 4.7086108 v 0.78364 z m 0.5889095,0 v -0.96341 H 5.2975257 v 0.96341 z m 0.5889142,0 v -1.03127 H 5.8864352 v 1.03127 z m 0.588915,0 v -1.23455 h -0.588915 v 1.23455 z m 0.5889149,0 v -1.24645 H 7.0642644 v 1.24645 z m 0.5889095,0 v -1.40835 H 7.6531793 v 1.40835 z m 0.5889197,0 v -1.43187 H 8.2420888 v 1.43187 z m 0.5889095,0 v -1.6411 H 8.8310085 v 1.6411 z m 0.588915,0 V 130.3026 H 9.419918 v 1.83574 z m 0.588914,0 v -1.78247 h -0.588914 v 1.78247 z m 0.588915,0 v -1.99765 h -0.588915 v 1.99765 z m 0.588915,0 v -2.20688 h -0.588915 v 2.20688 z m 0.588909,0 v -2.16253 h -0.588909 v 2.16253 z m 0.588914,0 v -2.19497 h -0.588914 v 2.19497 z m 0.588915,0 v -2.16849 H 12.9534 v 2.16849 z m 0.588915,0 v -2.36313 h -0.588915 v 2.36313 z m 0.588909,0 v -2.33665 H 14.13123 v 2.33665 z m 0.588915,0 v -2.36313 h -0.588915 v 2.36313 z m 0.588915,0 v -2.47801 h -0.588915 v 2.47801 z m 0.588915,0 v -2.51909 h -0.588915 v 2.51909 z m 0.588915,0 v -2.4426 h -0.588915 v 2.4426 z m 0.588914,0 v -2.85511 h -0.588914 v 2.85511 z m 0.588909,0 v -3.11136 h -0.588909 v 3.11136 z m 0.588915,0 v -3.75363 h -0.588915 v 3.75363 z m 0.588915,0 v -4.61704 h -0.588915 v 4.61704 z m 0.58891,0 v -7.05369 h -0.58891 v 7.05369 z m 0.588915,0 v -12.75499 h -0.588915 v 12.75499 z m 0.588914,0 v -24.3671 h -0.588914 v 24.3671 z m 0.588915,0 V 90.670044 h -0.588915 v 41.468296 z m 0.588915,0 V 91.763224 h -0.588915 v 40.375116 z m 0.588914,0 v -23.36231 h -0.588914 v 23.36231 z m 0.588909,0 v -12.69903 h -0.588909 v 12.69903 z m 0.588921,0 v -6.89477 h -0.588921 v 6.89477 z m 0.588909,0 v -4.59651 h -0.588909 v 4.59651 z m 0.588915,0 v -3.3325 h -0.588915 v 3.3325 z m 0.588914,0 v -2.77862 h -0.588914 v 2.77862 z m 0.58891,0 v -2.76076 h -0.58891 v 2.76076 z m 0.588915,0 v -2.44855 h -0.588915 v 2.44855 z m 0.588915,0 v -2.45153 h -0.588915 v 2.45153 z m 0.588914,0 v -2.3423 h -0.588914 v 2.3423 z m 0.588915,0 v -2.37474 h -0.588915 v 2.37474 z m 0.588915,0 v -2.25093 h -0.588915 v 2.25093 z m 0.58891,0 v -2.41611 h -0.58891 v 2.41611 z m 0.588915,0 v -2.25986 h -0.588915 v 2.25986 z m 0.588914,0 v -2.16551 h -0.588914 v 2.16551 z m 0.588915,0 v -2.03009 h -0.588915 v 2.03009 z m 0.588909,0 v -1.96819 h -0.588909 v 1.96819 z m 0.588915,0 v -1.98872 H 32.38755 v 1.98872 z m 0.588914,0 v -1.88277 h -0.588914 v 1.88277 z m 0.588915,0 v -1.85926 h -0.588915 v 1.85926 z m 0.588915,0 v -1.55271 h -0.588915 v 1.55271 z m 0.58891,0 v -1.49973 h -0.58891 v 1.49973 z m 0.588915,0 v -1.36729 h -0.588915 v 1.36729 z m 0.588914,0 v -1.23752 h -0.588914 v 1.23752 z m 0.588915,0 v -1.19317 h -0.588915 v 1.19317 z m 0.588909,0 v -1.06073 h -0.588909 v 1.06073 z m 0.588915,0 v -0.88394 h -0.588915 v 0.88394 z m 0.588915,0 v -0.77501 h -0.588915 v 0.77501 z m 0.588914,0 v -0.63067 h -0.588914 v 0.63067 z m 0.588915,0 v -0.55387 h -0.588915 v 0.55387 z m 0.58891,0 v -0.5274 h -0.58891 v 0.5274 z m 0.58892,0 v -0.41847 h -0.58892 v 0.41847 z m 0.588909,0 v -0.41254 h -0.588909 v 0.41254 z m 0.588915,0 V 131.826 H 41.81017 v 0.31234 z m 0.588915,0 V 131.876 h -0.588915 v 0.26234 z m 0.588915,0 v -0.22067 H 42.988 v 0.22067 z m 0.58891,0 V 131.929 h -0.58891 v 0.20934 z m 0.588914,0 V 131.926 h -0.588914 v 0.21234 z m 0.588914,0 v -0.17367 h -0.588914 v 0.17367 z m 0.588916,0 V 132.006 h -0.588916 v 0.13234 z m 0.588912,0 v -0.112 h -0.588912 v 0.112 z m 0.588915,-0.0883 h -0.588915 v 0.0883 H 47.69931 V 132.05 Z m 1.177824,0.0883 v -0.0853 h -0.58891 v 0.0853 z m 0.588916,0 v -0.0587 H 48.28822 v 0.0587 z m 0.588912,0 v -0.062 h -0.588912 v 0.062 z m 0.588915,0 v -0.0647 h -0.588915 v 0.0647 z m 0.588913,0 v -0.0267 h -0.588913 v 0.0267 z m 0.588915,0 v -0.0333 h -0.588915 v 0.0333 z m 0.588913,0 v -0.0387 h -0.588913 v 0.0387 z m 0.588915,0 v -0.0267 h -0.588915 v 0.0267 z m 0.588914,0 v -0.0233 h -0.588914 v 0.0233 z m 0.588915,0 v -0.0267 h -0.588915 v 0.0267 z m 0.58891,0 v -0.0387 h -0.58891 v 0.0387 z m 0.588917,0 v -0.01 h -0.588917 v 0.01 z m 0.588911,0 v -0.02 h -0.588911 v 0.02 z m 0.588913,0 v -0.03 h -0.588913 v 0.03 z m 0.588915,0 v -0.0167 h -0.588915 v 0.0167 z m 0.588913,0 v -0.0133 h -0.588913 v 0.0133 z m 0.0088,-0.0133 h -0.0088 v 0.0133 h 0.0088 z m 0,0" id="path908"></path> <path style="fill:none;stroke:#0a0a0a;stroke-width:0.383103;stroke-linecap:butt;stroke-linejoin:round;stroke-miterlimit:10;stroke-dasharray:none;stroke-opacity:1" d="M 18.842537,132.13834 V 86.708964" id="path910"></path> <path style="fill:none;stroke:#0a0a0a;stroke-width:0.383103;stroke-linecap:butt;stroke-linejoin:round;stroke-miterlimit:10;stroke-dasharray:none;stroke-opacity:1" d="M 24.731674,132.13834 V 86.708964" id="path912"></path> <path style="fill:none;stroke:#232323;stroke-width:0.383103;stroke-linecap:square;stroke-linejoin:round;stroke-miterlimit:10;stroke-dasharray:none;stroke-opacity:1" d="m -13.547717,132.13834 h 70.66964" id="path914"></path> <path style="fill:none;stroke:#232323;stroke-width:0.383103;stroke-linecap:square;stroke-linejoin:round;stroke-miterlimit:10;stroke-dasharray:none;stroke-opacity:1" d="m -7.6585799,132.13834 v -0.4542" id="path918"></path> <path style="fill:none;stroke:#232323;stroke-width:0.383103;stroke-linecap:square;stroke-linejoin:round;stroke-miterlimit:10;stroke-dasharray:none;stroke-opacity:1" d="m 18.842537,132.13834 v -0.4542" id="path922"></path> <path style="fill:none;stroke:#232323;stroke-width:0.383103;stroke-linecap:square;stroke-linejoin:round;stroke-miterlimit:10;stroke-dasharray:none;stroke-opacity:1" d="m 21.787106,132.13834 v -0.4542" id="path924"></path> <path style="fill:none;stroke:#232323;stroke-width:0.383103;stroke-linecap:square;stroke-linejoin:round;stroke-miterlimit:10;stroke-dasharray:none;stroke-opacity:1" d="m 24.731674,132.13834 v -0.4542" id="path926"></path> <path style="fill:none;stroke:#232323;stroke-width:0.383103;stroke-linecap:square;stroke-linejoin:round;stroke-miterlimit:10;stroke-dasharray:none;stroke-opacity:1" d="m 51.232789,132.13834 v -0.4542" id="path930"></path> <path style="fill:none;stroke:#232323;stroke-width:0.383103;stroke-linecap:square;stroke-linejoin:round;stroke-miterlimit:10;stroke-dasharray:none;stroke-opacity:1" d="M -13.547717,132.13834 V 86.708964" id="path1018"></path> <path style="fill:none;stroke:#232323;stroke-width:0.383103;stroke-linecap:square;stroke-linejoin:round;stroke-miterlimit:10;stroke-dasharray:none;stroke-opacity:1" d="m -13.547717,132.13834 h 0.706976" id="path1022"></path> <path style="fill:none;stroke:#232323;stroke-width:0.383103;stroke-linecap:square;stroke-linejoin:round;stroke-miterlimit:10;stroke-dasharray:none;stroke-opacity:1" d="m -13.547717,103.74498 h 0.706976" id="path1032"></path> <text xml:space="preserve" style="font-style:normal;font-variant:normal;font-weight:normal;font-stretch:normal;font-size:2.82222px;line-height:1.25;font-family:Arial;-inkscape-font-specification:'Arial, Normal';font-variant-ligatures:normal;font-variant-caps:normal;font-variant-numeric:normal;font-variant-east-asian:normal;letter-spacing:0px;word-spacing:0px;stroke-width:0.0765553" x="-111.52723" y="-20.880733" id="text4179" transform="rotate(-90)"><tspan id="tspan4177" style="font-style:normal;font-variant:normal;font-weight:normal;font-stretch:normal;font-size:2.82222px;font-family:Arial;-inkscape-font-specification:'Arial, Normal';font-variant-ligatures:normal;font-variant-caps:normal;font-variant-numeric:normal;font-variant-east-asian:normal;stroke-width:0.0765553" x="-111.52723" y="-20.880733">pdf</tspan></text> <text xml:space="preserve" style="font-style:normal;font-variant:normal;font-weight:normal;font-stretch:normal;font-size:2.82222px;line-height:1.25;font-family:Arial;-inkscape-font-specification:'Arial, Normal';font-variant-ligatures:normal;font-variant-caps:normal;font-variant-numeric:normal;font-variant-east-asian:normal;letter-spacing:0px;word-spacing:0px;stroke-width:0.0765553" x="-20.437006" y="104.74199" id="text5781"><tspan id="tspan5779" style="font-style:normal;font-variant:normal;font-weight:normal;font-stretch:normal;font-size:2.82222px;font-family:Arial;-inkscape-font-specification:'Arial, Normal';font-variant-ligatures:normal;font-variant-caps:normal;font-variant-numeric:normal;font-variant-east-asian:normal;stroke-width:0.0765553" x="-20.437006" y="104.74199">0.05</tspan></text> <text xml:space="preserve" style="font-style:normal;font-variant:normal;font-weight:normal;font-stretch:normal;font-size:2.82222px;line-height:1.25;font-family:Arial;-inkscape-font-specification:'Arial, Normal';font-variant-ligatures:normal;font-variant-caps:normal;font-variant-numeric:normal;font-variant-east-asian:normal;letter-spacing:0px;word-spacing:0px;stroke-width:0.0765553" x="-10.46013" y="136.40573" id="text9977"><tspan id="tspan9975" style="font-style:normal;font-variant:normal;font-weight:normal;font-stretch:normal;font-size:2.82222px;font-family:Arial;-inkscape-font-specification:'Arial, Normal';font-variant-ligatures:normal;font-variant-caps:normal;font-variant-numeric:normal;font-variant-east-asian:normal;stroke-width:0.0765553" x="-10.46013" y="136.40573">-100</tspan></text> <text xml:space="preserve" style="font-style:normal;font-variant:normal;font-weight:normal;font-stretch:normal;font-size:2.82222px;line-height:1.25;font-family:Arial;-inkscape-font-specification:'Arial, Normal';font-variant-ligatures:normal;font-variant-caps:normal;font-variant-numeric:normal;font-variant-east-asian:normal;letter-spacing:0px;word-spacing:0px;stroke-width:0.0765553" x="16.825779" y="136.40573" id="text12687"><tspan id="tspan12685" style="font-style:normal;font-variant:normal;font-weight:normal;font-stretch:normal;font-size:2.82222px;font-family:Arial;-inkscape-font-specification:'Arial, Normal';font-variant-ligatures:normal;font-variant-caps:normal;font-variant-numeric:normal;font-variant-east-asian:normal;stroke-width:0.0765553" x="16.825779" y="136.40573">-10</tspan></text> <text xml:space="preserve" style="font-style:normal;font-variant:normal;font-weight:normal;font-stretch:normal;font-size:2.82222px;line-height:1.25;font-family:Arial;-inkscape-font-specification:'Arial, Normal';font-variant-ligatures:normal;font-variant-caps:normal;font-variant-numeric:normal;font-variant-east-asian:normal;letter-spacing:0px;word-spacing:0px;stroke-width:0.0765553" x="22.327" y="136.37808" id="text16739"><tspan id="tspan16737" style="font-style:normal;font-variant:normal;font-weight:normal;font-stretch:normal;font-size:2.82222px;font-family:Arial;-inkscape-font-specification:'Arial, Normal';font-variant-ligatures:normal;font-variant-caps:normal;font-variant-numeric:normal;font-variant-east-asian:normal;stroke-width:0.0765553" x="22.327" y="136.37808">+10</tspan></text> <text xml:space="preserve" style="font-style:normal;font-variant:normal;font-weight:normal;font-stretch:normal;font-size:2.82222px;line-height:1.25;font-family:Arial;-inkscape-font-specification:'Arial, Normal';font-variant-ligatures:normal;font-variant-caps:normal;font-variant-numeric:normal;font-variant-east-asian:normal;letter-spacing:0px;word-spacing:0px;stroke-width:0.0765553" x="48.043324" y="136.37808" id="text19515"><tspan id="tspan19513" style="font-style:normal;font-variant:normal;font-weight:normal;font-stretch:normal;font-size:2.82222px;font-family:Arial;-inkscape-font-specification:'Arial, Normal';font-variant-ligatures:normal;font-variant-caps:normal;font-variant-numeric:normal;font-variant-east-asian:normal;stroke-width:0.0765553" x="48.043324" y="136.37808">+100</tspan></text> <g id="g2579" transform="translate(1.2251905,-2.6458334)"> <text xml:space="preserve" style="font-style:normal;font-variant:normal;font-weight:normal;font-stretch:normal;font-size:2.82222px;line-height:1.25;font-family:Arial;-inkscape-font-specification:'Arial, Normal';font-variant-ligatures:normal;font-variant-caps:normal;font-variant-numeric:normal;font-variant-east-asian:normal;letter-spacing:0px;word-spacing:0px;stroke-width:0.0765553" x="19.468189" y="142.8645" id="text22027"><tspan id="tspan22025" style="font-style:normal;font-variant:normal;font-weight:normal;font-stretch:normal;font-size:2.82222px;font-family:Arial;-inkscape-font-specification:'Arial, Normal';font-variant-ligatures:normal;font-variant-caps:normal;font-variant-numeric:normal;font-variant-east-asian:normal;stroke-width:0.0765553" x="19.468189" y="142.8645">(deg)</tspan></text> <g transform="matrix(0.352778,0,0,0.352778,15.169259,140.86075)" ns2:version="1.5.0" ns2:texconverter="pdflatex" ns2:pdfconverter="inkscape" ns2:text="$\\delta\\theta$" ns2:preamble="/home/guillaume/.config/inkscape/extensions/textext/default_packages.tex" ns2:scale="1.0" ns2:alignment="middle center" ns2:stroke-to-path="0" ns2:inkscapeversion="1.1" ns2:jacobian_sqrt="0.352778" id="g2166"> <defs id="id-3e4e4825-444d-424a-9602-58ac16045548"> <g id="id-5f6ad74d-c2de-4105-a851-77495599a6f4"> <symbol overflow="visible" id="id-caacadcc-5244-456a-aa3a-3cada6b6a3d1"> <path style="stroke:none" d="" id="id-d8c27066-13a0-4885-9872-13b70446da28"></path> </symbol> <symbol overflow="visible" id="id-66e31085-3f1f-4192-929b-af643cff6551"> <path style="stroke:none" d="M 2.625,-4.359375 C 1.390625,-4.0625 0.421875,-2.765625 0.421875,-1.5625 0.421875,-0.59375 1.0625,0.125 2,0.125 c 1.15625,0 1.984375,-1.578125 1.984375,-2.953125 0,-0.90625 -0.390625,-1.40625 -0.734375,-1.84375 C 2.890625,-5.125 2.296875,-5.875 2.296875,-6.3125 c 0,-0.21875 0.203125,-0.453125 0.546875,-0.453125 0.3125,0 0.5,0.125 0.71875,0.265625 0.203125,0.125 0.390625,0.25 0.546875,0.25 C 4.359375,-6.25 4.5,-6.484375 4.5,-6.65625 4.5,-6.875 4.34375,-6.890625 3.984375,-6.984375 3.46875,-7.09375 3.328125,-7.09375 3.171875,-7.09375 c -0.78125,0 -1.140625,0.4375 -1.140625,1.03125 0,0.546875 0.296875,1.09375 0.59375,1.703125 z m 0.125,0.21875 c 0.25,0.46875 0.546875,1 0.546875,1.71875 0,0.65625 -0.375,2.328125 -1.296875,2.328125 -0.546875,0 -0.96875,-0.421875 -0.96875,-1.1875 0,-0.625 0.375,-2.5 1.71875,-2.859375 z m 0,0" id="id-2edc6da9-4b8c-4d4e-a829-41f7267afc4e"></path> </symbol> <symbol overflow="visible" id="id-def8026b-906b-4e97-93f9-ddf178d409cc"> <path style="stroke:none" d="m 4.53125,-4.984375 c 0,-0.65625 -0.171875,-2.046875 -1.1875,-2.046875 -1.390625,0 -2.921875,2.8125 -2.921875,5.09375 0,0.9375 0.28125,2.046875 1.1875,2.046875 1.40625,0 2.921875,-2.859375 2.921875,-5.09375 z M 1.46875,-3.625 C 1.640625,-4.25 1.84375,-5.046875 2.25,-5.765625 2.515625,-6.25 2.875,-6.8125 3.328125,-6.8125 c 0.484375,0 0.546875,0.640625 0.546875,1.203125 0,0.5 -0.078125,1 -0.3125,1.984375 z m 2,0.328125 C 3.359375,-2.84375 3.15625,-2 2.765625,-1.28125 c -0.34375,0.6875 -0.71875,1.171875 -1.15625,1.171875 -0.328125,0 -0.53125,-0.296875 -0.53125,-1.21875 0,-0.421875 0.0625,-1 0.3125,-1.96875 z m 0,0" id="id-024c2cbc-8d74-4baa-8b1e-870f895106a1"></path> </symbol> </g> </defs> <g id="id-9bbf732d-049e-4ea3-8b0c-90b76356660b" transform="translate(-149.134,-127.671)"> <g style="fill:#000000;fill-opacity:1" id="id-669e3343-96d1-40a8-a2b8-8ff524a33b75"> <g transform="translate(148.712,134.765)" id="g2395"> <path style="stroke:none" d="M 2.625,-4.359375 C 1.390625,-4.0625 0.421875,-2.765625 0.421875,-1.5625 0.421875,-0.59375 1.0625,0.125 2,0.125 c 1.15625,0 1.984375,-1.578125 1.984375,-2.953125 0,-0.90625 -0.390625,-1.40625 -0.734375,-1.84375 C 2.890625,-5.125 2.296875,-5.875 2.296875,-6.3125 c 0,-0.21875 0.203125,-0.453125 0.546875,-0.453125 0.3125,0 0.5,0.125 0.71875,0.265625 0.203125,0.125 0.390625,0.25 0.546875,0.25 C 4.359375,-6.25 4.5,-6.484375 4.5,-6.65625 4.5,-6.875 4.34375,-6.890625 3.984375,-6.984375 3.46875,-7.09375 3.328125,-7.09375 3.171875,-7.09375 c -0.78125,0 -1.140625,0.4375 -1.140625,1.03125 0,0.546875 0.296875,1.09375 0.59375,1.703125 z m 0.125,0.21875 c 0.25,0.46875 0.546875,1 0.546875,1.71875 0,0.65625 -0.375,2.328125 -1.296875,2.328125 -0.546875,0 -0.96875,-0.421875 -0.96875,-1.1875 0,-0.625 0.375,-2.5 1.71875,-2.859375 z m 0,0" id="id-049ecb58-4e8d-448d-95e2-dcf23c178538"></path> </g> </g> <g style="fill:#000000;fill-opacity:1" id="id-f79231d7-f0da-48d5-a300-34cb9279f3ad"> <g transform="translate(153.518,134.765)" id="g2399"> <path style="stroke:none" d="m 4.53125,-4.984375 c 0,-0.65625 -0.171875,-2.046875 -1.1875,-2.046875 -1.390625,0 -2.921875,2.8125 -2.921875,5.09375 0,0.9375 0.28125,2.046875 1.1875,2.046875 1.40625,0 2.921875,-2.859375 2.921875,-5.09375 z M 1.46875,-3.625 C 1.640625,-4.25 1.84375,-5.046875 2.25,-5.765625 2.515625,-6.25 2.875,-6.8125 3.328125,-6.8125 c 0.484375,0 0.546875,0.640625 0.546875,1.203125 0,0.5 -0.078125,1 -0.3125,1.984375 z m 2,0.328125 C 3.359375,-2.84375 3.15625,-2 2.765625,-1.28125 c -0.34375,0.6875 -0.71875,1.171875 -1.15625,1.171875 -0.328125,0 -0.53125,-0.296875 -0.53125,-1.21875 0,-0.421875 0.0625,-1 0.3125,-1.96875 z m 0,0" id="id-158ef0c3-c816-4f4d-aad8-3b157ba69a60"></path> </g> </g> </g> </g> </g> <text xml:space="preserve" style="font-size:4.23333px;line-height:1.25;font-family:Arial;-inkscape-font-specification:Arial;letter-spacing:0px;word-spacing:0px;fill:#ff2a7f;fill-opacity:1;stroke-width:0.264583" x="31.318338" y="110.93983" id="text4143"><tspan id="tspan4141" style="fill:#ff2a7f;fill-opacity:1;stroke-width:0.264583" x="31.318338" y="110.93983">left turn</tspan></text> <text xml:space="preserve" style="font-size:4.23333px;line-height:1.25;font-family:Arial;-inkscape-font-specification:Arial;letter-spacing:0px;word-spacing:0px;fill:#a05a2c;fill-opacity:1;stroke-width:0.264583" x="-5.7233262" y="110.93983" id="text4227"><tspan id="tspan4225" style="fill:#a05a2c;fill-opacity:1;stroke-width:0.264583" x="-5.7233262" y="110.93983">right turn</tspan></text> <path style="fill:none;stroke:#000000;stroke-width:0.264583px;stroke-linecap:butt;stroke-linejoin:miter;stroke-opacity:1" d="m 18.81885,86.186321 c 0.344208,-0.466374 0.68875,-0.933201 1.517003,-1.168976 0.828253,-0.235775 2.138241,-0.240202 2.947372,-0.0067 0.809131,0.233508 1.116751,0.704288 1.424763,1.175669" id="path4436"></path> <text xml:space="preserve" style="font-size:4.23333px;line-height:1.25;font-family:Arial;-inkscape-font-specification:Arial;letter-spacing:0px;word-spacing:0px;stroke-width:0.264583" x="14.840936" y="83.599655" id="text5955"><tspan id="tspan5953" style="fill:#ffcc00;fill-opacity:1;stroke-width:0.264583" x="14.840936" y="83.599655">forward</tspan></text> </g> </g>
</svg>
