<?xml version="1.0"?>

<svg version="1.1" id="svg2" width="53.1045" height="22.346251" viewBox="0 0 53.1045 22.346251" xmlns:xlink="http://www.w3.org/1999/xlink" xmlns="http://www.w3.org/2000/svg" xmlns:svg="http://www.w3.org/2000/svg" xmlns:rdf="http://www.w3.org/1999/02/22-rdf-syntax-ns#" xmlns:cc="http://creativecommons.org/ns#" xmlns:dc="http://purl.org/dc/elements/1.1/" xmlns:ns1="http://www.iki.fi/pav/software/textext/"> <metadata id="metadata8"> <rdf:rdf> <cc:work rdf:about=""> <dc:format>image/svg+xml</dc:format> <dc:type rdf:resource="http://purl.org/dc/dcmitype/StillImage"></dc:type> </cc:work> </rdf:rdf> </metadata> <defs id="defs6"> <marker style="overflow:visible" id="Arrow1Mend" refX="0" refY="0" orient="auto"> <path transform="matrix(-0.4,0,0,-0.4,-4,0)" style="fill:context-stroke;fill-rule:evenodd;stroke:context-stroke;stroke-width:1pt" d="M 0,0 5,-5 -12.5,0 5,5 Z" id="path8329"></path> </marker> <marker style="overflow:visible" id="Arrow1Send" refX="0" refY="0" orient="auto"> <path transform="matrix(-0.2,0,0,-0.2,-1.2,0)" style="fill:#a02c2c;fill-opacity:1;fill-rule:evenodd;stroke:#a02c2c;stroke-width:1pt;stroke-opacity:1" d="M 0,0 5,-5 -12.5,0 5,5 Z" id="path2243"></path> </marker> <linearGradient id="linearGradient2271"> <stop style="stop-color:#5b68b2;stop-opacity:1;" offset="0" id="stop2269"></stop> </linearGradient> <linearGradient id="lat"> <stop style="stop-color:#000000;stop-opacity:1;" offset="0" id="stop5990"></stop> </linearGradient> <linearGradient id="linearGradient3900"> <stop style="stop-color:#e3b020;stop-opacity:1;" offset="0" id="stop3898"></stop> </linearGradient> <linearGradient xlink:href="#linearGradient3900" id="linearGradient8544" gradientUnits="userSpaceOnUse" x1="111.39913" y1="158.79524" x2="229.25223" y2="158.79524"></linearGradient> <linearGradient id="linearGradient3944"> <stop style="stop-color:#722608;stop-opacity:1;" offset="0" id="stop3942"></stop> </linearGradient> <linearGradient id="a"> <stop style="stop-color:#022d4d;stop-opacity:1;" offset="0" id="stop6654"></stop> </linearGradient> <linearGradient id="b"> <stop style="stop-color:#22b57e;stop-opacity:1;" offset="0" id="stop6666"></stop> </linearGradient> <linearGradient id="c"> <stop style="stop-color:#7e0174;stop-opacity:1;" offset="0" id="stop6672"></stop> </linearGradient> <linearGradient id="linearGradient6680"> <stop style="stop-color:#967d7d;stop-opacity:1;" offset="0" id="stop6678"></stop> </linearGradient> </defs> <g id="layer2" style="display:inline;opacity:1" transform="translate(-24.859846,15.544194)"> <g id="g169-1" style="font-style:normal;font-weight:normal;font-size:medium;font-family:Dialog;color-interpolation:linearRGB;fill:#808080;fill-opacity:1;stroke:#808080;stroke-width:1.3333;stroke-linecap:butt;stroke-linejoin:round;stroke-miterlimit:10;stroke-dasharray:none;stroke-dashoffset:0;stroke-opacity:1;color-rendering:optimizeQuality;image-rendering:optimizeQuality;shape-rendering:auto;text-rendering:geometricPrecision" transform="matrix(0.02429821,0,0,0.02430134,103.42026,1.6530977)"></g> <g id="g139-6" style="font-style:normal;font-weight:normal;font-size:medium;font-family:Dialog;display:inline;color-interpolation:linearRGB;fill:#3a030f;fill-opacity:1;stroke:#3a030f;stroke-width:2;stroke-linecap:butt;stroke-linejoin:round;stroke-miterlimit:10;stroke-dasharray:none;stroke-dashoffset:0;stroke-opacity:1;color-rendering:optimizeQuality;image-rendering:optimizeQuality;shape-rendering:auto;text-rendering:geometricPrecision" transform="matrix(-0.13938832,0,0,-0.13938832,239.73785,53.955649)"></g> <g id="g13552" style="font-style:normal;font-weight:normal;font-size:medium;font-family:Dialog;display:inline;color-interpolation:linearRGB;fill:#3f2a03;fill-opacity:1;stroke:#b67600;stroke-width:1.51558;stroke-linecap:butt;stroke-linejoin:bevel;stroke-miterlimit:1;stroke-dasharray:none;stroke-dashoffset:0;stroke-opacity:1;color-rendering:optimizeQuality;image-rendering:optimizeQuality;shape-rendering:auto;text-rendering:geometricPrecision" transform="matrix(0.05291678,0,0,0.12383436,93.504249,67.248766)"></g> <text xml:space="preserve" style="font-style:normal;font-weight:normal;font-size:10.5833px;line-height:1.25;font-family:sans-serif;letter-spacing:0px;word-spacing:0px;fill:#000000;fill-opacity:1;stroke:none;stroke-width:0.264583" x="99.452255" y="-36.646194" id="text2017"><tspan id="tspan2015" x="99.452255" y="-36.646194" style="stroke-width:0.264583"></tspan></text> <g style="font-style:normal;font-weight:normal;font-size:12px;font-family:Dialog;color-interpolation:sRGB;fill:#ffffff;fill-opacity:1;stroke:#ffffff;stroke-width:1;stroke-linecap:square;stroke-linejoin:miter;stroke-miterlimit:10;stroke-dasharray:none;stroke-dashoffset:0;stroke-opacity:1;color-rendering:optimizeSpeed;image-rendering:optimizeSpeed;shape-rendering:crispEdges;text-rendering:optimizeSpeed" id="g3638-6" transform="matrix(0.14240305,0,0,0.14240305,-52.017812,-2.0084752)"></g> <g id="g14-5" transform="matrix(0.31358023,0,0,0.31358024,71.270233,-152.32629)"></g> <g transform="matrix(0,-0.352778,0.352778,0,72.000176,23.68699)" ns1:version="1.1.0" ns1:texconverter="pdflatex" ns1:pdfconverter="inkscape" ns1:text="$P_{inc}$" ns1:preamble="/home/raphael/.config/inkscape/extensions/textext/default_packages.tex" ns1:scale="1.0" ns1:alignment="middle center" ns1:inkscapeversion="1.0.1" ns1:jacobian_sqrt="0.352778" id="g24623"> <defs id="defs24599"></defs> </g> <g id="g14-9" transform="matrix(0.31358023,0,0,0.31358024,50.30718,-104.24118)"></g> <g id="g18-6" transform="matrix(0.31358023,0,0,0.31358024,50.30718,-104.24118)"></g> <g id="g14-39" transform="matrix(0.31358023,0,0,0.31358024,75.30718,-104.84629)"></g> <g id="g14-53" transform="matrix(0.31358023,0,0,0.31358024,100.20796,-104.27425)"></g> <g id="g14-59" transform="matrix(0.31358023,0,0,0.31358024,75.30718,-103.97659)"></g> <g id="g14-1" transform="matrix(0.31358023,0,0,0.31358024,123.19064,-78.030029)"></g> <text xml:space="preserve" style="font-style:normal;font-variant:normal;font-weight:normal;font-stretch:normal;font-size:2.11667px;line-height:1.25;font-family:Arial;-inkscape-font-specification:'Arial, Normal';font-variant-ligatures:normal;font-variant-caps:normal;font-variant-numeric:normal;font-variant-east-asian:normal;letter-spacing:0px;word-spacing:0px;fill:#000000;fill-opacity:1;stroke:none;stroke-width:0.264583" x="139.55582" y="9.8205938" id="text21418"><tspan id="tspan21416" x="139.55582" y="9.8205938" style="font-style:normal;font-variant:normal;font-weight:normal;font-stretch:normal;font-size:2.11667px;font-family:Arial;-inkscape-font-specification:'Arial, Normal';font-variant-ligatures:normal;font-variant-caps:normal;font-variant-numeric:normal;font-variant-east-asian:normal;stroke-width:0.264583"></tspan></text> <text xml:space="preserve" style="font-style:normal;font-weight:normal;font-size:10.5833px;line-height:1.25;font-family:sans-serif;letter-spacing:0px;word-spacing:0px;fill:#000000;fill-opacity:1;stroke:none;stroke-width:0.264583" x="140.45703" y="11.286703" id="text21422"><tspan id="tspan21420" x="140.45703" y="11.286703" style="stroke-width:0.264583"></tspan></text> <g id="g14-35" transform="matrix(0.31358023,0,0,0.31358024,122.17138,-118.35229)"></g> <g id="g59442" transform="matrix(0.34051615,0,0,0.34051635,1.9622086,-5.8464854)" style="stroke-width:2.93671"></g> <g transform="matrix(0.35277801,0,0,0.35277801,64.390699,-0.12909348)" id="g67137-6" style="fill:#000000;fill-opacity:1"></g> <g transform="matrix(0.35277801,0,0,0.35277801,68.721755,-0.12909348)" id="g67149-2" style="fill:#000000;fill-opacity:1"></g> <g transform="matrix(0.352778,0,0,0.352778,44.292981,-11.597569)" ns1:version="1.1.0" ns1:texconverter="pdflatex" ns1:pdfconverter="inkscape" ns1:text="$t_n$" ns1:preamble="/home/raphael/.config/inkscape/extensions/textext/default_packages.tex" ns1:scale="1.0" ns1:alignment="middle center" ns1:inkscapeversion="1.0.1" ns1:jacobian_sqrt="0.352778" id="g19978" style="fill:#0088aa;fill-opacity:1"> <defs id="id-a2f74fca-3f50-4940-b92c-271a9e761a6d"></defs> <g id="id-106c1247-4391-45ce-bf31-8d1cbf18841b" transform="translate(-148.946,-128.531)" style="fill:#0088aa;fill-opacity:1"> <g style="fill:#0088aa;fill-opacity:1" id="id-aa31cee6-f03c-4448-89dd-78285e5c0234"> <g transform="translate(148.712,134.765)" id="g19970" style="fill:#0088aa;fill-opacity:1"> <path style="fill:#0088aa;fill-opacity:1;stroke:none" d="m 2.046875,-3.984375 h 0.9375 c 0.203125,0 0.3125,0 0.3125,-0.203125 0,-0.109375 -0.109375,-0.109375 -0.28125,-0.109375 h -0.875 C 2.5,-5.71875 2.546875,-5.90625 2.546875,-5.96875 c 0,-0.171875 -0.125,-0.265625 -0.296875,-0.265625 -0.03125,0 -0.3125,0 -0.390625,0.359375 L 1.46875,-4.296875 h -0.9375 c -0.203125,0 -0.296875,0 -0.296875,0.1875 0,0.125 0.078125,0.125 0.28125,0.125 h 0.875 C 0.671875,-1.15625 0.625,-0.984375 0.625,-0.8125 0.625,-0.265625 1,0.109375 1.546875,0.109375 2.5625,0.109375 3.125,-1.34375 3.125,-1.421875 3.125,-1.53125 3.046875,-1.53125 3.015625,-1.53125 2.921875,-1.53125 2.90625,-1.5 2.859375,-1.390625 2.4375,-0.34375 1.90625,-0.109375 1.5625,-0.109375 c -0.203125,0 -0.3125,-0.125 -0.3125,-0.453125 0,-0.25 0.03125,-0.3125 0.0625,-0.484375 z m 0,0" id="id-c69a40e6-5d4c-449f-88b9-12eeee9b5adf"></path> </g> </g> <g style="fill:#0088aa;fill-opacity:1" id="id-8be2ae5c-95ff-4001-b542-5f2b1c6af909"> <g transform="translate(152.31,136.259)" id="g19974" style="fill:#0088aa;fill-opacity:1"> <path style="fill:#0088aa;fill-opacity:1;stroke:none" d="m 0.84375,-0.4375 c -0.015625,0.09375 -0.0625,0.265625 -0.0625,0.28125 0,0.15625 0.125,0.21875 0.234375,0.21875 0.125,0 0.234375,-0.078125 0.28125,-0.140625 0.03125,-0.0625 0.078125,-0.296875 0.125,-0.4375 0.03125,-0.125 0.109375,-0.453125 0.140625,-0.625 0.046875,-0.15625 0.09375,-0.3125 0.125,-0.46875 0.078125,-0.28125 0.09375,-0.34375 0.296875,-0.625 C 2.171875,-2.515625 2.5,-2.875 3.03125,-2.875 c 0.390625,0 0.40625,0.359375 0.40625,0.484375 0,0.421875 -0.296875,1.1875 -0.40625,1.484375 -0.078125,0.203125 -0.109375,0.265625 -0.109375,0.375 0,0.375 0.296875,0.59375 0.65625,0.59375 0.703125,0 1,-0.953125 1,-1.0625 0,-0.09375 -0.078125,-0.09375 -0.109375,-0.09375 -0.09375,0 -0.09375,0.046875 -0.125,0.125 C 4.1875,-0.40625 3.875,-0.125 3.609375,-0.125 c -0.15625,0 -0.1875,-0.09375 -0.1875,-0.25 0,-0.15625 0.046875,-0.25 0.171875,-0.5625 0.078125,-0.21875 0.359375,-0.953125 0.359375,-1.34375 0,-0.671875 -0.53125,-0.796875 -0.90625,-0.796875 -0.578125,0 -0.96875,0.359375 -1.171875,0.640625 -0.046875,-0.484375 -0.453125,-0.640625 -0.75,-0.640625 -0.296875,0 -0.453125,0.21875 -0.546875,0.375 -0.15625,0.265625 -0.25,0.65625 -0.25,0.703125 0,0.078125 0.09375,0.078125 0.125,0.078125 0.09375,0 0.09375,-0.015625 0.140625,-0.203125 0.109375,-0.40625 0.25,-0.75 0.515625,-0.75 0.1875,0 0.234375,0.15625 0.234375,0.34375 0,0.125 -0.0625,0.390625 -0.125,0.578125 -0.046875,0.1875 -0.109375,0.46875 -0.140625,0.625 z m 0,0" id="id-c67668ef-30f2-45ed-b8d3-c536d9c1bc53"></path> </g> </g> </g> </g> <g transform="matrix(0.352778,0,0,0.352778,56.932914,-0.5682913)" ns1:version="1.1.0" ns1:texconverter="pdflatex" ns1:pdfconverter="inkscape" ns1:text="$t_{n+1}$" ns1:preamble="/home/raphael/.config/inkscape/extensions/textext/default_packages.tex" ns1:scale="1.0" ns1:alignment="middle center" ns1:inkscapeversion="1.0.1" ns1:jacobian_sqrt="0.352778" id="g26151" style="fill:#0088aa;fill-opacity:1"> <defs id="id-895f1766-517f-48b4-bd04-c252cfa040aa"></defs> <g id="id-b83d154e-dd5c-4cd5-956a-6c3250598f4b" transform="translate(-148.946,-128.531)" style="fill:#0088aa;fill-opacity:1"> <g style="fill:#0088aa;fill-opacity:1" id="id-ecc3ee35-076f-4d76-bd4f-f4e8c81342c2"> <g transform="translate(148.712,134.765)" id="g26136" style="fill:#0088aa;fill-opacity:1"> <path style="fill:#0088aa;fill-opacity:1;stroke:none" d="m 2.046875,-3.984375 h 0.9375 c 0.203125,0 0.3125,0 0.3125,-0.203125 0,-0.109375 -0.109375,-0.109375 -0.28125,-0.109375 h -0.875 C 2.5,-5.71875 2.546875,-5.90625 2.546875,-5.96875 c 0,-0.171875 -0.125,-0.265625 -0.296875,-0.265625 -0.03125,0 -0.3125,0 -0.390625,0.359375 L 1.46875,-4.296875 h -0.9375 c -0.203125,0 -0.296875,0 -0.296875,0.1875 0,0.125 0.078125,0.125 0.28125,0.125 h 0.875 C 0.671875,-1.15625 0.625,-0.984375 0.625,-0.8125 0.625,-0.265625 1,0.109375 1.546875,0.109375 2.5625,0.109375 3.125,-1.34375 3.125,-1.421875 3.125,-1.53125 3.046875,-1.53125 3.015625,-1.53125 2.921875,-1.53125 2.90625,-1.5 2.859375,-1.390625 2.4375,-0.34375 1.90625,-0.109375 1.5625,-0.109375 c -0.203125,0 -0.3125,-0.125 -0.3125,-0.453125 0,-0.25 0.03125,-0.3125 0.0625,-0.484375 z m 0,0" id="id-04cd1607-8183-4a07-97e4-5e356def2b36"></path> </g> </g> <g style="fill:#0088aa;fill-opacity:1" id="id-9a8fa07f-81a4-4ed2-b713-9b9955e24c3f"> <g transform="translate(152.31,136.259)" id="g26140" style="fill:#0088aa;fill-opacity:1"> <path style="fill:#0088aa;fill-opacity:1;stroke:none" d="m 0.84375,-0.4375 c -0.015625,0.09375 -0.0625,0.265625 -0.0625,0.28125 0,0.15625 0.125,0.21875 0.234375,0.21875 0.125,0 0.234375,-0.078125 0.28125,-0.140625 0.03125,-0.0625 0.078125,-0.296875 0.125,-0.4375 0.03125,-0.125 0.109375,-0.453125 0.140625,-0.625 0.046875,-0.15625 0.09375,-0.3125 0.125,-0.46875 0.078125,-0.28125 0.09375,-0.34375 0.296875,-0.625 C 2.171875,-2.515625 2.5,-2.875 3.03125,-2.875 c 0.390625,0 0.40625,0.359375 0.40625,0.484375 0,0.421875 -0.296875,1.1875 -0.40625,1.484375 -0.078125,0.203125 -0.109375,0.265625 -0.109375,0.375 0,0.375 0.296875,0.59375 0.65625,0.59375 0.703125,0 1,-0.953125 1,-1.0625 0,-0.09375 -0.078125,-0.09375 -0.109375,-0.09375 -0.09375,0 -0.09375,0.046875 -0.125,0.125 C 4.1875,-0.40625 3.875,-0.125 3.609375,-0.125 c -0.15625,0 -0.1875,-0.09375 -0.1875,-0.25 0,-0.15625 0.046875,-0.25 0.171875,-0.5625 0.078125,-0.21875 0.359375,-0.953125 0.359375,-1.34375 0,-0.671875 -0.53125,-0.796875 -0.90625,-0.796875 -0.578125,0 -0.96875,0.359375 -1.171875,0.640625 -0.046875,-0.484375 -0.453125,-0.640625 -0.75,-0.640625 -0.296875,0 -0.453125,0.21875 -0.546875,0.375 -0.15625,0.265625 -0.25,0.65625 -0.25,0.703125 0,0.078125 0.09375,0.078125 0.125,0.078125 0.09375,0 0.09375,-0.015625 0.140625,-0.203125 0.109375,-0.40625 0.25,-0.75 0.515625,-0.75 0.1875,0 0.234375,0.15625 0.234375,0.34375 0,0.125 -0.0625,0.390625 -0.125,0.578125 -0.046875,0.1875 -0.109375,0.46875 -0.140625,0.625 z m 0,0" id="id-6882469f-44ad-487e-a9aa-13d06d2fc293"></path> </g> </g> <g style="fill:#0088aa;fill-opacity:1" id="id-c77a0a50-e53a-4f7c-8b18-0340b6fd46b2"> <g transform="translate(157.235,136.259)" id="g26144" style="fill:#0088aa;fill-opacity:1"> <path style="fill:#0088aa;fill-opacity:1;stroke:none" d="m 3.21875,-1.578125 h 2.140625 c 0.09375,0 0.25,0 0.25,-0.15625 0,-0.1875 -0.15625,-0.1875 -0.25,-0.1875 H 3.21875 V -4.0625 c 0,-0.078125 0,-0.25 -0.15625,-0.25 -0.171875,0 -0.171875,0.15625 -0.171875,0.25 v 2.140625 H 0.75 c -0.09375,0 -0.265625,0 -0.265625,0.171875 0,0.171875 0.15625,0.171875 0.265625,0.171875 H 2.890625 V 0.5625 c 0,0.09375 0,0.265625 0.15625,0.265625 0.171875,0 0.171875,-0.171875 0.171875,-0.265625 z m 0,0" id="id-3a8bf653-ba67-48cb-aba3-c93d6975fe28"></path> </g> <g transform="translate(163.351,136.259)" id="g26147" style="fill:#0088aa;fill-opacity:1"> <path style="fill:#0088aa;fill-opacity:1;stroke:none" d="m 2.328125,-4.4375 c 0,-0.1875 0,-0.1875 -0.203125,-0.1875 -0.453125,0.4375 -1.078125,0.4375 -1.359375,0.4375 v 0.25 c 0.15625,0 0.625,0 1,-0.1875 v 3.546875 c 0,0.234375 0,0.328125 -0.6875,0.328125 H 0.8125 V 0 c 0.125,0 0.984375,-0.03125 1.234375,-0.03125 0.21875,0 1.09375,0.03125 1.25,0.03125 V -0.25 H 3.03125 c -0.703125,0 -0.703125,-0.09375 -0.703125,-0.328125 z m 0,0" id="id-5162a267-fb5c-43b4-85cc-6836c5d9cc60"></path> </g> </g> </g> </g> <g id="g13742" transform="rotate(7.8986207,-105.57581,320.0963)"> <path id="path2620" style="opacity:1;fill:#e6e6e6;fill-opacity:1;fill-rule:nonzero;stroke:#000000;stroke-width:0.176389;stroke-miterlimit:4;stroke-dasharray:none" d="m 18.391688,-21.038313 c 0.06344,-0.0042 0.125778,0.008 0.187031,-0.01119 0.132735,-0.04802 0.200945,-0.122505 0.28839,-0.272293 0.103269,-0.192351 0.09154,-0.325633 0.01705,-0.447591 -0.05388,-0.07408 -0.03956,-0.07462 -0.07789,-0.133828 l -0.805692,-0.698603 -0.251557,-0.226455 c -0.125233,-0.06398 -0.233959,-0.111864 -0.326588,-0.133282 -0.113501,-0.03451 -0.233959,-0.05907 -0.379927,-0.05702 -0.05334,0.02783 -0.09809,0.0352 -0.12155,0.0944 -0.0176,-0.09863 -0.116775,-0.230276 -0.116775,-0.230276 0.0086,-0.009 -0.226456,-0.120867 -0.267927,-0.128916 -0.05921,-0.01282 -0.388522,0.02183 -0.529716,0.04215 -0.140239,0.02128 -0.373652,-0.01501 -0.474875,-0.06726 -0.101769,-0.05211 -1.671136,-0.758218 -1.671136,-0.758218 l -0.463006,-0.209949 c 0,0 -0.665044,-0.33259 -1.364193,-0.6454 -0.951251,-0.447591 -2.0825754,-0.881404 -2.974075,-1.279476 -0.2579688,-0.114046 -1.0418336,-0.502977 -1.0418336,-0.502977 -0.1364192,-0.101223 -0.3095352,-0.02619 -0.041472,0.105998 l 1.7734499,0.94593 2.0574747,1.133917 c 0,0 1.28316,0.719475 1.454775,0.806783 0.170524,0.08744 1.140328,0.583602 1.140328,0.583602 l 0.723704,0.364512 c 0.08417,0.0532 0.17107,0.118275 0.261652,0.214178 0.240235,0.260561 0.400117,0.550997 0.599425,0.650583 0.06125,0.0352 0.275567,0.04584 0.43013,0.03629 -0.02237,0.05921 -0.06139,0.122095 -0.03942,0.164658 0.05539,0.08472 0.04788,0.151834 0.395889,0.328224 0.103405,0.04638 0.209403,0.09699 0.308034,0.129053 0.05375,0.01432 0.09427,0.01651 0.237642,0.03411 z"></path> <path id="path2626" style="opacity:1;fill:#000000;fill-opacity:1;fill-rule:nonzero;stroke:none;stroke-width:0.352777" d="m 17.84715,-22.487097 c -0.003,0.02217 0.02476,-0.04444 0.03389,-0.05357 0.03979,-0.04371 0.08405,-0.0747 0.155238,-0.09249 0.07152,-0.01707 0.297005,-0.04208 0.549786,0.09413 0.251697,0.136086 0.258667,0.269345 0.284703,0.342974 0.02493,0.07364 0.01052,0.09192 0.01597,0.110661 0.0083,0.02619 8.59e-4,0.03976 -0.0017,0.05775 0,0 1.58e-4,0.01827 -0.0039,0.02592 -0.01261,0.02535 -0.01678,0.0393 -0.03726,0.05909 -0.101319,0.103778 -0.09376,0.09873 -0.205021,0.120114 -0.03279,0.006 -0.06462,0.01675 -0.0985,0.01775 -0.03709,0.0014 -0.02965,-0.0037 -0.110995,-0.014 -0.130696,-0.01581 -0.157081,-0.02411 -0.23512,-0.07478 -0.04636,-0.03089 -0.06289,-0.0462 -0.0925,-0.0881 -0.02146,-0.02767 -0.07351,-0.09942 -0.117721,-0.159176 -0.08465,-0.115093 -0.120324,-0.173881 -0.137867,-0.23269 -0.01983,-0.06661 0.0049,-0.158144 -1.1e-4,-0.11368 z"></path> <path id="path2628" style="opacity:1;fill:#000000;fill-opacity:1;fill-rule:nonzero;stroke:none;stroke-width:0.352777" d="m 17.31126,-21.330231 c 0.01333,-0.0168 -0.0145,0.04976 -0.0142,0.06337 -0.0026,0.05832 0.0054,0.111814 0.0432,0.173964 0.03879,0.06291 0.179261,0.241357 0.453336,0.324928 0.274742,0.08372 0.373529,-0.0057 0.443821,-0.03854 0.07012,-0.03402 0.07366,-0.05824 0.09066,-0.06658 0.02505,-0.01261 0.02905,-0.02864 0.04016,-0.04201 0,0 0.01268,-0.01374 0.01557,-0.02177 0.0088,-0.02531 0.0156,-0.0392 0.01615,-0.06741 0.0026,-0.143859 0.0041,-0.135865 -0.05939,-0.230338 -0.01963,-0.02809 -0.03334,-0.05839 -0.0566,-0.08196 -0.02543,-0.02836 -0.02387,-0.01812 -0.08788,-0.07014 -0.10309,-0.08052 -0.129031,-0.0942 -0.219831,-0.113198 -0.05415,-0.01166 -0.0756,-0.01311 -0.12767,-0.0046 -0.03421,0.0046 -0.121746,0.01844 -0.194226,0.02907 -0.143502,0.02032 -0.208489,0.03633 -0.263197,0.06488 -0.06208,0.03296 -0.108867,0.116105 -0.07995,0.08033 z"></path> </g> <g id="g4068" transform="matrix(1,0,0,-1,31.817302,-30.105142)"> <path id="path4062" style="opacity:1;fill:#e6e6e6;fill-opacity:1;fill-rule:nonzero;stroke:#000000;stroke-width:0.176389;stroke-miterlimit:4;stroke-dasharray:none" d="m 18.391688,-21.038313 c 0.06344,-0.0042 0.125778,0.008 0.187031,-0.01119 0.132735,-0.04802 0.200945,-0.122505 0.28839,-0.272293 0.103269,-0.192351 0.09154,-0.325633 0.01705,-0.447591 -0.05388,-0.07408 -0.03956,-0.07462 -0.07789,-0.133828 l -0.805692,-0.698603 -0.251557,-0.226455 c -0.125233,-0.06398 -0.233959,-0.111864 -0.326588,-0.133282 -0.113501,-0.03451 -0.233959,-0.05907 -0.379927,-0.05702 -0.05334,0.02783 -0.09809,0.0352 -0.12155,0.0944 -0.0176,-0.09863 -0.116775,-0.230276 -0.116775,-0.230276 0.0086,-0.009 -0.226456,-0.120867 -0.267927,-0.128916 -0.05921,-0.01282 -0.388522,0.02183 -0.529716,0.04215 -0.140239,0.02128 -0.373652,-0.01501 -0.474875,-0.06726 -0.101769,-0.05211 -1.671136,-0.758218 -1.671136,-0.758218 l -0.463006,-0.209949 c 0,0 -0.665044,-0.33259 -1.364193,-0.6454 -0.951251,-0.447591 -2.0825754,-0.881404 -2.974075,-1.279476 -0.2579688,-0.114046 -1.0418336,-0.502977 -1.0418336,-0.502977 -0.1364192,-0.101223 -0.3095352,-0.02619 -0.041472,0.105998 l 1.7734499,0.94593 2.0574747,1.133917 c 0,0 1.28316,0.719475 1.454775,0.806783 0.170524,0.08744 1.140328,0.583602 1.140328,0.583602 l 0.723704,0.364512 c 0.08417,0.0532 0.17107,0.118275 0.261652,0.214178 0.240235,0.260561 0.400117,0.550997 0.599425,0.650583 0.06125,0.0352 0.275567,0.04584 0.43013,0.03629 -0.02237,0.05921 -0.06139,0.122095 -0.03942,0.164658 0.05539,0.08472 0.04788,0.151834 0.395889,0.328224 0.103405,0.04638 0.209403,0.09699 0.308034,0.129053 0.05375,0.01432 0.09427,0.01651 0.237642,0.03411 z"></path> <path id="path4064" style="opacity:1;fill:#000000;fill-opacity:1;fill-rule:nonzero;stroke:none;stroke-width:0.352777" d="m 17.84715,-22.487097 c -0.003,0.02217 0.02476,-0.04444 0.03389,-0.05357 0.03979,-0.04371 0.08405,-0.0747 0.155238,-0.09249 0.07152,-0.01707 0.297005,-0.04208 0.549786,0.09413 0.251697,0.136086 0.258667,0.269345 0.284703,0.342974 0.02493,0.07364 0.01052,0.09192 0.01597,0.110661 0.0083,0.02619 8.59e-4,0.03976 -0.0017,0.05775 0,0 1.58e-4,0.01827 -0.0039,0.02592 -0.01261,0.02535 -0.01678,0.0393 -0.03726,0.05909 -0.101319,0.103778 -0.09376,0.09873 -0.205021,0.120114 -0.03279,0.006 -0.06462,0.01675 -0.0985,0.01775 -0.03709,0.0014 -0.02965,-0.0037 -0.110995,-0.014 -0.130696,-0.01581 -0.157081,-0.02411 -0.23512,-0.07478 -0.04636,-0.03089 -0.06289,-0.0462 -0.0925,-0.0881 -0.02146,-0.02767 -0.07351,-0.09942 -0.117721,-0.159176 -0.08465,-0.115093 -0.120324,-0.173881 -0.137867,-0.23269 -0.01983,-0.06661 0.0049,-0.158144 -1.1e-4,-0.11368 z"></path> <path id="path4066" style="opacity:1;fill:#000000;fill-opacity:1;fill-rule:nonzero;stroke:none;stroke-width:0.352777" d="m 17.31126,-21.330231 c 0.01333,-0.0168 -0.0145,0.04976 -0.0142,0.06337 -0.0026,0.05832 0.0054,0.111814 0.0432,0.173964 0.03879,0.06291 0.179261,0.241357 0.453336,0.324928 0.274742,0.08372 0.373529,-0.0057 0.443821,-0.03854 0.07012,-0.03402 0.07366,-0.05824 0.09066,-0.06658 0.02505,-0.01261 0.02905,-0.02864 0.04016,-0.04201 0,0 0.01268,-0.01374 0.01557,-0.02177 0.0088,-0.02531 0.0156,-0.0392 0.01615,-0.06741 0.0026,-0.143859 0.0041,-0.135865 -0.05939,-0.230338 -0.01963,-0.02809 -0.03334,-0.05839 -0.0566,-0.08196 -0.02543,-0.02836 -0.02387,-0.01812 -0.08788,-0.07014 -0.10309,-0.08052 -0.129031,-0.0942 -0.219831,-0.113198 -0.05415,-0.01166 -0.0756,-0.01311 -0.12767,-0.0046 -0.03421,0.0046 -0.121746,0.01844 -0.194226,0.02907 -0.143502,0.02032 -0.208489,0.03633 -0.263197,0.06488 -0.06208,0.03296 -0.108867,0.116105 -0.07995,0.08033 z"></path> </g> <circle style="fill:#672178;fill-opacity:1;stroke:none;stroke-width:0.264583;stroke-linecap:round;stroke-miterlimit:4;stroke-dasharray:none;stroke-dashoffset:0;stroke-opacity:1" id="path7675" cx="48.098209" cy="-7.5406666" r="0.36314368"></circle> <circle style="fill:#672178;fill-opacity:1;stroke:none;stroke-width:0.264583;stroke-linecap:round;stroke-miterlimit:4;stroke-dasharray:none;stroke-dashoffset:0;stroke-opacity:1" id="circle7677" cx="62.303276" cy="-2.5486219" r="0.36314368"></circle> <g id="g4076" transform="matrix(0.97480428,-0.22306189,-0.22306189,-0.97480428,13.351235,-20.980957)" style="opacity:0.4"> <path id="path4070" style="opacity:1;fill:#e6e6e6;fill-opacity:1;fill-rule:nonzero;stroke:#000000;stroke-width:0.176389;stroke-miterlimit:4;stroke-dasharray:none" d="m 18.391688,-21.038313 c 0.06344,-0.0042 0.125778,0.008 0.187031,-0.01119 0.132735,-0.04802 0.200945,-0.122505 0.28839,-0.272293 0.103269,-0.192351 0.09154,-0.325633 0.01705,-0.447591 -0.05388,-0.07408 -0.03956,-0.07462 -0.07789,-0.133828 l -0.805692,-0.698603 -0.251557,-0.226455 c -0.125233,-0.06398 -0.233959,-0.111864 -0.326588,-0.133282 -0.113501,-0.03451 -0.233959,-0.05907 -0.379927,-0.05702 -0.05334,0.02783 -0.09809,0.0352 -0.12155,0.0944 -0.0176,-0.09863 -0.116775,-0.230276 -0.116775,-0.230276 0.0086,-0.009 -0.226456,-0.120867 -0.267927,-0.128916 -0.05921,-0.01282 -0.388522,0.02183 -0.529716,0.04215 -0.140239,0.02128 -0.373652,-0.01501 -0.474875,-0.06726 -0.101769,-0.05211 -1.671136,-0.758218 -1.671136,-0.758218 l -0.463006,-0.209949 c 0,0 -0.665044,-0.33259 -1.364193,-0.6454 -0.951251,-0.447591 -2.0825754,-0.881404 -2.974075,-1.279476 -0.2579688,-0.114046 -1.0418336,-0.502977 -1.0418336,-0.502977 -0.1364192,-0.101223 -0.3095352,-0.02619 -0.041472,0.105998 l 1.7734499,0.94593 2.0574747,1.133917 c 0,0 1.28316,0.719475 1.454775,0.806783 0.170524,0.08744 1.140328,0.583602 1.140328,0.583602 l 0.723704,0.364512 c 0.08417,0.0532 0.17107,0.118275 0.261652,0.214178 0.240235,0.260561 0.400117,0.550997 0.599425,0.650583 0.06125,0.0352 0.275567,0.04584 0.43013,0.03629 -0.02237,0.05921 -0.06139,0.122095 -0.03942,0.164658 0.05539,0.08472 0.04788,0.151834 0.395889,0.328224 0.103405,0.04638 0.209403,0.09699 0.308034,0.129053 0.05375,0.01432 0.09427,0.01651 0.237642,0.03411 z"></path> <path id="path4072" style="opacity:1;fill:#000000;fill-opacity:1;fill-rule:nonzero;stroke:none;stroke-width:0.352777" d="m 17.84715,-22.487097 c -0.003,0.02217 0.02476,-0.04444 0.03389,-0.05357 0.03979,-0.04371 0.08405,-0.0747 0.155238,-0.09249 0.07152,-0.01707 0.297005,-0.04208 0.549786,0.09413 0.251697,0.136086 0.258667,0.269345 0.284703,0.342974 0.02493,0.07364 0.01052,0.09192 0.01597,0.110661 0.0083,0.02619 8.59e-4,0.03976 -0.0017,0.05775 0,0 1.58e-4,0.01827 -0.0039,0.02592 -0.01261,0.02535 -0.01678,0.0393 -0.03726,0.05909 -0.101319,0.103778 -0.09376,0.09873 -0.205021,0.120114 -0.03279,0.006 -0.06462,0.01675 -0.0985,0.01775 -0.03709,0.0014 -0.02965,-0.0037 -0.110995,-0.014 -0.130696,-0.01581 -0.157081,-0.02411 -0.23512,-0.07478 -0.04636,-0.03089 -0.06289,-0.0462 -0.0925,-0.0881 -0.02146,-0.02767 -0.07351,-0.09942 -0.117721,-0.159176 -0.08465,-0.115093 -0.120324,-0.173881 -0.137867,-0.23269 -0.01983,-0.06661 0.0049,-0.158144 -1.1e-4,-0.11368 z"></path> <path id="path4074" style="opacity:1;fill:#000000;fill-opacity:1;fill-rule:nonzero;stroke:none;stroke-width:0.352777" d="m 17.31126,-21.330231 c 0.01333,-0.0168 -0.0145,0.04976 -0.0142,0.06337 -0.0026,0.05832 0.0054,0.111814 0.0432,0.173964 0.03879,0.06291 0.179261,0.241357 0.453336,0.324928 0.274742,0.08372 0.373529,-0.0057 0.443821,-0.03854 0.07012,-0.03402 0.07366,-0.05824 0.09066,-0.06658 0.02505,-0.01261 0.02905,-0.02864 0.04016,-0.04201 0,0 0.01268,-0.01374 0.01557,-0.02177 0.0088,-0.02531 0.0156,-0.0392 0.01615,-0.06741 0.0026,-0.143859 0.0041,-0.135865 -0.05939,-0.230338 -0.01963,-0.02809 -0.03334,-0.05839 -0.0566,-0.08196 -0.02543,-0.02836 -0.02387,-0.01812 -0.08788,-0.07014 -0.10309,-0.08052 -0.129031,-0.0942 -0.219831,-0.113198 -0.05415,-0.01166 -0.0756,-0.01311 -0.12767,-0.0046 -0.03421,0.0046 -0.121746,0.01844 -0.194226,0.02907 -0.143502,0.02032 -0.208489,0.03633 -0.263197,0.06488 -0.06208,0.03296 -0.108867,0.116105 -0.07995,0.08033 z"></path> </g> <g id="g4084" transform="matrix(0.73991868,0.67269632,0.67269632,-0.73991868,76.236746,-24.402196)" style="opacity:0.4"> <path id="path4078" style="opacity:1;fill:#e6e6e6;fill-opacity:1;fill-rule:nonzero;stroke:#000000;stroke-width:0.176389;stroke-miterlimit:4;stroke-dasharray:none" d="m 18.391688,-21.038313 c 0.06344,-0.0042 0.125778,0.008 0.187031,-0.01119 0.132735,-0.04802 0.200945,-0.122505 0.28839,-0.272293 0.103269,-0.192351 0.09154,-0.325633 0.01705,-0.447591 -0.05388,-0.07408 -0.03956,-0.07462 -0.07789,-0.133828 l -0.805692,-0.698603 -0.251557,-0.226455 c -0.125233,-0.06398 -0.233959,-0.111864 -0.326588,-0.133282 -0.113501,-0.03451 -0.233959,-0.05907 -0.379927,-0.05702 -0.05334,0.02783 -0.09809,0.0352 -0.12155,0.0944 -0.0176,-0.09863 -0.116775,-0.230276 -0.116775,-0.230276 0.0086,-0.009 -0.226456,-0.120867 -0.267927,-0.128916 -0.05921,-0.01282 -0.388522,0.02183 -0.529716,0.04215 -0.140239,0.02128 -0.373652,-0.01501 -0.474875,-0.06726 -0.101769,-0.05211 -1.671136,-0.758218 -1.671136,-0.758218 l -0.463006,-0.209949 c 0,0 -0.665044,-0.33259 -1.364193,-0.6454 -0.951251,-0.447591 -2.0825754,-0.881404 -2.974075,-1.279476 -0.2579688,-0.114046 -1.0418336,-0.502977 -1.0418336,-0.502977 -0.1364192,-0.101223 -0.3095352,-0.02619 -0.041472,0.105998 l 1.7734499,0.94593 2.0574747,1.133917 c 0,0 1.28316,0.719475 1.454775,0.806783 0.170524,0.08744 1.140328,0.583602 1.140328,0.583602 l 0.723704,0.364512 c 0.08417,0.0532 0.17107,0.118275 0.261652,0.214178 0.240235,0.260561 0.400117,0.550997 0.599425,0.650583 0.06125,0.0352 0.275567,0.04584 0.43013,0.03629 -0.02237,0.05921 -0.06139,0.122095 -0.03942,0.164658 0.05539,0.08472 0.04788,0.151834 0.395889,0.328224 0.103405,0.04638 0.209403,0.09699 0.308034,0.129053 0.05375,0.01432 0.09427,0.01651 0.237642,0.03411 z"></path> <path id="path4080" style="opacity:1;fill:#000000;fill-opacity:1;fill-rule:nonzero;stroke:none;stroke-width:0.352777" d="m 17.84715,-22.487097 c -0.003,0.02217 0.02476,-0.04444 0.03389,-0.05357 0.03979,-0.04371 0.08405,-0.0747 0.155238,-0.09249 0.07152,-0.01707 0.297005,-0.04208 0.549786,0.09413 0.251697,0.136086 0.258667,0.269345 0.284703,0.342974 0.02493,0.07364 0.01052,0.09192 0.01597,0.110661 0.0083,0.02619 8.59e-4,0.03976 -0.0017,0.05775 0,0 1.58e-4,0.01827 -0.0039,0.02592 -0.01261,0.02535 -0.01678,0.0393 -0.03726,0.05909 -0.101319,0.103778 -0.09376,0.09873 -0.205021,0.120114 -0.03279,0.006 -0.06462,0.01675 -0.0985,0.01775 -0.03709,0.0014 -0.02965,-0.0037 -0.110995,-0.014 -0.130696,-0.01581 -0.157081,-0.02411 -0.23512,-0.07478 -0.04636,-0.03089 -0.06289,-0.0462 -0.0925,-0.0881 -0.02146,-0.02767 -0.07351,-0.09942 -0.117721,-0.159176 -0.08465,-0.115093 -0.120324,-0.173881 -0.137867,-0.23269 -0.01983,-0.06661 0.0049,-0.158144 -1.1e-4,-0.11368 z"></path> <path id="path4082" style="opacity:1;fill:#000000;fill-opacity:1;fill-rule:nonzero;stroke:none;stroke-width:0.352777" d="m 17.31126,-21.330231 c 0.01333,-0.0168 -0.0145,0.04976 -0.0142,0.06337 -0.0026,0.05832 0.0054,0.111814 0.0432,0.173964 0.03879,0.06291 0.179261,0.241357 0.453336,0.324928 0.274742,0.08372 0.373529,-0.0057 0.443821,-0.03854 0.07012,-0.03402 0.07366,-0.05824 0.09066,-0.06658 0.02505,-0.01261 0.02905,-0.02864 0.04016,-0.04201 0,0 0.01268,-0.01374 0.01557,-0.02177 0.0088,-0.02531 0.0156,-0.0392 0.01615,-0.06741 0.0026,-0.143859 0.0041,-0.135865 -0.05939,-0.230338 -0.01963,-0.02809 -0.03334,-0.05839 -0.0566,-0.08196 -0.02543,-0.02836 -0.02387,-0.01812 -0.08788,-0.07014 -0.10309,-0.08052 -0.129031,-0.0942 -0.219831,-0.113198 -0.05415,-0.01166 -0.0756,-0.01311 -0.12767,-0.0046 -0.03421,0.0046 -0.121746,0.01844 -0.194226,0.02907 -0.143502,0.02032 -0.208489,0.03633 -0.263197,0.06488 -0.06208,0.03296 -0.108867,0.116105 -0.07995,0.08033 z"></path> </g> <g id="path8615"> <path style="color:#000000;fill:#672178;-inkscape-stroke:none" d="m 62.279297,-2.65625 -0.144531,0.2226562 5.33789,3.4746094 0.144531,-0.22265622 z" id="path1057"></path> <g id="g1045"> <g id="path1047"> <path style="color:#000000;fill:#672178;fill-rule:evenodd;stroke-width:0.106pt;-inkscape-stroke:none" d="M 66.657115,0.35106804 65.923797,0.5061341 67.767594,1.0738823 66.502048,-0.38224939 Z" id="path1051"></path> <path style="color:#000000;fill:#672178;fill-rule:evenodd;-inkscape-stroke:none" d="M 66.376953,-0.63476562 66.574219,0.296875 65.642578,0.49414063 67.982422,1.2148437 Z m 0.25,0.50390625 0.923828,1.06445312 L 66.205078,0.51953125 66.740234,0.40625 66.726562,0.3359375 Z" id="path1053"></path> </g> </g> </g> <g transform="matrix(0.352778,0,0,0.352778,48.758859,-13.756905)" ns1:version="1.2.0" ns1:texconverter="pdflatex" ns1:pdfconverter="inkscape" ns1:text="$\vec{r}_{n}$" ns1:preamble="/home/guillaume/.config/inkscape/extensions/textext/default_packages.tex" ns1:scale="1.0" ns1:alignment="middle center" ns1:inkscapeversion="1.1" ns1:jacobian_sqrt="0.352778" id="g19310" style="fill:#672178;fill-opacity:1"> <defs id="id-a375586e-1651-4e41-9eae-d9dfc9370ef1"> <g id="id-47cef3a7-9c42-4a9a-9bd1-8cd21b3fdbec"> <symbol overflow="visible" id="id-fe1d8fbe-7bba-4549-a6ea-0a776f269587"> <path style="stroke:none;stroke-width:0" d="" id="id-9a373124-e844-4d73-96ab-80db5a74c418"></path> </symbol> <symbol overflow="visible" id="id-55601442-a5ad-4c9a-81fa-8bb8a024a470"> <path style="stroke:none;stroke-width:0" d="m 5.359375,-5.9375 c -0.140625,0.140625 -0.46875,0.421875 -0.46875,0.59375 0,0.09375 0.09375,0.203125 0.1875,0.203125 0.09375,0 0.140625,-0.078125 0.203125,-0.140625 C 5.390625,-5.421875 5.625,-5.703125 6.0625,-5.921875 6.125,-5.96875 6.234375,-6.015625 6.234375,-6.125 6.234375,-6.234375 6.15625,-6.28125 6.09375,-6.328125 5.875,-6.484375 5.765625,-6.65625 5.6875,-6.890625 5.65625,-6.984375 5.625,-7.125 5.484375,-7.125 c -0.140625,0 -0.203125,0.140625 -0.203125,0.21875 0,0.046875 0.078125,0.359375 0.234375,0.578125 H 2.15625 c -0.15625,0 -0.34375,0 -0.34375,0.203125 0,0.1875 0.1875,0.1875 0.34375,0.1875 z m 0,0" id="id-d8243e75-2cb8-4611-917e-43741949667a"></path> </symbol> <symbol overflow="visible" id="id-221c14d6-3b8e-485e-b8db-e2b5e202fd08"> <path style="stroke:none;stroke-width:0" d="m 0.875,-0.59375 c -0.03125,0.15625 -0.09375,0.390625 -0.09375,0.4375 0,0.171875 0.140625,0.265625 0.296875,0.265625 0.125,0 0.296875,-0.078125 0.375,-0.28125 C 1.46875,-0.203125 1.796875,-1.5625 1.84375,-1.75 c 0.078125,-0.328125 0.265625,-1.015625 0.3125,-1.296875 0.046875,-0.125 0.328125,-0.59375 0.5625,-0.8125 0.078125,-0.0625 0.375,-0.328125 0.796875,-0.328125 0.265625,0 0.40625,0.125 0.421875,0.125 -0.296875,0.046875 -0.515625,0.28125 -0.515625,0.546875 0,0.15625 0.109375,0.34375 0.375,0.34375 0.265625,0 0.546875,-0.234375 0.546875,-0.59375 0,-0.34375 -0.3125,-0.640625 -0.828125,-0.640625 C 2.875,-4.40625 2.4375,-3.921875 2.25,-3.640625 2.15625,-4.09375 1.796875,-4.40625 1.328125,-4.40625 0.875,-4.40625 0.6875,-4.015625 0.59375,-3.84375 0.421875,-3.5 0.296875,-2.90625 0.296875,-2.875 c 0,0.109375 0.09375,0.109375 0.109375,0.109375 0.109375,0 0.109375,-0.015625 0.171875,-0.234375 0.171875,-0.703125 0.375,-1.1875 0.734375,-1.1875 0.15625,0 0.296875,0.078125 0.296875,0.453125 0,0.21875 -0.03125,0.328125 -0.15625,0.84375 z m 0,0" id="id-d3d8b4f8-9c03-41b6-a0df-abfd22f669eb"></path> </symbol> <symbol overflow="visible" id="id-7db8a7ae-da0d-46ac-9a0c-7547b69ec4b5"> <path style="stroke:none;stroke-width:0" d="" id="id-9b00ef33-4594-4749-988a-023901052079"></path> </symbol> <symbol overflow="visible" id="id-f87d46c6-8283-4123-9f51-0b0bac3505a9"> <path style="stroke:none;stroke-width:0" d="m 0.84375,-0.4375 c -0.015625,0.09375 -0.0625,0.265625 -0.0625,0.28125 0,0.15625 0.125,0.21875 0.234375,0.21875 0.125,0 0.234375,-0.078125 0.28125,-0.140625 0.03125,-0.0625 0.078125,-0.296875 0.125,-0.4375 0.03125,-0.125 0.109375,-0.453125 0.140625,-0.625 0.046875,-0.15625 0.09375,-0.3125 0.125,-0.46875 0.078125,-0.28125 0.09375,-0.34375 0.296875,-0.625 C 2.171875,-2.515625 2.5,-2.875 3.03125,-2.875 c 0.390625,0 0.40625,0.359375 0.40625,0.484375 0,0.421875 -0.296875,1.1875 -0.40625,1.484375 -0.078125,0.203125 -0.109375,0.265625 -0.109375,0.375 0,0.375 0.296875,0.59375 0.65625,0.59375 0.703125,0 1,-0.953125 1,-1.0625 0,-0.09375 -0.078125,-0.09375 -0.109375,-0.09375 -0.09375,0 -0.09375,0.046875 -0.125,0.125 C 4.1875,-0.40625 3.875,-0.125 3.609375,-0.125 c -0.15625,0 -0.1875,-0.09375 -0.1875,-0.25 0,-0.15625 0.046875,-0.25 0.171875,-0.5625 0.078125,-0.21875 0.359375,-0.953125 0.359375,-1.34375 0,-0.671875 -0.53125,-0.796875 -0.90625,-0.796875 -0.578125,0 -0.96875,0.359375 -1.171875,0.640625 -0.046875,-0.484375 -0.453125,-0.640625 -0.75,-0.640625 -0.296875,0 -0.453125,0.21875 -0.546875,0.375 -0.15625,0.265625 -0.25,0.65625 -0.25,0.703125 0,0.078125 0.09375,0.078125 0.125,0.078125 0.09375,0 0.09375,-0.015625 0.140625,-0.203125 0.109375,-0.40625 0.25,-0.75 0.515625,-0.75 0.1875,0 0.234375,0.15625 0.234375,0.34375 0,0.125 -0.0625,0.390625 -0.125,0.578125 -0.046875,0.1875 -0.109375,0.46875 -0.140625,0.625 z m 0,0" id="id-8701b741-e0e6-477b-83b8-6a05bfb891de"></path> </symbol> </g> </defs> <g id="id-d2aec226-4ded-4ad8-81d4-8767f26dfabf" transform="translate(-149.011,-127.64)" style="fill:#672178;fill-opacity:1"> <g style="fill:#672178;fill-opacity:1" id="id-d3fb13c4-f424-4baa-8e71-1cc226d427f0"> <g transform="translate(148.395,134.765)" id="g19298" style="fill:#672178;fill-opacity:1"> <path style="fill:#672178;fill-opacity:1;stroke:none;stroke-width:0" d="m 5.359375,-5.9375 c -0.140625,0.140625 -0.46875,0.421875 -0.46875,0.59375 0,0.09375 0.09375,0.203125 0.1875,0.203125 0.09375,0 0.140625,-0.078125 0.203125,-0.140625 C 5.390625,-5.421875 5.625,-5.703125 6.0625,-5.921875 6.125,-5.96875 6.234375,-6.015625 6.234375,-6.125 6.234375,-6.234375 6.15625,-6.28125 6.09375,-6.328125 5.875,-6.484375 5.765625,-6.65625 5.6875,-6.890625 5.65625,-6.984375 5.625,-7.125 5.484375,-7.125 c -0.140625,0 -0.203125,0.140625 -0.203125,0.21875 0,0.046875 0.078125,0.359375 0.234375,0.578125 H 2.15625 c -0.15625,0 -0.34375,0 -0.34375,0.203125 0,0.1875 0.1875,0.1875 0.34375,0.1875 z m 0,0" id="id-075d349c-e7a3-4558-882b-28c4e2277866"></path> </g> </g> <g style="fill:#672178;fill-opacity:1" id="id-ee62f73c-2857-4412-9117-e1b5426514eb"> <g transform="translate(148.714,134.765)" id="g19302" style="fill:#672178;fill-opacity:1"> <path style="fill:#672178;fill-opacity:1;stroke:none;stroke-width:0" d="m 0.875,-0.59375 c -0.03125,0.15625 -0.09375,0.390625 -0.09375,0.4375 0,0.171875 0.140625,0.265625 0.296875,0.265625 0.125,0 0.296875,-0.078125 0.375,-0.28125 C 1.46875,-0.203125 1.796875,-1.5625 1.84375,-1.75 c 0.078125,-0.328125 0.265625,-1.015625 0.3125,-1.296875 0.046875,-0.125 0.328125,-0.59375 0.5625,-0.8125 0.078125,-0.0625 0.375,-0.328125 0.796875,-0.328125 0.265625,0 0.40625,0.125 0.421875,0.125 -0.296875,0.046875 -0.515625,0.28125 -0.515625,0.546875 0,0.15625 0.109375,0.34375 0.375,0.34375 0.265625,0 0.546875,-0.234375 0.546875,-0.59375 0,-0.34375 -0.3125,-0.640625 -0.828125,-0.640625 C 2.875,-4.40625 2.4375,-3.921875 2.25,-3.640625 2.15625,-4.09375 1.796875,-4.40625 1.328125,-4.40625 0.875,-4.40625 0.6875,-4.015625 0.59375,-3.84375 0.421875,-3.5 0.296875,-2.90625 0.296875,-2.875 c 0,0.109375 0.09375,0.109375 0.109375,0.109375 0.109375,0 0.109375,-0.015625 0.171875,-0.234375 0.171875,-0.703125 0.375,-1.1875 0.734375,-1.1875 0.15625,0 0.296875,0.078125 0.296875,0.453125 0,0.21875 -0.03125,0.328125 -0.15625,0.84375 z m 0,0" id="id-0d402406-27d0-4afc-8de6-6ca54a2be5d0"></path> </g> </g> <g style="fill:#672178;fill-opacity:1" id="id-130299cf-cda8-40ab-862c-397503e2ee25"> <g transform="translate(153.207,136.259)" id="g19306" style="fill:#672178;fill-opacity:1"> <path style="fill:#672178;fill-opacity:1;stroke:none;stroke-width:0" d="m 0.84375,-0.4375 c -0.015625,0.09375 -0.0625,0.265625 -0.0625,0.28125 0,0.15625 0.125,0.21875 0.234375,0.21875 0.125,0 0.234375,-0.078125 0.28125,-0.140625 0.03125,-0.0625 0.078125,-0.296875 0.125,-0.4375 0.03125,-0.125 0.109375,-0.453125 0.140625,-0.625 0.046875,-0.15625 0.09375,-0.3125 0.125,-0.46875 0.078125,-0.28125 0.09375,-0.34375 0.296875,-0.625 C 2.171875,-2.515625 2.5,-2.875 3.03125,-2.875 c 0.390625,0 0.40625,0.359375 0.40625,0.484375 0,0.421875 -0.296875,1.1875 -0.40625,1.484375 -0.078125,0.203125 -0.109375,0.265625 -0.109375,0.375 0,0.375 0.296875,0.59375 0.65625,0.59375 0.703125,0 1,-0.953125 1,-1.0625 0,-0.09375 -0.078125,-0.09375 -0.109375,-0.09375 -0.09375,0 -0.09375,0.046875 -0.125,0.125 C 4.1875,-0.40625 3.875,-0.125 3.609375,-0.125 c -0.15625,0 -0.1875,-0.09375 -0.1875,-0.25 0,-0.15625 0.046875,-0.25 0.171875,-0.5625 0.078125,-0.21875 0.359375,-0.953125 0.359375,-1.34375 0,-0.671875 -0.53125,-0.796875 -0.90625,-0.796875 -0.578125,0 -0.96875,0.359375 -1.171875,0.640625 -0.046875,-0.484375 -0.453125,-0.640625 -0.75,-0.640625 -0.296875,0 -0.453125,0.21875 -0.546875,0.375 -0.15625,0.265625 -0.25,0.65625 -0.25,0.703125 0,0.078125 0.09375,0.078125 0.125,0.078125 0.09375,0 0.09375,-0.015625 0.140625,-0.203125 0.109375,-0.40625 0.25,-0.75 0.515625,-0.75 0.1875,0 0.234375,0.15625 0.234375,0.34375 0,0.125 -0.0625,0.390625 -0.125,0.578125 -0.046875,0.1875 -0.109375,0.46875 -0.140625,0.625 z m 0,0" id="id-4faa5b08-76e3-41da-9cc1-f463ec6ae37e"></path> </g> </g> </g> </g> <g transform="matrix(0.352778,0,0,0.352778,65.635729,-4.768398)" ns1:version="1.2.0" ns1:texconverter="pdflatex" ns1:pdfconverter="inkscape" ns1:text="$\vec{r}_{n+1}$" ns1:preamble="/home/guillaume/.config/inkscape/extensions/textext/default_packages.tex" ns1:scale="1.0" ns1:alignment="middle center" ns1:inkscapeversion="1.1" ns1:jacobian_sqrt="0.352778" style="fill:#672178;fill-opacity:1;stroke-width:0" id="g22075"> <defs id="id-e4df0c1d-de29-4b0c-a99d-4c6da0edbbe8" style="fill:#672178;fill-opacity:1;stroke-width:0"> <g id="id-fae9c5bd-2c04-4544-9b97-94dba0e2d879" style="fill:#672178;fill-opacity:1;stroke-width:0"> <symbol overflow="visible" id="id-9e65bb35-10c1-4f61-8eb9-2d859cf9cd13" style="fill:#672178;fill-opacity:1;stroke-width:0"> <path style="fill:#672178;fill-opacity:1;stroke:#672178;stroke-width:0" d="" id="id-40ed3221-1265-4329-8d52-66e2a6501dee"></path> </symbol> <symbol overflow="visible" id="id-7a26d027-fb65-493b-98e0-668785b643ea" style="fill:#672178;fill-opacity:1;stroke-width:0"> <path style="fill:#672178;fill-opacity:1;stroke:#672178;stroke-width:0" d="m 5.359375,-5.9375 c -0.140625,0.140625 -0.46875,0.421875 -0.46875,0.59375 0,0.09375 0.09375,0.203125 0.1875,0.203125 0.09375,0 0.140625,-0.078125 0.203125,-0.140625 C 5.390625,-5.421875 5.625,-5.703125 6.0625,-5.921875 6.125,-5.96875 6.234375,-6.015625 6.234375,-6.125 6.234375,-6.234375 6.15625,-6.28125 6.09375,-6.328125 5.875,-6.484375 5.765625,-6.65625 5.6875,-6.890625 5.65625,-6.984375 5.625,-7.125 5.484375,-7.125 c -0.140625,0 -0.203125,0.140625 -0.203125,0.21875 0,0.046875 0.078125,0.359375 0.234375,0.578125 H 2.15625 c -0.15625,0 -0.34375,0 -0.34375,0.203125 0,0.1875 0.1875,0.1875 0.34375,0.1875 z m 0,0" id="id-3e9b0fe5-20f1-49e6-a41b-24924ed92938"></path> </symbol> <symbol overflow="visible" id="id-6f95f5df-f625-4275-8daf-402c9b911041" style="fill:#672178;fill-opacity:1;stroke-width:0"> <path style="fill:#672178;fill-opacity:1;stroke:#672178;stroke-width:0" d="m 0.875,-0.59375 c -0.03125,0.15625 -0.09375,0.390625 -0.09375,0.4375 0,0.171875 0.140625,0.265625 0.296875,0.265625 0.125,0 0.296875,-0.078125 0.375,-0.28125 C 1.46875,-0.203125 1.796875,-1.5625 1.84375,-1.75 c 0.078125,-0.328125 0.265625,-1.015625 0.3125,-1.296875 0.046875,-0.125 0.328125,-0.59375 0.5625,-0.8125 0.078125,-0.0625 0.375,-0.328125 0.796875,-0.328125 0.265625,0 0.40625,0.125 0.421875,0.125 -0.296875,0.046875 -0.515625,0.28125 -0.515625,0.546875 0,0.15625 0.109375,0.34375 0.375,0.34375 0.265625,0 0.546875,-0.234375 0.546875,-0.59375 0,-0.34375 -0.3125,-0.640625 -0.828125,-0.640625 C 2.875,-4.40625 2.4375,-3.921875 2.25,-3.640625 2.15625,-4.09375 1.796875,-4.40625 1.328125,-4.40625 0.875,-4.40625 0.6875,-4.015625 0.59375,-3.84375 0.421875,-3.5 0.296875,-2.90625 0.296875,-2.875 c 0,0.109375 0.09375,0.109375 0.109375,0.109375 0.109375,0 0.109375,-0.015625 0.171875,-0.234375 0.171875,-0.703125 0.375,-1.1875 0.734375,-1.1875 0.15625,0 0.296875,0.078125 0.296875,0.453125 0,0.21875 -0.03125,0.328125 -0.15625,0.84375 z m 0,0" id="id-c5511908-3f38-4ddc-ac39-2892b1d1d9a9"></path> </symbol> <symbol overflow="visible" id="id-72abdd9b-0512-43b9-a807-790698a6fbb7" style="fill:#672178;fill-opacity:1;stroke-width:0"> <path style="fill:#672178;fill-opacity:1;stroke:#672178;stroke-width:0" d="" id="id-f041d358-5c17-45e2-ac58-182bbc404461"></path> </symbol> <symbol overflow="visible" id="id-3288eb2a-b36b-4f0e-a9f5-5ade5be3edcd" style="fill:#672178;fill-opacity:1;stroke-width:0"> <path style="fill:#672178;fill-opacity:1;stroke:#672178;stroke-width:0" d="m 0.84375,-0.4375 c -0.015625,0.09375 -0.0625,0.265625 -0.0625,0.28125 0,0.15625 0.125,0.21875 0.234375,0.21875 0.125,0 0.234375,-0.078125 0.28125,-0.140625 0.03125,-0.0625 0.078125,-0.296875 0.125,-0.4375 0.03125,-0.125 0.109375,-0.453125 0.140625,-0.625 0.046875,-0.15625 0.09375,-0.3125 0.125,-0.46875 0.078125,-0.28125 0.09375,-0.34375 0.296875,-0.625 C 2.171875,-2.515625 2.5,-2.875 3.03125,-2.875 c 0.390625,0 0.40625,0.359375 0.40625,0.484375 0,0.421875 -0.296875,1.1875 -0.40625,1.484375 -0.078125,0.203125 -0.109375,0.265625 -0.109375,0.375 0,0.375 0.296875,0.59375 0.65625,0.59375 0.703125,0 1,-0.953125 1,-1.0625 0,-0.09375 -0.078125,-0.09375 -0.109375,-0.09375 -0.09375,0 -0.09375,0.046875 -0.125,0.125 C 4.1875,-0.40625 3.875,-0.125 3.609375,-0.125 c -0.15625,0 -0.1875,-0.09375 -0.1875,-0.25 0,-0.15625 0.046875,-0.25 0.171875,-0.5625 0.078125,-0.21875 0.359375,-0.953125 0.359375,-1.34375 0,-0.671875 -0.53125,-0.796875 -0.90625,-0.796875 -0.578125,0 -0.96875,0.359375 -1.171875,0.640625 -0.046875,-0.484375 -0.453125,-0.640625 -0.75,-0.640625 -0.296875,0 -0.453125,0.21875 -0.546875,0.375 -0.15625,0.265625 -0.25,0.65625 -0.25,0.703125 0,0.078125 0.09375,0.078125 0.125,0.078125 0.09375,0 0.09375,-0.015625 0.140625,-0.203125 0.109375,-0.40625 0.25,-0.75 0.515625,-0.75 0.1875,0 0.234375,0.15625 0.234375,0.34375 0,0.125 -0.0625,0.390625 -0.125,0.578125 -0.046875,0.1875 -0.109375,0.46875 -0.140625,0.625 z m 0,0" id="id-9f96366d-3141-48ef-985c-44d6ff3d70d7"></path> </symbol> <symbol overflow="visible" id="id-ab757faf-651f-4407-8c44-92eda42ddc1b" style="fill:#672178;fill-opacity:1;stroke-width:0"> <path style="fill:#672178;fill-opacity:1;stroke:#672178;stroke-width:0" d="" id="id-6eb023f0-5ff6-43c7-af48-19b2bf539811"></path> </symbol> <symbol overflow="visible" id="id-4b2fe504-c4b9-4d67-843c-b3b86a103808" style="fill:#672178;fill-opacity:1;stroke-width:0"> <path style="fill:#672178;fill-opacity:1;stroke:#672178;stroke-width:0" d="m 3.21875,-1.578125 h 2.140625 c 0.09375,0 0.25,0 0.25,-0.15625 0,-0.1875 -0.15625,-0.1875 -0.25,-0.1875 H 3.21875 V -4.0625 c 0,-0.078125 0,-0.25 -0.15625,-0.25 -0.171875,0 -0.171875,0.15625 -0.171875,0.25 v 2.140625 H 0.75 c -0.09375,0 -0.265625,0 -0.265625,0.171875 0,0.171875 0.15625,0.171875 0.265625,0.171875 H 2.890625 V 0.5625 c 0,0.09375 0,0.265625 0.15625,0.265625 0.171875,0 0.171875,-0.171875 0.171875,-0.265625 z m 0,0" id="id-6f9da48d-dcbb-4cc5-97ec-c621d3823fe7"></path> </symbol> <symbol overflow="visible" id="id-93bc8b18-ba7b-4b01-b71d-e6d0c7fb2f97" style="fill:#672178;fill-opacity:1;stroke-width:0"> <path style="fill:#672178;fill-opacity:1;stroke:#672178;stroke-width:0" d="m 2.328125,-4.4375 c 0,-0.1875 0,-0.1875 -0.203125,-0.1875 -0.453125,0.4375 -1.078125,0.4375 -1.359375,0.4375 v 0.25 c 0.15625,0 0.625,0 1,-0.1875 v 3.546875 c 0,0.234375 0,0.328125 -0.6875,0.328125 H 0.8125 V 0 c 0.125,0 0.984375,-0.03125 1.234375,-0.03125 0.21875,0 1.09375,0.03125 1.25,0.03125 V -0.25 H 3.03125 c -0.703125,0 -0.703125,-0.09375 -0.703125,-0.328125 z m 0,0" id="id-928c1476-dbbf-4f11-b7e7-2b341782a271"></path> </symbol> </g> </defs> <g id="id-55823bd6-440b-461a-8f11-3ab7898163cd" transform="translate(-149.011,-127.64)" style="fill:#672178;fill-opacity:1;stroke-width:0"> <g style="fill:#672178;fill-opacity:1;stroke-width:0" id="id-c900ea95-2b86-45b4-89e7-c32ed576659a"> <g transform="translate(148.395,134.765)" style="fill:#672178;fill-opacity:1;stroke-width:0" id="g22461"> <path style="fill:#672178;fill-opacity:1;stroke:#672178;stroke-width:0" d="m 5.359375,-5.9375 c -0.140625,0.140625 -0.46875,0.421875 -0.46875,0.59375 0,0.09375 0.09375,0.203125 0.1875,0.203125 0.09375,0 0.140625,-0.078125 0.203125,-0.140625 C 5.390625,-5.421875 5.625,-5.703125 6.0625,-5.921875 6.125,-5.96875 6.234375,-6.015625 6.234375,-6.125 6.234375,-6.234375 6.15625,-6.28125 6.09375,-6.328125 5.875,-6.484375 5.765625,-6.65625 5.6875,-6.890625 5.65625,-6.984375 5.625,-7.125 5.484375,-7.125 c -0.140625,0 -0.203125,0.140625 -0.203125,0.21875 0,0.046875 0.078125,0.359375 0.234375,0.578125 H 2.15625 c -0.15625,0 -0.34375,0 -0.34375,0.203125 0,0.1875 0.1875,0.1875 0.34375,0.1875 z m 0,0" id="id-61adaa5e-5b29-41b9-b815-e7afc595708e"></path> </g> </g> <g style="fill:#672178;fill-opacity:1;stroke-width:0" id="id-1a59fef0-ad9e-4bd0-933b-a65a3c7be72f"> <g transform="translate(148.714,134.765)" style="fill:#672178;fill-opacity:1;stroke-width:0" id="g22465"> <path style="fill:#672178;fill-opacity:1;stroke:#672178;stroke-width:0" d="m 0.875,-0.59375 c -0.03125,0.15625 -0.09375,0.390625 -0.09375,0.4375 0,0.171875 0.140625,0.265625 0.296875,0.265625 0.125,0 0.296875,-0.078125 0.375,-0.28125 C 1.46875,-0.203125 1.796875,-1.5625 1.84375,-1.75 c 0.078125,-0.328125 0.265625,-1.015625 0.3125,-1.296875 0.046875,-0.125 0.328125,-0.59375 0.5625,-0.8125 0.078125,-0.0625 0.375,-0.328125 0.796875,-0.328125 0.265625,0 0.40625,0.125 0.421875,0.125 -0.296875,0.046875 -0.515625,0.28125 -0.515625,0.546875 0,0.15625 0.109375,0.34375 0.375,0.34375 0.265625,0 0.546875,-0.234375 0.546875,-0.59375 0,-0.34375 -0.3125,-0.640625 -0.828125,-0.640625 C 2.875,-4.40625 2.4375,-3.921875 2.25,-3.640625 2.15625,-4.09375 1.796875,-4.40625 1.328125,-4.40625 0.875,-4.40625 0.6875,-4.015625 0.59375,-3.84375 0.421875,-3.5 0.296875,-2.90625 0.296875,-2.875 c 0,0.109375 0.09375,0.109375 0.109375,0.109375 0.109375,0 0.109375,-0.015625 0.171875,-0.234375 0.171875,-0.703125 0.375,-1.1875 0.734375,-1.1875 0.15625,0 0.296875,0.078125 0.296875,0.453125 0,0.21875 -0.03125,0.328125 -0.15625,0.84375 z m 0,0" id="id-456bcd46-30d6-4356-92c5-beb499af0c68"></path> </g> </g> <g style="fill:#672178;fill-opacity:1;stroke-width:0" id="id-3b782120-750a-4e69-b38a-4f8bf91254fa"> <g transform="translate(153.207,136.259)" style="fill:#672178;fill-opacity:1;stroke-width:0" id="g22469"> <path style="fill:#672178;fill-opacity:1;stroke:#672178;stroke-width:0" d="m 0.84375,-0.4375 c -0.015625,0.09375 -0.0625,0.265625 -0.0625,0.28125 0,0.15625 0.125,0.21875 0.234375,0.21875 0.125,0 0.234375,-0.078125 0.28125,-0.140625 0.03125,-0.0625 0.078125,-0.296875 0.125,-0.4375 0.03125,-0.125 0.109375,-0.453125 0.140625,-0.625 0.046875,-0.15625 0.09375,-0.3125 0.125,-0.46875 0.078125,-0.28125 0.09375,-0.34375 0.296875,-0.625 C 2.171875,-2.515625 2.5,-2.875 3.03125,-2.875 c 0.390625,0 0.40625,0.359375 0.40625,0.484375 0,0.421875 -0.296875,1.1875 -0.40625,1.484375 -0.078125,0.203125 -0.109375,0.265625 -0.109375,0.375 0,0.375 0.296875,0.59375 0.65625,0.59375 0.703125,0 1,-0.953125 1,-1.0625 0,-0.09375 -0.078125,-0.09375 -0.109375,-0.09375 -0.09375,0 -0.09375,0.046875 -0.125,0.125 C 4.1875,-0.40625 3.875,-0.125 3.609375,-0.125 c -0.15625,0 -0.1875,-0.09375 -0.1875,-0.25 0,-0.15625 0.046875,-0.25 0.171875,-0.5625 0.078125,-0.21875 0.359375,-0.953125 0.359375,-1.34375 0,-0.671875 -0.53125,-0.796875 -0.90625,-0.796875 -0.578125,0 -0.96875,0.359375 -1.171875,0.640625 -0.046875,-0.484375 -0.453125,-0.640625 -0.75,-0.640625 -0.296875,0 -0.453125,0.21875 -0.546875,0.375 -0.15625,0.265625 -0.25,0.65625 -0.25,0.703125 0,0.078125 0.09375,0.078125 0.125,0.078125 0.09375,0 0.09375,-0.015625 0.140625,-0.203125 0.109375,-0.40625 0.25,-0.75 0.515625,-0.75 0.1875,0 0.234375,0.15625 0.234375,0.34375 0,0.125 -0.0625,0.390625 -0.125,0.578125 -0.046875,0.1875 -0.109375,0.46875 -0.140625,0.625 z m 0,0" id="id-bbf3fc89-5b2d-4c86-82e2-d909bb80b3c1"></path> </g> </g> <g style="fill:#672178;fill-opacity:1;stroke-width:0" id="id-1698ef24-4722-4a5a-b36c-78e705571e00"> <g transform="translate(158.132,136.259)" style="fill:#672178;fill-opacity:1;stroke-width:0" id="g22473"> <path style="fill:#672178;fill-opacity:1;stroke:#672178;stroke-width:0" d="m 3.21875,-1.578125 h 2.140625 c 0.09375,0 0.25,0 0.25,-0.15625 0,-0.1875 -0.15625,-0.1875 -0.25,-0.1875 H 3.21875 V -4.0625 c 0,-0.078125 0,-0.25 -0.15625,-0.25 -0.171875,0 -0.171875,0.15625 -0.171875,0.25 v 2.140625 H 0.75 c -0.09375,0 -0.265625,0 -0.265625,0.171875 0,0.171875 0.15625,0.171875 0.265625,0.171875 H 2.890625 V 0.5625 c 0,0.09375 0,0.265625 0.15625,0.265625 0.171875,0 0.171875,-0.171875 0.171875,-0.265625 z m 0,0" id="id-a29e878f-0ba1-40ba-82d3-35de91c3c59a"></path> </g> <g transform="translate(164.248,136.259)" style="fill:#672178;fill-opacity:1;stroke-width:0" id="g22476"> <path style="fill:#672178;fill-opacity:1;stroke:#672178;stroke-width:0" d="m 2.328125,-4.4375 c 0,-0.1875 0,-0.1875 -0.203125,-0.1875 -0.453125,0.4375 -1.078125,0.4375 -1.359375,0.4375 v 0.25 c 0.15625,0 0.625,0 1,-0.1875 v 3.546875 c 0,0.234375 0,0.328125 -0.6875,0.328125 H 0.8125 V 0 c 0.125,0 0.984375,-0.03125 1.234375,-0.03125 0.21875,0 1.09375,0.03125 1.25,0.03125 V -0.25 H 3.03125 c -0.703125,0 -0.703125,-0.09375 -0.703125,-0.328125 z m 0,0" id="id-c430ec59-b3de-465a-a9ee-411a6ccd807c"></path> </g> </g> </g> </g> <g id="g3451" transform="rotate(-58.915736,50.705855,7.430233)"> <path style="color:#000000;fill:#672178;-inkscape-stroke:none" d="m 62.279297,-2.65625 -0.144531,0.2226562 5.33789,3.4746094 0.144531,-0.22265622 z" id="path3441"></path> <g id="g3449"> <g id="g3447"> <path style="color:#000000;fill:#672178;fill-rule:evenodd;stroke-width:0.106pt;-inkscape-stroke:none" d="M 66.657115,0.35106804 65.923797,0.5061341 67.767594,1.0738823 66.502048,-0.38224939 Z" id="path3443"></path> <path style="color:#000000;fill:#672178;fill-rule:evenodd;-inkscape-stroke:none" d="M 66.376953,-0.63476562 66.574219,0.296875 65.642578,0.49414063 67.982422,1.2148437 Z m 0.25,0.50390625 0.923828,1.06445312 L 66.205078,0.51953125 66.740234,0.40625 66.726562,0.3359375 Z" id="path3445"></path> </g> </g> </g> </g> <g id="g337" style="font-style:normal;font-weight:normal;font-size:medium;font-family:Dialog;color-interpolation:linearRGB;fill:#3a030f;fill-opacity:1;stroke:url(#linearGradient8544);stroke-width:3.03001;stroke-linecap:square;stroke-linejoin:miter;stroke-miterlimit:10;stroke-dasharray:none;stroke-dashoffset:0;stroke-opacity:1;color-rendering:optimizeQuality;image-rendering:optimizeQuality;shape-rendering:auto;text-rendering:geometricPrecision" transform="matrix(0.05770969,0,0,0.05971496,59.003509,82.090364)"></g> <g id="g178" style="font-style:normal;font-weight:normal;font-size:20px;font-family:'Times New Roman';display:inline;color-interpolation:linearRGB;fill:#262626;fill-opacity:1;stroke:#ff0000;stroke-width:1;stroke-linecap:square;stroke-linejoin:miter;stroke-miterlimit:10;stroke-dasharray:none;stroke-dashoffset:0;stroke-opacity:1;color-rendering:optimizeQuality;image-rendering:optimizeQuality;shape-rendering:auto;text-rendering:geometricPrecision" transform="matrix(0.1025997,0,0,0.05772444,81.540125,111.67009)"></g> <g id="g132" style="font-style:normal;font-weight:normal;font-size:20px;font-family:'Times New Roman';display:inline;color-interpolation:linearRGB;fill:#262626;fill-opacity:1;stroke:#ff0000;stroke-width:1;stroke-linecap:square;stroke-linejoin:miter;stroke-miterlimit:10;stroke-dasharray:none;stroke-dashoffset:0;stroke-opacity:1;color-rendering:optimizeQuality;image-rendering:optimizeQuality;shape-rendering:auto;text-rendering:geometricPrecision" transform="matrix(0.1025997,0,0,0.05772444,126.68398,112.01644)"></g>
</svg>
