<?xml version="1.0"?>

<svg xmlns="http://www.w3.org/2000/svg" xmlns:xlink="http://www.w3.org/1999/xlink" width="179" height="175" viewBox="0 0 179 175" version="1.1">
<defs>
<g>
<symbol overflow="visible" id="glyph0-0">
<path style="stroke:none;" d="M 1.5625 0 L 1.5625 -7.796875 L 7.796875 -7.796875 L 7.796875 0 Z M 1.75 -0.1875 L 7.609375 -0.1875 L 7.609375 -7.609375 L 1.75 -7.609375 Z M 1.75 -0.1875 "></path>
</symbol>
<symbol overflow="visible" id="glyph0-1">
<path style="stroke:none;" d="M 0.515625 -4.40625 C 0.515625 -5.46875 0.625 -6.316406 0.84375 -6.953125 C 1.0625 -7.597656 1.382812 -8.09375 1.8125 -8.4375 C 2.238281 -8.789062 2.78125 -8.96875 3.4375 -8.96875 C 3.914062 -8.96875 4.332031 -8.867188 4.6875 -8.671875 C 5.050781 -8.484375 5.347656 -8.207031 5.578125 -7.84375 C 5.816406 -7.476562 6.003906 -7.035156 6.140625 -6.515625 C 6.273438 -5.992188 6.34375 -5.289062 6.34375 -4.40625 C 6.34375 -3.351562 6.234375 -2.503906 6.015625 -1.859375 C 5.804688 -1.222656 5.484375 -0.726562 5.046875 -0.375 C 4.617188 -0.0195312 4.082031 0.15625 3.4375 0.15625 C 2.570312 0.15625 1.894531 -0.15625 1.40625 -0.78125 C 0.8125 -1.519531 0.515625 -2.726562 0.515625 -4.40625 Z M 1.640625 -4.40625 C 1.640625 -2.9375 1.8125 -1.957031 2.15625 -1.46875 C 2.5 -0.988281 2.925781 -0.75 3.4375 -0.75 C 3.9375 -0.75 4.359375 -0.992188 4.703125 -1.484375 C 5.046875 -1.972656 5.21875 -2.945312 5.21875 -4.40625 C 5.21875 -5.875 5.046875 -6.847656 4.703125 -7.328125 C 4.359375 -7.816406 3.929688 -8.0625 3.421875 -8.0625 C 2.910156 -8.0625 2.507812 -7.847656 2.21875 -7.421875 C 1.832031 -6.878906 1.640625 -5.875 1.640625 -4.40625 Z M 1.640625 -4.40625 "></path>
</symbol>
<symbol overflow="visible" id="glyph0-2">
<path style="stroke:none;" d="M 1.140625 0 L 1.140625 -1.25 L 2.390625 -1.25 L 2.390625 0 Z M 1.140625 0 "></path>
</symbol>
<symbol overflow="visible" id="glyph0-3">
<path style="stroke:none;" d="M 0.515625 -2.34375 L 1.671875 -2.4375 C 1.753906 -1.875 1.953125 -1.453125 2.265625 -1.171875 C 2.578125 -0.890625 2.953125 -0.75 3.390625 -0.75 C 3.921875 -0.75 4.367188 -0.945312 4.734375 -1.34375 C 5.097656 -1.738281 5.28125 -2.269531 5.28125 -2.9375 C 5.28125 -3.5625 5.101562 -4.050781 4.75 -4.40625 C 4.394531 -4.769531 3.9375 -4.953125 3.375 -4.953125 C 3.019531 -4.953125 2.695312 -4.867188 2.40625 -4.703125 C 2.125 -4.546875 1.90625 -4.34375 1.75 -4.09375 L 0.71875 -4.21875 L 1.578125 -8.8125 L 6.015625 -8.8125 L 6.015625 -7.765625 L 2.453125 -7.765625 L 1.96875 -5.359375 C 2.507812 -5.734375 3.070312 -5.921875 3.65625 -5.921875 C 4.4375 -5.921875 5.09375 -5.648438 5.625 -5.109375 C 6.164062 -4.566406 6.4375 -3.875 6.4375 -3.03125 C 6.4375 -2.21875 6.203125 -1.519531 5.734375 -0.9375 C 5.160156 -0.207031 4.378906 0.15625 3.390625 0.15625 C 2.578125 0.15625 1.910156 -0.0703125 1.390625 -0.53125 C 0.878906 -0.988281 0.585938 -1.59375 0.515625 -2.34375 Z M 0.515625 -2.34375 "></path>
</symbol>
<symbol overflow="visible" id="glyph0-4">
<path style="stroke:none;" d="M 4.65625 0 L 3.546875 0 L 3.546875 -6.984375 C 3.285156 -6.734375 2.941406 -6.484375 2.515625 -6.234375 C 2.085938 -5.984375 1.703125 -5.796875 1.359375 -5.671875 L 1.359375 -6.734375 C 1.972656 -7.015625 2.507812 -7.359375 2.96875 -7.765625 C 3.425781 -8.179688 3.75 -8.582031 3.9375 -8.96875 L 4.65625 -8.96875 Z M 4.65625 0 "></path>
</symbol>
<symbol overflow="visible" id="glyph0-5">
<path style="stroke:none;" d="M 3.21875 -0.984375 L 3.375 -0.015625 C 3.0625 0.046875 2.785156 0.078125 2.546875 0.078125 C 2.148438 0.078125 1.84375 0.015625 1.625 -0.109375 C 1.40625 -0.234375 1.25 -0.394531 1.15625 -0.59375 C 1.070312 -0.800781 1.03125 -1.234375 1.03125 -1.890625 L 1.03125 -5.625 L 0.21875 -5.625 L 0.21875 -6.46875 L 1.03125 -6.46875 L 1.03125 -8.078125 L 2.109375 -8.734375 L 2.109375 -6.46875 L 3.21875 -6.46875 L 3.21875 -5.625 L 2.109375 -5.625 L 2.109375 -1.828125 C 2.109375 -1.515625 2.128906 -1.3125 2.171875 -1.21875 C 2.210938 -1.132812 2.273438 -1.066406 2.359375 -1.015625 C 2.453125 -0.960938 2.578125 -0.9375 2.734375 -0.9375 C 2.859375 -0.9375 3.019531 -0.953125 3.21875 -0.984375 Z M 3.21875 -0.984375 "></path>
</symbol>
<symbol overflow="visible" id="glyph0-6">
<path style="stroke:none;" d="M 5.25 -2.078125 L 6.390625 -1.9375 C 6.210938 -1.28125 5.878906 -0.769531 5.390625 -0.40625 C 4.910156 -0.0390625 4.296875 0.140625 3.546875 0.140625 C 2.597656 0.140625 1.84375 -0.148438 1.28125 -0.734375 C 0.726562 -1.316406 0.453125 -2.132812 0.453125 -3.1875 C 0.453125 -4.269531 0.734375 -5.113281 1.296875 -5.71875 C 1.859375 -6.320312 2.585938 -6.625 3.484375 -6.625 C 4.347656 -6.625 5.050781 -6.328125 5.59375 -5.734375 C 6.144531 -5.148438 6.421875 -4.320312 6.421875 -3.25 C 6.421875 -3.1875 6.421875 -3.085938 6.421875 -2.953125 L 1.59375 -2.953125 C 1.632812 -2.242188 1.832031 -1.695312 2.1875 -1.3125 C 2.550781 -0.9375 3.003906 -0.75 3.546875 -0.75 C 3.953125 -0.75 4.296875 -0.851562 4.578125 -1.0625 C 4.859375 -1.28125 5.082031 -1.617188 5.25 -2.078125 Z M 1.65625 -3.859375 L 5.265625 -3.859375 C 5.210938 -4.398438 5.078125 -4.804688 4.859375 -5.078125 C 4.503906 -5.503906 4.050781 -5.71875 3.5 -5.71875 C 2.988281 -5.71875 2.5625 -5.546875 2.21875 -5.203125 C 1.875 -4.867188 1.6875 -4.421875 1.65625 -3.859375 Z M 1.65625 -3.859375 "></path>
</symbol>
<symbol overflow="visible" id="glyph0-7">
<path style="stroke:none;" d="M 0.828125 0 L 0.828125 -6.46875 L 1.796875 -6.46875 L 1.796875 -5.5625 C 2.003906 -5.882812 2.273438 -6.140625 2.609375 -6.328125 C 2.953125 -6.523438 3.335938 -6.625 3.765625 -6.625 C 4.242188 -6.625 4.632812 -6.519531 4.9375 -6.3125 C 5.25 -6.113281 5.46875 -5.835938 5.59375 -5.484375 C 6.101562 -6.242188 6.769531 -6.625 7.59375 -6.625 C 8.238281 -6.625 8.734375 -6.441406 9.078125 -6.078125 C 9.421875 -5.722656 9.59375 -5.175781 9.59375 -4.4375 L 9.59375 0 L 8.5 0 L 8.5 -4.078125 C 8.5 -4.515625 8.460938 -4.828125 8.390625 -5.015625 C 8.328125 -5.210938 8.203125 -5.367188 8.015625 -5.484375 C 7.828125 -5.609375 7.609375 -5.671875 7.359375 -5.671875 C 6.898438 -5.671875 6.519531 -5.519531 6.21875 -5.21875 C 5.914062 -4.914062 5.765625 -4.429688 5.765625 -3.765625 L 5.765625 0 L 4.671875 0 L 4.671875 -4.203125 C 4.671875 -4.691406 4.582031 -5.054688 4.40625 -5.296875 C 4.226562 -5.546875 3.929688 -5.671875 3.515625 -5.671875 C 3.210938 -5.671875 2.929688 -5.585938 2.671875 -5.421875 C 2.410156 -5.265625 2.21875 -5.03125 2.09375 -4.71875 C 1.976562 -4.40625 1.921875 -3.953125 1.921875 -3.359375 L 1.921875 0 Z M 0.828125 0 "></path>
</symbol>
<symbol overflow="visible" id="glyph0-8">
<path style="stroke:none;" d="M 0.828125 2.484375 L 0.828125 -6.46875 L 1.828125 -6.46875 L 1.828125 -5.625 C 2.054688 -5.957031 2.316406 -6.207031 2.609375 -6.375 C 2.910156 -6.539062 3.273438 -6.625 3.703125 -6.625 C 4.253906 -6.625 4.738281 -6.476562 5.15625 -6.1875 C 5.582031 -5.90625 5.898438 -5.503906 6.109375 -4.984375 C 6.328125 -4.472656 6.4375 -3.90625 6.4375 -3.28125 C 6.4375 -2.625 6.316406 -2.03125 6.078125 -1.5 C 5.847656 -0.96875 5.503906 -0.5625 5.046875 -0.28125 C 4.597656 0 4.125 0.140625 3.625 0.140625 C 3.257812 0.140625 2.929688 0.0664062 2.640625 -0.078125 C 2.347656 -0.234375 2.109375 -0.429688 1.921875 -0.671875 L 1.921875 2.484375 Z M 1.8125 -3.203125 C 1.8125 -2.367188 1.976562 -1.75 2.3125 -1.34375 C 2.65625 -0.945312 3.066406 -0.75 3.546875 -0.75 C 4.035156 -0.75 4.453125 -0.957031 4.796875 -1.375 C 5.148438 -1.789062 5.328125 -2.429688 5.328125 -3.296875 C 5.328125 -4.117188 5.15625 -4.734375 4.8125 -5.140625 C 4.46875 -5.554688 4.0625 -5.765625 3.59375 -5.765625 C 3.125 -5.765625 2.707031 -5.546875 2.34375 -5.109375 C 1.988281 -4.671875 1.8125 -4.035156 1.8125 -3.203125 Z M 1.8125 -3.203125 "></path>
</symbol>
<symbol overflow="visible" id="glyph0-9">
<path style="stroke:none;" d="M 0.8125 0 L 0.8125 -6.46875 L 1.796875 -6.46875 L 1.796875 -5.5 C 2.046875 -5.957031 2.273438 -6.257812 2.484375 -6.40625 C 2.703125 -6.550781 2.941406 -6.625 3.203125 -6.625 C 3.566406 -6.625 3.941406 -6.503906 4.328125 -6.265625 L 3.953125 -5.25 C 3.679688 -5.40625 3.410156 -5.484375 3.140625 -5.484375 C 2.898438 -5.484375 2.6875 -5.410156 2.5 -5.265625 C 2.3125 -5.117188 2.175781 -4.921875 2.09375 -4.671875 C 1.96875 -4.273438 1.90625 -3.847656 1.90625 -3.390625 L 1.90625 0 Z M 0.8125 0 "></path>
</symbol>
<symbol overflow="visible" id="glyph0-10">
<path style="stroke:none;" d="M 5.046875 -0.796875 C 4.640625 -0.453125 4.25 -0.207031 3.875 -0.0625 C 3.5 0.0703125 3.09375 0.140625 2.65625 0.140625 C 1.945312 0.140625 1.398438 -0.03125 1.015625 -0.375 C 0.640625 -0.71875 0.453125 -1.160156 0.453125 -1.703125 C 0.453125 -2.023438 0.523438 -2.316406 0.671875 -2.578125 C 0.816406 -2.835938 1.003906 -3.046875 1.234375 -3.203125 C 1.460938 -3.359375 1.726562 -3.476562 2.03125 -3.5625 C 2.238281 -3.625 2.5625 -3.679688 3 -3.734375 C 3.882812 -3.835938 4.535156 -3.960938 4.953125 -4.109375 C 4.960938 -4.253906 4.96875 -4.347656 4.96875 -4.390625 C 4.96875 -4.835938 4.863281 -5.15625 4.65625 -5.34375 C 4.375 -5.59375 3.957031 -5.71875 3.40625 -5.71875 C 2.882812 -5.71875 2.5 -5.625 2.25 -5.4375 C 2.007812 -5.257812 1.832031 -4.941406 1.71875 -4.484375 L 0.640625 -4.625 C 0.734375 -5.082031 0.890625 -5.453125 1.109375 -5.734375 C 1.335938 -6.015625 1.660156 -6.234375 2.078125 -6.390625 C 2.503906 -6.546875 3 -6.625 3.5625 -6.625 C 4.113281 -6.625 4.5625 -6.554688 4.90625 -6.421875 C 5.25 -6.296875 5.5 -6.132812 5.65625 -5.9375 C 5.820312 -5.738281 5.941406 -5.488281 6.015625 -5.1875 C 6.046875 -5 6.0625 -4.660156 6.0625 -4.171875 L 6.0625 -2.71875 C 6.0625 -1.695312 6.082031 -1.050781 6.125 -0.78125 C 6.175781 -0.507812 6.269531 -0.25 6.40625 0 L 5.265625 0 C 5.148438 -0.226562 5.078125 -0.492188 5.046875 -0.796875 Z M 4.953125 -3.25 C 4.554688 -3.082031 3.957031 -2.941406 3.15625 -2.828125 C 2.707031 -2.765625 2.390625 -2.691406 2.203125 -2.609375 C 2.015625 -2.535156 1.867188 -2.421875 1.765625 -2.265625 C 1.671875 -2.109375 1.625 -1.929688 1.625 -1.734375 C 1.625 -1.441406 1.734375 -1.195312 1.953125 -1 C 2.171875 -0.8125 2.492188 -0.71875 2.921875 -0.71875 C 3.347656 -0.71875 3.722656 -0.804688 4.046875 -0.984375 C 4.378906 -1.171875 4.625 -1.425781 4.78125 -1.75 C 4.894531 -2 4.953125 -2.363281 4.953125 -2.84375 Z M 4.953125 -3.25 "></path>
</symbol>
<symbol overflow="visible" id="glyph0-11">
<path style="stroke:none;" d="M 5.0625 0 L 5.0625 -0.953125 C 4.5625 -0.222656 3.878906 0.140625 3.015625 0.140625 C 2.628906 0.140625 2.269531 0.0664062 1.9375 -0.078125 C 1.601562 -0.222656 1.359375 -0.40625 1.203125 -0.625 C 1.046875 -0.84375 0.929688 -1.113281 0.859375 -1.4375 C 0.816406 -1.65625 0.796875 -2 0.796875 -2.46875 L 0.796875 -6.46875 L 1.890625 -6.46875 L 1.890625 -2.890625 C 1.890625 -2.316406 1.914062 -1.925781 1.96875 -1.71875 C 2.03125 -1.4375 2.171875 -1.210938 2.390625 -1.046875 C 2.617188 -0.878906 2.898438 -0.796875 3.234375 -0.796875 C 3.554688 -0.796875 3.863281 -0.878906 4.15625 -1.046875 C 4.445312 -1.210938 4.648438 -1.441406 4.765625 -1.734375 C 4.890625 -2.023438 4.953125 -2.445312 4.953125 -3 L 4.953125 -6.46875 L 6.046875 -6.46875 L 6.046875 0 Z M 5.0625 0 "></path>
</symbol>
<symbol overflow="visible" id="glyph0-12">
<path style="stroke:none;" d=""></path>
</symbol>
<symbol overflow="visible" id="glyph0-13">
<path style="stroke:none;" d="M 2.921875 2.625 C 2.316406 1.863281 1.800781 0.972656 1.375 -0.046875 C 0.957031 -1.078125 0.75 -2.140625 0.75 -3.234375 C 0.75 -4.203125 0.90625 -5.128906 1.21875 -6.015625 C 1.59375 -7.046875 2.160156 -8.070312 2.921875 -9.09375 L 3.703125 -9.09375 C 3.210938 -8.25 2.890625 -7.644531 2.734375 -7.28125 C 2.484375 -6.71875 2.285156 -6.128906 2.140625 -5.515625 C 1.972656 -4.765625 1.890625 -4.003906 1.890625 -3.234375 C 1.890625 -1.273438 2.492188 0.675781 3.703125 2.625 Z M 2.921875 2.625 "></path>
</symbol>
<symbol overflow="visible" id="glyph0-14">
<path style="stroke:none;" d="M 0.78125 -7.40625 C 0.78125 -7.863281 0.945312 -8.257812 1.28125 -8.59375 C 1.613281 -8.925781 2.007812 -9.09375 2.46875 -9.09375 C 2.9375 -9.09375 3.332031 -8.925781 3.65625 -8.59375 C 3.988281 -8.257812 4.15625 -7.863281 4.15625 -7.40625 C 4.15625 -6.9375 3.988281 -6.535156 3.65625 -6.203125 C 3.332031 -5.867188 2.9375 -5.703125 2.46875 -5.703125 C 2.007812 -5.703125 1.613281 -5.863281 1.28125 -6.1875 C 0.945312 -6.519531 0.78125 -6.925781 0.78125 -7.40625 Z M 1.4375 -7.40625 C 1.4375 -7.113281 1.535156 -6.867188 1.734375 -6.671875 C 1.941406 -6.472656 2.1875 -6.375 2.46875 -6.375 C 2.75 -6.375 2.988281 -6.472656 3.1875 -6.671875 C 3.394531 -6.867188 3.5 -7.113281 3.5 -7.40625 C 3.5 -7.6875 3.394531 -7.925781 3.1875 -8.125 C 2.988281 -8.332031 2.75 -8.4375 2.46875 -8.4375 C 2.1875 -8.4375 1.941406 -8.332031 1.734375 -8.125 C 1.535156 -7.925781 1.4375 -7.6875 1.4375 -7.40625 Z M 1.4375 -7.40625 "></path>
</symbol>
<symbol overflow="visible" id="glyph0-15">
<path style="stroke:none;" d="M 7.34375 -3.140625 L 8.515625 -2.828125 C 8.273438 -1.859375 7.832031 -1.117188 7.1875 -0.609375 C 6.539062 -0.0976562 5.753906 0.15625 4.828125 0.15625 C 3.859375 0.15625 3.070312 -0.0390625 2.46875 -0.4375 C 1.863281 -0.832031 1.40625 -1.398438 1.09375 -2.140625 C 0.78125 -2.878906 0.625 -3.675781 0.625 -4.53125 C 0.625 -5.46875 0.800781 -6.28125 1.15625 -6.96875 C 1.507812 -7.664062 2.015625 -8.191406 2.671875 -8.546875 C 3.328125 -8.910156 4.050781 -9.09375 4.84375 -9.09375 C 5.738281 -9.09375 6.488281 -8.863281 7.09375 -8.40625 C 7.707031 -7.945312 8.132812 -7.304688 8.375 -6.484375 L 7.203125 -6.21875 C 6.992188 -6.863281 6.691406 -7.332031 6.296875 -7.625 C 5.910156 -7.925781 5.414062 -8.078125 4.8125 -8.078125 C 4.125 -8.078125 3.550781 -7.910156 3.09375 -7.578125 C 2.632812 -7.253906 2.3125 -6.8125 2.125 -6.25 C 1.9375 -5.695312 1.84375 -5.128906 1.84375 -4.546875 C 1.84375 -3.785156 1.953125 -3.117188 2.171875 -2.546875 C 2.390625 -1.984375 2.734375 -1.5625 3.203125 -1.28125 C 3.671875 -1 4.175781 -0.859375 4.71875 -0.859375 C 5.382812 -0.859375 5.945312 -1.046875 6.40625 -1.421875 C 6.863281 -1.804688 7.175781 -2.378906 7.34375 -3.140625 Z M 7.34375 -3.140625 "></path>
</symbol>
<symbol overflow="visible" id="glyph0-16">
<path style="stroke:none;" d="M 1.546875 2.625 L 0.75 2.625 C 1.96875 0.675781 2.578125 -1.273438 2.578125 -3.234375 C 2.578125 -3.992188 2.488281 -4.75 2.3125 -5.5 C 2.175781 -6.113281 1.984375 -6.703125 1.734375 -7.265625 C 1.578125 -7.628906 1.25 -8.238281 0.75 -9.09375 L 1.546875 -9.09375 C 2.304688 -8.070312 2.867188 -7.046875 3.234375 -6.015625 C 3.546875 -5.128906 3.703125 -4.203125 3.703125 -3.234375 C 3.703125 -2.140625 3.488281 -1.078125 3.0625 -0.046875 C 2.644531 0.972656 2.140625 1.863281 1.546875 2.625 Z M 1.546875 2.625 "></path>
</symbol>
<symbol overflow="visible" id="glyph0-17">
<path style="stroke:none;" d="M 0.390625 -7.296875 L 0.671875 -8.15625 C 1.316406 -7.9375 1.785156 -7.742188 2.078125 -7.578125 C 2.003906 -8.304688 1.960938 -8.8125 1.953125 -9.09375 L 2.84375 -9.09375 C 2.832031 -8.6875 2.785156 -8.179688 2.703125 -7.578125 C 3.117188 -7.785156 3.597656 -7.976562 4.140625 -8.15625 L 4.421875 -7.296875 C 3.898438 -7.128906 3.394531 -7.015625 2.90625 -6.953125 C 3.15625 -6.734375 3.503906 -6.347656 3.953125 -5.796875 L 3.21875 -5.28125 C 2.976562 -5.601562 2.703125 -6.039062 2.390625 -6.59375 C 2.085938 -6.019531 1.820312 -5.582031 1.59375 -5.28125 L 0.875 -5.796875 C 1.34375 -6.378906 1.679688 -6.765625 1.890625 -6.953125 C 1.359375 -7.054688 0.859375 -7.171875 0.390625 -7.296875 Z M 0.390625 -7.296875 "></path>
</symbol>
<symbol overflow="visible" id="glyph0-18">
<path style="stroke:none;" d="M 2.203125 -4.84375 C 1.753906 -5.007812 1.414062 -5.242188 1.1875 -5.546875 C 0.96875 -5.859375 0.859375 -6.234375 0.859375 -6.671875 C 0.859375 -7.316406 1.09375 -7.859375 1.5625 -8.296875 C 2.03125 -8.742188 2.65625 -8.96875 3.4375 -8.96875 C 4.21875 -8.96875 4.84375 -8.738281 5.3125 -8.28125 C 5.789062 -7.832031 6.03125 -7.285156 6.03125 -6.640625 C 6.03125 -6.222656 5.921875 -5.859375 5.703125 -5.546875 C 5.484375 -5.242188 5.15625 -5.007812 4.71875 -4.84375 C 5.257812 -4.664062 5.671875 -4.378906 5.953125 -3.984375 C 6.242188 -3.585938 6.390625 -3.109375 6.390625 -2.546875 C 6.390625 -1.785156 6.117188 -1.144531 5.578125 -0.625 C 5.035156 -0.101562 4.328125 0.15625 3.453125 0.15625 C 2.566406 0.15625 1.851562 -0.101562 1.3125 -0.625 C 0.769531 -1.15625 0.5 -1.804688 0.5 -2.578125 C 0.5 -3.160156 0.644531 -3.648438 0.9375 -4.046875 C 1.238281 -4.441406 1.660156 -4.707031 2.203125 -4.84375 Z M 1.984375 -6.703125 C 1.984375 -6.285156 2.117188 -5.941406 2.390625 -5.671875 C 2.660156 -5.398438 3.015625 -5.265625 3.453125 -5.265625 C 3.878906 -5.265625 4.226562 -5.394531 4.5 -5.65625 C 4.769531 -5.925781 4.90625 -6.253906 4.90625 -6.640625 C 4.90625 -7.046875 4.765625 -7.382812 4.484375 -7.65625 C 4.203125 -7.9375 3.851562 -8.078125 3.4375 -8.078125 C 3.019531 -8.078125 2.671875 -7.941406 2.390625 -7.671875 C 2.117188 -7.398438 1.984375 -7.078125 1.984375 -6.703125 Z M 1.640625 -2.578125 C 1.640625 -2.265625 1.710938 -1.960938 1.859375 -1.671875 C 2.003906 -1.378906 2.222656 -1.148438 2.515625 -0.984375 C 2.804688 -0.828125 3.125 -0.75 3.46875 -0.75 C 3.988281 -0.75 4.414062 -0.914062 4.75 -1.25 C 5.09375 -1.59375 5.265625 -2.023438 5.265625 -2.546875 C 5.265625 -3.066406 5.085938 -3.5 4.734375 -3.84375 C 4.390625 -4.195312 3.953125 -4.375 3.421875 -4.375 C 2.910156 -4.375 2.484375 -4.203125 2.140625 -3.859375 C 1.804688 -3.515625 1.640625 -3.085938 1.640625 -2.578125 Z M 1.640625 -2.578125 "></path>
</symbol>
<symbol overflow="visible" id="glyph0-19">
<path style="stroke:none;" d="M 6.28125 -1.046875 L 6.28125 0 L 0.375 0 C 0.363281 -0.257812 0.40625 -0.515625 0.5 -0.765625 C 0.65625 -1.160156 0.894531 -1.550781 1.21875 -1.9375 C 1.550781 -2.332031 2.03125 -2.785156 2.65625 -3.296875 C 3.632812 -4.097656 4.289062 -4.726562 4.625 -5.1875 C 4.96875 -5.65625 5.140625 -6.097656 5.140625 -6.515625 C 5.140625 -6.953125 4.984375 -7.316406 4.671875 -7.609375 C 4.367188 -7.910156 3.96875 -8.0625 3.46875 -8.0625 C 2.9375 -8.0625 2.507812 -7.898438 2.1875 -7.578125 C 1.875 -7.265625 1.71875 -6.828125 1.71875 -6.265625 L 0.578125 -6.390625 C 0.660156 -7.234375 0.953125 -7.875 1.453125 -8.3125 C 1.960938 -8.75 2.640625 -8.96875 3.484375 -8.96875 C 4.335938 -8.96875 5.015625 -8.726562 5.515625 -8.25 C 6.015625 -7.78125 6.265625 -7.191406 6.265625 -6.484375 C 6.265625 -6.128906 6.191406 -5.78125 6.046875 -5.4375 C 5.898438 -5.09375 5.65625 -4.726562 5.3125 -4.34375 C 4.976562 -3.957031 4.421875 -3.4375 3.640625 -2.78125 C 2.972656 -2.21875 2.546875 -1.835938 2.359375 -1.640625 C 2.171875 -1.453125 2.019531 -1.253906 1.90625 -1.046875 Z M 6.28125 -1.046875 "></path>
</symbol>
<symbol overflow="visible" id="glyph0-20">
<path style="stroke:none;" d="M 6.21875 -6.75 L 5.125 -6.65625 C 5.019531 -7.09375 4.878906 -7.410156 4.703125 -7.609375 C 4.410156 -7.921875 4.046875 -8.078125 3.609375 -8.078125 C 3.253906 -8.078125 2.945312 -7.976562 2.6875 -7.78125 C 2.34375 -7.53125 2.070312 -7.160156 1.875 -6.671875 C 1.675781 -6.191406 1.570312 -5.503906 1.5625 -4.609375 C 1.820312 -5.015625 2.144531 -5.3125 2.53125 -5.5 C 2.914062 -5.695312 3.316406 -5.796875 3.734375 -5.796875 C 4.460938 -5.796875 5.082031 -5.523438 5.59375 -4.984375 C 6.113281 -4.453125 6.375 -3.757812 6.375 -2.90625 C 6.375 -2.34375 6.25 -1.816406 6 -1.328125 C 5.757812 -0.847656 5.425781 -0.476562 5 -0.21875 C 4.582031 0.03125 4.109375 0.15625 3.578125 0.15625 C 2.660156 0.15625 1.910156 -0.175781 1.328125 -0.84375 C 0.753906 -1.519531 0.46875 -2.632812 0.46875 -4.1875 C 0.46875 -5.90625 0.785156 -7.160156 1.421875 -7.953125 C 1.984375 -8.628906 2.734375 -8.96875 3.671875 -8.96875 C 4.378906 -8.96875 4.957031 -8.769531 5.40625 -8.375 C 5.851562 -7.988281 6.125 -7.445312 6.21875 -6.75 Z M 1.734375 -2.890625 C 1.734375 -2.515625 1.8125 -2.15625 1.96875 -1.8125 C 2.132812 -1.46875 2.359375 -1.203125 2.640625 -1.015625 C 2.929688 -0.835938 3.234375 -0.75 3.546875 -0.75 C 4.015625 -0.75 4.414062 -0.9375 4.75 -1.3125 C 5.082031 -1.6875 5.25 -2.191406 5.25 -2.828125 C 5.25 -3.453125 5.082031 -3.941406 4.75 -4.296875 C 4.425781 -4.648438 4.015625 -4.828125 3.515625 -4.828125 C 3.015625 -4.828125 2.59375 -4.648438 2.25 -4.296875 C 1.90625 -3.941406 1.734375 -3.472656 1.734375 -2.890625 Z M 1.734375 -2.890625 "></path>
</symbol>
<symbol overflow="visible" id="glyph0-21">
<path style="stroke:none;" d="M 0.53125 -2.359375 L 1.625 -2.5 C 1.75 -1.882812 1.960938 -1.4375 2.265625 -1.15625 C 2.566406 -0.882812 2.9375 -0.75 3.375 -0.75 C 3.882812 -0.75 4.316406 -0.925781 4.671875 -1.28125 C 5.035156 -1.644531 5.21875 -2.085938 5.21875 -2.609375 C 5.21875 -3.117188 5.050781 -3.535156 4.71875 -3.859375 C 4.382812 -4.191406 3.96875 -4.359375 3.46875 -4.359375 C 3.257812 -4.359375 3 -4.316406 2.6875 -4.234375 L 2.8125 -5.1875 C 2.882812 -5.1875 2.941406 -5.1875 2.984375 -5.1875 C 3.453125 -5.1875 3.875 -5.304688 4.25 -5.546875 C 4.625 -5.785156 4.8125 -6.160156 4.8125 -6.671875 C 4.8125 -7.078125 4.675781 -7.410156 4.40625 -7.671875 C 4.132812 -7.941406 3.78125 -8.078125 3.34375 -8.078125 C 2.914062 -8.078125 2.5625 -7.941406 2.28125 -7.671875 C 2 -7.398438 1.816406 -7 1.734375 -6.46875 L 0.640625 -6.65625 C 0.765625 -7.394531 1.066406 -7.960938 1.546875 -8.359375 C 2.023438 -8.765625 2.617188 -8.96875 3.328125 -8.96875 C 3.804688 -8.96875 4.25 -8.863281 4.65625 -8.65625 C 5.070312 -8.445312 5.390625 -8.160156 5.609375 -7.796875 C 5.828125 -7.441406 5.9375 -7.0625 5.9375 -6.65625 C 5.9375 -6.269531 5.832031 -5.914062 5.625 -5.59375 C 5.414062 -5.28125 5.109375 -5.03125 4.703125 -4.84375 C 5.234375 -4.71875 5.644531 -4.460938 5.9375 -4.078125 C 6.226562 -3.691406 6.375 -3.210938 6.375 -2.640625 C 6.375 -1.859375 6.085938 -1.195312 5.515625 -0.65625 C 4.953125 -0.113281 4.234375 0.15625 3.359375 0.15625 C 2.578125 0.15625 1.925781 -0.078125 1.40625 -0.546875 C 0.894531 -1.015625 0.601562 -1.617188 0.53125 -2.359375 Z M 0.53125 -2.359375 "></path>
</symbol>
<symbol overflow="visible" id="glyph1-0">
<path style="stroke:none;" d="M 0 -1.5625 L -7.796875 -1.5625 L -7.796875 -7.796875 L 0 -7.796875 Z M -0.1875 -1.75 L -0.1875 -7.609375 L -7.609375 -7.609375 L -7.609375 -1.75 Z M -0.1875 -1.75 "></path>
</symbol>
<symbol overflow="visible" id="glyph1-1">
<path style="stroke:none;" d="M 2.484375 -0.828125 L -6.46875 -0.828125 L -6.46875 -1.828125 L -5.625 -1.828125 C -5.957031 -2.054688 -6.207031 -2.316406 -6.375 -2.609375 C -6.539062 -2.910156 -6.625 -3.273438 -6.625 -3.703125 C -6.625 -4.253906 -6.476562 -4.738281 -6.1875 -5.15625 C -5.90625 -5.582031 -5.503906 -5.898438 -4.984375 -6.109375 C -4.472656 -6.328125 -3.90625 -6.4375 -3.28125 -6.4375 C -2.625 -6.4375 -2.03125 -6.316406 -1.5 -6.078125 C -0.96875 -5.847656 -0.5625 -5.503906 -0.28125 -5.046875 C 0 -4.597656 0.140625 -4.125 0.140625 -3.625 C 0.140625 -3.257812 0.0664062 -2.929688 -0.078125 -2.640625 C -0.234375 -2.347656 -0.429688 -2.109375 -0.671875 -1.921875 L 2.484375 -1.921875 Z M -3.203125 -1.8125 C -2.367188 -1.8125 -1.75 -1.976562 -1.34375 -2.3125 C -0.945312 -2.65625 -0.75 -3.066406 -0.75 -3.546875 C -0.75 -4.035156 -0.957031 -4.453125 -1.375 -4.796875 C -1.789062 -5.148438 -2.429688 -5.328125 -3.296875 -5.328125 C -4.117188 -5.328125 -4.734375 -5.15625 -5.140625 -4.8125 C -5.554688 -4.46875 -5.765625 -4.0625 -5.765625 -3.59375 C -5.765625 -3.125 -5.546875 -2.707031 -5.109375 -2.34375 C -4.671875 -1.988281 -4.035156 -1.8125 -3.203125 -1.8125 Z M -3.203125 -1.8125 "></path>
</symbol>
<symbol overflow="visible" id="glyph2-0">
<path style="stroke:none;" d="M 0 -1.015625 L -5.0625 -1.015625 L -5.0625 -5.0625 L 0 -5.0625 Z M -0.125 -1.140625 L -0.125 -4.9375 L -4.9375 -4.9375 L -4.9375 -1.140625 Z M -0.125 -1.140625 "></path>
</symbol>
<symbol overflow="visible" id="glyph2-1">
<path style="stroke:none;" d="M -0.640625 -2.09375 L -0.015625 -2.1875 C 0.0351562 -1.988281 0.0625 -1.8125 0.0625 -1.65625 C 0.0625 -1.394531 0.0195312 -1.191406 -0.0625 -1.046875 C -0.144531 -0.910156 -0.253906 -0.8125 -0.390625 -0.75 C -0.523438 -0.695312 -0.804688 -0.671875 -1.234375 -0.671875 L -3.65625 -0.671875 L -3.65625 -0.140625 L -4.203125 -0.140625 L -4.203125 -0.671875 L -5.25 -0.671875 L -5.671875 -1.375 L -4.203125 -1.375 L -4.203125 -2.09375 L -3.65625 -2.09375 L -3.65625 -1.375 L -1.1875 -1.375 C -0.988281 -1.375 -0.859375 -1.382812 -0.796875 -1.40625 C -0.742188 -1.4375 -0.695312 -1.476562 -0.65625 -1.53125 C -0.625 -1.59375 -0.609375 -1.675781 -0.609375 -1.78125 C -0.609375 -1.851562 -0.617188 -1.957031 -0.640625 -2.09375 Z M -0.640625 -2.09375 "></path>
</symbol>
<symbol overflow="visible" id="glyph2-2">
<path style="stroke:none;" d="M 0 -3.296875 L -0.625 -3.296875 C -0.144531 -2.960938 0.09375 -2.515625 0.09375 -1.953125 C 0.09375 -1.703125 0.046875 -1.46875 -0.046875 -1.25 C -0.140625 -1.039062 -0.257812 -0.882812 -0.40625 -0.78125 C -0.550781 -0.675781 -0.726562 -0.601562 -0.9375 -0.5625 C -1.070312 -0.53125 -1.289062 -0.515625 -1.59375 -0.515625 L -4.203125 -0.515625 L -4.203125 -1.234375 L -1.875 -1.234375 C -1.5 -1.234375 -1.25 -1.25 -1.125 -1.28125 C -0.9375 -1.320312 -0.785156 -1.414062 -0.671875 -1.5625 C -0.566406 -1.707031 -0.515625 -1.882812 -0.515625 -2.09375 C -0.515625 -2.3125 -0.566406 -2.515625 -0.671875 -2.703125 C -0.785156 -2.890625 -0.9375 -3.019531 -1.125 -3.09375 C -1.3125 -3.175781 -1.585938 -3.21875 -1.953125 -3.21875 L -4.203125 -3.21875 L -4.203125 -3.921875 L 0 -3.921875 Z M 0 -3.296875 "></path>
</symbol>
<symbol overflow="visible" id="glyph2-3">
<path style="stroke:none;" d="M 0 -0.53125 L -4.203125 -0.53125 L -4.203125 -1.171875 L -3.5625 -1.171875 C -3.863281 -1.328125 -4.0625 -1.472656 -4.15625 -1.609375 C -4.25 -1.753906 -4.296875 -1.910156 -4.296875 -2.078125 C -4.296875 -2.316406 -4.222656 -2.5625 -4.078125 -2.8125 L -3.40625 -2.5625 C -3.507812 -2.382812 -3.5625 -2.210938 -3.5625 -2.046875 C -3.5625 -1.890625 -3.515625 -1.75 -3.421875 -1.625 C -3.328125 -1.5 -3.195312 -1.410156 -3.03125 -1.359375 C -2.78125 -1.273438 -2.503906 -1.234375 -2.203125 -1.234375 L 0 -1.234375 Z M 0 -0.53125 "></path>
</symbol>
<symbol overflow="visible" id="glyph2-4">
<path style="stroke:none;" d="M 0 -0.53125 L -4.203125 -0.53125 L -4.203125 -1.171875 L -3.609375 -1.171875 C -4.066406 -1.484375 -4.296875 -1.929688 -4.296875 -2.515625 C -4.296875 -2.765625 -4.25 -2.992188 -4.15625 -3.203125 C -4.070312 -3.421875 -3.953125 -3.582031 -3.796875 -3.6875 C -3.648438 -3.789062 -3.476562 -3.863281 -3.28125 -3.90625 C -3.144531 -3.9375 -2.910156 -3.953125 -2.578125 -3.953125 L 0 -3.953125 L 0 -3.234375 L -2.5625 -3.234375 C -2.851562 -3.234375 -3.066406 -3.207031 -3.203125 -3.15625 C -3.347656 -3.101562 -3.460938 -3.003906 -3.546875 -2.859375 C -3.640625 -2.722656 -3.6875 -2.554688 -3.6875 -2.359375 C -3.6875 -2.054688 -3.585938 -1.796875 -3.390625 -1.578125 C -3.203125 -1.359375 -2.835938 -1.25 -2.296875 -1.25 L 0 -1.25 Z M 0 -0.53125 "></path>
</symbol>
</g>
<clipPath id="clip1"> <rect x="0" y="0" width="179" height="175"></rect>
</clipPath>
<g id="surface5" clip-path="url(#clip1)">
<g style="fill:rgb(0%,0%,0%);fill-opacity:1;"> <use xlink:href="#glyph0-1" x="23.082031" y="76.563061"></use> <use xlink:href="#glyph0-2" x="30.021816" y="76.563061"></use> <use xlink:href="#glyph0-3" x="33.488252" y="76.563061"></use>
</g>
</g>
<clipPath id="clip2"> <rect x="0" y="0" width="179" height="175"></rect>
</clipPath>
<g id="surface8" clip-path="url(#clip2)">
<g style="fill:rgb(0%,0%,0%);fill-opacity:1;"> <use xlink:href="#glyph0-1" x="33.59375" y="136.727124"></use>
</g>
</g>
<clipPath id="clip3"> <rect x="0" y="0" width="179" height="175"></rect>
</clipPath>
<g id="surface11" clip-path="url(#clip3)">
<g style="fill:rgb(0%,0%,0%);fill-opacity:1;"> <use xlink:href="#glyph0-4" x="35.289062" y="17.820874"></use>
</g>
</g>
<clipPath id="clip4"> <rect x="0" y="0" width="179" height="175"></rect>
</clipPath>
<g id="surface14" clip-path="url(#clip4)">
<g style="fill:rgb(0%,0%,0%);fill-opacity:1;"> <use xlink:href="#glyph0-5" x="62.953125" y="163.523999"></use> <use xlink:href="#glyph0-6" x="66.419561" y="163.523999"></use> <use xlink:href="#glyph0-7" x="73.359346" y="163.523999"></use> <use xlink:href="#glyph0-8" x="83.755198" y="163.523999"></use> <use xlink:href="#glyph0-6" x="90.694983" y="163.523999"></use> <use xlink:href="#glyph0-9" x="97.634767" y="163.523999"></use> <use xlink:href="#glyph0-10" x="101.788961" y="163.523999"></use> <use xlink:href="#glyph0-5" x="108.728745" y="163.523999"></use> <use xlink:href="#glyph0-11" x="112.195182" y="163.523999"></use> <use xlink:href="#glyph0-9" x="119.134966" y="163.523999"></use> <use xlink:href="#glyph0-6" x="123.28916" y="163.523999"></use> <use xlink:href="#glyph0-12" x="130.228944" y="163.523999"></use> <use xlink:href="#glyph0-13" x="133.69538" y="163.523999"></use> <use xlink:href="#glyph0-14" x="137.849574" y="163.523999"></use> <use xlink:href="#glyph0-15" x="142.840136" y="163.523999"></use> <use xlink:href="#glyph0-16" x="151.853562" y="163.523999"></use>
</g>
</g>
<clipPath id="clip5"> <rect x="0" y="0" width="179" height="175"></rect>
</clipPath>
<g id="surface17" clip-path="url(#clip5)">
<path style="fill:none;stroke-width:0.518004;stroke-linecap:butt;stroke-linejoin:round;stroke:rgb(13.725491%,13.725491%,13.725491%);stroke-opacity:1;stroke-miterlimit:10;" d="M 109.062859 132.516193 L 109.062859 127.242347 " transform="matrix(1.205091,0,0,1.205092,26.08883,-96.330912)"></path>
<path style="fill:none;stroke-width:0.518004;stroke-linecap:butt;stroke-linejoin:round;stroke:rgb(13.725491%,13.725491%,13.725491%);stroke-opacity:1;stroke-miterlimit:10;" d="M 106.566938 132.516193 L 111.558779 132.516193 " transform="matrix(1.205091,0,0,1.205092,26.08883,-96.330912)"></path>
</g>
<clipPath id="clip6"> <rect x="0" y="0" width="179" height="175"></rect>
</clipPath>
<g id="surface20" clip-path="url(#clip6)">
<path style="fill:none;stroke-width:0.518004;stroke-linecap:butt;stroke-linejoin:round;stroke:rgb(13.725491%,13.725491%,13.725491%);stroke-opacity:1;stroke-miterlimit:10;" d="M 109.062859 115.897258 L 109.062859 112.11124 " transform="matrix(1.205091,0,0,1.205092,26.08883,-96.330912)"></path>
<path style="fill:none;stroke-width:0.518004;stroke-linecap:butt;stroke-linejoin:round;stroke:rgb(13.725491%,13.725491%,13.725491%);stroke-opacity:1;stroke-miterlimit:10;" d="M 106.566938 112.11124 L 111.558779 112.11124 " transform="matrix(1.205091,0,0,1.205092,26.08883,-96.330912)"></path>
</g>
<clipPath id="clip7"> <rect x="0" y="0" width="179" height="175"></rect>
</clipPath>
<g id="surface23" clip-path="url(#clip7)">
<path style="fill:none;stroke-width:0.518004;stroke-linecap:butt;stroke-linejoin:round;stroke:rgb(13.725491%,13.725491%,13.725491%);stroke-opacity:1;stroke-miterlimit:10;" d="M 89.095492 131.086711 L 89.095492 128.54217 " transform="matrix(1.205091,0,0,1.205092,26.08883,-96.330912)"></path>
<path style="fill:none;stroke-width:0.518004;stroke-linecap:butt;stroke-linejoin:round;stroke:rgb(13.725491%,13.725491%,13.725491%);stroke-opacity:1;stroke-miterlimit:10;" d="M 86.596329 128.54217 L 91.591412 128.54217 " transform="matrix(1.205091,0,0,1.205092,26.08883,-96.330912)"></path>
</g>
<clipPath id="clip8"> <rect x="0" y="0" width="179" height="175"></rect>
</clipPath>
<g id="surface26" clip-path="url(#clip8)">
<path style="fill:none;stroke-width:0.518004;stroke-linecap:butt;stroke-linejoin:round;stroke:rgb(13.725491%,13.725491%,13.725491%);stroke-opacity:1;stroke-miterlimit:10;" d="M 89.095492 138.156322 L 89.095492 136.629598 " transform="matrix(1.205091,0,0,1.205092,26.08883,-96.330912)"></path>
<path style="fill:none;stroke-width:0.518004;stroke-linecap:butt;stroke-linejoin:round;stroke:rgb(13.725491%,13.725491%,13.725491%);stroke-opacity:1;stroke-miterlimit:10;" d="M 86.596329 138.156322 L 91.591412 138.156322 " transform="matrix(1.205091,0,0,1.205092,26.08883,-96.330912)"></path>
</g>
<clipPath id="clip9"> <rect x="0" y="0" width="179" height="175"></rect>
</clipPath>
<g id="surface29" clip-path="url(#clip9)">
<path style="fill:none;stroke-width:0.176389;stroke-linecap:butt;stroke-linejoin:round;stroke:rgb(13.725491%,13.725491%,13.725491%);stroke-opacity:1;stroke-miterlimit:10;" d="M 231.621973 33.16256 L 233.321776 33.16256 " transform="matrix(3.539014,0,0,3.539014,-713.330503,-38.710408)"></path>
</g>
<clipPath id="clip10"> <rect x="0" y="0" width="179" height="175"></rect>
</clipPath>
<g id="surface32" clip-path="url(#clip10)">
<path style="fill:none;stroke-width:0.518004;stroke-linecap:butt;stroke-linejoin:round;stroke:rgb(13.725491%,13.725491%,13.725491%);stroke-opacity:1;stroke-miterlimit:10;" d="M 69.124883 134.804659 L 69.124883 131.722036 " transform="matrix(1.205091,0,0,1.205092,26.08883,-96.330912)"></path>
<path style="fill:none;stroke-width:0.518004;stroke-linecap:butt;stroke-linejoin:round;stroke:rgb(13.725491%,13.725491%,13.725491%);stroke-opacity:1;stroke-miterlimit:10;" d="M 66.628962 131.722036 L 71.620804 131.722036 " transform="matrix(1.205091,0,0,1.205092,26.08883,-96.330912)"></path>
</g>
<clipPath id="clip11"> <rect x="0" y="0" width="179" height="175"></rect>
</clipPath>
<g id="surface35" clip-path="url(#clip11)">
<path style="fill:none;stroke-width:0.518004;stroke-linecap:butt;stroke-linejoin:round;stroke:rgb(13.725491%,13.725491%,13.725491%);stroke-opacity:1;stroke-miterlimit:10;" d="M 49.154275 151.128621 L 49.154275 147.212945 " transform="matrix(1.205091,0,0,1.205092,26.08883,-96.330912)"></path>
<path style="fill:none;stroke-width:0.518004;stroke-linecap:butt;stroke-linejoin:round;stroke:rgb(13.725491%,13.725491%,13.725491%);stroke-opacity:1;stroke-miterlimit:10;" d="M 46.658354 147.212945 L 51.650196 147.212945 " transform="matrix(1.205091,0,0,1.205092,26.08883,-96.330912)"></path>
</g>
<clipPath id="clip12"> <rect x="0" y="0" width="179" height="175"></rect>
</clipPath>
<g id="surface38" clip-path="url(#clip12)">
<path style="fill:none;stroke-width:0.518004;stroke-linecap:butt;stroke-linejoin:round;stroke:rgb(13.725491%,13.725491%,13.725491%);stroke-opacity:1;stroke-miterlimit:10;" d="M 49.154275 157.893536 L 49.154275 154.541872 " transform="matrix(1.205091,0,0,1.205092,26.08883,-96.330912)"></path>
<path style="fill:none;stroke-width:0.518004;stroke-linecap:butt;stroke-linejoin:round;stroke:rgb(13.725491%,13.725491%,13.725491%);stroke-opacity:1;stroke-miterlimit:10;" d="M 46.658354 157.893536 L 51.650196 157.893536 " transform="matrix(1.205091,0,0,1.205092,26.08883,-96.330912)"></path>
</g>
<clipPath id="clip13"> <rect x="0" y="0" width="179" height="175"></rect>
</clipPath>
<g id="surface41" clip-path="url(#clip13)">
<path style="fill:none;stroke-width:0.518004;stroke-linecap:butt;stroke-linejoin:round;stroke:rgb(13.725491%,13.725491%,13.725491%);stroke-opacity:1;stroke-miterlimit:10;" d="M 29.18368 161.812454 L 29.18368 156.956756 " transform="matrix(1.205091,0,0,1.205092,26.088814,-96.330912)"></path>
<path style="fill:none;stroke-width:0.518004;stroke-linecap:butt;stroke-linejoin:round;stroke:rgb(13.725491%,13.725491%,13.725491%);stroke-opacity:1;stroke-miterlimit:10;" d="M 26.687759 156.956756 L 31.679601 156.956756 " transform="matrix(1.205091,0,0,1.205092,26.088814,-96.330912)"></path>
</g>
<clipPath id="clip14"> <rect x="0" y="0" width="179" height="175"></rect>
</clipPath>
<g id="surface44" clip-path="url(#clip14)">
<path style="fill:none;stroke-width:0.25;stroke-linecap:butt;stroke-linejoin:round;stroke:rgb(13.725491%,13.725491%,13.725491%);stroke-opacity:0.14902;stroke-miterlimit:10;" d="M 218.871245 48.326125 L 218.871245 14.325655 " transform="matrix(3.539014,0,0,3.539014,-713.330503,-38.710408)"></path>
</g>
<clipPath id="clip15"> <rect x="0" y="0" width="179" height="175"></rect>
</clipPath>
<g id="surface47" clip-path="url(#clip15)">
<path style="fill:none;stroke-width:0.25;stroke-linecap:butt;stroke-linejoin:round;stroke:rgb(13.725491%,13.725491%,13.725491%);stroke-opacity:0.14902;stroke-miterlimit:10;" d="M 225.67156 48.326125 L 225.67156 14.325655 " transform="matrix(3.539014,0,0,3.539014,-713.330503,-38.710408)"></path>
</g>
<clipPath id="clip16"> <rect x="0" y="0" width="179" height="175"></rect>
</clipPath>
<g id="surface50" clip-path="url(#clip16)">
<path style="fill:none;stroke-width:0.25;stroke-linecap:butt;stroke-linejoin:round;stroke:rgb(13.725491%,13.725491%,13.725491%);stroke-opacity:0.14902;stroke-miterlimit:10;" d="M 232.471875 48.326125 L 232.471875 14.325655 " transform="matrix(3.539014,0,0,3.539014,-713.330503,-38.710408)"></path>
</g>
<clipPath id="clip17"> <rect x="0" y="0" width="179" height="175"></rect>
</clipPath>
<g id="surface53" clip-path="url(#clip17)">
<path style="fill:none;stroke-width:0.25;stroke-linecap:butt;stroke-linejoin:round;stroke:rgb(13.725491%,13.725491%,13.725491%);stroke-opacity:0.14902;stroke-miterlimit:10;" d="M 239.27219 48.326125 L 239.27219 14.325655 " transform="matrix(3.539014,0,0,3.539014,-713.330503,-38.710408)"></path>
</g>
<clipPath id="clip18"> <rect x="0" y="0" width="179" height="175"></rect>
</clipPath>
<g id="surface56" clip-path="url(#clip18)">
<path style="fill:none;stroke-width:0.25;stroke-linecap:butt;stroke-linejoin:round;stroke:rgb(13.725491%,13.725491%,13.725491%);stroke-opacity:0.14902;stroke-miterlimit:10;" d="M 246.0714 48.326125 L 246.0714 14.325655 " transform="matrix(3.539014,0,0,3.539014,-713.330503,-38.710408)"></path>
</g>
<clipPath id="clip19"> <rect x="0" y="0" width="179" height="175"></rect>
</clipPath>
<g id="surface59" clip-path="url(#clip19)">
<path style="fill:none;stroke-width:0.3;stroke-linecap:butt;stroke-linejoin:round;stroke:rgb(13.725491%,13.725491%,13.725491%);stroke-opacity:0.14902;stroke-miterlimit:10;" d="M 249.471006 48.326125 L 215.47164 48.326125 " transform="matrix(3.539014,0,0,3.539014,-713.330503,-38.710408)"></path>
</g>
<clipPath id="clip20"> <rect x="0" y="0" width="179" height="175"></rect>
</clipPath>
<g id="surface62" clip-path="url(#clip20)">
<path style="fill:none;stroke-width:0.3;stroke-linecap:square;stroke-linejoin:round;stroke:rgb(0%,0%,0%);stroke-opacity:1;stroke-miterlimit:10;" d="M 215.47164 48.326125 L 249.471006 48.326125 " transform="matrix(3.539014,0,0,3.539014,-713.330503,-38.710408)"></path>
</g>
<clipPath id="clip21"> <rect x="0" y="0" width="179" height="175"></rect>
</clipPath>
<g id="surface65" clip-path="url(#clip21)">
<path style="fill:none;stroke-width:0.3;stroke-linecap:square;stroke-linejoin:round;stroke:rgb(0%,0%,0%);stroke-opacity:1;stroke-miterlimit:10;" d="M 218.871245 48.326125 L 218.871245 47.925457 " transform="matrix(3.539014,0,0,3.539014,-713.330503,-38.710408)"></path>
</g>
<clipPath id="clip22"> <rect x="0" y="0" width="179" height="175"></rect>
</clipPath>
<g id="surface68" clip-path="url(#clip22)">
<path style="fill:none;stroke-width:0.3;stroke-linecap:square;stroke-linejoin:round;stroke:rgb(0%,0%,0%);stroke-opacity:1;stroke-miterlimit:10;" d="M 225.67156 48.326125 L 225.67156 47.925457 " transform="matrix(3.539014,0,0,3.539014,-713.330503,-38.710408)"></path>
</g>
<clipPath id="clip23"> <rect x="0" y="0" width="179" height="175"></rect>
</clipPath>
<g id="surface71" clip-path="url(#clip23)">
<path style="fill:none;stroke-width:0.3;stroke-linecap:square;stroke-linejoin:round;stroke:rgb(0%,0%,0%);stroke-opacity:1;stroke-miterlimit:10;" d="M 232.471875 48.326125 L 232.471875 47.925457 " transform="matrix(3.539014,0,0,3.539014,-713.330503,-38.710408)"></path>
</g>
<clipPath id="clip24"> <rect x="0" y="0" width="179" height="175"></rect>
</clipPath>
<g id="surface74" clip-path="url(#clip24)">
<path style="fill:none;stroke-width:0.3;stroke-linecap:square;stroke-linejoin:round;stroke:rgb(0%,0%,0%);stroke-opacity:1;stroke-miterlimit:10;" d="M 239.27219 48.326125 L 239.27219 47.925457 " transform="matrix(3.539014,0,0,3.539014,-713.330503,-38.710408)"></path>
</g>
<clipPath id="clip25"> <rect x="0" y="0" width="179" height="175"></rect>
</clipPath>
<g id="surface77" clip-path="url(#clip25)">
<path style="fill:none;stroke-width:0.3;stroke-linecap:square;stroke-linejoin:round;stroke:rgb(0%,0%,0%);stroke-opacity:1;stroke-miterlimit:10;" d="M 246.0714 48.326125 L 246.0714 47.925457 " transform="matrix(3.539014,0,0,3.539014,-713.330503,-38.710408)"></path>
</g>
<clipPath id="clip26"> <rect x="0" y="0" width="179" height="175"></rect>
</clipPath>
<g id="surface80" clip-path="url(#clip26)">
<path style="fill:none;stroke-width:0.3;stroke-linecap:square;stroke-linejoin:round;stroke:rgb(0%,0%,0%);stroke-opacity:1;stroke-miterlimit:10;" d="M 215.47164 48.326125 L 215.47164 14.325655 " transform="matrix(3.539014,0,0,3.539014,-713.330503,-38.710408)"></path>
</g>
<clipPath id="clip27"> <rect x="0" y="0" width="179" height="175"></rect>
</clipPath>
<g id="surface83" clip-path="url(#clip27)">
<path style="fill:none;stroke-width:0.3;stroke-linecap:square;stroke-linejoin:round;stroke:rgb(0%,0%,0%);stroke-opacity:1;stroke-miterlimit:10;" d="M 215.47164 31.32589 L 215.871204 31.32589 " transform="matrix(3.539014,0,0,3.539014,-713.330503,-38.710408)"></path>
</g>
<clipPath id="clip28"> <rect x="0" y="0" width="179" height="175"></rect>
</clipPath>
<g id="surface86" clip-path="url(#clip28)">
<path style=" stroke:none;fill-rule:nonzero;fill:rgb(12.941177%,26.666668%,47.058824%);fill-opacity:1;" d="M 64.902344 98.054688 C 65.40625 98.054688 65.816406 98.464844 65.816406 98.96875 C 65.816406 99.472656 65.40625 99.882812 64.902344 99.882812 C 64.398438 99.882812 63.988281 99.472656 63.988281 98.96875 C 63.988281 98.464844 64.398438 98.054688 64.902344 98.054688 Z M 64.902344 97.691406 C 64.195312 97.691406 63.621094 98.261719 63.621094 98.96875 C 63.621094 99.675781 64.195312 100.25 64.902344 100.25 C 65.609375 100.25 66.179688 99.675781 66.179688 98.96875 C 66.179688 98.261719 65.609375 97.691406 64.902344 97.691406 Z M 64.902344 97.691406 "></path>
</g>
<clipPath id="clip29"> <rect x="0" y="0" width="179" height="175"></rect>
</clipPath>
<g id="surface89" clip-path="url(#clip29)">
<path style=" stroke:none;fill-rule:nonzero;fill:rgb(12.941177%,26.666668%,47.058824%);fill-opacity:1;" d="M 61.257812 91.902344 C 61.761719 91.902344 62.171875 92.3125 62.171875 92.816406 C 62.171875 93.320312 61.761719 93.730469 61.257812 93.730469 C 60.753906 93.730469 60.34375 93.320312 60.34375 92.816406 C 60.34375 92.3125 60.753906 91.902344 61.257812 91.902344 Z M 61.257812 91.539062 C 60.550781 91.539062 59.980469 92.113281 59.980469 92.816406 C 59.980469 93.523438 60.550781 94.097656 61.257812 94.097656 C 61.964844 94.097656 62.539062 93.523438 62.539062 92.816406 C 62.539062 92.113281 61.964844 91.539062 61.257812 91.539062 Z M 61.257812 91.539062 "></path>
</g>
<clipPath id="clip30"> <rect x="0" y="0" width="179" height="175"></rect>
</clipPath>
<g id="surface92" clip-path="url(#clip30)">
<path style=" stroke:none;fill-rule:nonzero;fill:rgb(12.941177%,26.666668%,47.058824%);fill-opacity:1;" d="M 58.78125 102.074219 C 59.285156 102.074219 59.695312 102.484375 59.695312 102.988281 C 59.695312 103.492188 59.285156 103.902344 58.78125 103.902344 C 58.277344 103.902344 57.871094 103.492188 57.871094 102.988281 C 57.871094 102.484375 58.277344 102.074219 58.78125 102.074219 Z M 58.78125 101.710938 C 58.078125 101.710938 57.503906 102.28125 57.503906 102.988281 C 57.503906 103.695312 58.078125 104.265625 58.78125 104.265625 C 59.488281 104.265625 60.0625 103.695312 60.0625 102.988281 C 60.0625 102.28125 59.488281 101.710938 58.78125 101.710938 Z M 58.78125 101.710938 "></path>
</g>
<clipPath id="clip31"> <rect x="0" y="0" width="179" height="175"></rect>
</clipPath>
<g id="surface95" clip-path="url(#clip31)">
<path style=" stroke:none;fill-rule:nonzero;fill:rgb(12.941177%,26.666668%,47.058824%);fill-opacity:1;" d="M 60.445312 100.03125 C 60.949219 100.03125 61.359375 100.441406 61.359375 100.945312 C 61.359375 101.449219 60.949219 101.859375 60.445312 101.859375 C 59.941406 101.859375 59.53125 101.449219 59.53125 100.945312 C 59.53125 100.441406 59.941406 100.03125 60.445312 100.03125 Z M 60.445312 99.667969 C 59.738281 99.667969 59.167969 100.238281 59.167969 100.945312 C 59.167969 101.652344 59.738281 102.222656 60.445312 102.222656 C 61.152344 102.222656 61.726562 101.652344 61.726562 100.945312 C 61.726562 100.238281 61.152344 99.667969 60.445312 99.667969 Z M 60.445312 99.667969 "></path>
</g>
<clipPath id="clip32"> <rect x="0" y="0" width="179" height="175"></rect>
</clipPath>
<g id="surface98" clip-path="url(#clip32)">
<path style=" stroke:none;fill-rule:nonzero;fill:rgb(12.941177%,26.666668%,47.058824%);fill-opacity:1;" d="M 57.96875 97.753906 C 58.472656 97.753906 58.882812 98.164062 58.882812 98.667969 C 58.882812 99.171875 58.472656 99.582031 57.96875 99.582031 C 57.464844 99.582031 57.054688 99.171875 57.054688 98.667969 C 57.054688 98.164062 57.464844 97.753906 57.96875 97.753906 Z M 57.96875 97.390625 C 57.261719 97.390625 56.691406 97.960938 56.691406 98.667969 C 56.691406 99.375 57.261719 99.949219 57.96875 99.949219 C 58.675781 99.949219 59.25 99.375 59.25 98.667969 C 59.25 97.960938 58.675781 97.390625 57.96875 97.390625 Z M 57.96875 97.390625 "></path>
</g>
<clipPath id="clip33"> <rect x="0" y="0" width="179" height="175"></rect>
</clipPath>
<g id="surface101" clip-path="url(#clip33)">
<path style=" stroke:none;fill-rule:nonzero;fill:rgb(12.941177%,26.666668%,47.058824%);fill-opacity:1;" d="M 62.320312 98.734375 C 62.824219 98.734375 63.234375 99.140625 63.234375 99.644531 C 63.234375 100.148438 62.824219 100.558594 62.320312 100.558594 C 61.816406 100.558594 61.410156 100.148438 61.410156 99.644531 C 61.410156 99.140625 61.816406 98.734375 62.320312 98.734375 Z M 62.320312 98.367188 C 61.617188 98.367188 61.042969 98.941406 61.042969 99.644531 C 61.042969 100.351562 61.617188 100.925781 62.320312 100.925781 C 63.027344 100.925781 63.601562 100.351562 63.601562 99.644531 C 63.601562 98.941406 63.027344 98.367188 62.320312 98.367188 Z M 62.320312 98.367188 "></path>
</g>
<clipPath id="clip34"> <rect x="0" y="0" width="179" height="175"></rect>
</clipPath>
<g id="surface104" clip-path="url(#clip34)">
<path style=" stroke:none;fill-rule:nonzero;fill:rgb(12.941177%,26.666668%,47.058824%);fill-opacity:1;" d="M 63.382812 101.867188 C 63.886719 101.867188 64.296875 102.277344 64.296875 102.78125 C 64.296875 103.285156 63.886719 103.695312 63.382812 103.695312 C 62.878906 103.695312 62.46875 103.285156 62.46875 102.78125 C 62.46875 102.277344 62.878906 101.867188 63.382812 101.867188 Z M 63.382812 101.503906 C 62.675781 101.503906 62.105469 102.074219 62.105469 102.78125 C 62.105469 103.488281 62.675781 104.058594 63.382812 104.058594 C 64.089844 104.058594 64.664062 103.488281 64.664062 102.78125 C 64.664062 102.074219 64.089844 101.503906 63.382812 101.503906 Z M 63.382812 101.503906 "></path>
</g>
<clipPath id="clip35"> <rect x="0" y="0" width="179" height="175"></rect>
</clipPath>
<g id="surface108" clip-path="url(#clip35)">
<path style="fill:none;stroke-width:0.176389;stroke-linecap:butt;stroke-linejoin:round;stroke:rgb(13.725491%,13.725491%,13.725491%);stroke-opacity:1;stroke-miterlimit:10;" d="M 218.021344 40.039035 L 219.721147 40.039035 " transform="matrix(3.539014,0,0,3.539014,-713.330503,-38.710408)"></path>
</g>
<clipPath id="clip36"> <rect x="0" y="0" width="179" height="175"></rect>
</clipPath>
<g id="surface111" clip-path="url(#clip36)">
<path style="fill:none;stroke-width:0.176389;stroke-linecap:butt;stroke-linejoin:round;stroke:rgb(12.941177%,26.666668%,47.058824%);stroke-opacity:1;stroke-miterlimit:10;" d="M 217.171443 39.278539 L 220.571048 39.278539 " transform="matrix(3.539014,0,0,3.539014,-713.330503,-38.710408)"></path>
</g>
<clipPath id="clip37"> <rect x="0" y="0" width="179" height="175"></rect>
</clipPath>
<g id="surface114" clip-path="url(#clip37)">
<path style="fill-rule:nonzero;fill:rgb(12.54902%,26.666668%,47.058824%);fill-opacity:0.25098;stroke-width:0.176389;stroke-linecap:square;stroke-linejoin:miter;stroke:rgb(12.941177%,26.666668%,47.058824%);stroke-opacity:1;stroke-miterlimit:10;" d="M 217.171443 40.039035 L 220.571048 40.039035 L 220.571048 38.818268 L 217.171443 38.818268 L 217.171443 40.039035 " transform="matrix(3.539014,0,0,3.539014,-713.330503,-38.710408)"></path>
</g>
<clipPath id="clip38"> <rect x="0" y="0" width="179" height="175"></rect>
</clipPath>
<g id="surface117" clip-path="url(#clip38)">
<path style="fill:none;stroke-width:0.105833;stroke-linecap:butt;stroke-linejoin:miter;stroke:rgb(100%,0%,0%);stroke-opacity:1;stroke-miterlimit:10;" d="M 218.871245 35.308285 L 218.871245 36.237658 M 218.406559 35.772972 L 219.335932 35.772972 " transform="matrix(3.539014,0,0,3.539014,-713.330503,-38.710408)"></path>
</g>
<clipPath id="clip39"> <rect x="0" y="0" width="179" height="175"></rect>
</clipPath>
<g id="surface120" clip-path="url(#clip39)">
<path style="fill:none;stroke-width:0.105833;stroke-linecap:butt;stroke-linejoin:miter;stroke:rgb(100%,0%,0%);stroke-opacity:1;stroke-miterlimit:10;" d="M 219.17147 42.646135 L 219.17147 43.575508 M 218.706784 43.110821 L 219.636157 43.110821 " transform="matrix(3.539014,0,0,3.539014,-713.330503,-38.710408)"></path>
</g>
<clipPath id="clip40"> <rect x="0" y="0" width="179" height="175"></rect>
</clipPath>
<g id="surface123" clip-path="url(#clip40)">
<path style="fill:none;stroke-width:0.105833;stroke-linecap:butt;stroke-linejoin:miter;stroke:rgb(100%,0%,0%);stroke-opacity:1;stroke-miterlimit:10;" d="M 218.671463 43.083227 L 218.671463 44.0126 M 218.206777 43.547913 L 219.13615 43.547913 " transform="matrix(3.539014,0,0,3.539014,-713.330503,-38.710408)"></path>
</g>
<clipPath id="clip41"> <rect x="0" y="0" width="179" height="175"></rect>
</clipPath>
<g id="surface126" clip-path="url(#clip41)">
<path style=" stroke:none;fill-rule:nonzero;fill:rgb(23.921569%,58.039218%,29.803923%);fill-opacity:1;" d="M 86.382812 84.878906 C 86.890625 84.878906 87.296875 85.289062 87.296875 85.792969 C 87.296875 86.296875 86.890625 86.707031 86.382812 86.707031 C 85.878906 86.707031 85.46875 86.296875 85.46875 85.792969 C 85.46875 85.289062 85.878906 84.878906 86.382812 84.878906 Z M 86.382812 84.515625 C 85.679688 84.515625 85.105469 85.085938 85.105469 85.792969 C 85.105469 86.5 85.679688 87.074219 86.382812 87.074219 C 87.089844 87.074219 87.664062 86.5 87.664062 85.792969 C 87.664062 85.085938 87.089844 84.515625 86.382812 84.515625 Z M 86.382812 84.515625 "></path>
</g>
<clipPath id="clip42"> <rect x="0" y="0" width="179" height="175"></rect>
</clipPath>
<g id="surface129" clip-path="url(#clip42)">
<path style=" stroke:none;fill-rule:nonzero;fill:rgb(23.921569%,58.039218%,29.803923%);fill-opacity:1;" d="M 83.449219 85.285156 C 83.957031 85.285156 84.363281 85.691406 84.363281 86.199219 C 84.363281 86.703125 83.957031 87.109375 83.449219 87.109375 C 82.945312 87.109375 82.539062 86.703125 82.539062 86.199219 C 82.539062 85.691406 82.945312 85.285156 83.449219 85.285156 Z M 83.449219 84.917969 C 82.746094 84.917969 82.171875 85.492188 82.171875 86.199219 C 82.171875 86.902344 82.746094 87.476562 83.449219 87.476562 C 84.15625 87.476562 84.730469 86.902344 84.730469 86.199219 C 84.730469 85.492188 84.15625 84.917969 83.449219 84.917969 Z M 83.449219 84.917969 "></path>
</g>
<clipPath id="clip43"> <rect x="0" y="0" width="179" height="175"></rect>
</clipPath>
<g id="surface132" clip-path="url(#clip43)">
<path style=" stroke:none;fill-rule:nonzero;fill:rgb(23.921569%,58.039218%,29.803923%);fill-opacity:1;" d="M 89.070312 87.371094 C 89.574219 87.371094 89.984375 87.78125 89.984375 88.285156 C 89.984375 88.789062 89.574219 89.199219 89.070312 89.199219 C 88.566406 89.199219 88.15625 88.789062 88.15625 88.285156 C 88.15625 87.78125 88.566406 87.371094 89.070312 87.371094 Z M 89.070312 87.003906 C 88.363281 87.003906 87.789062 87.578125 87.789062 88.285156 C 87.789062 88.992188 88.363281 89.5625 89.070312 89.5625 C 89.777344 89.5625 90.347656 88.992188 90.347656 88.285156 C 90.347656 87.578125 89.777344 87.003906 89.070312 87.003906 Z M 89.070312 87.003906 "></path>
</g>
<clipPath id="clip44"> <rect x="0" y="0" width="179" height="175"></rect>
</clipPath>
<g id="surface135" clip-path="url(#clip44)">
<path style=" stroke:none;fill-rule:nonzero;fill:rgb(23.921569%,58.039218%,29.803923%);fill-opacity:1;" d="M 85.324219 80.160156 C 85.828125 80.160156 86.238281 80.570312 86.238281 81.074219 C 86.238281 81.582031 85.828125 81.988281 85.324219 81.988281 C 84.820312 81.988281 84.410156 81.582031 84.410156 81.074219 C 84.410156 80.570312 84.820312 80.160156 85.324219 80.160156 Z M 85.324219 79.796875 C 84.617188 79.796875 84.042969 80.371094 84.042969 81.074219 C 84.042969 81.78125 84.617188 82.355469 85.324219 82.355469 C 86.03125 82.355469 86.601562 81.78125 86.601562 81.074219 C 86.601562 80.371094 86.03125 79.796875 85.324219 79.796875 Z M 85.324219 79.796875 "></path>
</g>
<clipPath id="clip45"> <rect x="0" y="0" width="179" height="175"></rect>
</clipPath>
<g id="surface138" clip-path="url(#clip45)">
<path style=" stroke:none;fill-rule:nonzero;fill:rgb(23.921569%,58.039218%,29.803923%);fill-opacity:1;" d="M 81.578125 86.945312 C 82.082031 86.945312 82.492188 87.355469 82.492188 87.859375 C 82.492188 88.363281 82.082031 88.773438 81.578125 88.773438 C 81.074219 88.773438 80.664062 88.363281 80.664062 87.859375 C 80.664062 87.355469 81.074219 86.945312 81.578125 86.945312 Z M 81.578125 86.578125 C 80.871094 86.578125 80.300781 87.152344 80.300781 87.859375 C 80.300781 88.566406 80.871094 89.136719 81.578125 89.136719 C 82.285156 89.136719 82.855469 88.566406 82.855469 87.859375 C 82.855469 87.152344 82.285156 86.578125 81.578125 86.578125 Z M 81.578125 86.578125 "></path>
</g>
<clipPath id="clip46"> <rect x="0" y="0" width="179" height="175"></rect>
</clipPath>
<g id="surface141" clip-path="url(#clip46)">
<path style=" stroke:none;fill-rule:nonzero;fill:rgb(23.921569%,58.039218%,29.803923%);fill-opacity:1;" d="M 85.324219 83.238281 C 85.828125 83.238281 86.238281 83.644531 86.238281 84.152344 C 86.238281 84.65625 85.828125 85.066406 85.324219 85.066406 C 84.820312 85.066406 84.410156 84.65625 84.410156 84.152344 C 84.410156 83.644531 84.820312 83.238281 85.324219 83.238281 Z M 85.324219 82.871094 C 84.617188 82.871094 84.042969 83.445312 84.042969 84.152344 C 84.042969 84.859375 84.617188 85.429688 85.324219 85.429688 C 86.03125 85.429688 86.601562 84.859375 86.601562 84.152344 C 86.601562 83.445312 86.03125 82.871094 85.324219 82.871094 Z M 85.324219 82.871094 "></path>
</g>
<clipPath id="clip47"> <rect x="0" y="0" width="179" height="175"></rect>
</clipPath>
<g id="surface144" clip-path="url(#clip47)">
<path style=" stroke:none;fill-rule:nonzero;fill:rgb(23.921569%,58.039218%,29.803923%);fill-opacity:1;" d="M 83.449219 88.992188 C 83.957031 88.992188 84.363281 89.402344 84.363281 89.90625 C 84.363281 90.414062 83.957031 90.820312 83.449219 90.820312 C 82.945312 90.820312 82.539062 90.414062 82.539062 89.90625 C 82.539062 89.402344 82.945312 88.992188 83.449219 88.992188 Z M 83.449219 88.628906 C 82.746094 88.628906 82.171875 89.199219 82.171875 89.90625 C 82.171875 90.613281 82.746094 91.1875 83.449219 91.1875 C 84.15625 91.1875 84.730469 90.613281 84.730469 89.90625 C 84.730469 89.199219 84.15625 88.628906 83.449219 88.628906 Z M 83.449219 88.628906 "></path>
</g>
<clipPath id="clip48"> <rect x="0" y="0" width="179" height="175"></rect>
</clipPath>
<g id="surface147" clip-path="url(#clip48)">
<path style=" stroke:none;fill-rule:nonzero;fill:rgb(23.921569%,58.039218%,29.803923%);fill-opacity:1;" d="M 88.613281 85.726562 C 89.117188 85.726562 89.527344 86.132812 89.527344 86.636719 C 89.527344 87.140625 89.117188 87.550781 88.613281 87.550781 C 88.109375 87.550781 87.699219 87.140625 87.699219 86.636719 C 87.699219 86.132812 88.109375 85.726562 88.613281 85.726562 Z M 88.613281 85.359375 C 87.90625 85.359375 87.335938 85.933594 87.335938 86.636719 C 87.335938 87.34375 87.90625 87.917969 88.613281 87.917969 C 89.320312 87.917969 89.890625 87.34375 89.890625 86.636719 C 89.890625 85.933594 89.320312 85.359375 88.613281 85.359375 Z M 88.613281 85.359375 "></path>
</g>
<clipPath id="clip49"> <rect x="0" y="0" width="179" height="175"></rect>
</clipPath>
<g id="surface150" clip-path="url(#clip49)">
<path style=" stroke:none;fill-rule:nonzero;fill:rgb(23.921569%,58.039218%,29.803923%);fill-opacity:1;" d="M 85.324219 93.03125 C 85.828125 93.03125 86.238281 93.441406 86.238281 93.945312 C 86.238281 94.449219 85.828125 94.859375 85.324219 94.859375 C 84.820312 94.859375 84.410156 94.449219 84.410156 93.945312 C 84.410156 93.441406 84.820312 93.03125 85.324219 93.03125 Z M 85.324219 92.667969 C 84.617188 92.667969 84.042969 93.238281 84.042969 93.945312 C 84.042969 94.652344 84.617188 95.226562 85.324219 95.226562 C 86.03125 95.226562 86.601562 94.652344 86.601562 93.945312 C 86.601562 93.238281 86.03125 92.667969 85.324219 92.667969 Z M 85.324219 92.667969 "></path>
</g>
<clipPath id="clip50"> <rect x="0" y="0" width="179" height="175"></rect>
</clipPath>
<g id="surface153" clip-path="url(#clip50)">
<path style="fill:none;stroke-width:0.176389;stroke-linecap:butt;stroke-linejoin:round;stroke:rgb(23.921569%,58.039218%,29.803923%);stroke-opacity:1;stroke-miterlimit:10;" d="M 223.971757 35.591954 L 227.371363 35.591954 " transform="matrix(3.539014,0,0,3.539014,-713.330503,-38.710408)"></path>
</g>
<clipPath id="clip51"> <rect x="0" y="0" width="179" height="175"></rect>
</clipPath>
<g id="surface156" clip-path="url(#clip51)">
<path style="fill-rule:nonzero;fill:rgb(23.529412%,57.647061%,29.803923%);fill-opacity:0.25098;stroke-width:0.176389;stroke-linecap:square;stroke-linejoin:miter;stroke:rgb(23.921569%,58.039218%,29.803923%);stroke-opacity:1;stroke-miterlimit:10;" d="M 223.971757 36.342516 L 227.371363 36.342516 L 227.371363 35.180248 L 223.971757 35.180248 L 223.971757 36.342516 " transform="matrix(3.539014,0,0,3.539014,-713.330503,-38.710408)"></path>
</g>
<clipPath id="clip52"> <rect x="0" y="0" width="179" height="175"></rect>
</clipPath>
<g id="surface159" clip-path="url(#clip52)">
<path style="fill:none;stroke-width:0.105833;stroke-linecap:butt;stroke-linejoin:miter;stroke:rgb(100%,0%,0%);stroke-opacity:1;stroke-miterlimit:10;" d="M 225.67156 38.069913 L 225.67156 38.999285 M 225.206874 38.534599 L 226.136246 38.534599 " transform="matrix(3.539014,0,0,3.539014,-713.330503,-38.710408)"></path>
</g>
<clipPath id="clip53"> <rect x="0" y="0" width="179" height="175"></rect>
</clipPath>
<g id="surface162" clip-path="url(#clip53)">
<path style=" stroke:none;fill-rule:nonzero;fill:rgb(85.09804%,70.588237%,14.117648%);fill-opacity:1;" d="M 109.390625 66.117188 C 109.894531 66.117188 110.304688 66.527344 110.304688 67.03125 C 110.304688 67.539062 109.894531 67.945312 109.390625 67.945312 C 108.886719 67.945312 108.476562 67.539062 108.476562 67.03125 C 108.476562 66.527344 108.886719 66.117188 109.390625 66.117188 Z M 109.390625 65.753906 C 108.683594 65.753906 108.109375 66.324219 108.109375 67.03125 C 108.109375 67.738281 108.683594 68.3125 109.390625 68.3125 C 110.097656 68.3125 110.667969 67.738281 110.667969 67.03125 C 110.667969 66.324219 110.097656 65.753906 109.390625 65.753906 Z M 109.390625 65.753906 "></path>
</g>
<clipPath id="clip54"> <rect x="0" y="0" width="179" height="175"></rect>
</clipPath>
<g id="surface165" clip-path="url(#clip54)">
<path style=" stroke:none;fill-rule:nonzero;fill:rgb(85.09804%,70.588237%,14.117648%);fill-opacity:1;" d="M 107.621094 75.332031 C 108.125 75.332031 108.535156 75.742188 108.535156 76.246094 C 108.535156 76.75 108.125 77.160156 107.621094 77.160156 C 107.117188 77.160156 106.707031 76.75 106.707031 76.246094 C 106.707031 75.742188 107.117188 75.332031 107.621094 75.332031 Z M 107.621094 74.96875 C 106.914062 74.96875 106.34375 75.539062 106.34375 76.246094 C 106.34375 76.953125 106.914062 77.527344 107.621094 77.527344 C 108.328125 77.527344 108.902344 76.953125 108.902344 76.246094 C 108.902344 75.539062 108.328125 74.96875 107.621094 74.96875 Z M 107.621094 74.96875 "></path>
</g>
<clipPath id="clip55"> <rect x="0" y="0" width="179" height="175"></rect>
</clipPath>
<g id="surface168" clip-path="url(#clip55)">
<path style=" stroke:none;fill-rule:nonzero;fill:rgb(85.09804%,70.588237%,14.117648%);fill-opacity:1;" d="M 107.515625 72.285156 C 108.019531 72.285156 108.429688 72.695312 108.429688 73.199219 C 108.429688 73.703125 108.019531 74.113281 107.515625 74.113281 C 107.011719 74.113281 106.601562 73.703125 106.601562 73.199219 C 106.601562 72.695312 107.011719 72.285156 107.515625 72.285156 Z M 107.515625 71.921875 C 106.808594 71.921875 106.238281 72.492188 106.238281 73.199219 C 106.238281 73.90625 106.808594 74.476562 107.515625 74.476562 C 108.222656 74.476562 108.796875 73.90625 108.796875 73.199219 C 108.796875 72.492188 108.222656 71.921875 107.515625 71.921875 Z M 107.515625 71.921875 "></path>
</g>
<clipPath id="clip56"> <rect x="0" y="0" width="179" height="175"></rect>
</clipPath>
<g id="surface171" clip-path="url(#clip56)">
<path style=" stroke:none;fill-rule:nonzero;fill:rgb(85.09804%,70.588237%,14.117648%);fill-opacity:1;" d="M 109.390625 61.492188 C 109.894531 61.492188 110.304688 61.902344 110.304688 62.40625 C 110.304688 62.914062 109.894531 63.320312 109.390625 63.320312 C 108.886719 63.320312 108.476562 62.914062 108.476562 62.40625 C 108.476562 61.902344 108.886719 61.492188 109.390625 61.492188 Z M 109.390625 61.128906 C 108.683594 61.128906 108.109375 61.703125 108.109375 62.40625 C 108.109375 63.113281 108.683594 63.6875 109.390625 63.6875 C 110.097656 63.6875 110.667969 63.113281 110.667969 62.40625 C 110.667969 61.703125 110.097656 61.128906 109.390625 61.128906 Z M 109.390625 61.128906 "></path>
</g>
<clipPath id="clip57"> <rect x="0" y="0" width="179" height="175"></rect>
</clipPath>
<g id="surface174" clip-path="url(#clip57)">
<path style=" stroke:none;fill-rule:nonzero;fill:rgb(85.09804%,70.588237%,14.117648%);fill-opacity:1;" d="M 112.679688 72.972656 C 113.183594 72.972656 113.59375 73.378906 113.59375 73.882812 C 113.59375 74.386719 113.183594 74.796875 112.679688 74.796875 C 112.175781 74.796875 111.765625 74.386719 111.765625 73.882812 C 111.765625 73.378906 112.175781 72.972656 112.679688 72.972656 Z M 112.679688 72.605469 C 111.972656 72.605469 111.398438 73.179688 111.398438 73.882812 C 111.398438 74.589844 111.972656 75.164062 112.679688 75.164062 C 113.386719 75.164062 113.957031 74.589844 113.957031 73.882812 C 113.957031 73.179688 113.386719 72.605469 112.679688 72.605469 Z M 112.679688 72.605469 "></path>
</g>
<clipPath id="clip58"> <rect x="0" y="0" width="179" height="175"></rect>
</clipPath>
<g id="surface177" clip-path="url(#clip58)">
<path style=" stroke:none;fill-rule:nonzero;fill:rgb(85.09804%,70.588237%,14.117648%);fill-opacity:1;" d="M 113.136719 65.207031 C 113.640625 65.207031 114.046875 65.617188 114.046875 66.121094 C 114.046875 66.625 113.640625 67.035156 113.136719 67.035156 C 112.632812 67.035156 112.222656 66.625 112.222656 66.121094 C 112.222656 65.617188 112.632812 65.207031 113.136719 65.207031 Z M 113.136719 64.839844 C 112.429688 64.839844 111.855469 65.414062 111.855469 66.121094 C 111.855469 66.828125 112.429688 67.398438 113.136719 67.398438 C 113.839844 67.398438 114.414062 66.828125 114.414062 66.121094 C 114.414062 65.414062 113.839844 64.839844 113.136719 64.839844 Z M 113.136719 64.839844 "></path>
</g>
<clipPath id="clip59"> <rect x="0" y="0" width="179" height="175"></rect>
</clipPath>
<g id="surface180" clip-path="url(#clip59)">
<path style=" stroke:none;fill-rule:nonzero;fill:rgb(85.09804%,70.588237%,14.117648%);fill-opacity:1;" d="M 105.644531 63.875 C 106.148438 63.875 106.558594 64.28125 106.558594 64.785156 C 106.558594 65.289062 106.148438 65.699219 105.644531 65.699219 C 105.140625 65.699219 104.730469 65.289062 104.730469 64.785156 C 104.730469 64.28125 105.140625 63.875 105.644531 63.875 Z M 105.644531 63.507812 C 104.9375 63.507812 104.363281 64.078125 104.363281 64.785156 C 104.363281 65.492188 104.9375 66.066406 105.644531 66.066406 C 106.351562 66.066406 106.921875 65.492188 106.921875 64.785156 C 106.921875 64.078125 106.351562 63.507812 105.644531 63.507812 Z M 105.644531 63.507812 "></path>
</g>
<clipPath id="clip60"> <rect x="0" y="0" width="179" height="175"></rect>
</clipPath>
<g id="surface183" clip-path="url(#clip60)">
<path style=" stroke:none;fill-rule:nonzero;fill:rgb(85.09804%,70.588237%,14.117648%);fill-opacity:1;" d="M 109.390625 77.464844 C 109.894531 77.464844 110.304688 77.875 110.304688 78.378906 C 110.304688 78.886719 109.894531 79.292969 109.390625 79.292969 C 108.886719 79.292969 108.476562 78.886719 108.476562 78.378906 C 108.476562 77.875 108.886719 77.464844 109.390625 77.464844 Z M 109.390625 77.101562 C 108.683594 77.101562 108.109375 77.671875 108.109375 78.378906 C 108.109375 79.085938 108.683594 79.660156 109.390625 79.660156 C 110.097656 79.660156 110.667969 79.085938 110.667969 78.378906 C 110.667969 77.671875 110.097656 77.101562 109.390625 77.101562 Z M 109.390625 77.101562 "></path>
</g>
<clipPath id="clip61"> <rect x="0" y="0" width="179" height="175"></rect>
</clipPath>
<g id="surface186" clip-path="url(#clip61)">
<path style=" stroke:none;fill-rule:nonzero;fill:rgb(85.09804%,70.588237%,14.117648%);fill-opacity:1;" d="M 107.265625 77.742188 C 107.769531 77.742188 108.179688 78.148438 108.179688 78.652344 C 108.179688 79.160156 107.769531 79.566406 107.265625 79.566406 C 106.761719 79.566406 106.355469 79.160156 106.355469 78.652344 C 106.355469 78.148438 106.761719 77.742188 107.265625 77.742188 Z M 107.265625 77.375 C 106.5625 77.375 105.988281 77.949219 105.988281 78.652344 C 105.988281 79.359375 106.5625 79.933594 107.265625 79.933594 C 107.972656 79.933594 108.546875 79.359375 108.546875 78.652344 C 108.546875 77.949219 107.972656 77.375 107.265625 77.375 Z M 107.265625 77.375 "></path>
</g>
<clipPath id="clip62"> <rect x="0" y="0" width="179" height="175"></rect>
</clipPath>
<g id="surface189" clip-path="url(#clip62)">
<path style=" stroke:none;fill-rule:nonzero;fill:rgb(85.09804%,70.588237%,14.117648%);fill-opacity:1;" d="M 111.515625 77.328125 C 112.019531 77.328125 112.429688 77.734375 112.429688 78.238281 C 112.429688 78.746094 112.019531 79.152344 111.515625 79.152344 C 111.011719 79.152344 110.601562 78.746094 110.601562 78.238281 C 110.601562 77.734375 111.011719 77.328125 111.515625 77.328125 Z M 111.515625 76.960938 C 110.808594 76.960938 110.234375 77.535156 110.234375 78.238281 C 110.234375 78.945312 110.808594 79.519531 111.515625 79.519531 C 112.222656 79.519531 112.792969 78.945312 112.792969 78.238281 C 112.792969 77.535156 112.222656 76.960938 111.515625 76.960938 Z M 111.515625 76.960938 "></path>
</g>
<clipPath id="clip63"> <rect x="0" y="0" width="179" height="175"></rect>
</clipPath>
<g id="surface192" clip-path="url(#clip63)">
<path style="fill:none;stroke-width:0.379076;stroke-linecap:butt;stroke-linejoin:round;stroke:rgb(13.725491%,13.725491%,13.725491%);stroke-opacity:1;stroke-miterlimit:10;" d="M 232.471875 33.16256 L 232.471875 33.045561 " transform="matrix(3.539014,0,0,3.539014,-713.330503,-38.710408)"></path>
</g>
<clipPath id="clip64"> <rect x="0" y="0" width="179" height="175"></rect>
</clipPath>
<g id="surface195" clip-path="url(#clip64)">
<path style="fill:none;stroke-width:0.176389;stroke-linecap:butt;stroke-linejoin:round;stroke:rgb(85.09804%,70.588237%,14.117648%);stroke-opacity:1;stroke-miterlimit:10;" d="M 230.772072 31.718832 L 234.171678 31.718832 " transform="matrix(3.539014,0,0,3.539014,-713.330503,-38.710408)"></path>
</g>
<clipPath id="clip65"> <rect x="0" y="0" width="179" height="175"></rect>
</clipPath>
<g id="surface198" clip-path="url(#clip65)">
<path style="fill-rule:nonzero;fill:rgb(84.313726%,70.19608%,14.117648%);fill-opacity:0.25098;stroke-width:0.176389;stroke-linecap:square;stroke-linejoin:miter;stroke:rgb(85.09804%,70.588237%,14.117648%);stroke-opacity:1;stroke-miterlimit:10;" d="M 230.772072 33.045561 L 234.171678 33.045561 L 234.171678 29.621672 L 230.772072 29.621672 L 230.772072 33.045561 " transform="matrix(3.539014,0,0,3.539014,-713.330503,-38.710408)"></path>
</g>
<clipPath id="clip66"> <rect x="0" y="0" width="179" height="175"></rect>
</clipPath>
<g id="surface201" clip-path="url(#clip66)">
<path style=" stroke:none;fill-rule:nonzero;fill:rgb(100%,49.803922%,16.470589%);fill-opacity:1;" d="M 131.890625 65.617188 C 131.890625 66.121094 131.484375 66.53125 130.980469 66.53125 C 130.472656 66.53125 130.066406 66.121094 130.066406 65.617188 C 130.066406 65.113281 130.472656 64.707031 130.980469 64.707031 C 131.484375 64.707031 131.890625 65.113281 131.890625 65.617188 Z M 132.257812 65.617188 C 132.257812 64.914062 131.683594 64.339844 130.980469 64.339844 C 130.273438 64.339844 129.699219 64.914062 129.699219 65.617188 C 129.699219 66.324219 130.273438 66.898438 130.980469 66.898438 C 131.683594 66.898438 132.257812 66.324219 132.257812 65.617188 Z M 132.257812 65.617188 "></path>
</g>
<clipPath id="clip67"> <rect x="0" y="0" width="179" height="175"></rect>
</clipPath>
<g id="surface204" clip-path="url(#clip67)">
<path style=" stroke:none;fill-rule:nonzero;fill:rgb(100%,49.803922%,16.470589%);fill-opacity:1;" d="M 138.113281 68.320312 C 138.113281 68.824219 137.707031 69.230469 137.199219 69.230469 C 136.695312 69.230469 136.285156 68.824219 136.285156 68.320312 C 136.285156 67.8125 136.695312 67.40625 137.199219 67.40625 C 137.707031 67.40625 138.113281 67.8125 138.113281 68.320312 Z M 138.480469 68.320312 C 138.480469 67.613281 137.90625 67.039062 137.199219 67.039062 C 136.492188 67.039062 135.921875 67.613281 135.921875 68.320312 C 135.921875 69.023438 136.492188 69.597656 137.199219 69.597656 C 137.90625 69.597656 138.480469 69.023438 138.480469 68.320312 Z M 138.480469 68.320312 "></path>
</g>
<clipPath id="clip68"> <rect x="0" y="0" width="179" height="175"></rect>
</clipPath>
<g id="surface207" clip-path="url(#clip68)">
<path style=" stroke:none;fill-rule:nonzero;fill:rgb(100%,49.803922%,16.470589%);fill-opacity:1;" d="M 137.40625 62.023438 C 137.40625 62.527344 136.996094 62.933594 136.492188 62.933594 C 135.988281 62.933594 135.578125 62.527344 135.578125 62.023438 C 135.578125 61.515625 135.988281 61.109375 136.492188 61.109375 C 136.996094 61.109375 137.40625 61.515625 137.40625 62.023438 Z M 137.773438 62.023438 C 137.773438 61.316406 137.199219 60.742188 136.492188 60.742188 C 135.789062 60.742188 135.214844 61.316406 135.214844 62.023438 C 135.214844 62.726562 135.789062 63.300781 136.492188 63.300781 C 137.199219 63.300781 137.773438 62.726562 137.773438 62.023438 Z M 137.773438 62.023438 "></path>
</g>
<clipPath id="clip69"> <rect x="0" y="0" width="179" height="175"></rect>
</clipPath>
<g id="surface210" clip-path="url(#clip69)">
<path style=" stroke:none;fill-rule:nonzero;fill:rgb(100%,49.803922%,16.470589%);fill-opacity:1;" d="M 134.367188 62.148438 C 134.367188 62.652344 133.960938 63.0625 133.457031 63.0625 C 132.953125 63.0625 132.542969 62.652344 132.542969 62.148438 C 132.542969 61.644531 132.953125 61.238281 133.457031 61.238281 C 133.960938 61.238281 134.367188 61.644531 134.367188 62.148438 Z M 134.734375 62.148438 C 134.734375 61.441406 134.160156 60.871094 133.457031 60.871094 C 132.75 60.871094 132.175781 61.441406 132.175781 62.148438 C 132.175781 62.855469 132.75 63.429688 133.457031 63.429688 C 134.160156 63.429688 134.734375 62.855469 134.734375 62.148438 Z M 134.734375 62.148438 "></path>
</g>
<clipPath id="clip70"> <rect x="0" y="0" width="179" height="175"></rect>
</clipPath>
<g id="surface213" clip-path="url(#clip70)">
<path style=" stroke:none;fill-rule:nonzero;fill:rgb(100%,49.803922%,16.470589%);fill-opacity:1;" d="M 134.367188 58.574219 C 134.367188 59.078125 133.960938 59.488281 133.457031 59.488281 C 132.949219 59.488281 132.542969 59.078125 132.542969 58.574219 C 132.542969 58.070312 132.949219 57.660156 133.457031 57.660156 C 133.960938 57.660156 134.367188 58.070312 134.367188 58.574219 Z M 134.734375 58.574219 C 134.734375 57.867188 134.160156 57.292969 133.457031 57.292969 C 132.75 57.292969 132.175781 57.867188 132.175781 58.574219 C 132.175781 59.277344 132.75 59.851562 133.457031 59.851562 C 134.160156 59.851562 134.734375 59.277344 134.734375 58.574219 Z M 134.734375 58.574219 "></path>
</g>
<clipPath id="clip71"> <rect x="0" y="0" width="179" height="175"></rect>
</clipPath>
<g id="surface216" clip-path="url(#clip71)">
<path style=" stroke:none;fill-rule:nonzero;fill:rgb(100%,49.803922%,16.470589%);fill-opacity:1;" d="M 134.367188 70.160156 C 134.367188 70.664062 133.960938 71.074219 133.457031 71.074219 C 132.953125 71.074219 132.542969 70.664062 132.542969 70.160156 C 132.542969 69.65625 132.953125 69.246094 133.457031 69.246094 C 133.960938 69.246094 134.367188 69.65625 134.367188 70.160156 Z M 134.734375 70.160156 C 134.734375 69.453125 134.160156 68.882812 133.457031 68.882812 C 132.75 68.882812 132.175781 69.453125 132.175781 70.160156 C 132.175781 70.867188 132.75 71.4375 133.457031 71.4375 C 134.160156 71.4375 134.734375 70.867188 134.734375 70.160156 Z M 134.734375 70.160156 "></path>
</g>
<clipPath id="clip72"> <rect x="0" y="0" width="179" height="175"></rect>
</clipPath>
<g id="surface219" clip-path="url(#clip72)">
<path style=" stroke:none;fill-rule:nonzero;fill:rgb(100%,49.803922%,16.470589%);fill-opacity:1;" d="M 130.625 61.640625 C 130.625 62.144531 130.214844 62.554688 129.710938 62.554688 C 129.203125 62.554688 128.796875 62.144531 128.796875 61.640625 C 128.796875 61.136719 129.203125 60.726562 129.710938 60.726562 C 130.214844 60.726562 130.625 61.136719 130.625 61.640625 Z M 130.988281 61.640625 C 130.988281 60.933594 130.417969 60.363281 129.710938 60.363281 C 129.003906 60.363281 128.429688 60.933594 128.429688 61.640625 C 128.429688 62.347656 129.003906 62.921875 129.710938 62.921875 C 130.417969 62.921875 130.988281 62.347656 130.988281 61.640625 Z M 130.988281 61.640625 "></path>
</g>
<clipPath id="clip73"> <rect x="0" y="0" width="179" height="175"></rect>
</clipPath>
<g id="surface222" clip-path="url(#clip73)">
<path style=" stroke:none;fill-rule:nonzero;fill:rgb(100%,49.803922%,16.470589%);fill-opacity:1;" d="M 134.367188 68.722656 C 134.367188 69.226562 133.960938 69.632812 133.457031 69.632812 C 132.949219 69.632812 132.542969 69.226562 132.542969 68.722656 C 132.542969 68.214844 132.949219 67.808594 133.457031 67.808594 C 133.960938 67.808594 134.367188 68.214844 134.367188 68.722656 Z M 134.734375 68.722656 C 134.734375 68.015625 134.160156 67.441406 133.457031 67.441406 C 132.75 67.441406 132.175781 68.015625 132.175781 68.722656 C 132.175781 69.425781 132.75 70 133.457031 70 C 134.160156 70 134.734375 69.425781 134.734375 68.722656 Z M 134.734375 68.722656 "></path>
</g>
<clipPath id="clip74"> <rect x="0" y="0" width="179" height="175"></rect>
</clipPath>
<g id="surface225" clip-path="url(#clip74)">
<path style=" stroke:none;fill-rule:nonzero;fill:rgb(100%,49.803922%,16.470589%);fill-opacity:1;" d="M 136.140625 64.058594 C 136.140625 64.5625 135.730469 64.972656 135.226562 64.972656 C 134.722656 64.972656 134.3125 64.5625 134.3125 64.058594 C 134.3125 63.554688 134.722656 63.144531 135.226562 63.144531 C 135.730469 63.144531 136.140625 63.554688 136.140625 64.058594 Z M 136.503906 64.058594 C 136.503906 63.351562 135.933594 62.78125 135.226562 62.78125 C 134.519531 62.78125 133.945312 63.351562 133.945312 64.058594 C 133.945312 64.765625 134.519531 65.335938 135.226562 65.335938 C 135.933594 65.335938 136.503906 64.765625 136.503906 64.058594 Z M 136.503906 64.058594 "></path>
</g>
<clipPath id="clip75"> <rect x="0" y="0" width="179" height="175"></rect>
</clipPath>
<g id="surface228" clip-path="url(#clip75)">
<path style="fill:none;stroke-width:0.176389;stroke-linecap:butt;stroke-linejoin:round;stroke:rgb(100%,49.803922%,16.470589%);stroke-opacity:1;stroke-miterlimit:10;" d="M 237.571283 28.769564 L 240.971992 28.769564 " transform="matrix(3.539014,0,0,3.539014,-713.330503,-38.710408)"></path>
</g>
<clipPath id="clip76"> <rect x="0" y="0" width="179" height="175"></rect>
</clipPath>
<g id="surface231" clip-path="url(#clip76)">
<path style="fill-rule:nonzero;fill:rgb(100%,48.627451%,15.686275%);fill-opacity:0.25098;stroke-width:0.176389;stroke-linecap:square;stroke-linejoin:miter;stroke:rgb(100%,49.803922%,16.470589%);stroke-opacity:1;stroke-miterlimit:10;" d="M 237.571283 30.243094 L 240.971992 30.243094 L 240.971992 28.355651 L 237.571283 28.355651 L 237.571283 30.243094 " transform="matrix(3.539014,0,0,3.539014,-713.330503,-38.710408)"></path>
</g>
<clipPath id="clip77"> <rect x="0" y="0" width="179" height="175"></rect>
</clipPath>
<g id="surface234" clip-path="url(#clip77)">
<path style="fill:none;stroke-width:0.105833;stroke-linecap:butt;stroke-linejoin:miter;stroke:rgb(100%,0%,0%);stroke-opacity:1;stroke-miterlimit:10;" d="M 239.27219 24.675688 L 239.27219 25.605061 M 238.807503 25.140374 L 239.736876 25.140374 " transform="matrix(3.539014,0,0,3.539014,-713.330503,-38.710408)"></path>
</g>
<clipPath id="clip78"> <rect x="0" y="0" width="179" height="175"></rect>
</clipPath>
<g id="surface237" clip-path="url(#clip78)">
<path style=" stroke:none;fill-rule:nonzero;fill:rgb(100%,15.686275%,0%);fill-opacity:1;" d="M 155.648438 49.8125 C 156.152344 49.8125 156.5625 50.222656 156.5625 50.726562 C 156.5625 51.234375 156.152344 51.640625 155.648438 51.640625 C 155.144531 51.640625 154.734375 51.234375 154.734375 50.726562 C 154.734375 50.222656 155.144531 49.8125 155.648438 49.8125 Z M 155.648438 49.449219 C 154.941406 49.449219 154.367188 50.019531 154.367188 50.726562 C 154.367188 51.433594 154.941406 52.007812 155.648438 52.007812 C 156.355469 52.007812 156.925781 51.433594 156.925781 50.726562 C 156.925781 50.019531 156.355469 49.449219 155.648438 49.449219 Z M 155.648438 49.449219 "></path>
</g>
<clipPath id="clip79"> <rect x="0" y="0" width="179" height="175"></rect>
</clipPath>
<g id="surface240" clip-path="url(#clip79)">
<path style=" stroke:none;fill-rule:nonzero;fill:rgb(100%,15.686275%,0%);fill-opacity:1;" d="M 153.773438 52.246094 C 154.28125 52.246094 154.6875 52.65625 154.6875 53.160156 C 154.6875 53.664062 154.28125 54.074219 153.773438 54.074219 C 153.269531 54.074219 152.859375 53.664062 152.859375 53.160156 C 152.859375 52.65625 153.269531 52.246094 153.773438 52.246094 Z M 153.773438 51.882812 C 153.066406 51.882812 152.496094 52.453125 152.496094 53.160156 C 152.496094 53.867188 153.066406 54.441406 153.773438 54.441406 C 154.480469 54.441406 155.054688 53.867188 155.054688 53.160156 C 155.054688 52.453125 154.480469 51.882812 153.773438 51.882812 Z M 153.773438 51.882812 "></path>
</g>
<clipPath id="clip80"> <rect x="0" y="0" width="179" height="175"></rect>
</clipPath>
<g id="surface243" clip-path="url(#clip80)">
<path style=" stroke:none;fill-rule:nonzero;fill:rgb(100%,15.686275%,0%);fill-opacity:1;" d="M 157.519531 37.859375 C 158.023438 37.859375 158.433594 38.269531 158.433594 38.773438 C 158.433594 39.277344 158.023438 39.6875 157.519531 39.6875 C 157.015625 39.6875 156.605469 39.277344 156.605469 38.773438 C 156.605469 38.269531 157.015625 37.859375 157.519531 37.859375 Z M 157.519531 37.496094 C 156.8125 37.496094 156.242188 38.066406 156.242188 38.773438 C 156.242188 39.480469 156.8125 40.050781 157.519531 40.050781 C 158.226562 40.050781 158.796875 39.480469 158.796875 38.773438 C 158.796875 38.066406 158.226562 37.496094 157.519531 37.496094 Z M 157.519531 37.496094 "></path>
</g>
<clipPath id="clip81"> <rect x="0" y="0" width="179" height="175"></rect>
</clipPath>
<g id="surface246" clip-path="url(#clip81)">
<path style=" stroke:none;fill-rule:nonzero;fill:rgb(100%,15.686275%,0%);fill-opacity:1;" d="M 158.578125 42.421875 C 159.085938 42.421875 159.492188 42.832031 159.492188 43.335938 C 159.492188 43.839844 159.085938 44.25 158.578125 44.25 C 158.074219 44.25 157.664062 43.839844 157.664062 43.335938 C 157.664062 42.832031 158.074219 42.421875 158.578125 42.421875 Z M 158.578125 42.058594 C 157.871094 42.058594 157.300781 42.628906 157.300781 43.335938 C 157.300781 44.042969 157.871094 44.613281 158.578125 44.613281 C 159.285156 44.613281 159.859375 44.042969 159.859375 43.335938 C 159.859375 42.628906 159.285156 42.058594 158.578125 42.058594 Z M 158.578125 42.058594 "></path>
</g>
<clipPath id="clip82"> <rect x="0" y="0" width="179" height="175"></rect>
</clipPath>
<g id="surface249" clip-path="url(#clip82)">
<path style=" stroke:none;fill-rule:nonzero;fill:rgb(100%,15.686275%,0%);fill-opacity:1;" d="M 156.457031 40.683594 C 156.960938 40.683594 157.371094 41.09375 157.371094 41.597656 C 157.371094 42.101562 156.960938 42.511719 156.457031 42.511719 C 155.953125 42.511719 155.542969 42.101562 155.542969 41.597656 C 155.542969 41.09375 155.953125 40.683594 156.457031 40.683594 Z M 156.457031 40.316406 C 155.75 40.316406 155.175781 40.890625 155.175781 41.597656 C 155.175781 42.304688 155.75 42.875 156.457031 42.875 C 157.164062 42.875 157.734375 42.304688 157.734375 41.597656 C 157.734375 40.890625 157.164062 40.316406 156.457031 40.316406 Z M 156.457031 40.316406 "></path>
</g>
<clipPath id="clip83"> <rect x="0" y="0" width="179" height="175"></rect>
</clipPath>
<g id="surface252" clip-path="url(#clip83)">
<path style=" stroke:none;fill-rule:nonzero;fill:rgb(100%,15.686275%,0%);fill-opacity:1;" d="M 157.519531 58.011719 C 158.023438 58.011719 158.433594 58.421875 158.433594 58.925781 C 158.433594 59.429688 158.023438 59.839844 157.519531 59.839844 C 157.015625 59.839844 156.605469 59.429688 156.605469 58.925781 C 156.605469 58.421875 157.015625 58.011719 157.519531 58.011719 Z M 157.519531 57.648438 C 156.8125 57.648438 156.242188 58.21875 156.242188 58.925781 C 156.242188 59.632812 156.8125 60.207031 157.519531 60.207031 C 158.226562 60.207031 158.796875 59.632812 158.796875 58.925781 C 158.796875 58.21875 158.226562 57.648438 157.519531 57.648438 Z M 157.519531 57.648438 "></path>
</g>
<clipPath id="clip84"> <rect x="0" y="0" width="179" height="175"></rect>
</clipPath>
<g id="surface255" clip-path="url(#clip84)">
<path style=" stroke:none;fill-rule:nonzero;fill:rgb(100%,15.686275%,0%);fill-opacity:1;" d="M 155.648438 56.09375 C 156.152344 56.09375 156.5625 56.503906 156.5625 57.007812 C 156.5625 57.511719 156.152344 57.921875 155.648438 57.921875 C 155.144531 57.921875 154.734375 57.511719 154.734375 57.007812 C 154.734375 56.503906 155.144531 56.09375 155.648438 56.09375 Z M 155.648438 55.730469 C 154.941406 55.730469 154.367188 56.300781 154.367188 57.007812 C 154.367188 57.714844 154.941406 58.285156 155.648438 58.285156 C 156.355469 58.285156 156.925781 57.714844 156.925781 57.007812 C 156.925781 56.300781 156.355469 55.730469 155.648438 55.730469 Z M 155.648438 55.730469 "></path>
</g>
<clipPath id="clip85"> <rect x="0" y="0" width="179" height="175"></rect>
</clipPath>
<g id="surface258" clip-path="url(#clip85)">
<path style=" stroke:none;fill-rule:nonzero;fill:rgb(100%,15.686275%,0%);fill-opacity:1;" d="M 159.390625 54.8125 C 159.898438 54.8125 160.304688 55.222656 160.304688 55.726562 C 160.304688 56.230469 159.898438 56.640625 159.390625 56.640625 C 158.886719 56.640625 158.480469 56.230469 158.480469 55.726562 C 158.480469 55.222656 158.886719 54.8125 159.390625 54.8125 Z M 159.390625 54.449219 C 158.6875 54.449219 158.113281 55.019531 158.113281 55.726562 C 158.113281 56.433594 158.6875 57.007812 159.390625 57.007812 C 160.097656 57.007812 160.671875 56.433594 160.671875 55.726562 C 160.671875 55.019531 160.097656 54.449219 159.390625 54.449219 Z M 159.390625 54.449219 "></path>
</g>
<clipPath id="clip86"> <rect x="0" y="0" width="179" height="175"></rect>
</clipPath>
<g id="surface261" clip-path="url(#clip86)">
<path style=" stroke:none;fill-rule:nonzero;fill:rgb(100%,15.686275%,0%);fill-opacity:1;" d="M 161.265625 49.515625 C 161.769531 49.515625 162.179688 49.925781 162.179688 50.429688 C 162.179688 50.933594 161.769531 51.34375 161.265625 51.34375 C 160.761719 51.34375 160.351562 50.933594 160.351562 50.429688 C 160.351562 49.925781 160.761719 49.515625 161.265625 49.515625 Z M 161.265625 49.152344 C 160.558594 49.152344 159.984375 49.722656 159.984375 50.429688 C 159.984375 51.136719 160.558594 51.707031 161.265625 51.707031 C 161.972656 51.707031 162.542969 51.136719 162.542969 50.429688 C 162.542969 49.722656 161.972656 49.152344 161.265625 49.152344 Z M 161.265625 49.152344 "></path>
</g>
<clipPath id="clip87"> <rect x="0" y="0" width="179" height="175"></rect>
</clipPath>
<g id="surface264" clip-path="url(#clip87)">
<path style=" stroke:none;fill-rule:nonzero;fill:rgb(100%,15.686275%,0%);fill-opacity:1;" d="M 157.519531 62.449219 C 158.023438 62.449219 158.433594 62.855469 158.433594 63.363281 C 158.433594 63.867188 158.023438 64.277344 157.519531 64.277344 C 157.015625 64.277344 156.605469 63.867188 156.605469 63.363281 C 156.605469 62.855469 157.015625 62.449219 157.519531 62.449219 Z M 157.519531 62.082031 C 156.8125 62.082031 156.242188 62.65625 156.242188 63.363281 C 156.242188 64.070312 156.8125 64.640625 157.519531 64.640625 C 158.226562 64.640625 158.796875 64.070312 158.796875 63.363281 C 158.796875 62.65625 158.226562 62.082031 157.519531 62.082031 Z M 157.519531 62.082031 "></path>
</g>
<clipPath id="clip88"> <rect x="0" y="0" width="179" height="175"></rect>
</clipPath>
<g id="surface267" clip-path="url(#clip88)">
<path style="fill:none;stroke-width:0.176389;stroke-linecap:butt;stroke-linejoin:round;stroke:rgb(100%,15.686275%,0%);stroke-opacity:1;stroke-miterlimit:10;" d="M 244.371598 25.616098 L 247.771203 25.616098 " transform="matrix(3.539014,0,0,3.539014,-713.330503,-38.710408)"></path>
</g>
<clipPath id="clip89"> <rect x="0" y="0" width="179" height="175"></rect>
</clipPath>
<g id="surface270" clip-path="url(#clip89)">
<path style="fill-rule:nonzero;fill:rgb(100%,15.686275%,0%);fill-opacity:0.25098;stroke-width:0.176389;stroke-linecap:square;stroke-linejoin:miter;stroke:rgb(100%,15.686275%,0%);stroke-opacity:1;stroke-miterlimit:10;" d="M 244.371598 27.046582 L 247.771203 27.046582 L 247.771203 23.183394 L 244.371598 23.183394 L 244.371598 27.046582 " transform="matrix(3.539014,0,0,3.539014,-713.330503,-38.710408)"></path>
</g>
<clipPath id="clip90"> <rect x="0" y="0" width="179" height="175"></rect>
</clipPath>
<g id="surface273" clip-path="url(#clip90)">
<path style="fill:none;stroke-width:0.176389;stroke-linecap:butt;stroke-linejoin:round;stroke:rgb(0%,0%,0%);stroke-opacity:1;stroke-miterlimit:10;" d="M 218.871245 32.929665 L 218.871245 32.657035 L 225.67156 32.657035 L 225.67156 32.929665 " transform="matrix(3.539014,0,0,3.539014,-713.330503,-38.710408)"></path>
</g>
<clipPath id="clip91"> <rect x="0" y="0" width="179" height="175"></rect>
</clipPath>
<g id="surface276" clip-path="url(#clip91)">
<path style="fill:none;stroke-width:0.176389;stroke-linecap:butt;stroke-linejoin:round;stroke:rgb(0%,0%,0%);stroke-opacity:1;stroke-miterlimit:10;" d="M 225.67156 27.654758 L 225.67156 27.382127 L 232.471875 27.382127 L 232.471875 27.654758 " transform="matrix(3.539014,0,0,3.539014,-713.330503,-38.710408)"></path>
</g>
<clipPath id="clip92"> <rect x="0" y="0" width="179" height="175"></rect>
</clipPath>
<g id="surface279" clip-path="url(#clip92)">
<path style="fill:none;stroke-width:0.176389;stroke-linecap:butt;stroke-linejoin:round;stroke:rgb(0%,0%,0%);stroke-opacity:1;stroke-miterlimit:10;" d="M 232.471875 24.222039 L 232.471875 23.950512 L 239.27219 23.950512 L 239.27219 24.222039 " transform="matrix(3.539014,0,0,3.539014,-713.330503,-38.710408)"></path>
</g>
<clipPath id="clip93"> <rect x="0" y="0" width="179" height="175"></rect>
</clipPath>
<g id="surface282" clip-path="url(#clip93)">
<path style="fill:none;stroke-width:0.176389;stroke-linecap:butt;stroke-linejoin:round;stroke:rgb(0%,0%,0%);stroke-opacity:1;stroke-miterlimit:10;" d="M 239.27219 20.975858 L 239.27219 20.704331 L 246.0714 20.704331 L 246.0714 20.975858 " transform="matrix(3.539014,0,0,3.539014,-713.330503,-38.710408)"></path>
</g>
<clipPath id="clip94"> <rect x="0" y="0" width="179" height="175"></rect>
</clipPath>
<g id="surface285" clip-path="url(#clip94)">
<g style="fill:rgb(0%,0%,0%);fill-opacity:1;"> <use xlink:href="#glyph0-17" x="67.480469" y="78.516186"></use> <use xlink:href="#glyph0-17" x="72.336244" y="78.516186"></use> <use xlink:href="#glyph0-17" x="77.19202" y="78.516186"></use>
</g>
</g>
<clipPath id="clip95"> <rect x="0" y="0" width="179" height="175"></rect>
</clipPath>
<g id="surface288" clip-path="url(#clip95)">
<g style="fill:rgb(0%,0%,0%);fill-opacity:1;"> <use xlink:href="#glyph0-17" x="91.546875" y="59.848217"></use> <use xlink:href="#glyph0-17" x="96.402651" y="59.848217"></use> <use xlink:href="#glyph0-17" x="101.258426" y="59.848217"></use>
</g>
</g>
<clipPath id="clip96"> <rect x="0" y="0" width="179" height="175"></rect>
</clipPath>
<g id="surface291" clip-path="url(#clip96)">
<g style="fill:rgb(0%,0%,0%);fill-opacity:1;"> <use xlink:href="#glyph0-17" x="117.554688" y="47.703686"></use> <use xlink:href="#glyph0-17" x="122.410463" y="47.703686"></use>
</g>
</g>
<clipPath id="clip97"> <rect x="0" y="0" width="179" height="175"></rect>
</clipPath>
<g id="surface294" clip-path="url(#clip97)">
<g style="fill:rgb(0%,0%,0%);fill-opacity:1;"> <use xlink:href="#glyph0-17" x="141.621094" y="36.215405"></use> <use xlink:href="#glyph0-17" x="146.476869" y="36.215405"></use>
</g>
</g>
<clipPath id="clip98"> <rect x="0" y="0" width="179" height="175"></rect>
</clipPath>
<g id="surface297" clip-path="url(#clip98)">
<g style="fill:rgb(0%,0%,0%);fill-opacity:1;"> <use xlink:href="#glyph0-4" x="53.910156" y="146.109936"></use> <use xlink:href="#glyph0-18" x="60.849941" y="146.109936"></use>
</g>
</g>
<clipPath id="clip99"> <rect x="0" y="0" width="179" height="175"></rect>
</clipPath>
<g id="surface300" clip-path="url(#clip99)">
<g style="fill:rgb(0%,0%,0%);fill-opacity:1;"> <use xlink:href="#glyph0-19" x="78.519531" y="146.109936"></use> <use xlink:href="#glyph0-19" x="85.459316" y="146.109936"></use>
</g>
</g>
<clipPath id="clip100"> <rect x="0" y="0" width="179" height="175"></rect>
</clipPath>
<g id="surface303" clip-path="url(#clip100)">
<g style="fill:rgb(0%,0%,0%);fill-opacity:1;"> <use xlink:href="#glyph0-19" x="102.542969" y="146.109936"></use> <use xlink:href="#glyph0-20" x="109.482753" y="146.109936"></use>
</g>
</g>
<clipPath id="clip101"> <rect x="0" y="0" width="179" height="175"></rect>
</clipPath>
<g id="surface306" clip-path="url(#clip101)">
<g style="fill:rgb(0%,0%,0%);fill-opacity:1;"> <use xlink:href="#glyph0-21" x="126.546875" y="146.109936"></use> <use xlink:href="#glyph0-1" x="133.486659" y="146.109936"></use>
</g>
</g>
<clipPath id="clip102"> <rect x="0" y="0" width="179" height="175"></rect>
</clipPath>
<g id="surface309" clip-path="url(#clip102)">
<g style="fill:rgb(0%,0%,0%);fill-opacity:1;"> <use xlink:href="#glyph0-21" x="150.597656" y="146.109936"></use> <use xlink:href="#glyph0-21" x="157.537441" y="146.109936"></use>
</g>
</g>
</defs>
<g id="surface1">
<use xlink:href="#surface5"></use>
<use xlink:href="#surface8"></use>
<use xlink:href="#surface11"></use>
<use xlink:href="#surface14"></use>
<use xlink:href="#surface17"></use>
<use xlink:href="#surface20"></use>
<use xlink:href="#surface23"></use>
<use xlink:href="#surface26"></use>
<use xlink:href="#surface29"></use>
<use xlink:href="#surface32"></use>
<use xlink:href="#surface35"></use>
<use xlink:href="#surface38"></use>
<use xlink:href="#surface41"></use>
<use xlink:href="#surface44"></use>
<use xlink:href="#surface47"></use>
<use xlink:href="#surface50"></use>
<use xlink:href="#surface53"></use>
<use xlink:href="#surface56"></use>
<use xlink:href="#surface59"></use>
<use xlink:href="#surface62"></use>
<use xlink:href="#surface65"></use>
<use xlink:href="#surface68"></use>
<use xlink:href="#surface71"></use>
<use xlink:href="#surface74"></use>
<use xlink:href="#surface77"></use>
<use xlink:href="#surface80"></use>
<use xlink:href="#surface83"></use>
<use xlink:href="#surface86"></use>
<use xlink:href="#surface89"></use>
<use xlink:href="#surface92"></use>
<use xlink:href="#surface95"></use>
<use xlink:href="#surface98"></use>
<use xlink:href="#surface101"></use>
<use xlink:href="#surface104"></use>
<use xlink:href="#surface108"></use>
<use xlink:href="#surface111"></use>
<use xlink:href="#surface114"></use>
<use xlink:href="#surface117"></use>
<use xlink:href="#surface120"></use>
<use xlink:href="#surface123"></use>
<use xlink:href="#surface126"></use>
<use xlink:href="#surface129"></use>
<use xlink:href="#surface132"></use>
<use xlink:href="#surface135"></use>
<use xlink:href="#surface138"></use>
<use xlink:href="#surface141"></use>
<use xlink:href="#surface144"></use>
<use xlink:href="#surface147"></use>
<use xlink:href="#surface150"></use>
<use xlink:href="#surface153"></use>
<use xlink:href="#surface156"></use>
<use xlink:href="#surface159"></use>
<use xlink:href="#surface162"></use>
<use xlink:href="#surface165"></use>
<use xlink:href="#surface168"></use>
<use xlink:href="#surface171"></use>
<use xlink:href="#surface174"></use>
<use xlink:href="#surface177"></use>
<use xlink:href="#surface180"></use>
<use xlink:href="#surface183"></use>
<use xlink:href="#surface186"></use>
<use xlink:href="#surface189"></use>
<use xlink:href="#surface192"></use>
<use xlink:href="#surface195"></use>
<use xlink:href="#surface198"></use>
<use xlink:href="#surface201"></use>
<use xlink:href="#surface204"></use>
<use xlink:href="#surface207"></use>
<use xlink:href="#surface210"></use>
<use xlink:href="#surface213"></use>
<use xlink:href="#surface216"></use>
<use xlink:href="#surface219"></use>
<use xlink:href="#surface222"></use>
<use xlink:href="#surface225"></use>
<use xlink:href="#surface228"></use>
<use xlink:href="#surface231"></use>
<use xlink:href="#surface234"></use>
<use xlink:href="#surface237"></use>
<use xlink:href="#surface240"></use>
<use xlink:href="#surface243"></use>
<use xlink:href="#surface246"></use>
<use xlink:href="#surface249"></use>
<use xlink:href="#surface252"></use>
<use xlink:href="#surface255"></use>
<use xlink:href="#surface258"></use>
<use xlink:href="#surface261"></use>
<use xlink:href="#surface264"></use>
<use xlink:href="#surface267"></use>
<use xlink:href="#surface270"></use>
<use xlink:href="#surface273"></use>
<use xlink:href="#surface276"></use>
<use xlink:href="#surface279"></use>
<use xlink:href="#surface282"></use>
<use xlink:href="#surface285"></use>
<use xlink:href="#surface288"></use>
<use xlink:href="#surface291"></use>
<use xlink:href="#surface294"></use>
<use xlink:href="#surface297"></use>
<use xlink:href="#surface300"></use>
<use xlink:href="#surface303"></use>
<use xlink:href="#surface306"></use>
<use xlink:href="#surface309"></use>
<g style="fill:rgb(0%,0%,0%);fill-opacity:1;"> <use xlink:href="#glyph1-1" x="15.535717" y="82.746094"></use>
</g>
<g style="fill:rgb(0%,0%,0%);fill-opacity:1;"> <use xlink:href="#glyph2-1" x="17.160101" y="75.808594"></use> <use xlink:href="#glyph2-2" x="17.160101" y="73.555237"></use> <use xlink:href="#glyph2-3" x="17.160101" y="69.045069"></use> <use xlink:href="#glyph2-4" x="17.160101" y="66.34588"></use>
</g>
</g>
</svg>
