<?xml version="1.0"?>

<svg xmlns="http://www.w3.org/2000/svg" xmlns:xlink="http://www.w3.org/1999/xlink" width="287.433947" height="238.911503" viewBox="0 0 287.433947 238.911503" version="1.1">
<defs>
<g>
<symbol overflow="visible" id="glyph0-0">
<path style="stroke:none;" d="M 2 0 L 2 -10 L 10 -10 L 10 0 Z M 2.25 -0.25 L 9.75 -0.25 L 9.75 -9.75 L 2.25 -9.75 Z M 2.25 -0.25 "></path>
</symbol>
<symbol overflow="visible" id="glyph0-1">
<path style="stroke:none;" d="M 6.4375 0 L 6.4375 -1.046875 C 5.914062 -0.222656 5.144531 0.1875 4.125 0.1875 C 3.457031 0.1875 2.847656 0.00390625 2.296875 -0.359375 C 1.742188 -0.722656 1.3125 -1.234375 1 -1.890625 C 0.695312 -2.546875 0.546875 -3.296875 0.546875 -4.140625 C 0.546875 -4.972656 0.679688 -5.722656 0.953125 -6.390625 C 1.234375 -7.066406 1.648438 -7.582031 2.203125 -7.9375 C 2.753906 -8.300781 3.375 -8.484375 4.0625 -8.484375 C 4.5625 -8.484375 5.003906 -8.378906 5.390625 -8.171875 C 5.785156 -7.960938 6.101562 -7.6875 6.34375 -7.34375 L 6.34375 -11.453125 L 7.75 -11.453125 L 7.75 0 Z M 2 -4.140625 C 2 -3.078125 2.222656 -2.28125 2.671875 -1.75 C 3.117188 -1.226562 3.644531 -0.96875 4.25 -0.96875 C 4.863281 -0.96875 5.382812 -1.21875 5.8125 -1.71875 C 6.25 -2.226562 6.46875 -3 6.46875 -4.03125 C 6.46875 -5.164062 6.25 -6 5.8125 -6.53125 C 5.375 -7.0625 4.832031 -7.328125 4.1875 -7.328125 C 3.5625 -7.328125 3.039062 -7.070312 2.625 -6.5625 C 2.207031 -6.050781 2 -5.242188 2 -4.140625 Z M 2 -4.140625 "></path>
</symbol>
<symbol overflow="visible" id="glyph0-2">
<path style="stroke:none;" d="M 6.46875 -1.03125 C 5.945312 -0.582031 5.445312 -0.265625 4.96875 -0.078125 C 4.488281 0.0976562 3.972656 0.1875 3.421875 0.1875 C 2.503906 0.1875 1.800781 -0.0351562 1.3125 -0.484375 C 0.820312 -0.929688 0.578125 -1.5 0.578125 -2.1875 C 0.578125 -2.59375 0.671875 -2.960938 0.859375 -3.296875 C 1.046875 -3.640625 1.285156 -3.910156 1.578125 -4.109375 C 1.878906 -4.316406 2.21875 -4.472656 2.59375 -4.578125 C 2.875 -4.648438 3.289062 -4.71875 3.84375 -4.78125 C 4.976562 -4.914062 5.816406 -5.078125 6.359375 -5.265625 C 6.359375 -5.460938 6.359375 -5.585938 6.359375 -5.640625 C 6.359375 -6.210938 6.226562 -6.613281 5.96875 -6.84375 C 5.601562 -7.164062 5.066406 -7.328125 4.359375 -7.328125 C 3.703125 -7.328125 3.210938 -7.207031 2.890625 -6.96875 C 2.578125 -6.738281 2.347656 -6.332031 2.203125 -5.75 L 0.828125 -5.9375 C 0.953125 -6.519531 1.15625 -6.992188 1.4375 -7.359375 C 1.726562 -7.722656 2.144531 -8 2.6875 -8.1875 C 3.226562 -8.382812 3.851562 -8.484375 4.5625 -8.484375 C 5.269531 -8.484375 5.84375 -8.398438 6.28125 -8.234375 C 6.726562 -8.066406 7.054688 -7.859375 7.265625 -7.609375 C 7.472656 -7.359375 7.617188 -7.039062 7.703125 -6.65625 C 7.753906 -6.414062 7.78125 -5.984375 7.78125 -5.359375 L 7.78125 -3.484375 C 7.78125 -2.171875 7.804688 -1.34375 7.859375 -1 C 7.921875 -0.65625 8.039062 -0.320312 8.21875 0 L 6.75 0 C 6.601562 -0.289062 6.507812 -0.632812 6.46875 -1.03125 Z M 6.359375 -4.171875 C 5.847656 -3.960938 5.082031 -3.785156 4.0625 -3.640625 C 3.476562 -3.554688 3.066406 -3.460938 2.828125 -3.359375 C 2.585938 -3.253906 2.398438 -3.097656 2.265625 -2.890625 C 2.140625 -2.691406 2.078125 -2.472656 2.078125 -2.234375 C 2.078125 -1.859375 2.21875 -1.546875 2.5 -1.296875 C 2.789062 -1.046875 3.207031 -0.921875 3.75 -0.921875 C 4.289062 -0.921875 4.769531 -1.035156 5.1875 -1.265625 C 5.613281 -1.503906 5.925781 -1.832031 6.125 -2.25 C 6.28125 -2.5625 6.359375 -3.03125 6.359375 -3.65625 Z M 6.359375 -4.171875 "></path>
</symbol>
<symbol overflow="visible" id="glyph0-3">
<path style="stroke:none;" d="M 4.125 -1.265625 L 4.328125 -0.015625 C 3.929688 0.0664062 3.578125 0.109375 3.265625 0.109375 C 2.753906 0.109375 2.359375 0.03125 2.078125 -0.125 C 1.796875 -0.289062 1.597656 -0.503906 1.484375 -0.765625 C 1.367188 -1.035156 1.3125 -1.59375 1.3125 -2.4375 L 1.3125 -7.203125 L 0.28125 -7.203125 L 0.28125 -8.296875 L 1.3125 -8.296875 L 1.3125 -10.359375 L 2.71875 -11.203125 L 2.71875 -8.296875 L 4.125 -8.296875 L 4.125 -7.203125 L 2.71875 -7.203125 L 2.71875 -2.359375 C 2.71875 -1.953125 2.738281 -1.691406 2.78125 -1.578125 C 2.832031 -1.460938 2.914062 -1.367188 3.03125 -1.296875 C 3.144531 -1.234375 3.304688 -1.203125 3.515625 -1.203125 C 3.671875 -1.203125 3.875 -1.222656 4.125 -1.265625 Z M 4.125 -1.265625 "></path>
</symbol>
<symbol overflow="visible" id="glyph0-4">
<path style="stroke:none;" d=""></path>
</symbol>
<symbol overflow="visible" id="glyph0-5">
<path style="stroke:none;" d="M 1.0625 3.1875 L 1.0625 -8.296875 L 2.34375 -8.296875 L 2.34375 -7.21875 C 2.644531 -7.644531 2.984375 -7.960938 3.359375 -8.171875 C 3.742188 -8.378906 4.207031 -8.484375 4.75 -8.484375 C 5.457031 -8.484375 6.082031 -8.300781 6.625 -7.9375 C 7.164062 -7.570312 7.570312 -7.054688 7.84375 -6.390625 C 8.125 -5.734375 8.265625 -5.007812 8.265625 -4.21875 C 8.265625 -3.363281 8.109375 -2.597656 7.796875 -1.921875 C 7.492188 -1.242188 7.050781 -0.722656 6.46875 -0.359375 C 5.894531 0.00390625 5.285156 0.1875 4.640625 0.1875 C 4.171875 0.1875 3.75 0.0859375 3.375 -0.109375 C 3.007812 -0.304688 2.707031 -0.554688 2.46875 -0.859375 L 2.46875 3.1875 Z M 2.328125 -4.109375 C 2.328125 -3.035156 2.539062 -2.242188 2.96875 -1.734375 C 3.40625 -1.222656 3.929688 -0.96875 4.546875 -0.96875 C 5.171875 -0.96875 5.707031 -1.234375 6.15625 -1.765625 C 6.601562 -2.296875 6.828125 -3.113281 6.828125 -4.21875 C 6.828125 -5.28125 6.609375 -6.070312 6.171875 -6.59375 C 5.734375 -7.125 5.210938 -7.390625 4.609375 -7.390625 C 4.015625 -7.390625 3.484375 -7.109375 3.015625 -6.546875 C 2.554688 -5.984375 2.328125 -5.171875 2.328125 -4.109375 Z M 2.328125 -4.109375 "></path>
</symbol>
<symbol overflow="visible" id="glyph0-6">
<path style="stroke:none;" d="M 6.734375 -2.671875 L 8.1875 -2.5 C 7.957031 -1.644531 7.53125 -0.984375 6.90625 -0.515625 C 6.289062 -0.046875 5.503906 0.1875 4.546875 0.1875 C 3.328125 0.1875 2.363281 -0.1875 1.65625 -0.9375 C 0.945312 -1.6875 0.59375 -2.734375 0.59375 -4.078125 C 0.59375 -5.472656 0.953125 -6.554688 1.671875 -7.328125 C 2.390625 -8.097656 3.320312 -8.484375 4.46875 -8.484375 C 5.570312 -8.484375 6.472656 -8.101562 7.171875 -7.34375 C 7.878906 -6.59375 8.234375 -5.535156 8.234375 -4.171875 C 8.234375 -4.085938 8.234375 -3.960938 8.234375 -3.796875 L 2.046875 -3.796875 C 2.097656 -2.878906 2.351562 -2.175781 2.8125 -1.6875 C 3.28125 -1.207031 3.859375 -0.96875 4.546875 -0.96875 C 5.066406 -0.96875 5.507812 -1.101562 5.875 -1.375 C 6.238281 -1.644531 6.523438 -2.078125 6.734375 -2.671875 Z M 2.125 -4.953125 L 6.75 -4.953125 C 6.6875 -5.648438 6.507812 -6.171875 6.21875 -6.515625 C 5.769531 -7.054688 5.191406 -7.328125 4.484375 -7.328125 C 3.835938 -7.328125 3.289062 -7.109375 2.84375 -6.671875 C 2.40625 -6.242188 2.164062 -5.671875 2.125 -4.953125 Z M 2.125 -4.953125 "></path>
</symbol>
<symbol overflow="visible" id="glyph0-7">
<path style="stroke:none;" d="M 1.046875 0 L 1.046875 -8.296875 L 2.3125 -8.296875 L 2.3125 -7.046875 C 2.632812 -7.628906 2.929688 -8.015625 3.203125 -8.203125 C 3.472656 -8.390625 3.773438 -8.484375 4.109375 -8.484375 C 4.578125 -8.484375 5.054688 -8.332031 5.546875 -8.03125 L 5.0625 -6.734375 C 4.71875 -6.929688 4.375 -7.03125 4.03125 -7.03125 C 3.726562 -7.03125 3.453125 -6.9375 3.203125 -6.75 C 2.960938 -6.570312 2.789062 -6.316406 2.6875 -5.984375 C 2.53125 -5.484375 2.453125 -4.9375 2.453125 -4.34375 L 2.453125 0 Z M 1.046875 0 "></path>
</symbol>
<symbol overflow="visible" id="glyph0-8">
<path style="stroke:none;" d="M 0.5 -2.484375 L 1.890625 -2.703125 C 1.960938 -2.140625 2.175781 -1.707031 2.53125 -1.40625 C 2.894531 -1.113281 3.394531 -0.96875 4.03125 -0.96875 C 4.675781 -0.96875 5.15625 -1.097656 5.46875 -1.359375 C 5.78125 -1.628906 5.9375 -1.941406 5.9375 -2.296875 C 5.9375 -2.609375 5.800781 -2.859375 5.53125 -3.046875 C 5.332031 -3.171875 4.851562 -3.328125 4.09375 -3.515625 C 3.0625 -3.773438 2.34375 -4 1.9375 -4.1875 C 1.539062 -4.382812 1.238281 -4.648438 1.03125 -4.984375 C 0.832031 -5.316406 0.734375 -5.6875 0.734375 -6.09375 C 0.734375 -6.46875 0.816406 -6.8125 0.984375 -7.125 C 1.148438 -7.4375 1.378906 -7.695312 1.671875 -7.90625 C 1.890625 -8.070312 2.1875 -8.207031 2.5625 -8.3125 C 2.945312 -8.425781 3.351562 -8.484375 3.78125 -8.484375 C 4.4375 -8.484375 5.007812 -8.390625 5.5 -8.203125 C 5.988281 -8.015625 6.347656 -7.757812 6.578125 -7.4375 C 6.816406 -7.125 6.984375 -6.695312 7.078125 -6.15625 L 5.703125 -5.96875 C 5.640625 -6.394531 5.457031 -6.726562 5.15625 -6.96875 C 4.851562 -7.207031 4.429688 -7.328125 3.890625 -7.328125 C 3.242188 -7.328125 2.78125 -7.21875 2.5 -7 C 2.226562 -6.789062 2.09375 -6.546875 2.09375 -6.265625 C 2.09375 -6.078125 2.148438 -5.910156 2.265625 -5.765625 C 2.378906 -5.617188 2.554688 -5.492188 2.796875 -5.390625 C 2.941406 -5.335938 3.359375 -5.21875 4.046875 -5.03125 C 5.035156 -4.769531 5.726562 -4.550781 6.125 -4.375 C 6.519531 -4.207031 6.828125 -3.960938 7.046875 -3.640625 C 7.273438 -3.316406 7.390625 -2.914062 7.390625 -2.4375 C 7.390625 -1.96875 7.25 -1.523438 6.96875 -1.109375 C 6.695312 -0.703125 6.300781 -0.382812 5.78125 -0.15625 C 5.269531 0.0703125 4.691406 0.1875 4.046875 0.1875 C 2.960938 0.1875 2.140625 -0.0351562 1.578125 -0.484375 C 1.015625 -0.929688 0.65625 -1.597656 0.5 -2.484375 Z M 0.5 -2.484375 "></path>
</symbol>
<symbol overflow="visible" id="glyph0-9">
<path style="stroke:none;" d="M 1.0625 -9.84375 L 1.0625 -11.453125 L 2.46875 -11.453125 L 2.46875 -9.84375 Z M 1.0625 0 L 1.0625 -8.296875 L 2.46875 -8.296875 L 2.46875 0 Z M 1.0625 0 "></path>
</symbol>
<symbol overflow="visible" id="glyph0-10">
<path style="stroke:none;" d="M 1.0625 0 L 1.0625 -8.296875 L 2.328125 -8.296875 L 2.328125 -7.125 C 2.929688 -8.03125 3.8125 -8.484375 4.96875 -8.484375 C 5.46875 -8.484375 5.925781 -8.394531 6.34375 -8.21875 C 6.757812 -8.039062 7.070312 -7.804688 7.28125 -7.515625 C 7.488281 -7.222656 7.632812 -6.875 7.71875 -6.46875 C 7.769531 -6.207031 7.796875 -5.753906 7.796875 -5.109375 L 7.796875 0 L 6.390625 0 L 6.390625 -5.046875 C 6.390625 -5.617188 6.332031 -6.046875 6.21875 -6.328125 C 6.113281 -6.617188 5.921875 -6.847656 5.640625 -7.015625 C 5.367188 -7.179688 5.046875 -7.265625 4.671875 -7.265625 C 4.066406 -7.265625 3.546875 -7.070312 3.109375 -6.6875 C 2.679688 -6.3125 2.46875 -5.59375 2.46875 -4.53125 L 2.46875 0 Z M 1.0625 0 "></path>
</symbol>
<symbol overflow="visible" id="glyph0-11">
<path style="stroke:none;" d="M 6.46875 -3.046875 L 7.859375 -2.859375 C 7.703125 -1.910156 7.3125 -1.164062 6.6875 -0.625 C 6.070312 -0.0820312 5.3125 0.1875 4.40625 0.1875 C 3.269531 0.1875 2.351562 -0.179688 1.65625 -0.921875 C 0.96875 -1.671875 0.625 -2.738281 0.625 -4.125 C 0.625 -5.019531 0.769531 -5.800781 1.0625 -6.46875 C 1.363281 -7.144531 1.816406 -7.648438 2.421875 -7.984375 C 3.035156 -8.316406 3.695312 -8.484375 4.40625 -8.484375 C 5.3125 -8.484375 6.050781 -8.253906 6.625 -7.796875 C 7.195312 -7.347656 7.5625 -6.703125 7.71875 -5.859375 L 6.359375 -5.65625 C 6.222656 -6.207031 5.988281 -6.625 5.65625 -6.90625 C 5.332031 -7.1875 4.9375 -7.328125 4.46875 -7.328125 C 3.757812 -7.328125 3.179688 -7.070312 2.734375 -6.5625 C 2.296875 -6.0625 2.078125 -5.257812 2.078125 -4.15625 C 2.078125 -3.039062 2.289062 -2.226562 2.71875 -1.71875 C 3.144531 -1.21875 3.703125 -0.96875 4.390625 -0.96875 C 4.941406 -0.96875 5.398438 -1.132812 5.765625 -1.46875 C 6.140625 -1.8125 6.375 -2.335938 6.46875 -3.046875 Z M 6.46875 -3.046875 "></path>
</symbol>
<symbol overflow="visible" id="glyph0-12">
<path style="stroke:none;" d="M 1.0625 0 L 1.0625 -8.296875 L 2.3125 -8.296875 L 2.3125 -7.140625 C 2.570312 -7.546875 2.914062 -7.867188 3.34375 -8.109375 C 3.78125 -8.359375 4.273438 -8.484375 4.828125 -8.484375 C 5.441406 -8.484375 5.945312 -8.351562 6.34375 -8.09375 C 6.738281 -7.84375 7.015625 -7.488281 7.171875 -7.03125 C 7.828125 -8 8.679688 -8.484375 9.734375 -8.484375 C 10.554688 -8.484375 11.1875 -8.253906 11.625 -7.796875 C 12.070312 -7.347656 12.296875 -6.648438 12.296875 -5.703125 L 12.296875 0 L 10.90625 0 L 10.90625 -5.234375 C 10.90625 -5.796875 10.859375 -6.195312 10.765625 -6.4375 C 10.671875 -6.6875 10.503906 -6.882812 10.265625 -7.03125 C 10.023438 -7.1875 9.742188 -7.265625 9.421875 -7.265625 C 8.835938 -7.265625 8.351562 -7.070312 7.96875 -6.6875 C 7.582031 -6.300781 7.390625 -5.679688 7.390625 -4.828125 L 7.390625 0 L 5.984375 0 L 5.984375 -5.390625 C 5.984375 -6.015625 5.867188 -6.484375 5.640625 -6.796875 C 5.410156 -7.109375 5.035156 -7.265625 4.515625 -7.265625 C 4.117188 -7.265625 3.753906 -7.160156 3.421875 -6.953125 C 3.085938 -6.742188 2.84375 -6.4375 2.6875 -6.03125 C 2.539062 -5.632812 2.46875 -5.0625 2.46875 -4.3125 L 2.46875 0 Z M 1.0625 0 "></path>
</symbol>
<symbol overflow="visible" id="glyph0-13">
<path style="stroke:none;" d="M 3.75 3.375 C 2.96875 2.394531 2.304688 1.25 1.765625 -0.0625 C 1.234375 -1.382812 0.96875 -2.75 0.96875 -4.15625 C 0.96875 -5.394531 1.171875 -6.582031 1.578125 -7.71875 C 2.046875 -9.03125 2.769531 -10.34375 3.75 -11.65625 L 4.75 -11.65625 C 4.125 -10.570312 3.707031 -9.796875 3.5 -9.328125 C 3.1875 -8.609375 2.9375 -7.859375 2.75 -7.078125 C 2.53125 -6.109375 2.421875 -5.128906 2.421875 -4.140625 C 2.421875 -1.640625 3.195312 0.863281 4.75 3.375 Z M 3.75 3.375 "></path>
</symbol>
<symbol overflow="visible" id="glyph0-14">
<path style="stroke:none;" d="M 1.984375 3.375 L 0.96875 3.375 C 2.53125 0.863281 3.3125 -1.640625 3.3125 -4.140625 C 3.3125 -5.117188 3.195312 -6.09375 2.96875 -7.0625 C 2.789062 -7.84375 2.546875 -8.59375 2.234375 -9.3125 C 2.023438 -9.78125 1.601562 -10.5625 0.96875 -11.65625 L 1.984375 -11.65625 C 2.960938 -10.34375 3.6875 -9.03125 4.15625 -7.71875 C 4.550781 -6.582031 4.75 -5.394531 4.75 -4.15625 C 4.75 -2.75 4.476562 -1.382812 3.9375 -0.0625 C 3.40625 1.25 2.753906 2.394531 1.984375 3.375 Z M 1.984375 3.375 "></path>
</symbol>
<symbol overflow="visible" id="glyph0-15">
<path style="stroke:none;" d="M 0.671875 -5.65625 C 0.671875 -7.007812 0.804688 -8.097656 1.078125 -8.921875 C 1.359375 -9.742188 1.773438 -10.378906 2.328125 -10.828125 C 2.878906 -11.273438 3.570312 -11.5 4.40625 -11.5 C 5.019531 -11.5 5.554688 -11.375 6.015625 -11.125 C 6.484375 -10.882812 6.867188 -10.53125 7.171875 -10.0625 C 7.472656 -9.59375 7.707031 -9.023438 7.875 -8.359375 C 8.050781 -7.691406 8.140625 -6.789062 8.140625 -5.65625 C 8.140625 -4.3125 8 -3.222656 7.71875 -2.390625 C 7.445312 -1.566406 7.035156 -0.925781 6.484375 -0.46875 C 5.929688 -0.0195312 5.238281 0.203125 4.40625 0.203125 C 3.300781 0.203125 2.429688 -0.195312 1.796875 -1 C 1.046875 -1.945312 0.671875 -3.5 0.671875 -5.65625 Z M 2.109375 -5.65625 C 2.109375 -3.769531 2.328125 -2.515625 2.765625 -1.890625 C 3.210938 -1.273438 3.757812 -0.96875 4.40625 -0.96875 C 5.050781 -0.96875 5.59375 -1.28125 6.03125 -1.90625 C 6.46875 -2.53125 6.6875 -3.78125 6.6875 -5.65625 C 6.6875 -7.539062 6.46875 -8.789062 6.03125 -9.40625 C 5.59375 -10.03125 5.046875 -10.34375 4.390625 -10.34375 C 3.742188 -10.34375 3.226562 -10.066406 2.84375 -9.515625 C 2.351562 -8.816406 2.109375 -7.53125 2.109375 -5.65625 Z M 2.109375 -5.65625 "></path>
</symbol>
<symbol overflow="visible" id="glyph0-16">
<path style="stroke:none;" d="M 0.671875 -3 L 2.140625 -3.125 C 2.253906 -2.40625 2.507812 -1.863281 2.90625 -1.5 C 3.300781 -1.144531 3.78125 -0.96875 4.34375 -0.96875 C 5.019531 -0.96875 5.59375 -1.222656 6.0625 -1.734375 C 6.53125 -2.242188 6.765625 -2.921875 6.765625 -3.765625 C 6.765625 -4.566406 6.539062 -5.195312 6.09375 -5.65625 C 5.644531 -6.125 5.054688 -6.359375 4.328125 -6.359375 C 3.867188 -6.359375 3.457031 -6.253906 3.09375 -6.046875 C 2.726562 -5.835938 2.441406 -5.570312 2.234375 -5.25 L 0.921875 -5.421875 L 2.03125 -11.296875 L 7.71875 -11.296875 L 7.71875 -9.953125 L 3.15625 -9.953125 L 2.53125 -6.875 C 3.21875 -7.351562 3.941406 -7.59375 4.703125 -7.59375 C 5.703125 -7.59375 6.546875 -7.242188 7.234375 -6.546875 C 7.921875 -5.859375 8.265625 -4.972656 8.265625 -3.890625 C 8.265625 -2.847656 7.960938 -1.953125 7.359375 -1.203125 C 6.617188 -0.265625 5.613281 0.203125 4.34375 0.203125 C 3.300781 0.203125 2.453125 -0.0859375 1.796875 -0.671875 C 1.140625 -1.265625 0.765625 -2.039062 0.671875 -3 Z M 0.671875 -3 "></path>
</symbol>
<symbol overflow="visible" id="glyph0-17">
<path style="stroke:none;" d="M 5.96875 0 L 4.5625 0 L 4.5625 -8.96875 C 4.21875 -8.644531 3.769531 -8.320312 3.21875 -8 C 2.675781 -7.675781 2.1875 -7.429688 1.75 -7.265625 L 1.75 -8.625 C 2.53125 -9 3.210938 -9.445312 3.796875 -9.96875 C 4.390625 -10.5 4.8125 -11.007812 5.0625 -11.5 L 5.96875 -11.5 Z M 5.96875 0 "></path>
</symbol>
<symbol overflow="visible" id="glyph0-18">
<path style="stroke:none;" d="M 5.171875 0 L 5.171875 -2.75 L 0.203125 -2.75 L 0.203125 -4.03125 L 5.4375 -11.453125 L 6.578125 -11.453125 L 6.578125 -4.03125 L 8.125 -4.03125 L 8.125 -2.75 L 6.578125 -2.75 L 6.578125 0 Z M 5.171875 -4.03125 L 5.171875 -9.203125 L 1.59375 -4.03125 Z M 5.171875 -4.03125 "></path>
</symbol>
<symbol overflow="visible" id="glyph0-19">
<path style="stroke:none;" d="M 2.828125 -6.21875 C 2.242188 -6.425781 1.8125 -6.726562 1.53125 -7.125 C 1.25 -7.519531 1.109375 -7.992188 1.109375 -8.546875 C 1.109375 -9.378906 1.40625 -10.078125 2 -10.640625 C 2.601562 -11.210938 3.40625 -11.5 4.40625 -11.5 C 5.40625 -11.5 6.207031 -11.207031 6.8125 -10.625 C 7.425781 -10.050781 7.734375 -9.347656 7.734375 -8.515625 C 7.734375 -7.984375 7.59375 -7.519531 7.3125 -7.125 C 7.03125 -6.726562 6.609375 -6.425781 6.046875 -6.21875 C 6.742188 -5.988281 7.273438 -5.617188 7.640625 -5.109375 C 8.015625 -4.597656 8.203125 -3.988281 8.203125 -3.28125 C 8.203125 -2.300781 7.851562 -1.472656 7.15625 -0.796875 C 6.46875 -0.128906 5.554688 0.203125 4.421875 0.203125 C 3.296875 0.203125 2.382812 -0.128906 1.6875 -0.796875 C 1 -1.472656 0.65625 -2.3125 0.65625 -3.3125 C 0.65625 -4.0625 0.84375 -4.6875 1.21875 -5.1875 C 1.59375 -5.6875 2.128906 -6.03125 2.828125 -6.21875 Z M 2.546875 -8.59375 C 2.546875 -8.050781 2.71875 -7.609375 3.0625 -7.265625 C 3.414062 -6.921875 3.875 -6.75 4.4375 -6.75 C 4.976562 -6.75 5.421875 -6.921875 5.765625 -7.265625 C 6.109375 -7.609375 6.28125 -8.023438 6.28125 -8.515625 C 6.28125 -9.035156 6.101562 -9.46875 5.75 -9.8125 C 5.394531 -10.164062 4.953125 -10.34375 4.421875 -10.34375 C 3.878906 -10.34375 3.429688 -10.171875 3.078125 -9.828125 C 2.722656 -9.484375 2.546875 -9.070312 2.546875 -8.59375 Z M 2.09375 -3.3125 C 2.09375 -2.90625 2.1875 -2.515625 2.375 -2.140625 C 2.570312 -1.765625 2.859375 -1.472656 3.234375 -1.265625 C 3.609375 -1.066406 4.007812 -0.96875 4.4375 -0.96875 C 5.113281 -0.96875 5.671875 -1.179688 6.109375 -1.609375 C 6.546875 -2.046875 6.765625 -2.597656 6.765625 -3.265625 C 6.765625 -3.941406 6.535156 -4.5 6.078125 -4.9375 C 5.628906 -5.382812 5.066406 -5.609375 4.390625 -5.609375 C 3.734375 -5.609375 3.1875 -5.390625 2.75 -4.953125 C 2.3125 -4.515625 2.09375 -3.96875 2.09375 -3.3125 Z M 2.09375 -3.3125 "></path>
</symbol>
<symbol overflow="visible" id="glyph0-20">
<path style="stroke:none;" d="M 1.265625 0 L 1.265625 -11.453125 L 6.34375 -11.453125 C 7.363281 -11.453125 8.140625 -11.347656 8.671875 -11.140625 C 9.203125 -10.941406 9.625 -10.582031 9.9375 -10.0625 C 10.257812 -9.539062 10.421875 -8.960938 10.421875 -8.328125 C 10.421875 -7.515625 10.15625 -6.828125 9.625 -6.265625 C 9.101562 -5.710938 8.289062 -5.363281 7.1875 -5.21875 C 7.59375 -5.019531 7.898438 -4.828125 8.109375 -4.640625 C 8.546875 -4.234375 8.960938 -3.726562 9.359375 -3.125 L 11.359375 0 L 9.453125 0 L 7.9375 -2.390625 C 7.488281 -3.078125 7.117188 -3.601562 6.828125 -3.96875 C 6.546875 -4.332031 6.289062 -4.585938 6.0625 -4.734375 C 5.84375 -4.878906 5.613281 -4.976562 5.375 -5.03125 C 5.207031 -5.070312 4.925781 -5.09375 4.53125 -5.09375 L 2.78125 -5.09375 L 2.78125 0 Z M 2.78125 -6.40625 L 6.03125 -6.40625 C 6.726562 -6.40625 7.269531 -6.472656 7.65625 -6.609375 C 8.050781 -6.753906 8.347656 -6.984375 8.546875 -7.296875 C 8.753906 -7.617188 8.859375 -7.960938 8.859375 -8.328125 C 8.859375 -8.867188 8.660156 -9.3125 8.265625 -9.65625 C 7.867188 -10.007812 7.25 -10.1875 6.40625 -10.1875 L 2.78125 -10.1875 Z M 2.78125 -6.40625 "></path>
</symbol>
<symbol overflow="visible" id="glyph0-21">
<path style="stroke:none;" d="M 8.453125 -6.734375 L 0.890625 -6.734375 L 0.890625 -8.046875 L 8.453125 -8.046875 Z M 8.453125 -3.265625 L 0.890625 -3.265625 L 0.890625 -4.578125 L 8.453125 -4.578125 Z M 8.453125 -3.265625 "></path>
</symbol>
<symbol overflow="visible" id="glyph0-22">
<path style="stroke:none;" d="M 1.453125 0 L 1.453125 -1.609375 L 3.0625 -1.609375 L 3.0625 0 Z M 1.453125 0 "></path>
</symbol>
<symbol overflow="visible" id="glyph1-0">
<path style="stroke:none;" d="M 0 -2 L -10 -2 L -10 -10 L 0 -10 Z M -0.25 -2.25 L -0.25 -9.75 L -9.75 -9.75 L -9.75 -2.25 Z M -0.25 -2.25 "></path>
</symbol>
<symbol overflow="visible" id="glyph1-1">
<path style="stroke:none;" d="M 0 -1.5 L -11.453125 -1.5 L -11.453125 -3.015625 L 0 -3.015625 Z M 0 -1.5 "></path>
</symbol>
<symbol overflow="visible" id="glyph1-2">
<path style="stroke:none;" d="M -2.484375 -0.5 L -2.703125 -1.890625 C -2.140625 -1.960938 -1.707031 -2.175781 -1.40625 -2.53125 C -1.113281 -2.894531 -0.96875 -3.394531 -0.96875 -4.03125 C -0.96875 -4.675781 -1.097656 -5.15625 -1.359375 -5.46875 C -1.628906 -5.78125 -1.941406 -5.9375 -2.296875 -5.9375 C -2.609375 -5.9375 -2.859375 -5.800781 -3.046875 -5.53125 C -3.171875 -5.332031 -3.328125 -4.851562 -3.515625 -4.09375 C -3.773438 -3.0625 -4 -2.34375 -4.1875 -1.9375 C -4.382812 -1.539062 -4.648438 -1.238281 -4.984375 -1.03125 C -5.316406 -0.832031 -5.6875 -0.734375 -6.09375 -0.734375 C -6.46875 -0.734375 -6.8125 -0.816406 -7.125 -0.984375 C -7.4375 -1.148438 -7.695312 -1.378906 -7.90625 -1.671875 C -8.070312 -1.890625 -8.207031 -2.1875 -8.3125 -2.5625 C -8.425781 -2.945312 -8.484375 -3.351562 -8.484375 -3.78125 C -8.484375 -4.4375 -8.390625 -5.007812 -8.203125 -5.5 C -8.015625 -5.988281 -7.757812 -6.347656 -7.4375 -6.578125 C -7.125 -6.816406 -6.695312 -6.984375 -6.15625 -7.078125 L -5.96875 -5.703125 C -6.394531 -5.640625 -6.726562 -5.457031 -6.96875 -5.15625 C -7.207031 -4.851562 -7.328125 -4.429688 -7.328125 -3.890625 C -7.328125 -3.242188 -7.21875 -2.78125 -7 -2.5 C -6.789062 -2.226562 -6.546875 -2.09375 -6.265625 -2.09375 C -6.078125 -2.09375 -5.910156 -2.148438 -5.765625 -2.265625 C -5.617188 -2.378906 -5.492188 -2.554688 -5.390625 -2.796875 C -5.335938 -2.941406 -5.21875 -3.359375 -5.03125 -4.046875 C -4.769531 -5.035156 -4.550781 -5.726562 -4.375 -6.125 C -4.207031 -6.519531 -3.960938 -6.828125 -3.640625 -7.046875 C -3.316406 -7.273438 -2.914062 -7.390625 -2.4375 -7.390625 C -1.96875 -7.390625 -1.523438 -7.25 -1.109375 -6.96875 C -0.703125 -6.695312 -0.382812 -6.300781 -0.15625 -5.78125 C 0.0703125 -5.269531 0.1875 -4.691406 0.1875 -4.046875 C 0.1875 -2.960938 -0.0351562 -2.140625 -0.484375 -1.578125 C -0.929688 -1.015625 -1.597656 -0.65625 -2.484375 -0.5 Z M -2.484375 -0.5 "></path>
</symbol>
<symbol overflow="visible" id="glyph1-3">
<path style="stroke:none;" d="M -9.84375 -1.0625 L -11.453125 -1.0625 L -11.453125 -2.46875 L -9.84375 -2.46875 Z M 0 -1.0625 L -8.296875 -1.0625 L -8.296875 -2.46875 L 0 -2.46875 Z M 0 -1.0625 "></path>
</symbol>
<symbol overflow="visible" id="glyph1-4">
<path style="stroke:none;" d="M 0 -1.0625 L -8.296875 -1.0625 L -8.296875 -2.328125 L -7.125 -2.328125 C -8.03125 -2.929688 -8.484375 -3.8125 -8.484375 -4.96875 C -8.484375 -5.46875 -8.394531 -5.925781 -8.21875 -6.34375 C -8.039062 -6.757812 -7.804688 -7.070312 -7.515625 -7.28125 C -7.222656 -7.488281 -6.875 -7.632812 -6.46875 -7.71875 C -6.207031 -7.769531 -5.753906 -7.796875 -5.109375 -7.796875 L 0 -7.796875 L 0 -6.390625 L -5.046875 -6.390625 C -5.617188 -6.390625 -6.046875 -6.332031 -6.328125 -6.21875 C -6.617188 -6.113281 -6.847656 -5.921875 -7.015625 -5.640625 C -7.179688 -5.367188 -7.265625 -5.046875 -7.265625 -4.671875 C -7.265625 -4.066406 -7.070312 -3.546875 -6.6875 -3.109375 C -6.3125 -2.679688 -5.59375 -2.46875 -4.53125 -2.46875 L 0 -2.46875 Z M 0 -1.0625 "></path>
</symbol>
<symbol overflow="visible" id="glyph1-5">
<path style="stroke:none;" d="M 0.6875 -0.796875 L 0.890625 -2.171875 C 1.316406 -2.222656 1.625 -2.378906 1.8125 -2.640625 C 2.070312 -2.992188 2.203125 -3.472656 2.203125 -4.078125 C 2.203125 -4.722656 2.070312 -5.222656 1.8125 -5.578125 C 1.550781 -5.929688 1.1875 -6.171875 0.71875 -6.296875 C 0.4375 -6.367188 -0.164062 -6.40625 -1.09375 -6.40625 C -0.363281 -5.789062 0 -5.023438 0 -4.109375 C 0 -2.960938 -0.410156 -2.078125 -1.234375 -1.453125 C -2.054688 -0.828125 -3.046875 -0.515625 -4.203125 -0.515625 C -4.992188 -0.515625 -5.722656 -0.65625 -6.390625 -0.9375 C -7.054688 -1.226562 -7.570312 -1.644531 -7.9375 -2.1875 C -8.300781 -2.738281 -8.484375 -3.378906 -8.484375 -4.109375 C -8.484375 -5.085938 -8.085938 -5.894531 -7.296875 -6.53125 L -8.296875 -6.53125 L -8.296875 -7.828125 L -1.125 -7.828125 C 0.164062 -7.828125 1.082031 -7.695312 1.625 -7.4375 C 2.164062 -7.175781 2.59375 -6.757812 2.90625 -6.1875 C 3.21875 -5.613281 3.375 -4.910156 3.375 -4.078125 C 3.375 -3.085938 3.148438 -2.285156 2.703125 -1.671875 C 2.253906 -1.066406 1.582031 -0.773438 0.6875 -0.796875 Z M -4.296875 -1.96875 C -3.210938 -1.96875 -2.421875 -2.179688 -1.921875 -2.609375 C -1.421875 -3.046875 -1.171875 -3.585938 -1.171875 -4.234375 C -1.171875 -4.878906 -1.414062 -5.421875 -1.90625 -5.859375 C -2.40625 -6.296875 -3.1875 -6.515625 -4.25 -6.515625 C -5.269531 -6.515625 -6.035156 -6.289062 -6.546875 -5.84375 C -7.066406 -5.394531 -7.328125 -4.851562 -7.328125 -4.21875 C -7.328125 -3.59375 -7.070312 -3.0625 -6.5625 -2.625 C -6.050781 -2.1875 -5.296875 -1.96875 -4.296875 -1.96875 Z M -4.296875 -1.96875 "></path>
</symbol>
<symbol overflow="visible" id="glyph1-6">
<path style="stroke:none;" d=""></path>
</symbol>
<symbol overflow="visible" id="glyph1-7">
<path style="stroke:none;" d="M 3.1875 -1.0625 L -8.296875 -1.0625 L -8.296875 -2.34375 L -7.21875 -2.34375 C -7.644531 -2.644531 -7.960938 -2.984375 -8.171875 -3.359375 C -8.378906 -3.742188 -8.484375 -4.207031 -8.484375 -4.75 C -8.484375 -5.457031 -8.300781 -6.082031 -7.9375 -6.625 C -7.570312 -7.164062 -7.054688 -7.570312 -6.390625 -7.84375 C -5.734375 -8.125 -5.007812 -8.265625 -4.21875 -8.265625 C -3.363281 -8.265625 -2.597656 -8.109375 -1.921875 -7.796875 C -1.242188 -7.492188 -0.722656 -7.050781 -0.359375 -6.46875 C 0.00390625 -5.894531 0.1875 -5.285156 0.1875 -4.640625 C 0.1875 -4.171875 0.0859375 -3.75 -0.109375 -3.375 C -0.304688 -3.007812 -0.554688 -2.707031 -0.859375 -2.46875 L 3.1875 -2.46875 Z M -4.109375 -2.328125 C -3.035156 -2.328125 -2.242188 -2.539062 -1.734375 -2.96875 C -1.222656 -3.40625 -0.96875 -3.929688 -0.96875 -4.546875 C -0.96875 -5.171875 -1.234375 -5.707031 -1.765625 -6.15625 C -2.296875 -6.601562 -3.113281 -6.828125 -4.21875 -6.828125 C -5.28125 -6.828125 -6.070312 -6.609375 -6.59375 -6.171875 C -7.125 -5.734375 -7.390625 -5.210938 -7.390625 -4.609375 C -7.390625 -4.015625 -7.109375 -3.484375 -6.546875 -3.015625 C -5.984375 -2.554688 -5.171875 -2.328125 -4.109375 -2.328125 Z M -4.109375 -2.328125 "></path>
</symbol>
<symbol overflow="visible" id="glyph1-8">
<path style="stroke:none;" d="M -2.671875 -6.734375 L -2.5 -8.1875 C -1.644531 -7.957031 -0.984375 -7.53125 -0.515625 -6.90625 C -0.046875 -6.289062 0.1875 -5.503906 0.1875 -4.546875 C 0.1875 -3.328125 -0.1875 -2.363281 -0.9375 -1.65625 C -1.6875 -0.945312 -2.734375 -0.59375 -4.078125 -0.59375 C -5.472656 -0.59375 -6.554688 -0.953125 -7.328125 -1.671875 C -8.097656 -2.390625 -8.484375 -3.320312 -8.484375 -4.46875 C -8.484375 -5.570312 -8.101562 -6.472656 -7.34375 -7.171875 C -6.59375 -7.878906 -5.535156 -8.234375 -4.171875 -8.234375 C -4.085938 -8.234375 -3.960938 -8.234375 -3.796875 -8.234375 L -3.796875 -2.046875 C -2.878906 -2.097656 -2.175781 -2.351562 -1.6875 -2.8125 C -1.207031 -3.28125 -0.96875 -3.859375 -0.96875 -4.546875 C -0.96875 -5.066406 -1.101562 -5.507812 -1.375 -5.875 C -1.644531 -6.238281 -2.078125 -6.523438 -2.671875 -6.734375 Z M -4.953125 -2.125 L -4.953125 -6.75 C -5.648438 -6.6875 -6.171875 -6.507812 -6.515625 -6.21875 C -7.054688 -5.769531 -7.328125 -5.191406 -7.328125 -4.484375 C -7.328125 -3.835938 -7.109375 -3.289062 -6.671875 -2.84375 C -6.242188 -2.40625 -5.671875 -2.164062 -4.953125 -2.125 Z M -4.953125 -2.125 "></path>
</symbol>
<symbol overflow="visible" id="glyph1-9">
<path style="stroke:none;" d="M 0 -1.046875 L -8.296875 -1.046875 L -8.296875 -2.3125 L -7.046875 -2.3125 C -7.628906 -2.632812 -8.015625 -2.929688 -8.203125 -3.203125 C -8.390625 -3.472656 -8.484375 -3.773438 -8.484375 -4.109375 C -8.484375 -4.578125 -8.332031 -5.054688 -8.03125 -5.546875 L -6.734375 -5.0625 C -6.929688 -4.71875 -7.03125 -4.375 -7.03125 -4.03125 C -7.03125 -3.726562 -6.9375 -3.453125 -6.75 -3.203125 C -6.570312 -2.960938 -6.316406 -2.789062 -5.984375 -2.6875 C -5.484375 -2.53125 -4.9375 -2.453125 -4.34375 -2.453125 L 0 -2.453125 Z M 0 -1.046875 "></path>
</symbol>
<symbol overflow="visible" id="glyph1-10">
<path style="stroke:none;" d="M -1.265625 -4.125 L -0.015625 -4.328125 C 0.0664062 -3.929688 0.109375 -3.578125 0.109375 -3.265625 C 0.109375 -2.753906 0.03125 -2.359375 -0.125 -2.078125 C -0.289062 -1.796875 -0.503906 -1.597656 -0.765625 -1.484375 C -1.035156 -1.367188 -1.59375 -1.3125 -2.4375 -1.3125 L -7.203125 -1.3125 L -7.203125 -0.28125 L -8.296875 -0.28125 L -8.296875 -1.3125 L -10.359375 -1.3125 L -11.203125 -2.71875 L -8.296875 -2.71875 L -8.296875 -4.125 L -7.203125 -4.125 L -7.203125 -2.71875 L -2.359375 -2.71875 C -1.953125 -2.71875 -1.691406 -2.738281 -1.578125 -2.78125 C -1.460938 -2.832031 -1.367188 -2.914062 -1.296875 -3.03125 C -1.234375 -3.144531 -1.203125 -3.304688 -1.203125 -3.515625 C -1.203125 -3.671875 -1.222656 -3.875 -1.265625 -4.125 Z M -1.265625 -4.125 "></path>
</symbol>
<symbol overflow="visible" id="glyph1-11">
<path style="stroke:none;" d="M -3.046875 -6.46875 L -2.859375 -7.859375 C -1.910156 -7.703125 -1.164062 -7.3125 -0.625 -6.6875 C -0.0820312 -6.070312 0.1875 -5.3125 0.1875 -4.40625 C 0.1875 -3.269531 -0.179688 -2.351562 -0.921875 -1.65625 C -1.671875 -0.96875 -2.738281 -0.625 -4.125 -0.625 C -5.019531 -0.625 -5.800781 -0.769531 -6.46875 -1.0625 C -7.144531 -1.363281 -7.648438 -1.816406 -7.984375 -2.421875 C -8.316406 -3.035156 -8.484375 -3.695312 -8.484375 -4.40625 C -8.484375 -5.3125 -8.253906 -6.050781 -7.796875 -6.625 C -7.347656 -7.195312 -6.703125 -7.5625 -5.859375 -7.71875 L -5.65625 -6.359375 C -6.207031 -6.222656 -6.625 -5.988281 -6.90625 -5.65625 C -7.1875 -5.332031 -7.328125 -4.9375 -7.328125 -4.46875 C -7.328125 -3.757812 -7.070312 -3.179688 -6.5625 -2.734375 C -6.0625 -2.296875 -5.257812 -2.078125 -4.15625 -2.078125 C -3.039062 -2.078125 -2.226562 -2.289062 -1.71875 -2.71875 C -1.21875 -3.144531 -0.96875 -3.703125 -0.96875 -4.390625 C -0.96875 -4.941406 -1.132812 -5.398438 -1.46875 -5.765625 C -1.8125 -6.140625 -2.335938 -6.375 -3.046875 -6.46875 Z M -3.046875 -6.46875 "></path>
</symbol>
<symbol overflow="visible" id="glyph1-12">
<path style="stroke:none;" d="M 0 -1.0625 L -8.296875 -1.0625 L -8.296875 -2.3125 L -7.140625 -2.3125 C -7.546875 -2.570312 -7.867188 -2.914062 -8.109375 -3.34375 C -8.359375 -3.78125 -8.484375 -4.273438 -8.484375 -4.828125 C -8.484375 -5.441406 -8.351562 -5.945312 -8.09375 -6.34375 C -7.84375 -6.738281 -7.488281 -7.015625 -7.03125 -7.171875 C -8 -7.828125 -8.484375 -8.679688 -8.484375 -9.734375 C -8.484375 -10.554688 -8.253906 -11.1875 -7.796875 -11.625 C -7.347656 -12.070312 -6.648438 -12.296875 -5.703125 -12.296875 L 0 -12.296875 L 0 -10.90625 L -5.234375 -10.90625 C -5.796875 -10.90625 -6.195312 -10.859375 -6.4375 -10.765625 C -6.6875 -10.671875 -6.882812 -10.503906 -7.03125 -10.265625 C -7.1875 -10.023438 -7.265625 -9.742188 -7.265625 -9.421875 C -7.265625 -8.835938 -7.070312 -8.351562 -6.6875 -7.96875 C -6.300781 -7.582031 -5.679688 -7.390625 -4.828125 -7.390625 L 0 -7.390625 L 0 -5.984375 L -5.390625 -5.984375 C -6.015625 -5.984375 -6.484375 -5.867188 -6.796875 -5.640625 C -7.109375 -5.410156 -7.265625 -5.035156 -7.265625 -4.515625 C -7.265625 -4.117188 -7.160156 -3.753906 -6.953125 -3.421875 C -6.742188 -3.085938 -6.4375 -2.84375 -6.03125 -2.6875 C -5.632812 -2.539062 -5.0625 -2.46875 -4.3125 -2.46875 L 0 -2.46875 Z M 0 -1.0625 "></path>
</symbol>
<symbol overflow="visible" id="glyph1-13">
<path style="stroke:none;" d="M 3.375 -3.75 C 2.394531 -2.96875 1.25 -2.304688 -0.0625 -1.765625 C -1.382812 -1.234375 -2.75 -0.96875 -4.15625 -0.96875 C -5.394531 -0.96875 -6.582031 -1.171875 -7.71875 -1.578125 C -9.03125 -2.046875 -10.34375 -2.769531 -11.65625 -3.75 L -11.65625 -4.75 C -10.570312 -4.125 -9.796875 -3.707031 -9.328125 -3.5 C -8.609375 -3.1875 -7.859375 -2.9375 -7.078125 -2.75 C -6.109375 -2.53125 -5.128906 -2.421875 -4.140625 -2.421875 C -1.640625 -2.421875 0.863281 -3.195312 3.375 -4.75 Z M 3.375 -3.75 "></path>
</symbol>
<symbol overflow="visible" id="glyph1-14">
<path style="stroke:none;" d="M -1.03125 -6.46875 C -0.582031 -5.945312 -0.265625 -5.445312 -0.078125 -4.96875 C 0.0976562 -4.488281 0.1875 -3.972656 0.1875 -3.421875 C 0.1875 -2.503906 -0.0351562 -1.800781 -0.484375 -1.3125 C -0.929688 -0.820312 -1.5 -0.578125 -2.1875 -0.578125 C -2.59375 -0.578125 -2.960938 -0.671875 -3.296875 -0.859375 C -3.640625 -1.046875 -3.910156 -1.285156 -4.109375 -1.578125 C -4.316406 -1.878906 -4.472656 -2.21875 -4.578125 -2.59375 C -4.648438 -2.875 -4.71875 -3.289062 -4.78125 -3.84375 C -4.914062 -4.976562 -5.078125 -5.816406 -5.265625 -6.359375 C -5.460938 -6.359375 -5.585938 -6.359375 -5.640625 -6.359375 C -6.210938 -6.359375 -6.613281 -6.226562 -6.84375 -5.96875 C -7.164062 -5.601562 -7.328125 -5.066406 -7.328125 -4.359375 C -7.328125 -3.703125 -7.207031 -3.210938 -6.96875 -2.890625 C -6.738281 -2.578125 -6.332031 -2.347656 -5.75 -2.203125 L -5.9375 -0.828125 C -6.519531 -0.953125 -6.992188 -1.15625 -7.359375 -1.4375 C -7.722656 -1.726562 -8 -2.144531 -8.1875 -2.6875 C -8.382812 -3.226562 -8.484375 -3.851562 -8.484375 -4.5625 C -8.484375 -5.269531 -8.398438 -5.84375 -8.234375 -6.28125 C -8.066406 -6.726562 -7.859375 -7.054688 -7.609375 -7.265625 C -7.359375 -7.472656 -7.039062 -7.617188 -6.65625 -7.703125 C -6.414062 -7.753906 -5.984375 -7.78125 -5.359375 -7.78125 L -3.484375 -7.78125 C -2.171875 -7.78125 -1.34375 -7.804688 -1 -7.859375 C -0.65625 -7.921875 -0.320312 -8.039062 0 -8.21875 L 0 -6.75 C -0.289062 -6.601562 -0.632812 -6.507812 -1.03125 -6.46875 Z M -4.171875 -6.359375 C -3.960938 -5.847656 -3.785156 -5.082031 -3.640625 -4.0625 C -3.554688 -3.476562 -3.460938 -3.066406 -3.359375 -2.828125 C -3.253906 -2.585938 -3.097656 -2.398438 -2.890625 -2.265625 C -2.691406 -2.140625 -2.472656 -2.078125 -2.234375 -2.078125 C -1.859375 -2.078125 -1.546875 -2.21875 -1.296875 -2.5 C -1.046875 -2.789062 -0.921875 -3.207031 -0.921875 -3.75 C -0.921875 -4.289062 -1.035156 -4.769531 -1.265625 -5.1875 C -1.503906 -5.613281 -1.832031 -5.925781 -2.25 -6.125 C -2.5625 -6.28125 -3.03125 -6.359375 -3.65625 -6.359375 Z M -4.171875 -6.359375 "></path>
</symbol>
<symbol overflow="visible" id="glyph1-15">
<path style="stroke:none;" d="M 0 -1.453125 L -1.609375 -1.453125 L -1.609375 -3.0625 L 0 -3.0625 Z M 0 -1.453125 "></path>
</symbol>
<symbol overflow="visible" id="glyph1-16">
<path style="stroke:none;" d="M 0 -6.5 L -1.21875 -6.5 C -0.28125 -5.851562 0.1875 -4.972656 0.1875 -3.859375 C 0.1875 -3.367188 0.09375 -2.910156 -0.09375 -2.484375 C -0.28125 -2.066406 -0.515625 -1.753906 -0.796875 -1.546875 C -1.085938 -1.335938 -1.4375 -1.191406 -1.84375 -1.109375 C -2.125 -1.054688 -2.5625 -1.03125 -3.15625 -1.03125 L -8.296875 -1.03125 L -8.296875 -2.4375 L -3.703125 -2.4375 C -2.960938 -2.4375 -2.46875 -2.460938 -2.21875 -2.515625 C -1.84375 -2.609375 -1.550781 -2.796875 -1.34375 -3.078125 C -1.132812 -3.367188 -1.03125 -3.722656 -1.03125 -4.140625 C -1.03125 -4.566406 -1.132812 -4.960938 -1.34375 -5.328125 C -1.5625 -5.703125 -1.859375 -5.960938 -2.234375 -6.109375 C -2.609375 -6.265625 -3.148438 -6.34375 -3.859375 -6.34375 L -8.296875 -6.34375 L -8.296875 -7.75 L 0 -7.75 Z M 0 -6.5 "></path>
</symbol>
<symbol overflow="visible" id="glyph1-17">
<path style="stroke:none;" d="M 3.375 -1.984375 L 3.375 -0.96875 C 0.863281 -2.53125 -1.640625 -3.3125 -4.140625 -3.3125 C -5.117188 -3.3125 -6.09375 -3.195312 -7.0625 -2.96875 C -7.84375 -2.789062 -8.59375 -2.546875 -9.3125 -2.234375 C -9.78125 -2.023438 -10.5625 -1.601562 -11.65625 -0.96875 L -11.65625 -1.984375 C -10.34375 -2.960938 -9.03125 -3.6875 -7.71875 -4.15625 C -6.582031 -4.550781 -5.394531 -4.75 -4.15625 -4.75 C -2.75 -4.75 -1.382812 -4.476562 -0.0625 -3.9375 C 1.25 -3.40625 2.394531 -2.753906 3.375 -1.984375 Z M 3.375 -1.984375 "></path>
</symbol>
<symbol overflow="visible" id="glyph2-0">
<path style="stroke:none;" d="M 1.328125 0 L 1.328125 -6.671875 L 6.671875 -6.671875 L 6.671875 0 Z M 1.5 -0.171875 L 6.5 -0.171875 L 6.5 -6.5 L 1.5 -6.5 Z M 1.5 -0.171875 "></path>
</symbol>
<symbol overflow="visible" id="glyph2-1">
<path style="stroke:none;" d="M 2.75 -0.84375 L 2.890625 -0.015625 C 2.617188 0.046875 2.378906 0.078125 2.171875 0.078125 C 1.835938 0.078125 1.578125 0.0234375 1.390625 -0.078125 C 1.203125 -0.191406 1.066406 -0.335938 0.984375 -0.515625 C 0.910156 -0.691406 0.875 -1.0625 0.875 -1.625 L 0.875 -4.796875 L 0.1875 -4.796875 L 0.1875 -5.53125 L 0.875 -5.53125 L 0.875 -6.90625 L 1.8125 -7.46875 L 1.8125 -5.53125 L 2.75 -5.53125 L 2.75 -4.796875 L 1.8125 -4.796875 L 1.8125 -1.5625 C 1.8125 -1.300781 1.828125 -1.128906 1.859375 -1.046875 C 1.890625 -0.972656 1.941406 -0.910156 2.015625 -0.859375 C 2.085938 -0.816406 2.195312 -0.796875 2.34375 -0.796875 C 2.445312 -0.796875 2.582031 -0.8125 2.75 -0.84375 Z M 2.75 -0.84375 "></path>
</symbol>
<symbol overflow="visible" id="glyph2-2">
<path style="stroke:none;" d="M 4.484375 -1.78125 L 5.46875 -1.65625 C 5.3125 -1.09375 5.023438 -0.65625 4.609375 -0.34375 C 4.191406 -0.03125 3.664062 0.125 3.03125 0.125 C 2.21875 0.125 1.570312 -0.125 1.09375 -0.625 C 0.625 -1.125 0.390625 -1.820312 0.390625 -2.71875 C 0.390625 -3.644531 0.628906 -4.363281 1.109375 -4.875 C 1.585938 -5.394531 2.207031 -5.65625 2.96875 -5.65625 C 3.707031 -5.65625 4.3125 -5.398438 4.78125 -4.890625 C 5.257812 -4.390625 5.5 -3.6875 5.5 -2.78125 C 5.5 -2.71875 5.492188 -2.632812 5.484375 -2.53125 L 1.359375 -2.53125 C 1.390625 -1.914062 1.5625 -1.445312 1.875 -1.125 C 2.1875 -0.800781 2.570312 -0.640625 3.03125 -0.640625 C 3.375 -0.640625 3.664062 -0.726562 3.90625 -0.90625 C 4.15625 -1.09375 4.347656 -1.382812 4.484375 -1.78125 Z M 1.40625 -3.296875 L 4.5 -3.296875 C 4.457031 -3.765625 4.335938 -4.113281 4.140625 -4.34375 C 3.847656 -4.707031 3.460938 -4.890625 2.984375 -4.890625 C 2.554688 -4.890625 2.191406 -4.742188 1.890625 -4.453125 C 1.597656 -4.160156 1.4375 -3.773438 1.40625 -3.296875 Z M 1.40625 -3.296875 "></path>
</symbol>
<symbol overflow="visible" id="glyph2-3">
<path style="stroke:none;" d="M 0.703125 0 L 0.703125 -5.53125 L 1.546875 -5.53125 L 1.546875 -4.75 C 1.710938 -5.019531 1.941406 -5.238281 2.234375 -5.40625 C 2.523438 -5.570312 2.851562 -5.65625 3.21875 -5.65625 C 3.625 -5.65625 3.957031 -5.566406 4.21875 -5.390625 C 4.488281 -5.222656 4.675781 -4.988281 4.78125 -4.6875 C 5.21875 -5.332031 5.789062 -5.65625 6.5 -5.65625 C 7.039062 -5.65625 7.457031 -5.503906 7.75 -5.203125 C 8.050781 -4.898438 8.203125 -4.429688 8.203125 -3.796875 L 8.203125 0 L 7.265625 0 L 7.265625 -3.484375 C 7.265625 -3.859375 7.234375 -4.128906 7.171875 -4.296875 C 7.117188 -4.460938 7.007812 -4.59375 6.84375 -4.6875 C 6.6875 -4.789062 6.5 -4.84375 6.28125 -4.84375 C 5.894531 -4.84375 5.570312 -4.710938 5.3125 -4.453125 C 5.050781 -4.191406 4.921875 -3.78125 4.921875 -3.21875 L 4.921875 0 L 3.984375 0 L 3.984375 -3.59375 C 3.984375 -4.007812 3.90625 -4.320312 3.75 -4.53125 C 3.601562 -4.738281 3.359375 -4.84375 3.015625 -4.84375 C 2.742188 -4.84375 2.492188 -4.769531 2.265625 -4.625 C 2.046875 -4.488281 1.882812 -4.285156 1.78125 -4.015625 C 1.6875 -3.753906 1.640625 -3.375 1.640625 -2.875 L 1.640625 0 Z M 0.703125 0 "></path>
</symbol>
<symbol overflow="visible" id="glyph2-4">
<path style="stroke:none;" d="M 0.703125 2.125 L 0.703125 -5.53125 L 1.5625 -5.53125 L 1.5625 -4.8125 C 1.757812 -5.09375 1.984375 -5.300781 2.234375 -5.4375 C 2.492188 -5.582031 2.800781 -5.65625 3.15625 -5.65625 C 3.632812 -5.65625 4.050781 -5.53125 4.40625 -5.28125 C 4.769531 -5.039062 5.046875 -4.695312 5.234375 -4.25 C 5.421875 -3.8125 5.515625 -3.332031 5.515625 -2.8125 C 5.515625 -2.238281 5.410156 -1.722656 5.203125 -1.265625 C 4.992188 -0.816406 4.695312 -0.472656 4.3125 -0.234375 C 3.925781 0.00390625 3.519531 0.125 3.09375 0.125 C 2.78125 0.125 2.5 0.0625 2.25 -0.0625 C 2 -0.195312 1.796875 -0.367188 1.640625 -0.578125 L 1.640625 2.125 Z M 1.546875 -2.734375 C 1.546875 -2.023438 1.691406 -1.5 1.984375 -1.15625 C 2.273438 -0.8125 2.625 -0.640625 3.03125 -0.640625 C 3.445312 -0.640625 3.800781 -0.816406 4.09375 -1.171875 C 4.394531 -1.523438 4.546875 -2.070312 4.546875 -2.8125 C 4.546875 -3.519531 4.398438 -4.046875 4.109375 -4.390625 C 3.816406 -4.742188 3.472656 -4.921875 3.078125 -4.921875 C 2.671875 -4.921875 2.3125 -4.734375 2 -4.359375 C 1.695312 -3.984375 1.546875 -3.441406 1.546875 -2.734375 Z M 1.546875 -2.734375 "></path>
</symbol>
<symbol overflow="visible" id="glyph2-5">
<path style="stroke:none;" d="M 0.6875 0 L 0.6875 -5.53125 L 1.53125 -5.53125 L 1.53125 -4.6875 C 1.75 -5.082031 1.945312 -5.34375 2.125 -5.46875 C 2.3125 -5.59375 2.515625 -5.65625 2.734375 -5.65625 C 3.046875 -5.65625 3.367188 -5.554688 3.703125 -5.359375 L 3.375 -4.484375 C 3.144531 -4.617188 2.914062 -4.6875 2.6875 -4.6875 C 2.476562 -4.6875 2.289062 -4.625 2.125 -4.5 C 1.96875 -4.375 1.851562 -4.203125 1.78125 -3.984375 C 1.675781 -3.648438 1.625 -3.285156 1.625 -2.890625 L 1.625 0 Z M 0.6875 0 "></path>
</symbol>
<symbol overflow="visible" id="glyph2-6">
<path style="stroke:none;" d="M 4.3125 -0.6875 C 3.96875 -0.382812 3.632812 -0.171875 3.3125 -0.046875 C 2.988281 0.0664062 2.644531 0.125 2.28125 0.125 C 1.664062 0.125 1.195312 -0.0195312 0.875 -0.3125 C 0.550781 -0.613281 0.390625 -0.992188 0.390625 -1.453125 C 0.390625 -1.722656 0.445312 -1.96875 0.5625 -2.1875 C 0.6875 -2.414062 0.847656 -2.597656 1.046875 -2.734375 C 1.253906 -2.867188 1.484375 -2.972656 1.734375 -3.046875 C 1.910156 -3.097656 2.1875 -3.144531 2.5625 -3.1875 C 3.320312 -3.28125 3.878906 -3.390625 4.234375 -3.515625 C 4.234375 -3.640625 4.234375 -3.71875 4.234375 -3.75 C 4.234375 -4.132812 4.144531 -4.40625 3.96875 -4.5625 C 3.726562 -4.769531 3.375 -4.875 2.90625 -4.875 C 2.46875 -4.875 2.140625 -4.796875 1.921875 -4.640625 C 1.710938 -4.492188 1.5625 -4.222656 1.46875 -3.828125 L 0.546875 -3.953125 C 0.628906 -4.347656 0.765625 -4.664062 0.953125 -4.90625 C 1.148438 -5.144531 1.425781 -5.328125 1.78125 -5.453125 C 2.144531 -5.585938 2.566406 -5.65625 3.046875 -5.65625 C 3.515625 -5.65625 3.894531 -5.597656 4.1875 -5.484375 C 4.488281 -5.378906 4.707031 -5.238281 4.84375 -5.0625 C 4.976562 -4.894531 5.078125 -4.6875 5.140625 -4.4375 C 5.171875 -4.269531 5.1875 -3.976562 5.1875 -3.5625 L 5.1875 -2.3125 C 5.1875 -1.445312 5.203125 -0.894531 5.234375 -0.65625 C 5.273438 -0.425781 5.359375 -0.207031 5.484375 0 L 4.5 0 C 4.40625 -0.195312 4.34375 -0.425781 4.3125 -0.6875 Z M 4.234375 -2.78125 C 3.890625 -2.632812 3.378906 -2.515625 2.703125 -2.421875 C 2.316406 -2.367188 2.039062 -2.304688 1.875 -2.234375 C 1.71875 -2.160156 1.597656 -2.054688 1.515625 -1.921875 C 1.429688 -1.796875 1.390625 -1.648438 1.390625 -1.484375 C 1.390625 -1.234375 1.484375 -1.023438 1.671875 -0.859375 C 1.859375 -0.691406 2.132812 -0.609375 2.5 -0.609375 C 2.863281 -0.609375 3.1875 -0.6875 3.46875 -0.84375 C 3.75 -1 3.953125 -1.21875 4.078125 -1.5 C 4.179688 -1.707031 4.234375 -2.019531 4.234375 -2.4375 Z M 4.234375 -2.78125 "></path>
</symbol>
<symbol overflow="visible" id="glyph2-7">
<path style="stroke:none;" d="M 4.328125 0 L 4.328125 -0.8125 C 3.898438 -0.1875 3.316406 0.125 2.578125 0.125 C 2.242188 0.125 1.9375 0.0625 1.65625 -0.0625 C 1.375 -0.1875 1.164062 -0.34375 1.03125 -0.53125 C 0.894531 -0.71875 0.796875 -0.953125 0.734375 -1.234375 C 0.703125 -1.410156 0.6875 -1.703125 0.6875 -2.109375 L 0.6875 -5.53125 L 1.625 -5.53125 L 1.625 -2.46875 C 1.625 -1.976562 1.640625 -1.644531 1.671875 -1.46875 C 1.734375 -1.226562 1.859375 -1.035156 2.046875 -0.890625 C 2.242188 -0.753906 2.484375 -0.6875 2.765625 -0.6875 C 3.046875 -0.6875 3.304688 -0.753906 3.546875 -0.890625 C 3.796875 -1.035156 3.972656 -1.234375 4.078125 -1.484375 C 4.179688 -1.734375 4.234375 -2.09375 4.234375 -2.5625 L 4.234375 -5.53125 L 5.171875 -5.53125 L 5.171875 0 Z M 4.328125 0 "></path>
</symbol>
<symbol overflow="visible" id="glyph2-8">
<path style="stroke:none;" d=""></path>
</symbol>
<symbol overflow="visible" id="glyph2-9">
<path style="stroke:none;" d="M 2.5 2.25 C 1.976562 1.59375 1.535156 0.828125 1.171875 -0.046875 C 0.816406 -0.921875 0.640625 -1.828125 0.640625 -2.765625 C 0.640625 -3.585938 0.773438 -4.378906 1.046875 -5.140625 C 1.359375 -6.023438 1.84375 -6.898438 2.5 -7.765625 L 3.171875 -7.765625 C 2.742188 -7.046875 2.460938 -6.53125 2.328125 -6.21875 C 2.117188 -5.738281 1.953125 -5.238281 1.828125 -4.71875 C 1.679688 -4.070312 1.609375 -3.421875 1.609375 -2.765625 C 1.609375 -1.085938 2.128906 0.582031 3.171875 2.25 Z M 2.5 2.25 "></path>
</symbol>
<symbol overflow="visible" id="glyph2-10">
<path style="stroke:none;" d="M 0.671875 -6.328125 C 0.671875 -6.722656 0.8125 -7.0625 1.09375 -7.34375 C 1.375 -7.625 1.710938 -7.765625 2.109375 -7.765625 C 2.515625 -7.765625 2.859375 -7.625 3.140625 -7.34375 C 3.421875 -7.0625 3.5625 -6.722656 3.5625 -6.328125 C 3.5625 -5.929688 3.414062 -5.585938 3.125 -5.296875 C 2.84375 -5.015625 2.503906 -4.875 2.109375 -4.875 C 1.710938 -4.875 1.375 -5.015625 1.09375 -5.296875 C 0.8125 -5.578125 0.671875 -5.921875 0.671875 -6.328125 Z M 1.234375 -6.328125 C 1.234375 -6.085938 1.316406 -5.878906 1.484375 -5.703125 C 1.660156 -5.535156 1.867188 -5.453125 2.109375 -5.453125 C 2.347656 -5.453125 2.550781 -5.535156 2.71875 -5.703125 C 2.894531 -5.878906 2.984375 -6.085938 2.984375 -6.328125 C 2.984375 -6.566406 2.894531 -6.769531 2.71875 -6.9375 C 2.550781 -7.113281 2.347656 -7.203125 2.109375 -7.203125 C 1.867188 -7.203125 1.660156 -7.113281 1.484375 -6.9375 C 1.316406 -6.769531 1.234375 -6.566406 1.234375 -6.328125 Z M 1.234375 -6.328125 "></path>
</symbol>
<symbol overflow="visible" id="glyph2-11">
<path style="stroke:none;" d="M 6.28125 -2.671875 L 7.28125 -2.421875 C 7.070312 -1.585938 6.691406 -0.953125 6.140625 -0.515625 C 5.585938 -0.0859375 4.914062 0.125 4.125 0.125 C 3.300781 0.125 2.628906 -0.0390625 2.109375 -0.375 C 1.597656 -0.707031 1.207031 -1.191406 0.9375 -1.828125 C 0.664062 -2.460938 0.53125 -3.144531 0.53125 -3.875 C 0.53125 -4.664062 0.679688 -5.359375 0.984375 -5.953125 C 1.285156 -6.546875 1.71875 -6.992188 2.28125 -7.296875 C 2.84375 -7.609375 3.460938 -7.765625 4.140625 -7.765625 C 4.898438 -7.765625 5.539062 -7.570312 6.0625 -7.1875 C 6.582031 -6.800781 6.945312 -6.253906 7.15625 -5.546875 L 6.15625 -5.3125 C 5.976562 -5.863281 5.71875 -6.265625 5.375 -6.515625 C 5.039062 -6.773438 4.617188 -6.90625 4.109375 -6.90625 C 3.523438 -6.90625 3.035156 -6.765625 2.640625 -6.484375 C 2.242188 -6.203125 1.96875 -5.820312 1.8125 -5.34375 C 1.65625 -4.875 1.578125 -4.382812 1.578125 -3.875 C 1.578125 -3.226562 1.671875 -2.660156 1.859375 -2.171875 C 2.046875 -1.691406 2.335938 -1.332031 2.734375 -1.09375 C 3.140625 -0.851562 3.570312 -0.734375 4.03125 -0.734375 C 4.601562 -0.734375 5.082031 -0.894531 5.46875 -1.21875 C 5.863281 -1.550781 6.132812 -2.035156 6.28125 -2.671875 Z M 6.28125 -2.671875 "></path>
</symbol>
<symbol overflow="visible" id="glyph2-12">
<path style="stroke:none;" d="M 1.3125 2.25 L 0.640625 2.25 C 1.679688 0.582031 2.203125 -1.085938 2.203125 -2.765625 C 2.203125 -3.410156 2.128906 -4.054688 1.984375 -4.703125 C 1.859375 -5.222656 1.691406 -5.722656 1.484375 -6.203125 C 1.347656 -6.515625 1.066406 -7.035156 0.640625 -7.765625 L 1.3125 -7.765625 C 1.96875 -6.898438 2.453125 -6.023438 2.765625 -5.140625 C 3.035156 -4.378906 3.171875 -3.585938 3.171875 -2.765625 C 3.171875 -1.828125 2.988281 -0.921875 2.625 -0.046875 C 2.269531 0.828125 1.832031 1.59375 1.3125 2.25 Z M 1.3125 2.25 "></path>
</symbol>
<symbol overflow="visible" id="glyph3-0">
<path style="stroke:none;" d="M 1 0 L 1 -5 L 5 -5 L 5 0 Z M 1.125 -0.125 L 4.875 -0.125 L 4.875 -4.875 L 1.125 -4.875 Z M 1.125 -0.125 "></path>
</symbol>
<symbol overflow="visible" id="glyph3-1">
<path style="stroke:none;" d="M 2.984375 0 L 2.28125 0 L 2.28125 -4.484375 C 2.113281 -4.316406 1.890625 -4.148438 1.609375 -3.984375 C 1.335938 -3.828125 1.09375 -3.710938 0.875 -3.640625 L 0.875 -4.3125 C 1.269531 -4.5 1.613281 -4.722656 1.90625 -4.984375 C 2.195312 -5.242188 2.40625 -5.5 2.53125 -5.75 L 2.984375 -5.75 Z M 2.984375 0 "></path>
</symbol>
<symbol overflow="visible" id="glyph3-2">
<path style="stroke:none;" d="M 1.421875 -3.109375 C 1.128906 -3.210938 0.910156 -3.363281 0.765625 -3.5625 C 0.628906 -3.757812 0.5625 -4 0.5625 -4.28125 C 0.5625 -4.695312 0.707031 -5.046875 1 -5.328125 C 1.300781 -5.609375 1.703125 -5.75 2.203125 -5.75 C 2.703125 -5.75 3.101562 -5.601562 3.40625 -5.3125 C 3.707031 -5.019531 3.859375 -4.664062 3.859375 -4.25 C 3.859375 -3.988281 3.789062 -3.757812 3.65625 -3.5625 C 3.519531 -3.363281 3.304688 -3.210938 3.015625 -3.109375 C 3.367188 -2.992188 3.632812 -2.804688 3.8125 -2.546875 C 4 -2.296875 4.09375 -1.992188 4.09375 -1.640625 C 4.09375 -1.148438 3.921875 -0.738281 3.578125 -0.40625 C 3.234375 -0.0703125 2.78125 0.09375 2.21875 0.09375 C 1.644531 0.09375 1.1875 -0.0703125 0.84375 -0.40625 C 0.5 -0.738281 0.328125 -1.15625 0.328125 -1.65625 C 0.328125 -2.03125 0.421875 -2.34375 0.609375 -2.59375 C 0.796875 -2.84375 1.066406 -3.015625 1.421875 -3.109375 Z M 1.28125 -4.296875 C 1.28125 -4.023438 1.363281 -3.800781 1.53125 -3.625 C 1.707031 -3.457031 1.9375 -3.375 2.21875 -3.375 C 2.488281 -3.375 2.707031 -3.457031 2.875 -3.625 C 3.050781 -3.800781 3.140625 -4.015625 3.140625 -4.265625 C 3.140625 -4.515625 3.050781 -4.726562 2.875 -4.90625 C 2.695312 -5.082031 2.472656 -5.171875 2.203125 -5.171875 C 1.941406 -5.171875 1.722656 -5.082031 1.546875 -4.90625 C 1.367188 -4.738281 1.28125 -4.535156 1.28125 -4.296875 Z M 1.046875 -1.65625 C 1.046875 -1.457031 1.09375 -1.265625 1.1875 -1.078125 C 1.28125 -0.890625 1.421875 -0.742188 1.609375 -0.640625 C 1.796875 -0.535156 2 -0.484375 2.21875 -0.484375 C 2.550781 -0.484375 2.828125 -0.585938 3.046875 -0.796875 C 3.265625 -1.015625 3.375 -1.289062 3.375 -1.625 C 3.375 -1.96875 3.257812 -2.25 3.03125 -2.46875 C 2.8125 -2.6875 2.535156 -2.796875 2.203125 -2.796875 C 1.867188 -2.796875 1.59375 -2.6875 1.375 -2.46875 C 1.15625 -2.25 1.046875 -1.976562 1.046875 -1.65625 Z M 1.046875 -1.65625 "></path>
</symbol>
<symbol overflow="visible" id="glyph3-3">
<path style="stroke:none;" d="M 4.03125 -0.671875 L 4.03125 0 L 0.25 0 C 0.238281 -0.164062 0.265625 -0.328125 0.328125 -0.484375 C 0.421875 -0.742188 0.570312 -1 0.78125 -1.25 C 1 -1.5 1.304688 -1.789062 1.703125 -2.125 C 2.328125 -2.632812 2.75 -3.035156 2.96875 -3.328125 C 3.1875 -3.628906 3.296875 -3.910156 3.296875 -4.171875 C 3.296875 -4.453125 3.195312 -4.6875 3 -4.875 C 2.800781 -5.070312 2.539062 -5.171875 2.21875 -5.171875 C 1.882812 -5.171875 1.613281 -5.066406 1.40625 -4.859375 C 1.207031 -4.660156 1.101562 -4.378906 1.09375 -4.015625 L 0.375 -4.09375 C 0.425781 -4.632812 0.613281 -5.046875 0.9375 -5.328125 C 1.257812 -5.609375 1.691406 -5.75 2.234375 -5.75 C 2.785156 -5.75 3.21875 -5.597656 3.53125 -5.296875 C 3.851562 -4.992188 4.015625 -4.613281 4.015625 -4.15625 C 4.015625 -3.925781 3.96875 -3.703125 3.875 -3.484375 C 3.78125 -3.265625 3.625 -3.03125 3.40625 -2.78125 C 3.195312 -2.539062 2.835938 -2.207031 2.328125 -1.78125 C 1.910156 -1.425781 1.640625 -1.1875 1.515625 -1.0625 C 1.398438 -0.9375 1.300781 -0.804688 1.21875 -0.671875 Z M 4.03125 -0.671875 "></path>
</symbol>
<symbol overflow="visible" id="glyph3-4">
<path style="stroke:none;" d="M 3.984375 -4.328125 L 3.28125 -4.265625 C 3.21875 -4.546875 3.128906 -4.75 3.015625 -4.875 C 2.828125 -5.070312 2.59375 -5.171875 2.3125 -5.171875 C 2.09375 -5.171875 1.894531 -5.109375 1.71875 -4.984375 C 1.5 -4.828125 1.328125 -4.59375 1.203125 -4.28125 C 1.078125 -3.96875 1.007812 -3.523438 1 -2.953125 C 1.164062 -3.210938 1.367188 -3.40625 1.609375 -3.53125 C 1.859375 -3.65625 2.117188 -3.71875 2.390625 -3.71875 C 2.859375 -3.71875 3.253906 -3.546875 3.578125 -3.203125 C 3.910156 -2.859375 4.078125 -2.410156 4.078125 -1.859375 C 4.078125 -1.503906 4 -1.171875 3.84375 -0.859375 C 3.695312 -0.546875 3.488281 -0.304688 3.21875 -0.140625 C 2.945312 0.015625 2.640625 0.09375 2.296875 0.09375 C 1.703125 0.09375 1.21875 -0.117188 0.84375 -0.546875 C 0.476562 -0.984375 0.296875 -1.695312 0.296875 -2.6875 C 0.296875 -3.789062 0.503906 -4.59375 0.921875 -5.09375 C 1.273438 -5.53125 1.753906 -5.75 2.359375 -5.75 C 2.804688 -5.75 3.171875 -5.625 3.453125 -5.375 C 3.742188 -5.125 3.921875 -4.773438 3.984375 -4.328125 Z M 1.109375 -1.859375 C 1.109375 -1.617188 1.160156 -1.382812 1.265625 -1.15625 C 1.367188 -0.9375 1.507812 -0.769531 1.6875 -0.65625 C 1.875 -0.539062 2.070312 -0.484375 2.28125 -0.484375 C 2.570312 -0.484375 2.820312 -0.601562 3.03125 -0.84375 C 3.25 -1.082031 3.359375 -1.40625 3.359375 -1.8125 C 3.359375 -2.207031 3.253906 -2.519531 3.046875 -2.75 C 2.835938 -2.976562 2.570312 -3.09375 2.25 -3.09375 C 1.9375 -3.09375 1.664062 -2.976562 1.4375 -2.75 C 1.21875 -2.519531 1.109375 -2.222656 1.109375 -1.859375 Z M 1.109375 -1.859375 "></path>
</symbol>
<symbol overflow="visible" id="glyph3-5">
<path style="stroke:none;" d="M 0.34375 -1.515625 L 1.046875 -1.609375 C 1.117188 -1.210938 1.253906 -0.925781 1.453125 -0.75 C 1.648438 -0.570312 1.882812 -0.484375 2.15625 -0.484375 C 2.488281 -0.484375 2.769531 -0.597656 3 -0.828125 C 3.226562 -1.054688 3.34375 -1.335938 3.34375 -1.671875 C 3.34375 -1.992188 3.234375 -2.257812 3.015625 -2.46875 C 2.804688 -2.6875 2.539062 -2.796875 2.21875 -2.796875 C 2.082031 -2.796875 1.914062 -2.769531 1.71875 -2.71875 L 1.796875 -3.328125 C 1.847656 -3.328125 1.890625 -3.328125 1.921875 -3.328125 C 2.210938 -3.328125 2.476562 -3.40625 2.71875 -3.5625 C 2.957031 -3.71875 3.078125 -3.957031 3.078125 -4.28125 C 3.078125 -4.539062 2.988281 -4.753906 2.8125 -4.921875 C 2.644531 -5.085938 2.421875 -5.171875 2.140625 -5.171875 C 1.867188 -5.171875 1.640625 -5.082031 1.453125 -4.90625 C 1.273438 -4.738281 1.160156 -4.484375 1.109375 -4.140625 L 0.40625 -4.265625 C 0.488281 -4.734375 0.679688 -5.097656 0.984375 -5.359375 C 1.296875 -5.617188 1.675781 -5.75 2.125 -5.75 C 2.4375 -5.75 2.722656 -5.679688 2.984375 -5.546875 C 3.253906 -5.410156 3.457031 -5.226562 3.59375 -5 C 3.738281 -4.769531 3.8125 -4.523438 3.8125 -4.265625 C 3.8125 -4.015625 3.742188 -3.785156 3.609375 -3.578125 C 3.472656 -3.378906 3.273438 -3.222656 3.015625 -3.109375 C 3.359375 -3.023438 3.625 -2.859375 3.8125 -2.609375 C 4 -2.367188 4.09375 -2.0625 4.09375 -1.6875 C 4.09375 -1.1875 3.910156 -0.757812 3.546875 -0.40625 C 3.179688 -0.0625 2.71875 0.109375 2.15625 0.109375 C 1.65625 0.109375 1.238281 -0.0390625 0.90625 -0.34375 C 0.570312 -0.644531 0.382812 -1.035156 0.34375 -1.515625 Z M 0.34375 -1.515625 "></path>
</symbol>
<symbol overflow="visible" id="glyph3-6">
<path style="stroke:none;" d="M 0.328125 -2.828125 C 0.328125 -3.503906 0.394531 -4.046875 0.53125 -4.453125 C 0.675781 -4.867188 0.882812 -5.1875 1.15625 -5.40625 C 1.4375 -5.632812 1.785156 -5.75 2.203125 -5.75 C 2.503906 -5.75 2.769531 -5.6875 3 -5.5625 C 3.238281 -5.4375 3.429688 -5.257812 3.578125 -5.03125 C 3.734375 -4.800781 3.851562 -4.515625 3.9375 -4.171875 C 4.019531 -3.835938 4.0625 -3.390625 4.0625 -2.828125 C 4.0625 -2.148438 3.992188 -1.601562 3.859375 -1.1875 C 3.722656 -0.78125 3.515625 -0.460938 3.234375 -0.234375 C 2.960938 -0.015625 2.617188 0.09375 2.203125 0.09375 C 1.648438 0.09375 1.21875 -0.101562 0.90625 -0.5 C 0.519531 -0.976562 0.328125 -1.753906 0.328125 -2.828125 Z M 1.0625 -2.828125 C 1.0625 -1.890625 1.171875 -1.265625 1.390625 -0.953125 C 1.609375 -0.640625 1.878906 -0.484375 2.203125 -0.484375 C 2.523438 -0.484375 2.796875 -0.640625 3.015625 -0.953125 C 3.234375 -1.265625 3.34375 -1.890625 3.34375 -2.828125 C 3.34375 -3.765625 3.234375 -4.390625 3.015625 -4.703125 C 2.796875 -5.015625 2.519531 -5.171875 2.1875 -5.171875 C 1.863281 -5.171875 1.609375 -5.035156 1.421875 -4.765625 C 1.179688 -4.410156 1.0625 -3.765625 1.0625 -2.828125 Z M 1.0625 -2.828125 "></path>
</symbol>
</g>
</defs>
<g id="surface1">
<g style="fill:rgb(0%,0%,0%);fill-opacity:1;"> <use xlink:href="#glyph0-1" x="80.203125" y="226.096549"></use> <use xlink:href="#glyph0-2" x="89.098302" y="226.096549"></use> <use xlink:href="#glyph0-3" x="97.993479" y="226.096549"></use> <use xlink:href="#glyph0-2" x="102.437377" y="226.096549"></use> <use xlink:href="#glyph0-4" x="111.332554" y="226.096549"></use> <use xlink:href="#glyph0-5" x="115.776452" y="226.096549"></use> <use xlink:href="#glyph0-6" x="124.671629" y="226.096549"></use> <use xlink:href="#glyph0-7" x="133.566806" y="226.096549"></use> <use xlink:href="#glyph0-8" x="138.89284" y="226.096549"></use> <use xlink:href="#glyph0-9" x="146.891117" y="226.096549"></use> <use xlink:href="#glyph0-8" x="150.441806" y="226.096549"></use> <use xlink:href="#glyph0-3" x="158.440084" y="226.096549"></use> <use xlink:href="#glyph0-6" x="162.883981" y="226.096549"></use> <use xlink:href="#glyph0-10" x="171.779158" y="226.096549"></use> <use xlink:href="#glyph0-11" x="180.674336" y="226.096549"></use> <use xlink:href="#glyph0-6" x="188.672613" y="226.096549"></use> <use xlink:href="#glyph0-4" x="197.56779" y="226.096549"></use> <use xlink:href="#glyph0-3" x="202.011688" y="226.096549"></use> <use xlink:href="#glyph0-9" x="206.455586" y="226.096549"></use> <use xlink:href="#glyph0-12" x="210.006275" y="226.096549"></use> <use xlink:href="#glyph0-6" x="223.330586" y="226.096549"></use> <use xlink:href="#glyph0-4" x="232.225763" y="226.096549"></use> <use xlink:href="#glyph0-13" x="236.66966" y="226.096549"></use> <use xlink:href="#glyph0-8" x="241.995694" y="226.096549"></use> <use xlink:href="#glyph0-14" x="249.993971" y="226.096549"></use>
</g>
<g style="fill:rgb(0%,0%,0%);fill-opacity:1;"> <use xlink:href="#glyph1-1" x="21.096549" y="205.394531"></use> <use xlink:href="#glyph1-2" x="21.096549" y="200.950634"></use> <use xlink:href="#glyph1-3" x="21.096549" y="192.952356"></use> <use xlink:href="#glyph1-4" x="21.096549" y="189.401667"></use> <use xlink:href="#glyph1-5" x="21.096549" y="180.50649"></use> <use xlink:href="#glyph1-6" x="21.096549" y="171.611313"></use> <use xlink:href="#glyph1-7" x="21.096549" y="167.167415"></use> <use xlink:href="#glyph1-8" x="21.096549" y="158.272238"></use> <use xlink:href="#glyph1-9" x="21.096549" y="149.377061"></use> <use xlink:href="#glyph1-2" x="21.096549" y="144.051027"></use> <use xlink:href="#glyph1-3" x="21.096549" y="136.05275"></use> <use xlink:href="#glyph1-2" x="21.096549" y="132.502061"></use> <use xlink:href="#glyph1-10" x="21.096549" y="124.503783"></use> <use xlink:href="#glyph1-8" x="21.096549" y="120.059886"></use> <use xlink:href="#glyph1-4" x="21.096549" y="111.164708"></use> <use xlink:href="#glyph1-11" x="21.096549" y="102.269531"></use> <use xlink:href="#glyph1-8" x="21.096549" y="94.271254"></use> <use xlink:href="#glyph1-6" x="21.096549" y="85.376077"></use> <use xlink:href="#glyph1-10" x="21.096549" y="80.932179"></use> <use xlink:href="#glyph1-3" x="21.096549" y="76.488281"></use> <use xlink:href="#glyph1-12" x="21.096549" y="72.937592"></use> <use xlink:href="#glyph1-8" x="21.096549" y="59.613281"></use> <use xlink:href="#glyph1-6" x="21.096549" y="50.718104"></use> <use xlink:href="#glyph1-13" x="21.096549" y="46.274206"></use> <use xlink:href="#glyph1-14" x="21.096549" y="40.948173"></use> <use xlink:href="#glyph1-15" x="21.096549" y="32.052996"></use> <use xlink:href="#glyph1-16" x="21.096549" y="27.609098"></use> <use xlink:href="#glyph1-15" x="21.096549" y="18.713921"></use> <use xlink:href="#glyph1-17" x="21.096549" y="14.270023"></use>
</g>
<g style="fill:rgb(0%,0%,0%);fill-opacity:1;"> <use xlink:href="#glyph0-15" x="60.875" y="203.225455"></use>
</g>
<g style="fill:rgb(0%,0%,0%);fill-opacity:1;"> <use xlink:href="#glyph0-16" x="129.148438" y="203.02233"></use>
</g>
<g style="fill:rgb(0%,0%,0%);fill-opacity:1;"> <use xlink:href="#glyph0-17" x="192.554688" y="203.225455"></use> <use xlink:href="#glyph0-15" x="201.449865" y="203.225455"></use>
</g>
<g style="fill:rgb(0%,0%,0%);fill-opacity:1;"> <use xlink:href="#glyph0-17" x="260.828125" y="203.225455"></use> <use xlink:href="#glyph0-16" x="269.723302" y="203.225455"></use>
</g>
<g style="fill:rgb(0%,0%,0%);fill-opacity:1;"> <use xlink:href="#glyph0-15" x="50.167969" y="190.42858"></use>
</g>
<g style="fill:rgb(0%,0%,0%);fill-opacity:1;"> <use xlink:href="#glyph0-18" x="32.371094" y="112.327018"></use> <use xlink:href="#glyph0-15" x="41.266271" y="112.327018"></use> <use xlink:href="#glyph0-15" x="50.161448" y="112.327018"></use>
</g>
<g style="fill:rgb(0%,0%,0%);fill-opacity:1;"> <use xlink:href="#glyph0-19" x="32.371094" y="34.225455"></use> <use xlink:href="#glyph0-15" x="41.266271" y="34.225455"></use> <use xlink:href="#glyph0-15" x="50.161448" y="34.225455"></use>
</g>
<g style="fill:rgb(0%,0%,0%);fill-opacity:1;"> <use xlink:href="#glyph2-1" x="76.253906" y="38.014887"></use> <use xlink:href="#glyph2-2" x="79.214044" y="38.014887"></use> <use xlink:href="#glyph2-3" x="85.145392" y="38.014887"></use> <use xlink:href="#glyph2-4" x="94.029497" y="38.014887"></use> <use xlink:href="#glyph2-2" x="99.960845" y="38.014887"></use> <use xlink:href="#glyph2-5" x="105.892194" y="38.014887"></use> <use xlink:href="#glyph2-6" x="109.442883" y="38.014887"></use> <use xlink:href="#glyph2-1" x="115.374231" y="38.014887"></use> <use xlink:href="#glyph2-7" x="118.334369" y="38.014887"></use> <use xlink:href="#glyph2-5" x="124.265717" y="38.014887"></use> <use xlink:href="#glyph2-2" x="127.816406" y="38.014887"></use> <use xlink:href="#glyph2-8" x="133.747755" y="38.014887"></use> <use xlink:href="#glyph2-9" x="136.707892" y="38.014887"></use> <use xlink:href="#glyph2-10" x="140.258581" y="38.014887"></use> <use xlink:href="#glyph2-11" x="144.521623" y="38.014887"></use> <use xlink:href="#glyph2-12" x="152.224625" y="38.014887"></use>
</g>
<g style="fill:rgb(0%,0%,0%);fill-opacity:1;"> <use xlink:href="#glyph3-1" x="107.433594" y="49.601009"></use> <use xlink:href="#glyph3-2" x="111.877491" y="49.601009"></use>
</g>
<g style="fill:rgb(0%,0%,0%);fill-opacity:1;"> <use xlink:href="#glyph3-3" x="108.0625" y="59.65179"></use> <use xlink:href="#glyph3-3" x="112.506398" y="59.65179"></use>
</g>
<g style="fill:rgb(0%,0%,0%);fill-opacity:1;"> <use xlink:href="#glyph3-3" x="108.0625" y="69.601009"></use> <use xlink:href="#glyph3-4" x="112.506398" y="69.601009"></use>
</g>
<g style="fill:rgb(0%,0%,0%);fill-opacity:1;"> <use xlink:href="#glyph3-5" x="107.96875" y="79.601009"></use> <use xlink:href="#glyph3-6" x="112.412648" y="79.601009"></use>
</g>
<g style="fill:rgb(0%,0%,0%);fill-opacity:1;"> <use xlink:href="#glyph3-5" x="107.96875" y="89.601009"></use> <use xlink:href="#glyph3-5" x="112.412648" y="89.601009"></use>
</g>
<path style=" stroke:none;fill-rule:nonzero;fill:rgb(0%,20%,97.254902%);fill-opacity:1;" d="M 98.792969 46.773438 C 98.792969 45.855469 98.039062 45.105469 97.109375 45.105469 C 96.179688 45.105469 95.425781 45.855469 95.425781 46.773438 C 95.425781 47.699219 96.179688 48.445312 97.109375 48.445312 C 98.039062 48.445312 98.792969 47.699219 98.792969 46.773438 Z M 98.792969 46.773438 "></path>
<path style=" stroke:none;fill-rule:nonzero;fill:rgb(23.921569%,58.039218%,29.803923%);fill-opacity:1;" d="M 98.792969 56.773438 C 98.792969 55.855469 98.039062 55.105469 97.109375 55.105469 C 96.179688 55.105469 95.425781 55.855469 95.425781 56.773438 C 95.425781 57.695312 96.179688 58.445312 97.109375 58.445312 C 98.039062 58.445312 98.792969 57.695312 98.792969 56.773438 Z M 98.792969 56.773438 "></path>
<path style=" stroke:none;fill-rule:nonzero;fill:rgb(70.19608%,74.901962%,9.803922%);fill-opacity:1;" d="M 98.792969 66.773438 C 98.792969 65.855469 98.039062 65.105469 97.109375 65.105469 C 96.179688 65.105469 95.425781 65.855469 95.425781 66.773438 C 95.425781 67.695312 96.179688 68.445312 97.109375 68.445312 C 98.039062 68.445312 98.792969 67.695312 98.792969 66.773438 Z M 98.792969 66.773438 "></path>
<path style=" stroke:none;fill-rule:nonzero;fill:rgb(100%,63.921571%,6.666667%);fill-opacity:1;" d="M 98.792969 76.773438 C 98.792969 75.855469 98.039062 75.105469 97.109375 75.105469 C 96.179688 75.105469 95.425781 75.855469 95.425781 76.773438 C 95.425781 77.695312 96.179688 78.445312 97.109375 78.445312 C 98.039062 78.445312 98.792969 77.695312 98.792969 76.773438 Z M 98.792969 76.773438 "></path>
<path style=" stroke:none;fill-rule:nonzero;fill:rgb(100%,15.686275%,0%);fill-opacity:1;" d="M 98.792969 86.773438 C 98.792969 85.851562 98.039062 85.105469 97.109375 85.105469 C 96.179688 85.105469 95.425781 85.851562 95.425781 86.773438 C 95.425781 87.695312 96.179688 88.445312 97.109375 88.445312 C 98.039062 88.445312 98.792969 87.695312 98.792969 86.773438 Z M 98.792969 86.773438 "></path>
<g style="fill:rgb(0%,0%,0%);fill-opacity:1;"> <use xlink:href="#glyph0-20" x="196.960937" y="145.873893"></use> <use xlink:href="#glyph0-4" x="208.509904" y="145.873893"></use> <use xlink:href="#glyph0-21" x="212.953802" y="145.873893"></use> <use xlink:href="#glyph0-4" x="222.291892" y="145.873893"></use> <use xlink:href="#glyph0-15" x="226.73579" y="145.873893"></use> <use xlink:href="#glyph0-22" x="235.630967" y="145.873893"></use> <use xlink:href="#glyph0-19" x="240.074865" y="145.873893"></use> <use xlink:href="#glyph0-16" x="248.970042" y="145.873893"></use>
</g>
<path style="fill:none;stroke-width:0.5;stroke-linecap:square;stroke-linejoin:round;stroke:rgb(13.725491%,13.725491%,13.725491%);stroke-opacity:1;stroke-miterlimit:10;" d="M 160.445144 169.410612 L 214.685761 169.410612 " transform="matrix(3.779528,0,0,3.779528,-541.133405,-455.514733)"></path>
<path style="fill:none;stroke-width:0.5;stroke-linecap:square;stroke-linejoin:round;stroke:rgb(13.725491%,13.725491%,13.725491%);stroke-opacity:1;stroke-miterlimit:10;" d="M 160.445144 169.410612 L 160.445144 168.997201 " transform="matrix(3.779528,0,0,3.779528,-541.133405,-455.514733)"></path>
<path style="fill:none;stroke-width:0.5;stroke-linecap:square;stroke-linejoin:round;stroke:rgb(13.725491%,13.725491%,13.725491%);stroke-opacity:1;stroke-miterlimit:10;" d="M 178.525694 169.410612 L 178.525694 168.997201 " transform="matrix(3.779528,0,0,3.779528,-541.133405,-455.514733)"></path>
<path style="fill:none;stroke-width:0.5;stroke-linecap:square;stroke-linejoin:round;stroke:rgb(13.725491%,13.725491%,13.725491%);stroke-opacity:1;stroke-miterlimit:10;" d="M 196.606244 169.410612 L 196.606244 168.997201 " transform="matrix(3.779528,0,0,3.779528,-541.133405,-455.514733)"></path>
<path style="fill:none;stroke-width:0.5;stroke-linecap:square;stroke-linejoin:round;stroke:rgb(13.725491%,13.725491%,13.725491%);stroke-opacity:1;stroke-miterlimit:10;" d="M 214.685761 169.410612 L 214.685761 168.997201 " transform="matrix(3.779528,0,0,3.779528,-541.133405,-455.514733)"></path>
<path style="fill:none;stroke-width:0.5;stroke-linecap:square;stroke-linejoin:round;stroke:rgb(13.725491%,13.725491%,13.725491%);stroke-opacity:1;stroke-miterlimit:10;" d="M 160.445144 169.410612 L 160.445144 128.081868 " transform="matrix(3.779528,0,0,3.779528,-541.133405,-455.514733)"></path>
<path style="fill:none;stroke-width:0.5;stroke-linecap:square;stroke-linejoin:round;stroke:rgb(13.725491%,13.725491%,13.725491%);stroke-opacity:1;stroke-miterlimit:10;" d="M 160.445144 169.410612 L 160.987746 169.410612 " transform="matrix(3.779528,0,0,3.779528,-541.133405,-455.514733)"></path>
<path style="fill:none;stroke-width:0.5;stroke-linecap:square;stroke-linejoin:round;stroke:rgb(13.725491%,13.725491%,13.725491%);stroke-opacity:1;stroke-miterlimit:10;" d="M 160.445144 148.74624 L 160.987746 148.74624 " transform="matrix(3.779528,0,0,3.779528,-541.133405,-455.514733)"></path>
<path style="fill:none;stroke-width:0.5;stroke-linecap:square;stroke-linejoin:round;stroke:rgb(13.725491%,13.725491%,13.725491%);stroke-opacity:1;stroke-miterlimit:10;" d="M 160.445144 128.081868 L 160.987746 128.081868 " transform="matrix(3.779528,0,0,3.779528,-541.133405,-455.514733)"></path>
<path style="fill:none;stroke-width:0.5;stroke-linecap:butt;stroke-linejoin:bevel;stroke:rgb(0%,0%,0%);stroke-opacity:1;stroke-dasharray:1,0.5;stroke-miterlimit:1;" d="M 160.445144 169.410612 L 164.06146 166.541536 L 167.676744 163.673494 L 171.29306 160.804419 L 174.909377 157.936377 L 178.525694 155.067301 L 182.140977 152.199259 L 185.757294 149.331217 L 189.373611 146.462142 L 192.989927 143.5941 L 196.606244 140.725024 L 200.221527 137.856982 L 207.454161 132.119865 L 211.070477 129.251823 L 212.551524 128.076701 " transform="matrix(3.779528,0,0,3.779528,-541.133405,-455.514733)"></path>
<path style=" stroke:none;fill-rule:nonzero;fill:rgb(0%,20%,97.254902%);fill-opacity:1;" d="M 238.492188 65.957031 C 238.492188 64.414062 237.242188 63.160156 235.699219 63.160156 C 234.15625 63.160156 232.902344 64.414062 232.902344 65.957031 C 232.902344 67.5 234.15625 68.753906 235.699219 68.753906 C 237.242188 68.753906 238.492188 67.5 238.492188 65.957031 Z M 238.492188 65.957031 "></path>
<path style=" stroke:none;fill-rule:nonzero;fill:rgb(0%,20%,97.254902%);fill-opacity:1;" d="M 168.488281 62.421875 C 168.488281 60.878906 167.238281 59.625 165.695312 59.625 C 164.152344 59.625 162.898438 60.878906 162.898438 62.421875 C 162.898438 63.964844 164.152344 65.21875 165.695312 65.21875 C 167.238281 65.21875 168.488281 63.964844 168.488281 62.421875 Z M 168.488281 62.421875 "></path>
<path style=" stroke:none;fill-rule:nonzero;fill:rgb(0%,20%,97.254902%);fill-opacity:1;" d="M 171.355469 122.859375 C 171.355469 121.3125 170.101562 120.0625 168.558594 120.0625 C 167.015625 120.0625 165.765625 121.3125 165.765625 122.859375 C 165.765625 124.402344 167.015625 125.65625 168.558594 125.65625 C 170.101562 125.65625 171.355469 124.402344 171.355469 122.859375 Z M 171.355469 122.859375 "></path>
<path style=" stroke:none;fill-rule:nonzero;fill:rgb(23.921569%,58.039218%,29.803923%);fill-opacity:1;" d="M 107.992188 152.625 C 107.992188 151.082031 106.742188 149.828125 105.195312 149.828125 C 103.652344 149.828125 102.402344 151.082031 102.402344 152.625 C 102.402344 154.167969 103.652344 155.421875 105.195312 155.421875 C 106.742188 155.421875 107.992188 154.167969 107.992188 152.625 Z M 107.992188 152.625 "></path>
<path style=" stroke:none;fill-rule:nonzero;fill:rgb(23.921569%,58.039218%,29.803923%);fill-opacity:1;" d="M 140.152344 132.117188 C 140.152344 130.570312 138.898438 129.320312 137.355469 129.320312 C 135.8125 129.320312 134.558594 130.570312 134.558594 132.117188 C 134.558594 133.660156 135.8125 134.910156 137.355469 134.910156 C 138.898438 134.910156 140.152344 133.660156 140.152344 132.117188 Z M 140.152344 132.117188 "></path>
<path style=" stroke:none;fill-rule:nonzero;fill:rgb(23.921569%,58.039218%,29.803923%);fill-opacity:1;" d="M 182.742188 117.480469 C 182.742188 115.9375 181.492188 114.683594 179.949219 114.683594 C 178.40625 114.683594 177.152344 115.9375 177.152344 117.480469 C 177.152344 119.023438 178.40625 120.273438 179.949219 120.273438 C 181.492188 120.273438 182.742188 119.023438 182.742188 117.480469 Z M 182.742188 117.480469 "></path>
<path style=" stroke:none;fill-rule:nonzero;fill:rgb(23.921569%,58.039218%,29.803923%);fill-opacity:1;" d="M 179.960938 94.132812 C 179.960938 92.585938 178.710938 91.335938 177.167969 91.335938 C 175.625 91.335938 174.371094 92.585938 174.371094 94.132812 C 174.371094 95.675781 175.625 96.925781 177.167969 96.925781 C 178.710938 96.925781 179.960938 95.675781 179.960938 94.132812 Z M 179.960938 94.132812 "></path>
<path style=" stroke:none;fill-rule:nonzero;fill:rgb(23.921569%,58.039218%,29.803923%);fill-opacity:1;" d="M 185.84375 82.601562 C 185.84375 81.058594 184.589844 79.808594 183.046875 79.808594 C 181.503906 79.808594 180.25 81.058594 180.25 82.601562 C 180.25 84.148438 181.503906 85.398438 183.046875 85.398438 C 184.589844 85.398438 185.84375 84.148438 185.84375 82.601562 Z M 185.84375 82.601562 "></path>
<path style=" stroke:none;fill-rule:nonzero;fill:rgb(70.19608%,74.901962%,9.803922%);fill-opacity:1;" d="M 122.800781 117.835938 C 122.800781 116.292969 121.550781 115.039062 120.007812 115.039062 C 118.464844 115.039062 117.210938 116.292969 117.210938 117.835938 C 117.210938 119.378906 118.464844 120.632812 120.007812 120.632812 C 121.550781 120.632812 122.800781 119.378906 122.800781 117.835938 Z M 122.800781 117.835938 "></path>
<path style=" stroke:none;fill-rule:nonzero;fill:rgb(70.19608%,74.901962%,9.803922%);fill-opacity:1;" d="M 114.878906 144.535156 C 114.878906 142.988281 113.628906 141.738281 112.082031 141.738281 C 110.539062 141.738281 109.289062 142.988281 109.289062 144.535156 C 109.289062 146.078125 110.539062 147.332031 112.082031 147.332031 C 113.628906 147.332031 114.878906 146.078125 114.878906 144.535156 Z M 114.878906 144.535156 "></path>
<path style=" stroke:none;fill-rule:nonzero;fill:rgb(70.19608%,74.901962%,9.803922%);fill-opacity:1;" d="M 129.125 127.476562 C 129.125 125.933594 127.871094 124.679688 126.328125 124.679688 C 124.785156 124.679688 123.53125 125.933594 123.53125 127.476562 C 123.53125 129.023438 124.785156 130.273438 126.328125 130.273438 C 127.871094 130.273438 129.125 129.023438 129.125 127.476562 Z M 129.125 127.476562 "></path>
<path style=" stroke:none;fill-rule:nonzero;fill:rgb(70.19608%,74.901962%,9.803922%);fill-opacity:1;" d="M 173.085938 99.449219 C 173.085938 97.902344 171.832031 96.652344 170.289062 96.652344 C 168.746094 96.652344 167.496094 97.902344 167.496094 99.449219 C 167.496094 100.996094 168.746094 102.242188 170.289062 102.242188 C 171.832031 102.242188 173.085938 100.996094 173.085938 99.449219 Z M 173.085938 99.449219 "></path>
<path style=" stroke:none;fill-rule:nonzero;fill:rgb(70.19608%,74.901962%,9.803922%);fill-opacity:1;" d="M 134.488281 137.429688 C 134.488281 135.886719 133.238281 134.632812 131.695312 134.632812 C 130.148438 134.632812 128.898438 135.886719 128.898438 137.429688 C 128.898438 138.976562 130.148438 140.226562 131.695312 140.226562 C 133.238281 140.226562 134.488281 138.976562 134.488281 137.429688 Z M 134.488281 137.429688 "></path>
<path style=" stroke:none;fill-rule:nonzero;fill:rgb(70.19608%,74.901962%,9.803922%);fill-opacity:1;" d="M 112.25 140.261719 C 112.25 138.714844 111 137.464844 109.457031 137.464844 C 107.914062 137.464844 106.660156 138.714844 106.660156 140.261719 C 106.660156 141.804688 107.914062 143.054688 109.457031 143.054688 C 111 143.054688 112.25 141.804688 112.25 140.261719 Z M 112.25 140.261719 "></path>
<path style=" stroke:none;fill-rule:nonzero;fill:rgb(70.19608%,74.901962%,9.803922%);fill-opacity:1;" d="M 128.140625 127.585938 C 128.140625 126.042969 126.890625 124.789062 125.34375 124.789062 C 123.796875 124.789062 122.550781 126.042969 122.550781 127.585938 C 122.550781 129.132812 123.796875 130.382812 125.34375 130.382812 C 126.890625 130.382812 128.140625 129.132812 128.140625 127.585938 Z M 128.140625 127.585938 "></path>
<path style=" stroke:none;fill-rule:nonzero;fill:rgb(70.19608%,74.901962%,9.803922%);fill-opacity:1;" d="M 159.078125 101.480469 C 159.078125 99.933594 157.824219 98.6875 156.28125 98.6875 C 154.738281 98.6875 153.484375 99.933594 153.484375 101.480469 C 153.484375 103.023438 154.738281 104.277344 156.28125 104.277344 C 157.824219 104.277344 159.078125 103.023438 159.078125 101.480469 Z M 159.078125 101.480469 "></path>
<path style=" stroke:none;fill-rule:nonzero;fill:rgb(100%,63.921571%,6.666667%);fill-opacity:1;" d="M 102.054688 113.914062 C 102.054688 112.367188 100.800781 111.117188 99.257812 111.117188 C 97.714844 111.117188 96.464844 112.367188 96.464844 113.914062 C 96.464844 115.460938 97.714844 116.707031 99.257812 116.707031 C 100.800781 116.707031 102.054688 115.460938 102.054688 113.914062 Z M 102.054688 113.914062 "></path>
<path style=" stroke:none;fill-rule:nonzero;fill:rgb(100%,63.921571%,6.666667%);fill-opacity:1;" d="M 168.28125 114.761719 C 168.28125 113.21875 167.027344 111.964844 165.484375 111.964844 C 163.941406 111.964844 162.691406 113.21875 162.691406 114.761719 C 162.691406 116.304688 163.941406 117.554688 165.484375 117.554688 C 167.027344 117.554688 168.28125 116.304688 168.28125 114.761719 Z M 168.28125 114.761719 "></path>
<path style=" stroke:none;fill-rule:nonzero;fill:rgb(100%,63.921571%,6.666667%);fill-opacity:1;" d="M 138.097656 125.753906 C 138.097656 124.210938 136.847656 122.957031 135.300781 122.957031 C 133.757812 122.957031 132.507812 124.210938 132.507812 125.753906 C 132.507812 127.296875 133.757812 128.550781 135.300781 128.550781 C 136.847656 128.550781 138.097656 127.296875 138.097656 125.753906 Z M 138.097656 125.753906 "></path>
<path style=" stroke:none;fill-rule:nonzero;fill:rgb(100%,63.921571%,6.666667%);fill-opacity:1;" d="M 109.984375 143.707031 C 109.984375 142.164062 108.734375 140.914062 107.1875 140.914062 C 105.644531 140.914062 104.394531 142.164062 104.394531 143.707031 C 104.394531 145.253906 105.644531 146.503906 107.1875 146.503906 C 108.734375 146.503906 109.984375 145.253906 109.984375 143.707031 Z M 109.984375 143.707031 "></path>
<path style=" stroke:none;fill-rule:nonzero;fill:rgb(100%,63.921571%,6.666667%);fill-opacity:1;" d="M 123.46875 125.082031 C 123.46875 123.535156 122.214844 122.285156 120.671875 122.285156 C 119.128906 122.285156 117.875 123.535156 117.875 125.082031 C 117.875 126.625 119.128906 127.875 120.671875 127.875 C 122.214844 127.875 123.46875 126.625 123.46875 125.082031 Z M 123.46875 125.082031 "></path>
<path style=" stroke:none;fill-rule:nonzero;fill:rgb(100%,63.921571%,6.666667%);fill-opacity:1;" d="M 116.191406 124.492188 C 116.191406 122.945312 114.9375 121.695312 113.394531 121.695312 C 111.851562 121.695312 110.597656 122.945312 110.597656 124.492188 C 110.597656 126.039062 111.851562 127.285156 113.394531 127.285156 C 114.9375 127.285156 116.191406 126.039062 116.191406 124.492188 Z M 116.191406 124.492188 "></path>
<path style=" stroke:none;fill-rule:nonzero;fill:rgb(100%,15.686275%,0%);fill-opacity:1;" d="M 124.371094 127.855469 C 124.371094 126.3125 123.117188 125.058594 121.574219 125.058594 C 120.027344 125.058594 118.777344 126.3125 118.777344 127.855469 C 118.777344 129.398438 120.027344 130.652344 121.574219 130.652344 C 123.117188 130.652344 124.371094 129.398438 124.371094 127.855469 Z M 124.371094 127.855469 "></path>
<path style=" stroke:none;fill-rule:nonzero;fill:rgb(100%,15.686275%,0%);fill-opacity:1;" d="M 122.117188 140.433594 C 122.117188 138.890625 120.867188 137.636719 119.324219 137.636719 C 117.777344 137.636719 116.527344 138.890625 116.527344 140.433594 C 116.527344 141.976562 117.777344 143.230469 119.324219 143.230469 C 120.867188 143.230469 122.117188 141.976562 122.117188 140.433594 Z M 122.117188 140.433594 "></path>
<path style=" stroke:none;fill-rule:nonzero;fill:rgb(100%,15.686275%,0%);fill-opacity:1;" d="M 97.109375 147.546875 C 97.109375 146.003906 95.855469 144.75 94.3125 144.75 C 92.769531 144.75 91.519531 146.003906 91.519531 147.546875 C 91.519531 149.089844 92.769531 150.339844 94.3125 150.339844 C 95.855469 150.339844 97.109375 149.089844 97.109375 147.546875 Z M 97.109375 147.546875 "></path>
<path style=" stroke:none;fill-rule:nonzero;fill:rgb(100%,15.686275%,0%);fill-opacity:1;" d="M 105.621094 133.761719 C 105.621094 132.214844 104.367188 130.964844 102.824219 130.964844 C 101.28125 130.964844 100.027344 132.214844 100.027344 133.761719 C 100.027344 135.304688 101.28125 136.558594 102.824219 136.558594 C 104.367188 136.558594 105.621094 135.304688 105.621094 133.761719 Z M 105.621094 133.761719 "></path>
</g>
</svg>
