<?xml version="1.0"?>

<svg width="45.652313" height="45.137196" viewBox="0 0 45.652313 45.137196" version="1.1" id="svg8" inkscape:version="1.1 (c4e8f9ed74, 2021-05-24)" sodipodi:docname="pca_pc1.svg" xmlns:inkscape="http://www.inkscape.org/namespaces/inkscape" xmlns:sodipodi="http://sodipodi.sourceforge.net/DTD/sodipodi-0.dtd" xmlns="http://www.w3.org/2000/svg" xmlns:svg="http://www.w3.org/2000/svg" xmlns:rdf="http://www.w3.org/1999/02/22-rdf-syntax-ns#" xmlns:cc="http://creativecommons.org/ns#" xmlns:dc="http://purl.org/dc/elements/1.1/" xmlns:ns1="http://www.iki.fi/pav/software/textext/"> <defs id="defs2"></defs> <sodipodi:namedview id="base" pagecolor="#ffffff" bordercolor="#666666" borderopacity="1.0" inkscape:pageopacity="0.0" inkscape:pageshadow="2" inkscape:zoom="2.1700167" inkscape:cx="25.806253" inkscape:cy="44.469704" inkscape:document-units="mm" inkscape:current-layer="layer1" inkscape:document-rotation="0" showgrid="false" fit-margin-left="2.5" fit-margin-top="2.5" fit-margin-bottom="2.5" fit-margin-right="2.5" inkscape:pagecheckerboard="0" inkscape:window-width="1920" inkscape:window-height="1052" inkscape:window-x="1920" inkscape:window-y="0" inkscape:window-maximized="1"></sodipodi:namedview> <metadata id="metadata5"> <rdf:rdf> <cc:work rdf:about=""> <dc:format>image/svg+xml</dc:format> <dc:type rdf:resource="http://purl.org/dc/dcmitype/StillImage"></dc:type> </cc:work> </rdf:rdf> </metadata> <g inkscape:label="Layer 1" inkscape:groupmode="layer" id="layer1" transform="translate(-79.91115,-69.622516)"> <g id="g2679" transform="translate(49.941893,33.017934)"> <text xml:space="preserve" style="font-style:normal;font-variant:normal;font-weight:normal;font-stretch:normal;font-size:2.82222px;line-height:1.25;font-family:Arial;-inkscape-font-specification:'Arial, Normal';font-variant-ligatures:normal;font-variant-caps:normal;font-variant-numeric:normal;font-variant-east-asian:normal;letter-spacing:0px;word-spacing:0px;stroke-width:0.264583" x="-68.249222" y="34.523911" id="text16259" transform="rotate(-90)"><tspan sodipodi:role="line" id="tspan16257" x="-68.249222" y="34.523911" style="font-style:normal;font-variant:normal;font-weight:normal;font-stretch:normal;font-size:2.82222px;font-family:Arial;-inkscape-font-specification:'Arial, Normal';font-variant-ligatures:normal;font-variant-caps:normal;font-variant-numeric:normal;font-variant-east-asian:normal;stroke-width:0.264583">PC1 coefficient</tspan></text> <text xml:space="preserve" style="font-style:normal;font-variant:normal;font-weight:normal;font-stretch:normal;font-size:2.82222px;line-height:1.25;font-family:Arial;-inkscape-font-specification:'Arial, Normal';font-variant-ligatures:normal;font-variant-caps:normal;font-variant-numeric:normal;font-variant-east-asian:normal;letter-spacing:0px;word-spacing:0px;stroke-width:0.264583" x="35.623589" y="42.725601" id="text16263"><tspan sodipodi:role="line" id="tspan16261" x="35.623589" y="42.725601" style="font-style:normal;font-variant:normal;font-weight:normal;font-stretch:normal;font-size:2.82222px;font-family:Arial;-inkscape-font-specification:'Arial, Normal';font-variant-ligatures:normal;font-variant-caps:normal;font-variant-numeric:normal;font-variant-east-asian:normal;stroke-width:0.264583">1</tspan></text> <text xml:space="preserve" style="font-style:normal;font-variant:normal;font-weight:normal;font-stretch:normal;font-size:2.82222px;line-height:1.25;font-family:Arial;-inkscape-font-specification:'Arial, Normal';font-variant-ligatures:normal;font-variant-caps:normal;font-variant-numeric:normal;font-variant-east-asian:normal;letter-spacing:0px;word-spacing:0px;stroke-width:0.264583" x="35.240494" y="59.682655" id="text16267"><tspan sodipodi:role="line" id="tspan16265" x="35.240494" y="59.682655" style="font-style:normal;font-variant:normal;font-weight:normal;font-stretch:normal;font-size:2.82222px;font-family:Arial;-inkscape-font-specification:'Arial, Normal';font-variant-ligatures:normal;font-variant-caps:normal;font-variant-numeric:normal;font-variant-east-asian:normal;stroke-width:0.264583">0</tspan></text> <text xml:space="preserve" style="font-style:normal;font-variant:normal;font-weight:normal;font-stretch:normal;font-size:2.82222px;line-height:1.25;font-family:Arial;-inkscape-font-specification:'Arial, Normal';font-variant-ligatures:normal;font-variant-caps:normal;font-variant-numeric:normal;font-variant-east-asian:normal;letter-spacing:0px;word-spacing:0px;stroke-width:0.264583" x="34.683765" y="76.674156" id="text16283"><tspan sodipodi:role="line" id="tspan16281" x="34.683765" y="76.674156" style="font-style:normal;font-variant:normal;font-weight:normal;font-stretch:normal;font-size:2.82222px;font-family:Arial;-inkscape-font-specification:'Arial, Normal';font-variant-ligatures:normal;font-variant-caps:normal;font-variant-numeric:normal;font-variant-east-asian:normal;stroke-width:0.264583">-1</tspan></text> <g id="g2530" transform="translate(1.8295442,12.676736)"> <g id="g104712" transform="translate(-20.008247,1.1271678)"> <text xml:space="preserve" style="font-size:2.82222px;line-height:1.25;font-family:Arial;-inkscape-font-specification:'Arial, Normal';letter-spacing:0px;word-spacing:0px;stroke-width:0.264583" x="68.841591" y="27.320881" id="text104707"><tspan sodipodi:role="line" id="tspan104705" x="68.841591" y="27.320881" style="font-size:2.82222px;stroke-width:0.264583">inter-temperature</tspan></text> </g> <path d="m 46.77791,27.175877 v 1.085002 h 1.085 v -1.085002 z" style="fill:#000000;fill-opacity:1;fill-rule:nonzero;stroke:none;stroke-width:0.180834" id="path34796"></path> </g> <path style="display:inline;fill:none;stroke:#0f0f0f;stroke-width:0.3;stroke-linecap:square;stroke-linejoin:round;stroke-miterlimit:10;stroke-dasharray:none;stroke-opacity:1" d="m 38.112532,75.659932 v -36" id="path16273" sodipodi:nodetypes="cc"></path> <rect style="fill:#ececec;stroke-width:0.264584;stroke-linecap:round;stroke-miterlimit:10" id="rect16531" width="6" height="34" x="45.822823" y="41.685646"></rect> <rect style="fill:#ececec;stroke-width:0.264584;stroke-linecap:round;stroke-miterlimit:10" id="rect16533" width="6" height="34" x="52.612526" y="41.685646"></rect> <rect style="fill:#ececec;stroke-width:0.264584;stroke-linecap:round;stroke-miterlimit:10" id="rect16535" width="6" height="34" x="59.402229" y="41.685646"></rect> <rect style="fill:#ececec;stroke-width:0.264584;stroke-linecap:round;stroke-miterlimit:10" id="rect16537" width="6" height="34" x="66.191963" y="41.685646"></rect> <rect style="fill:#ececec;stroke-width:0.264584;stroke-linecap:round;stroke-miterlimit:10" id="rect16529" width="6" height="34" x="39.033119" y="41.685646"></rect> <g id="g33524" transform="matrix(0.07715582,0,0,0.07715582,29.625392,38.625132)" style="stroke-width:3.88824;stroke-miterlimit:10;stroke-dasharray:none"> <path d="m 110,480 h 4.4" style="fill:none;stroke:#262626;stroke-width:3.88824;stroke-linecap:square;stroke-linejoin:round;stroke-miterlimit:10;stroke-dasharray:none;stroke-opacity:1" id="path33526"></path> </g> <g id="g33532" transform="matrix(0.07715582,0,0,0.07715582,29.625392,38.625132)" style="stroke-width:3.88824;stroke-miterlimit:10;stroke-dasharray:none"> <path d="m 110,40 h 4.4" style="fill:none;stroke:#262626;stroke-width:3.88824;stroke-linecap:square;stroke-linejoin:round;stroke-miterlimit:10;stroke-dasharray:none;stroke-opacity:1" id="path33534"></path> </g> <g id="g33572" transform="matrix(0.07715582,0,0,0.07715582,30.151112,38.625132)" style="fill:#214478;fill-opacity:1"> <path d="m 121.50769,260 v 67.87384 h 10.83078 V 260 Z m 88,0 v 143.49371 h 10.83078 V 260 Z m 98.83078,0 V 194.52119 H 297.50769 V 260 Z m 77.16922,0 v 69.07764 h 10.83078 V 260 Z m 98.83078,0 V 141.07355 H 473.50769 V 260 Z" style="fill:#214478;fill-opacity:1;fill-rule:nonzero;stroke:none" id="path33574"></path> </g> <g id="g33576" transform="matrix(0.07715582,0,0,0.07715582,30.151112,38.625132)" style="fill:#3d944c;fill-opacity:1"> <path d="M 145.87692,260 V 235.78088 H 135.04616 V 260 Z m 77.16924,0 v 130.11249 h 10.83076 V 260 Z m 98.83076,0 V 144.77826 H 311.04614 V 260 Z m 77.16922,0 v 38.88641 h 10.83078 V 260 Z m 98.83078,0 V 133.1301 H 487.04617 V 260 Z" style="fill:#3d944c;fill-opacity:1;fill-rule:nonzero;stroke:none" id="path33578"></path> </g> <g id="g33580" transform="matrix(0.07715582,0,0,0.07715582,30.151112,38.625132)" style="fill:#d9b424;fill-opacity:1"> <path d="M 159.41539,260 V 244.80128 H 148.58461 V 260 Z m 77.16922,0 v 111.79675 h 10.83078 V 260 Z m 98.83076,0 V 137.34247 H 324.58463 V 260 Z m 88.00004,0 V 186.93686 H 412.58463 V 260 Z m 88,0 V 136.3578 H 500.58459 V 260 Z" style="fill:#d9b424;fill-opacity:1;fill-rule:nonzero;stroke:none" id="path33582"></path> </g> <g id="g33584" transform="matrix(0.07715582,0,0,0.07715582,30.151112,38.625132)" style="fill:#ff7f2a;fill-opacity:1"> <path d="m 162.12308,260 v 79.9805 h 10.83076 V 260 Z m 88.00001,0 v 112.77304 h 10.83077 V 260 Z m 98.83077,0 V 143.9269 H 338.12308 V 260 Z m 87.99997,0 V 247.87845 H 426.12308 V 260 Z m 88.00003,0 V 134.83826 H 514.12305 V 260 Z" style="fill:#ff7f2a;fill-opacity:1;fill-rule:nonzero;stroke:none" id="path33586"></path> </g> <g id="g33588" transform="matrix(0.07715582,0,0,0.07715582,30.151112,38.625132)" style="fill:#ff2800;fill-opacity:1"> <path d="m 175.66154,260 v 24.75174 h 10.83077 V 260 Z m 87.99999,0 v 112.71509 h 10.83078 V 260 Z m 98.83078,0 V 148.79034 H 351.66153 V 260 Z m 88,0 V 178.48936 H 439.66153 V 260 Z m 88,0 V 133.2282 H 527.66156 V 260 Z" style="fill:#ff2800;fill-opacity:1;fill-rule:nonzero;stroke:none" id="path33590"></path> </g> <path d="m 42.033112,60.681402 6.78971,7.28087 6.78971,-18.66438 6.78971,6.46619 6.78972,-7.14928" style="fill:none;stroke:#646464;stroke-width:0.5;stroke-linecap:butt;stroke-linejoin:round;stroke-miterlimit:10;stroke-dasharray:none;stroke-opacity:1" id="path33594"></path> <g id="g33596" transform="matrix(0.12055597,0,0,0.12055596,42.033112,50.871222)"> <path d="m -4.5,-4.5 v 9 h 9 v -9 z" style="fill:#000000;fill-opacity:1;fill-rule:nonzero;stroke:none;stroke-width:1.5" id="path33598"></path> </g> <g id="g33600" transform="matrix(0.12055597,0,0,0.12055596,48.822822,65.326022)"> <path d="m -4.5,-4.5 v 9 h 9 v -9 z" style="fill:#000000;fill-opacity:1;fill-rule:nonzero;stroke:none;stroke-width:1.5" id="path33602"></path> </g> <g id="g33604" transform="matrix(0.12055596,0,0,0.12055597,55.612532,50.965312)"> <path d="m -4.5,-4.5 v 9 h 9 v -9 z" style="fill:#000000;fill-opacity:1;fill-rule:nonzero;stroke:none;stroke-width:1.5" id="path33606"></path> </g> <g id="g33608" transform="matrix(0.12055596,0,0,0.12055596,62.402252,50.879092)"> <path d="m -4.5,-4.5 v 9 h 9 v -9 z" style="fill:#000000;fill-opacity:1;fill-rule:nonzero;stroke:none;stroke-width:1.5" id="path33610"></path> </g> <g id="g33612" transform="matrix(0.12055596,0,0,0.12055596,69.191962,50.785972)"> <path d="m -4.5,-4.5 v 9 h 9 v -9 z" style="fill:#000000;fill-opacity:1;fill-rule:nonzero;stroke:none;stroke-width:1.5" id="path33614"></path> </g> <path style="fill:none;stroke:#232323;stroke-width:0.3;stroke-linecap:butt;stroke-linejoin:round;stroke-miterlimit:10;stroke-dasharray:none;stroke-opacity:1" d="m 38.103492,58.685642 h 35.01808" id="path167254"></path> <g id="g2271" transform="translate(-0.23003205)"> <g transform="matrix(0.282222,0,0,0.282222,66.573332,76.465312)" ns1:version="1.5.0" ns1:texconverter="pdflatex" ns1:pdfconverter="inkscape" ns1:text="$k_{flip}$" ns1:preamble="/home/guillaume/.config/inkscape/extensions/textext/default_packages.tex" ns1:scale="0.8" ns1:alignment="middle center" ns1:stroke-to-path="0" ns1:inkscapeversion="1.1" ns1:jacobian_sqrt="0.282222" style="stroke-width:0" id="g101542"> <defs id="id-d1a23450-2505-4d06-80c2-e188c5274bd3" style="stroke-width:0"></defs> <g id="id-3bb4ca93-bc02-420a-b655-bac9f02eecdc" transform="translate(-149.259,-127.843)" style="stroke-width:0"> <g style="fill:#000000;fill-opacity:1;stroke-width:0" id="id-c7e4874b-a99a-4ee9-b17f-06c065a81bad"> <g transform="translate(148.712,134.765)" style="stroke-width:0" id="g6101"> <path style="stroke:none;stroke-width:0" d="m 2.859375,-6.8125 c 0,0 0,-0.109375 -0.125,-0.109375 -0.234375,0 -0.953125,0.078125 -1.21875,0.109375 -0.078125,0 -0.1875,0.015625 -0.1875,0.1875 0,0.125 0.09375,0.125 0.234375,0.125 0.484375,0 0.5,0.0625 0.5,0.171875 L 2.03125,-6.125 0.59375,-0.390625 c -0.046875,0.140625 -0.046875,0.15625 -0.046875,0.21875 0,0.234375 0.203125,0.28125 0.296875,0.28125 0.125,0 0.265625,-0.09375 0.328125,-0.203125 0.046875,-0.09375 0.5,-1.9375 0.5625,-2.1875 0.34375,0.03125 1.15625,0.1875 1.15625,0.84375 0,0.078125 0,0.109375 -0.03125,0.21875 -0.015625,0.109375 -0.03125,0.234375 -0.03125,0.34375 0,0.578125 0.390625,0.984375 0.90625,0.984375 0.296875,0 0.578125,-0.15625 0.796875,-0.53125 0.25,-0.4375 0.359375,-0.984375 0.359375,-1 0,-0.109375 -0.09375,-0.109375 -0.125,-0.109375 -0.09375,0 -0.109375,0.046875 -0.140625,0.1875 -0.203125,0.71875 -0.421875,1.234375 -0.859375,1.234375 -0.203125,0 -0.328125,-0.109375 -0.328125,-0.46875 0,-0.171875 0.046875,-0.40625 0.078125,-0.5625 C 3.5625,-1.3125 3.5625,-1.34375 3.5625,-1.453125 3.5625,-2.09375 2.9375,-2.375 2.078125,-2.5 2.390625,-2.671875 2.71875,-2.984375 2.9375,-3.234375 3.421875,-3.765625 3.875,-4.1875 4.359375,-4.1875 c 0.0625,0 0.078125,0 0.09375,0.015625 0.125,0.015625 0.125,0.015625 0.21875,0.078125 0.015625,0 0.015625,0.015625 0.03125,0.03125 -0.46875,0.03125 -0.5625,0.421875 -0.5625,0.546875 0,0.15625 0.109375,0.34375 0.375,0.34375 0.265625,0 0.546875,-0.21875 0.546875,-0.609375 0,-0.296875 -0.234375,-0.625 -0.671875,-0.625 -0.28125,0 -0.734375,0.078125 -1.453125,0.875 -0.34375,0.375 -0.734375,0.78125 -1.109375,0.921875 z m 0,0" id="id-0d1417ae-84b2-4053-8ffd-4264a5fb8b9a"></path> </g> </g> <g style="fill:#000000;fill-opacity:1;stroke-width:0" id="id-540efa90-7013-4b72-ba29-54080a7b3342"> <g transform="translate(153.899,136.259)" style="stroke-width:0" id="g6105"> <path style="stroke:none;stroke-width:0" d="M 2.84375,-2.75 H 3.515625 C 3.65625,-2.75 3.75,-2.75 3.75,-2.90625 3.75,-3 3.65625,-3 3.53125,-3 H 2.890625 c 0.15625,-0.890625 0.203125,-1.203125 0.265625,-1.40625 0.03125,-0.15625 0.1875,-0.296875 0.359375,-0.296875 0,0 0.1875,0 0.328125,0.078125 -0.296875,0.09375 -0.3125,0.34375 -0.3125,0.375 0,0.15625 0.125,0.265625 0.28125,0.265625 0.1875,0 0.390625,-0.15625 0.390625,-0.421875 0,-0.328125 -0.328125,-0.5 -0.6875,-0.5 -0.3125,0 -0.65625,0.171875 -0.84375,0.515625 C 2.53125,-4.125 2.484375,-3.8125 2.328125,-3 H 1.78125 c -0.140625,0 -0.234375,0 -0.234375,0.15625 0,0.09375 0.09375,0.09375 0.21875,0.09375 H 2.28125 c 0,0.046875 -0.4375,2.546875 -0.609375,3.296875 -0.03125,0.15625 -0.15625,0.671875 -0.484375,0.671875 -0.015625,0 -0.171875,0 -0.3125,-0.078125 0.28125,-0.09375 0.3125,-0.34375 0.3125,-0.375 C 1.1875,0.609375 1.0625,0.5 0.90625,0.5 c -0.1875,0 -0.390625,0.15625 -0.390625,0.421875 0,0.3125 0.328125,0.5 0.671875,0.5 0.4375,0 0.75,-0.453125 0.828125,-0.609375 0.25,-0.46875 0.421875,-1.328125 0.4375,-1.40625 z m 0,0" id="id-088ab1e3-783a-4d2d-aa9b-e9b5082ff6fe"></path> </g> </g> <g style="fill:#000000;fill-opacity:1;stroke-width:0" id="id-0abba0b6-a97b-419c-bab8-3f7d4784396e"> <g transform="translate(158.565,136.259)" style="stroke-width:0" id="g6109"> <path style="stroke:none;stroke-width:0" d="M 1.96875,-4.625 C 1.96875,-4.640625 2,-4.734375 2,-4.734375 2,-4.78125 1.96875,-4.84375 1.875,-4.84375 c -0.140625,0 -0.71875,0.0625 -0.890625,0.078125 -0.046875,0 -0.140625,0.015625 -0.140625,0.15625 0,0.09375 0.09375,0.09375 0.171875,0.09375 0.34375,0 0.34375,0.0625 0.34375,0.109375 0,0.046875 -0.015625,0.09375 -0.03125,0.15625 l -0.875,3.4375 C 0.4375,-0.734375 0.4375,-0.65625 0.4375,-0.59375 c 0,0.453125 0.390625,0.65625 0.71875,0.65625 0.171875,0 0.390625,-0.046875 0.5625,-0.359375 C 1.875,-0.5625 1.96875,-0.96875 1.96875,-1 c 0,-0.09375 -0.09375,-0.09375 -0.109375,-0.09375 -0.109375,0 -0.125,0.046875 -0.140625,0.171875 C 1.625,-0.578125 1.484375,-0.125 1.1875,-0.125 1,-0.125 0.953125,-0.296875 0.953125,-0.46875 0.953125,-0.546875 0.96875,-0.671875 1,-0.75 Z m 0,0" id="id-acd3088e-c93b-4fed-8cdf-1b578cc71235"></path> </g> </g> <g style="fill:#000000;fill-opacity:1;stroke-width:0" id="id-deebce78-afe8-4138-8e66-029b83147ec8"> <g transform="translate(161.127,136.259)" style="stroke-width:0" id="g6113"> <path style="stroke:none;stroke-width:0" d="m 2.265625,-4.359375 c 0,-0.109375 -0.09375,-0.265625 -0.28125,-0.265625 -0.1875,0 -0.390625,0.1875 -0.390625,0.390625 0,0.109375 0.078125,0.265625 0.28125,0.265625 0.1875,0 0.390625,-0.203125 0.390625,-0.390625 z M 0.84375,-0.8125 c -0.03125,0.09375 -0.0625,0.171875 -0.0625,0.296875 0,0.328125 0.265625,0.578125 0.65625,0.578125 0.6875,0 1,-0.953125 1,-1.0625 0,-0.09375 -0.09375,-0.09375 -0.109375,-0.09375 -0.09375,0 -0.109375,0.046875 -0.140625,0.125 -0.15625,0.5625 -0.453125,0.84375 -0.734375,0.84375 -0.140625,0 -0.171875,-0.09375 -0.171875,-0.25 0,-0.15625 0.046875,-0.28125 0.109375,-0.4375 C 1.46875,-1 1.546875,-1.1875 1.609375,-1.375 1.671875,-1.546875 1.9375,-2.171875 1.953125,-2.265625 1.984375,-2.328125 2,-2.40625 2,-2.484375 2,-2.8125 1.71875,-3.078125 1.34375,-3.078125 0.640625,-3.078125 0.328125,-2.125 0.328125,-2 c 0,0.078125 0.09375,0.078125 0.125,0.078125 0.09375,0 0.09375,-0.03125 0.125,-0.109375 C 0.75,-2.625 1.0625,-2.875 1.3125,-2.875 c 0.109375,0 0.171875,0.046875 0.171875,0.234375 0,0.171875 -0.03125,0.265625 -0.203125,0.703125 z m 0,0" id="id-98286082-c15f-4485-b9b1-63d5924e45e1"></path> </g> <g transform="translate(163.945,136.259)" style="stroke-width:0" id="g6116"> <path style="stroke:none;stroke-width:0" d="m 0.515625,0.84375 c -0.046875,0.203125 -0.0625,0.25 -0.328125,0.25 -0.09375,0 -0.1875,0 -0.1875,0.15625 0,0.078125 0.0625,0.109375 0.09375,0.109375 0.171875,0 0.40625,-0.03125 0.59375,-0.03125 0.234375,0 0.5,0.03125 0.734375,0.03125 0.0625,0 0.140625,-0.03125 0.140625,-0.15625 0,-0.109375 -0.09375,-0.109375 -0.1875,-0.109375 -0.15625,0 -0.34375,0 -0.34375,-0.078125 0,-0.03125 0.0625,-0.21875 0.078125,-0.3125 0.09375,-0.375 0.1875,-0.75 0.265625,-1.046875 0.078125,0.140625 0.296875,0.40625 0.71875,0.40625 0.84375,0 1.78125,-0.9375 1.78125,-1.96875 0,-0.8125 -0.5625,-1.171875 -1.03125,-1.171875 -0.4375,0 -0.8125,0.296875 -1,0.5 -0.109375,-0.40625 -0.5,-0.5 -0.71875,-0.5 -0.265625,0 -0.4375,0.1875 -0.546875,0.375 -0.140625,0.234375 -0.25,0.65625 -0.25,0.703125 0,0.078125 0.09375,0.078125 0.125,0.078125 0.09375,0 0.09375,-0.015625 0.140625,-0.203125 0.109375,-0.40625 0.25,-0.75 0.515625,-0.75 0.1875,0 0.234375,0.15625 0.234375,0.34375 0,0.078125 -0.015625,0.15625 -0.03125,0.203125 z M 1.84375,-2.234375 C 2.25,-2.78125 2.59375,-2.875 2.8125,-2.875 c 0.28125,0 0.515625,0.203125 0.515625,0.671875 0,0.28125 -0.15625,1 -0.359375,1.40625 -0.1875,0.34375 -0.515625,0.671875 -0.875,0.671875 -0.5,0 -0.625,-0.53125 -0.625,-0.609375 0,-0.03125 0.015625,-0.078125 0.015625,-0.109375 z m 0,0" id="id-6c337242-3211-4feb-be43-4cfb73a7ab6e"></path> </g> </g> </g> </g> <g transform="matrix(0.282222,0,0,0.282222,59.363332,76.784312)" ns1:version="1.5.0" ns1:texconverter="pdflatex" ns1:pdfconverter="inkscape" ns1:text="$p_{turn}$" ns1:preamble="/home/guillaume/.config/inkscape/extensions/textext/default_packages.tex" ns1:scale="0.8" ns1:alignment="middle center" ns1:stroke-to-path="0" ns1:inkscapeversion="1.1" ns1:jacobian_sqrt="0.282222" style="stroke-width:0" id="g87298"> <defs id="id-f35d22ca-356d-41be-a86e-315619cab1d5" style="stroke-width:0"></defs> <g id="id-87e55dce-d165-4f54-a4ba-e523f57617ac" transform="translate(-148.4,-130.359)" style="stroke-width:0"> <g style="fill:#000000;fill-opacity:1;stroke-width:0" id="id-a6710327-8f24-4423-9c99-50821d6e60d8"> <g transform="translate(148.712,134.765)" style="stroke-width:0" id="g6675"> <path style="stroke:none;stroke-width:0" d="M 0.453125,1.21875 C 0.375,1.5625 0.34375,1.625 -0.09375,1.625 c -0.109375,0 -0.21875,0 -0.21875,0.1875 0,0.078125 0.046875,0.125 0.125,0.125 0.265625,0 0.5625,-0.03125 0.828125,-0.03125 0.34375,0 0.671875,0.03125 1,0.03125 0.046875,0 0.171875,0 0.171875,-0.203125 C 1.8125,1.625 1.71875,1.625 1.578125,1.625 c -0.5,0 -0.5,-0.0625 -0.5,-0.15625 0,-0.125 0.421875,-1.75 0.484375,-2 0.125,0.296875 0.40625,0.640625 0.921875,0.640625 1.15625,0 2.40625,-1.453125 2.40625,-2.921875 0,-0.9375 -0.578125,-1.59375 -1.328125,-1.59375 -0.5,0 -0.984375,0.359375 -1.3125,0.75 -0.09375,-0.546875 -0.53125,-0.75 -0.890625,-0.75 -0.46875,0 -0.65625,0.390625 -0.734375,0.5625 C 0.4375,-3.5 0.3125,-2.90625 0.3125,-2.875 c 0,0.109375 0.09375,0.109375 0.109375,0.109375 0.109375,0 0.109375,-0.015625 0.171875,-0.234375 0.171875,-0.703125 0.375,-1.1875 0.734375,-1.1875 0.171875,0 0.3125,0.078125 0.3125,0.453125 0,0.234375 -0.03125,0.34375 -0.078125,0.515625 z m 1.75,-4.328125 C 2.265625,-3.375 2.546875,-3.65625 2.71875,-3.8125 c 0.359375,-0.296875 0.640625,-0.375 0.8125,-0.375 0.390625,0 0.640625,0.34375 0.640625,0.9375 0,0.59375 -0.328125,1.734375 -0.515625,2.109375 -0.34375,0.703125 -0.8125,1.03125 -1.1875,1.03125 C 1.8125,-0.109375 1.6875,-0.9375 1.6875,-1 c 0,-0.015625 0,-0.03125 0.03125,-0.15625 z m 0,0" id="id-4dd0a843-163c-450e-8e63-ce423c5b0a83"></path> </g> </g> <g style="fill:#000000;fill-opacity:1;stroke-width:0" id="id-9521ee05-efc9-4a2c-ab4d-b799b2fd715f"> <g transform="translate(153.725,136.259)" style="stroke-width:0" id="g6679"> <path style="stroke:none;stroke-width:0" d="m 1.71875,-2.75 h 0.703125 c 0.140625,0 0.21875,0 0.21875,-0.15625 C 2.640625,-3 2.5625,-3 2.4375,-3 H 1.78125 l 0.25,-1.03125 C 2.046875,-4.0625 2.0625,-4.109375 2.0625,-4.125 c 0,-0.140625 -0.109375,-0.234375 -0.25,-0.234375 -0.171875,0 -0.265625,0.125 -0.328125,0.296875 C 1.4375,-3.875 1.53125,-4.21875 1.21875,-3 H 0.515625 c -0.125,0 -0.21875,0 -0.21875,0.15625 C 0.296875,-2.75 0.375,-2.75 0.5,-2.75 H 1.15625 L 0.75,-1.109375 C 0.703125,-0.9375 0.640625,-0.6875 0.640625,-0.59375 c 0,0.40625 0.359375,0.65625 0.75,0.65625 0.78125,0 1.21875,-0.96875 1.21875,-1.0625 0,-0.09375 -0.09375,-0.09375 -0.109375,-0.09375 -0.09375,0 -0.09375,0.015625 -0.15625,0.140625 -0.1875,0.4375 -0.546875,0.828125 -0.921875,0.828125 -0.15625,0 -0.25,-0.09375 -0.25,-0.34375 0,-0.0625 0.03125,-0.21875 0.046875,-0.28125 z m 0,0" id="id-b6d1d7eb-249d-44e3-ad16-ed5b409f801d"></path> </g> <g transform="translate(156.735,136.259)" style="stroke-width:0" id="g6682"> <path style="stroke:none;stroke-width:0" d="M 2.953125,-1.125 C 2.90625,-0.984375 2.84375,-0.71875 2.84375,-0.71875 2.703125,-0.5 2.421875,-0.125 2,-0.125 c -0.484375,0 -0.484375,-0.453125 -0.484375,-0.578125 0,-0.40625 0.1875,-0.90625 0.390625,-1.421875 C 1.953125,-2.265625 2,-2.359375 2,-2.46875 2,-2.84375 1.6875,-3.078125 1.34375,-3.078125 0.640625,-3.078125 0.328125,-2.125 0.328125,-2 c 0,0.078125 0.09375,0.078125 0.125,0.078125 0.09375,0 0.09375,-0.03125 0.125,-0.109375 0.15625,-0.5625 0.46875,-0.84375 0.734375,-0.84375 0.125,0 0.171875,0.078125 0.171875,0.234375 0,0.171875 -0.046875,0.3125 -0.125,0.46875 -0.375,0.96875 -0.375,1.171875 -0.375,1.359375 0,0.109375 0,0.4375 0.265625,0.65625 0.203125,0.171875 0.46875,0.21875 0.71875,0.21875 0.4375,0 0.671875,-0.234375 0.90625,-0.453125 C 3.03125,0.0625 3.484375,0.0625 3.578125,0.0625 3.8125,0.0625 4,-0.0625 4.125,-0.296875 4.28125,-0.578125 4.375,-0.96875 4.375,-1 c 0,-0.09375 -0.09375,-0.09375 -0.109375,-0.09375 -0.109375,0 -0.109375,0.03125 -0.15625,0.21875 -0.09375,0.328125 -0.21875,0.75 -0.515625,0.75 -0.171875,0 -0.234375,-0.15625 -0.234375,-0.34375 0,-0.109375 0.0625,-0.375 0.109375,-0.546875 0.046875,-0.1875 0.125,-0.46875 0.15625,-0.625 l 0.15625,-0.625 C 3.828125,-2.4375 3.90625,-2.75 3.90625,-2.78125 3.90625,-2.921875 3.796875,-3 3.671875,-3 c -0.25,0 -0.3125,0.203125 -0.359375,0.421875 z m 0,0" id="id-a46720b6-3625-416e-8655-139d42fe9a48"></path> </g> <g transform="translate(161.445,136.259)" style="stroke-width:0" id="g6685"> <path style="stroke:none;stroke-width:0" d="m 1.640625,-1.40625 c 0,-0.046875 0.171875,-0.671875 0.171875,-0.703125 0.015625,-0.0625 0.21875,-0.40625 0.453125,-0.578125 0.0625,-0.046875 0.25,-0.1875 0.5625,-0.1875 0.0625,0 0.234375,0 0.375,0.09375 -0.21875,0.0625 -0.296875,0.265625 -0.296875,0.390625 0,0.140625 0.109375,0.25 0.265625,0.25 0.171875,0 0.390625,-0.125 0.390625,-0.421875 0,-0.359375 -0.375,-0.515625 -0.734375,-0.515625 -0.359375,0 -0.671875,0.15625 -0.984375,0.5 -0.125,-0.421875 -0.546875,-0.5 -0.71875,-0.5 -0.25,0 -0.421875,0.171875 -0.546875,0.359375 -0.15625,0.265625 -0.25,0.671875 -0.25,0.71875 0,0.078125 0.09375,0.078125 0.125,0.078125 0.09375,0 0.09375,-0.015625 0.140625,-0.203125 0.109375,-0.421875 0.25,-0.75 0.515625,-0.75 0.1875,0 0.234375,0.15625 0.234375,0.34375 0,0.125 -0.0625,0.390625 -0.125,0.578125 -0.046875,0.1875 -0.109375,0.46875 -0.140625,0.625 L 0.84375,-0.4375 C 0.828125,-0.34375 0.78125,-0.171875 0.78125,-0.15625 0.78125,0 0.90625,0.0625 1.015625,0.0625 1.125,0.0625 1.265625,0 1.3125,-0.125 1.328125,-0.171875 1.40625,-0.484375 1.453125,-0.65625 Z m 0,0" id="id-a3a25fc0-758a-48fc-bb27-dc01b8ab8d38"></path> </g> </g> <g style="fill:#000000;fill-opacity:1;stroke-width:0" id="id-641976d0-d5d9-4041-a406-e4d9e20b814e"> <g transform="translate(165.36,136.259)" style="stroke-width:0" id="g6689"> <path style="stroke:none;stroke-width:0" d="m 0.84375,-0.4375 c -0.015625,0.09375 -0.0625,0.265625 -0.0625,0.28125 0,0.15625 0.125,0.21875 0.234375,0.21875 0.125,0 0.234375,-0.078125 0.28125,-0.140625 0.03125,-0.0625 0.078125,-0.296875 0.125,-0.4375 0.03125,-0.125 0.109375,-0.453125 0.140625,-0.625 0.046875,-0.15625 0.09375,-0.3125 0.125,-0.46875 0.078125,-0.28125 0.09375,-0.34375 0.296875,-0.625 C 2.171875,-2.515625 2.5,-2.875 3.03125,-2.875 c 0.390625,0 0.40625,0.359375 0.40625,0.484375 0,0.421875 -0.296875,1.1875 -0.40625,1.484375 -0.078125,0.203125 -0.109375,0.265625 -0.109375,0.375 0,0.375 0.296875,0.59375 0.65625,0.59375 0.703125,0 1,-0.953125 1,-1.0625 0,-0.09375 -0.078125,-0.09375 -0.109375,-0.09375 -0.09375,0 -0.09375,0.046875 -0.125,0.125 C 4.1875,-0.40625 3.875,-0.125 3.609375,-0.125 c -0.15625,0 -0.1875,-0.09375 -0.1875,-0.25 0,-0.15625 0.046875,-0.25 0.171875,-0.5625 0.078125,-0.21875 0.359375,-0.953125 0.359375,-1.34375 0,-0.671875 -0.53125,-0.796875 -0.90625,-0.796875 -0.578125,0 -0.96875,0.359375 -1.171875,0.640625 -0.046875,-0.484375 -0.453125,-0.640625 -0.75,-0.640625 -0.296875,0 -0.453125,0.21875 -0.546875,0.375 -0.15625,0.265625 -0.25,0.65625 -0.25,0.703125 0,0.078125 0.09375,0.078125 0.125,0.078125 0.09375,0 0.09375,-0.015625 0.140625,-0.203125 0.109375,-0.40625 0.25,-0.75 0.515625,-0.75 0.1875,0 0.234375,0.15625 0.234375,0.34375 0,0.125 -0.0625,0.390625 -0.125,0.578125 -0.046875,0.1875 -0.109375,0.46875 -0.140625,0.625 z m 0,0" id="id-3f2c44a0-fb26-4466-a2f6-bdd50e4b9fcb"></path> </g> </g> </g> </g> <g transform="matrix(0.282222,0,0,0.282222,54.098332,76.300312)" ns1:version="1.5.0" ns1:texconverter="pdflatex" ns1:pdfconverter="inkscape" ns1:text="$\\left&amp;lt; d \\right&amp;gt;$" ns1:preamble="/home/guillaume/.config/inkscape/extensions/textext/default_packages.tex" ns1:scale="0.8" ns1:alignment="middle center" ns1:stroke-to-path="0" ns1:inkscapeversion="1.1" ns1:jacobian_sqrt="0.282222" style="stroke-width:0" id="g73094"> <defs id="id-3c25329b-02e8-4248-80ee-c778b91be9a5" style="stroke-width:0"></defs> <g id="id-360a2e94-bee3-4163-b01f-6ae52a5f2122" transform="translate(-149.806,-127.281)" style="stroke-width:0"> <g style="fill:#000000;fill-opacity:1;stroke-width:0" id="id-652bc0d0-e07d-41ac-8e79-e5afcf391d01"> <g transform="translate(148.712,134.765)" style="stroke-width:0" id="g7251"> <path style="stroke:none;stroke-width:0" d="M 3.265625,-7.09375 C 3.3125,-7.203125 3.3125,-7.234375 3.3125,-7.28125 c 0,-0.109375 -0.078125,-0.203125 -0.1875,-0.203125 -0.09375,0 -0.171875,0.0625 -0.234375,0.234375 l -1.75,4.578125 C 1.125,-2.609375 1.09375,-2.546875 1.09375,-2.5 c 0,0.03125 0,0.0625 0.046875,0.171875 L 2.890625,2.25 C 2.9375,2.359375 2.984375,2.5 3.125,2.5 c 0.109375,0 0.1875,-0.09375 0.1875,-0.203125 0,-0.03125 0,-0.046875 -0.046875,-0.15625 L 1.5,-2.5 Z m 0,0" id="id-d3f44c4e-61c3-4f2b-866f-127d60293ee1"></path> </g> </g> <g style="fill:#000000;fill-opacity:1;stroke-width:0" id="id-85bf94a5-daaf-42db-9ccc-91a32f9b6281"> <g transform="translate(152.587,134.765)" style="stroke-width:0" id="g7255"> <path style="stroke:none;stroke-width:0" d="m 5.140625,-6.8125 c 0,0 0,-0.109375 -0.125,-0.109375 -0.15625,0 -1.09375,0.09375 -1.265625,0.109375 -0.078125,0.015625 -0.140625,0.0625 -0.140625,0.1875 0,0.125 0.09375,0.125 0.234375,0.125 0.484375,0 0.5,0.0625 0.5,0.171875 L 4.3125,-6.125 3.71875,-3.765625 C 3.53125,-4.140625 3.25,-4.40625 2.796875,-4.40625 c -1.15625,0 -2.390625,1.46875 -2.390625,2.921875 0,0.9375 0.546875,1.59375 1.3125,1.59375 0.203125,0 0.703125,-0.046875 1.296875,-0.75 0.078125,0.421875 0.4375,0.75 0.90625,0.75 0.359375,0 0.578125,-0.234375 0.75,-0.546875 0.15625,-0.359375 0.296875,-0.96875 0.296875,-0.984375 0,-0.109375 -0.09375,-0.109375 -0.125,-0.109375 -0.09375,0 -0.109375,0.046875 -0.140625,0.1875 -0.171875,0.640625 -0.34375,1.234375 -0.75,1.234375 -0.28125,0 -0.296875,-0.265625 -0.296875,-0.453125 0,-0.25 0.015625,-0.3125 0.046875,-0.484375 z m -2.0625,5.625 C 3.015625,-1 3.015625,-0.984375 2.875,-0.8125 2.4375,-0.265625 2.03125,-0.109375 1.75,-0.109375 c -0.5,0 -0.640625,-0.546875 -0.640625,-0.9375 0,-0.5 0.3125,-1.71875 0.546875,-2.1875 0.3125,-0.578125 0.75,-0.953125 1.15625,-0.953125 0.640625,0 0.78125,0.8125 0.78125,0.875 0,0.0625 -0.015625,0.125 -0.03125,0.171875 z m 0,0" id="id-4e2ba416-9fea-4027-a894-8f7268bb9a7b"></path> </g> </g> <g style="fill:#000000;fill-opacity:1;stroke-width:0" id="id-2e831dbd-0777-4003-bd8e-53e782c1f389"> <g transform="translate(157.772,134.765)" style="stroke-width:0" id="g7259"> <path style="stroke:none;stroke-width:0" d="M 2.71875,-2.328125 C 2.765625,-2.4375 2.765625,-2.46875 2.765625,-2.5 c 0,-0.015625 0,-0.046875 -0.046875,-0.15625 L 0.984375,-7.25 c -0.0625,-0.171875 -0.125,-0.234375 -0.234375,-0.234375 -0.109375,0 -0.203125,0.09375 -0.203125,0.203125 0,0.03125 0,0.046875 0.046875,0.15625 L 2.359375,-2.5 0.59375,2.109375 C 0.546875,2.21875 0.546875,2.25 0.546875,2.296875 0.546875,2.40625 0.640625,2.5 0.75,2.5 0.875,2.5 0.921875,2.390625 0.953125,2.296875 Z m 0,0" id="id-b1032703-2595-48c8-834d-446452289edd"></path> </g> </g> </g> </g> <g transform="matrix(0.282222,0,0,0.282222,46.854532,76.300312)" ns1:version="1.5.0" ns1:texconverter="pdflatex" ns1:pdfconverter="inkscape" ns1:text="$\\left&amp;lt; \\delta t \\right&amp;gt;$" ns1:preamble="/home/guillaume/.config/inkscape/extensions/textext/default_packages.tex" ns1:scale="0.8" ns1:alignment="middle center" ns1:stroke-to-path="0" ns1:inkscapeversion="1.1" ns1:jacobian_sqrt="0.282222" style="stroke-width:0" id="g44769"> <defs id="id-70bcd967-2d8a-4c4b-9e93-32b70081ffd2" style="stroke-width:0"></defs> <g id="id-06c0de83-f444-4ce8-95f1-8b66a6c6eb85" transform="translate(-149.806,-127.281)" style="stroke-width:0"> <g style="fill:#000000;fill-opacity:1;stroke-width:0" id="id-a42d3116-4b28-4774-9f17-4676d033e6f0"> <g transform="translate(148.712,134.765)" style="stroke-width:0" id="g7810"> <path style="stroke:none;stroke-width:0" d="M 3.265625,-7.09375 C 3.3125,-7.203125 3.3125,-7.234375 3.3125,-7.28125 c 0,-0.109375 -0.078125,-0.203125 -0.1875,-0.203125 -0.09375,0 -0.171875,0.0625 -0.234375,0.234375 l -1.75,4.578125 C 1.125,-2.609375 1.09375,-2.546875 1.09375,-2.5 c 0,0.03125 0,0.0625 0.046875,0.171875 L 2.890625,2.25 C 2.9375,2.359375 2.984375,2.5 3.125,2.5 c 0.109375,0 0.1875,-0.09375 0.1875,-0.203125 0,-0.03125 0,-0.046875 -0.046875,-0.15625 L 1.5,-2.5 Z m 0,0" id="id-e32dd3a0-f971-4b14-8599-a9704bc36769"></path> </g> </g> <g style="fill:#000000;fill-opacity:1;stroke-width:0" id="id-0fb30f68-2471-48bf-963a-0e7eff46a36e"> <g transform="translate(152.587,134.765)" style="stroke-width:0" id="g7814"> <path style="stroke:none;stroke-width:0" d="M 2.625,-4.359375 C 1.390625,-4.0625 0.421875,-2.765625 0.421875,-1.5625 0.421875,-0.59375 1.0625,0.125 2,0.125 c 1.15625,0 1.984375,-1.578125 1.984375,-2.953125 0,-0.90625 -0.390625,-1.40625 -0.734375,-1.84375 C 2.890625,-5.125 2.296875,-5.875 2.296875,-6.3125 c 0,-0.21875 0.203125,-0.453125 0.546875,-0.453125 0.3125,0 0.5,0.125 0.71875,0.265625 0.203125,0.125 0.390625,0.25 0.546875,0.25 C 4.359375,-6.25 4.5,-6.484375 4.5,-6.65625 4.5,-6.875 4.34375,-6.890625 3.984375,-6.984375 3.46875,-7.09375 3.328125,-7.09375 3.171875,-7.09375 c -0.78125,0 -1.140625,0.4375 -1.140625,1.03125 0,0.546875 0.296875,1.09375 0.59375,1.703125 z m 0.125,0.21875 c 0.25,0.46875 0.546875,1 0.546875,1.71875 0,0.65625 -0.375,2.328125 -1.296875,2.328125 -0.546875,0 -0.96875,-0.421875 -0.96875,-1.1875 0,-0.625 0.375,-2.5 1.71875,-2.859375 z m 0,0" id="id-509598a4-5d6e-479b-bcdb-a8c79ff0dc81"></path> </g> </g> <g style="fill:#000000;fill-opacity:1;stroke-width:0" id="id-47ea6c21-7551-42d9-86e1-3638745cbcab"> <g transform="translate(157.393,134.765)" style="stroke-width:0" id="g7818"> <path style="stroke:none;stroke-width:0" d="m 2.046875,-3.984375 h 0.9375 c 0.203125,0 0.3125,0 0.3125,-0.203125 0,-0.109375 -0.109375,-0.109375 -0.28125,-0.109375 h -0.875 C 2.5,-5.71875 2.546875,-5.90625 2.546875,-5.96875 c 0,-0.171875 -0.125,-0.265625 -0.296875,-0.265625 -0.03125,0 -0.3125,0 -0.390625,0.359375 L 1.46875,-4.296875 h -0.9375 c -0.203125,0 -0.296875,0 -0.296875,0.1875 0,0.125 0.078125,0.125 0.28125,0.125 h 0.875 C 0.671875,-1.15625 0.625,-0.984375 0.625,-0.8125 0.625,-0.265625 1,0.109375 1.546875,0.109375 2.5625,0.109375 3.125,-1.34375 3.125,-1.421875 3.125,-1.53125 3.046875,-1.53125 3.015625,-1.53125 2.921875,-1.53125 2.90625,-1.5 2.859375,-1.390625 2.4375,-0.34375 1.90625,-0.109375 1.5625,-0.109375 c -0.203125,0 -0.3125,-0.125 -0.3125,-0.453125 0,-0.25 0.03125,-0.3125 0.0625,-0.484375 z m 0,0" id="id-c91b2aaa-7c3c-4e51-9e00-3b5f17cc48d0"></path> </g> </g> <g style="fill:#000000;fill-opacity:1;stroke-width:0" id="id-7b3751ab-8d23-4195-a0d5-0063b6b1cd04"> <g transform="translate(160.989,134.765)" style="stroke-width:0" id="g7822"> <path style="stroke:none;stroke-width:0" d="M 2.71875,-2.328125 C 2.765625,-2.4375 2.765625,-2.46875 2.765625,-2.5 c 0,-0.015625 0,-0.046875 -0.046875,-0.15625 L 0.984375,-7.25 c -0.0625,-0.171875 -0.125,-0.234375 -0.234375,-0.234375 -0.109375,0 -0.203125,0.09375 -0.203125,0.203125 0,0.03125 0,0.046875 0.046875,0.15625 L 2.359375,-2.5 0.59375,2.109375 C 0.546875,2.21875 0.546875,2.25 0.546875,2.296875 0.546875,2.40625 0.640625,2.5 0.75,2.5 0.875,2.5 0.921875,2.390625 0.953125,2.296875 Z m 0,0" id="id-e83e554c-3c61-4421-9409-53ace015357c"></path> </g> </g> </g> </g> <g transform="matrix(0.282222,0,0,0.282222,39.873532,76.300312)" ns1:version="1.5.0" ns1:texconverter="pdflatex" ns1:pdfconverter="inkscape" ns1:text="$\\left&amp;lt; \\delta \\theta \\right&amp;gt;$" ns1:preamble="/home/guillaume/.config/inkscape/extensions/textext/default_packages.tex" ns1:scale="0.8" ns1:alignment="middle center" ns1:stroke-to-path="0" ns1:inkscapeversion="1.1" ns1:jacobian_sqrt="0.282222" style="stroke-width:0" id="g30615"> <defs id="id-1eaf01e0-9531-4e66-9c6b-fc2f147f5abf" style="stroke-width:0"></defs> <g id="id-08a00b9d-6c24-42f1-a224-ec7e93ada56d" transform="translate(-149.806,-127.281)" style="stroke-width:0"> <g style="fill:#000000;fill-opacity:1;stroke-width:0" id="id-ad61b69e-a8e0-454e-a00a-c9cf1c04b731"> <g transform="translate(148.712,134.765)" style="stroke-width:0" id="g8378"> <path style="stroke:none;stroke-width:0" d="M 3.265625,-7.09375 C 3.3125,-7.203125 3.3125,-7.234375 3.3125,-7.28125 c 0,-0.109375 -0.078125,-0.203125 -0.1875,-0.203125 -0.09375,0 -0.171875,0.0625 -0.234375,0.234375 l -1.75,4.578125 C 1.125,-2.609375 1.09375,-2.546875 1.09375,-2.5 c 0,0.03125 0,0.0625 0.046875,0.171875 L 2.890625,2.25 C 2.9375,2.359375 2.984375,2.5 3.125,2.5 c 0.109375,0 0.1875,-0.09375 0.1875,-0.203125 0,-0.03125 0,-0.046875 -0.046875,-0.15625 L 1.5,-2.5 Z m 0,0" id="id-989d3dff-1990-4302-808d-79f1137344a2"></path> </g> </g> <g style="fill:#000000;fill-opacity:1;stroke-width:0" id="id-7277458f-1674-42f5-937d-0e9095641ce0"> <g transform="translate(152.587,134.765)" style="stroke-width:0" id="g8382"> <path style="stroke:none;stroke-width:0" d="M 2.625,-4.359375 C 1.390625,-4.0625 0.421875,-2.765625 0.421875,-1.5625 0.421875,-0.59375 1.0625,0.125 2,0.125 c 1.15625,0 1.984375,-1.578125 1.984375,-2.953125 0,-0.90625 -0.390625,-1.40625 -0.734375,-1.84375 C 2.890625,-5.125 2.296875,-5.875 2.296875,-6.3125 c 0,-0.21875 0.203125,-0.453125 0.546875,-0.453125 0.3125,0 0.5,0.125 0.71875,0.265625 0.203125,0.125 0.390625,0.25 0.546875,0.25 C 4.359375,-6.25 4.5,-6.484375 4.5,-6.65625 4.5,-6.875 4.34375,-6.890625 3.984375,-6.984375 3.46875,-7.09375 3.328125,-7.09375 3.171875,-7.09375 c -0.78125,0 -1.140625,0.4375 -1.140625,1.03125 0,0.546875 0.296875,1.09375 0.59375,1.703125 z m 0.125,0.21875 c 0.25,0.46875 0.546875,1 0.546875,1.71875 0,0.65625 -0.375,2.328125 -1.296875,2.328125 -0.546875,0 -0.96875,-0.421875 -0.96875,-1.1875 0,-0.625 0.375,-2.5 1.71875,-2.859375 z m 0,0" id="id-cffc6dd0-5dd3-4757-beda-ad77714f7ba3"></path> </g> </g> <g style="fill:#000000;fill-opacity:1;stroke-width:0" id="id-cfda5424-7440-4506-9582-bfe776dd80e3"> <g transform="translate(157.393,134.765)" style="stroke-width:0" id="g8386"> <path style="stroke:none;stroke-width:0" d="m 4.53125,-4.984375 c 0,-0.65625 -0.171875,-2.046875 -1.1875,-2.046875 -1.390625,0 -2.921875,2.8125 -2.921875,5.09375 0,0.9375 0.28125,2.046875 1.1875,2.046875 1.40625,0 2.921875,-2.859375 2.921875,-5.09375 z M 1.46875,-3.625 C 1.640625,-4.25 1.84375,-5.046875 2.25,-5.765625 2.515625,-6.25 2.875,-6.8125 3.328125,-6.8125 c 0.484375,0 0.546875,0.640625 0.546875,1.203125 0,0.5 -0.078125,1 -0.3125,1.984375 z m 2,0.328125 C 3.359375,-2.84375 3.15625,-2 2.765625,-1.28125 c -0.34375,0.6875 -0.71875,1.171875 -1.15625,1.171875 -0.328125,0 -0.53125,-0.296875 -0.53125,-1.21875 0,-0.421875 0.0625,-1 0.3125,-1.96875 z m 0,0" id="id-e0d266ad-5656-47c7-8e16-9909d7536f17"></path> </g> </g> <g style="fill:#000000;fill-opacity:1;stroke-width:0" id="id-86e65b35-ee6f-43de-b7f0-c969eba8d3d0"> <g transform="translate(162.345,134.765)" style="stroke-width:0" id="g8390"> <path style="stroke:none;stroke-width:0" d="M 2.71875,-2.328125 C 2.765625,-2.4375 2.765625,-2.46875 2.765625,-2.5 c 0,-0.015625 0,-0.046875 -0.046875,-0.15625 L 0.984375,-7.25 c -0.0625,-0.171875 -0.125,-0.234375 -0.234375,-0.234375 -0.109375,0 -0.203125,0.09375 -0.203125,0.203125 0,0.03125 0,0.046875 0.046875,0.15625 L 2.359375,-2.5 0.59375,2.109375 C 0.546875,2.21875 0.546875,2.25 0.546875,2.296875 0.546875,2.40625 0.640625,2.5 0.75,2.5 0.875,2.5 0.921875,2.390625 0.953125,2.296875 Z m 0,0" id="id-e4832076-5509-4acc-8859-296001c628e6"></path> </g> </g> </g> </g> </g> </g> </g>
</svg>
