<?xml version="1.0"?>

<svg width="46.994499" height="42.130344" viewBox="0 0 46.994499 42.130344" version="1.1" id="svg8" xmlns="http://www.w3.org/2000/svg" xmlns:svg="http://www.w3.org/2000/svg" xmlns:rdf="http://www.w3.org/1999/02/22-rdf-syntax-ns#" xmlns:cc="http://creativecommons.org/ns#" xmlns:dc="http://purl.org/dc/elements/1.1/" xmlns:ns3="http://www.iki.fi/pav/software/textext/"> <defs id="defs2"> <marker style="overflow:visible" id="Arrow2Mend" refX="0" refY="0" orient="auto"> <path transform="scale(-0.6)" d="M 8.7185878,4.0337352 -2.2072895,0.01601326 8.7185884,-4.0017078 c -1.7454984,2.3720609 -1.7354408,5.6174519 -6e-7,8.035443 z" style="fill:context-stroke;fill-rule:evenodd;stroke-width:0.625;stroke-linejoin:round" id="path11875"></path> </marker> <marker style="overflow:visible" id="Arrow1Send" refX="0" refY="0" orient="auto"> <path transform="matrix(-0.2,0,0,-0.2,-1.2,0)" style="fill:context-stroke;fill-rule:evenodd;stroke:context-stroke;stroke-width:1pt" d="M 0,0 5,-5 -12.5,0 5,5 Z" id="path11863"></path> </marker> <marker style="overflow:visible" id="marker12118" refX="0" refY="0" orient="auto"> <path transform="matrix(-0.4,0,0,-0.4,-4,0)" style="fill:context-stroke;fill-rule:evenodd;stroke:context-stroke;stroke-width:1pt" d="M 0,0 5,-5 -12.5,0 5,5 Z" id="path12116"></path> </marker> <marker style="overflow:visible" id="Arrow1Mend" refX="0" refY="0" orient="auto"> <path transform="matrix(-0.4,0,0,-0.4,-4,0)" style="fill:context-stroke;fill-rule:evenodd;stroke:context-stroke;stroke-width:1pt" d="M 0,0 5,-5 -12.5,0 5,5 Z" id="path11857"></path> </marker> <linearGradient id="linearGradient9758"> <stop style="stop-color:#ffcc00;stop-opacity:1;" offset="0" id="stop9756"></stop> </linearGradient> <clipPath id="clipPath3400" clipPathUnits="userSpaceOnUse"> <rect y="47.408783" x="17.324551" height="10.286221" width="5.2473297" id="rect3402" style="fill:#808080;fill-opacity:1;stroke:#232323;stroke-width:0.537001;stroke-miterlimit:4;stroke-dasharray:none;stroke-dashoffset:0;stroke-opacity:1"></rect> </clipPath> <clipPath id="clipPath44122" clipPathUnits="userSpaceOnUse"> <rect y="47.408783" x="17.324551" height="10.286221" width="5.2473297" id="rect44120" style="fill:#808080;fill-opacity:1;stroke:#232323;stroke-width:0.537001;stroke-miterlimit:4;stroke-dasharray:none;stroke-dashoffset:0;stroke-opacity:1"></rect> </clipPath> <marker orient="auto" refY="0" refX="0" id="marker1174" style="overflow:visible"> <path id="path1172" d="M 0,0 5,-5 -12.5,0 5,5 Z" style="fill:#177ffa;fill-opacity:1;fill-rule:evenodd;stroke:#177ffa;stroke-width:1pt;stroke-opacity:1" transform="matrix(-0.4,0,0,-0.4,-4,0)"></path> </marker> <clipPath id="clipPath44132" clipPathUnits="userSpaceOnUse"> <rect y="47.408783" x="17.324551" height="10.286221" width="5.2473297" id="rect44130" style="fill:#808080;fill-opacity:1;stroke:#232323;stroke-width:0.537001;stroke-miterlimit:4;stroke-dasharray:none;stroke-dashoffset:0;stroke-opacity:1"></rect> </clipPath> <clipPath id="clipPath44136" clipPathUnits="userSpaceOnUse"> <rect y="47.408783" x="17.324551" height="10.286221" width="5.2473297" id="rect44134" style="fill:#808080;fill-opacity:1;stroke:#232323;stroke-width:0.537001;stroke-miterlimit:4;stroke-dasharray:none;stroke-dashoffset:0;stroke-opacity:1"></rect> </clipPath> <marker style="overflow:visible" id="marker1328" refX="0" refY="0" orient="auto"> <path transform="scale(-0.6)" d="M 8.7185878,4.0337352 -2.2072895,0.01601326 8.7185884,-4.0017078 c -1.7454984,2.3720609 -1.7354408,5.6174519 -6e-7,8.035443 z" style="fill:#177ffa;fill-opacity:1;fill-rule:evenodd;stroke:#177ffa;stroke-width:0.625;stroke-linejoin:round;stroke-opacity:1" id="path1326"></path> </marker> <g id="id-ef624ce4-2dbb-4753-bf01-03f821fd12de"> <symbol overflow="visible" id="id-68dbc58e-4463-4d22-b028-925fde6f442b"> <path style="stroke:none" d="" id="id-815e388f-264f-451b-bfca-835299fa31aa"></path> </symbol> <symbol overflow="visible" id="id-f94966e2-b3af-4a32-a988-4f8b652dfd19"> <path style="stroke:none" d="M 2.484375,-4.6875 C 1.53125,-4.375 0.8125,-3.546875 0.515625,-2.609375 0.421875,-2.34375 0.34375,-2.046875 0.34375,-1.78125 0.3125,-1.1875 0.4375,-0.578125 0.859375,-0.140625 1.109375,0.125 1.46875,0.3125 1.96875,0.3125 2.625,0.328125 3.125,-0.15625 3.4375,-0.6875 4,-1.640625 4.34375,-3.375 3.625,-4.359375 3.265625,-4.90625 2.1875,-5.625 2.1875,-6.296875 c 0,-0.1875 0.0625,-0.359375 0.265625,-0.375 0.0625,0 0.125,0 0.1875,0.015625 0.53125,0.109375 0.6875,0.140625 1.3125,0.296875 0.203125,0.046875 0.46875,-0.1875 0.390625,-0.40625 C 4.3125,-6.875 4.203125,-6.90625 4.109375,-6.921875 3.984375,-6.953125 3.4375,-7.0625 3.34375,-7.0625 3.1875,-7.09375 2.84375,-7.15625 2.6875,-7.171875 2.390625,-7.1875 2.0625,-7.078125 1.875,-6.84375 1.703125,-6.59375 1.671875,-6.375 1.796875,-6 c 0.15625,0.46875 0.4375,0.890625 0.6875,1.3125 z M 2.71875,-4.265625 C 2.8125,-4.25 2.875,-4.109375 2.921875,-4.03125 3.078125,-3.765625 3.203125,-3.484375 3.28125,-3.1875 3.5,-2.359375 3.3125,-1.390625 3,-0.84375 c -0.203125,0.359375 -0.5,0.671875 -0.9375,0.671875 -0.34375,0 -0.578125,-0.125 -0.765625,-0.3125 -0.421875,-0.40625 -0.375,-1.109375 -0.25,-1.765625 0.171875,-0.828125 0.59375,-1.640625 1.40625,-1.953125 0.078125,-0.03125 0.171875,-0.0625 0.265625,-0.0625 z m 0,0" id="id-4047f6c0-7c02-47e6-8183-035179598e5a"></path> </symbol> <symbol overflow="visible" id="id-0f7d1ea7-4f9e-44d0-8f69-da596f990a42"> <path style="stroke:none" d="m 3.078125,-7 c -0.640625,0.078125 -1.125,0.59375 -1.46875,1.09375 -0.578125,0.8125 -0.9375,1.765625 -1.09375,2.75 -0.078125,0.46875 -0.125,1.109375 -0.0625,1.59375 C 0.53125,-0.84375 0.84375,-0.046875 1.5,0.0625 1.578125,0.078125 1.671875,0.078125 1.75,0.078125 2.390625,0.015625 2.875,-0.515625 3.234375,-1 c 0.53125,-0.75 0.84375,-1.59375 1.03125,-2.46875 0.125,-0.625 0.203125,-1.3125 0.109375,-1.9375 C 4.3125,-6.109375 3.953125,-6.890625 3.3125,-6.984375 3.234375,-7 3.15625,-7.015625 3.078125,-7 Z m 0.59375,3.296875 H 1.265625 C 1.453125,-4.46875 1.671875,-5.21875 2.140625,-5.875 2.34375,-6.15625 2.625,-6.453125 3,-6.5 c 0.0625,0 0.125,0 0.1875,0.015625 0.328125,0.046875 0.46875,0.359375 0.546875,0.65625 0.1875,0.65625 0.078125,1.484375 -0.0625,2.125 z m -0.109375,0.5 c -0.03125,0.25 -0.109375,0.515625 -0.1875,0.765625 -0.1875,0.546875 -0.421875,1.109375 -0.796875,1.5625 -0.25,0.28125 -0.65625,0.578125 -1.046875,0.40625 -0.234375,-0.09375 -0.359375,-0.34375 -0.421875,-0.5625 -0.140625,-0.5 -0.125,-1 -0.0625,-1.5 C 1.0625,-2.625 1.125,-3.15625 1.171875,-3.1875 1.21875,-3.234375 1.3125,-3.203125 1.359375,-3.203125 Z m 0,0" id="id-0e3f14a9-36d5-466f-8d40-15bbce2835fa"></path> </symbol> <symbol overflow="visible" id="id-b9a0b8e0-7dc4-46d4-ae48-25069f87eb80"> <path style="stroke:none" d="M 6.234375,-2.640625 V -2.625 C 6.015625,-2.546875 5.78125,-2.40625 5.5625,-2.296875 l -2.859375,1.34375 -1.59375,0.75 c -0.078125,0.03125 -0.171875,0.078125 -0.21875,0.125 -0.09375,0.09375 -0.078125,0.25 0.03125,0.3125 0.125,0.0625 0.25,-0.03125 0.359375,-0.078125 l 0.8125,-0.375 c 0.421875,-0.203125 3.390625,-1.609375 3.390625,-1.609375 l 1.09375,-0.515625 c 0.125,-0.0625 0.34375,-0.125 0.34375,-0.28125 0,-0.171875 -0.21875,-0.234375 -0.34375,-0.296875 l -1.09375,-0.515625 -2.125,-1.015625 c -0.421875,-0.1875 -0.84375,-0.375 -1.265625,-0.59375 l -0.8125,-0.375 C 1.171875,-5.46875 1.046875,-5.5625 0.921875,-5.5 c -0.109375,0.0625 -0.125,0.21875 -0.03125,0.3125 0.046875,0.046875 0.140625,0.09375 0.21875,0.125 l 3.03125,1.4375 1.421875,0.671875 c 0.21875,0.109375 0.453125,0.234375 0.671875,0.3125 z m 0,0" id="id-015833af-b11c-4c35-9fa3-7da7d93b72a9"></path> </symbol> <symbol overflow="visible" id="id-1bd0c193-f7b1-4aae-a90a-58eff5aad991"> <path style="stroke:none" d="" id="id-bdb59dcd-4534-47df-914c-6684567eedc9"></path> </symbol> <symbol overflow="visible" id="id-530679b1-07cf-493b-9d16-f3530b01e5fd"> <path style="stroke:none" d="M 3.671875,-2.828125 H 0.90625 c -0.0625,0 -0.140625,-0.015625 -0.203125,0 C 0.625,-2.796875 0.5625,-2.71875 0.5625,-2.625 c 0,0.078125 0.0625,0.15625 0.140625,0.1875 0.0625,0.015625 0.140625,0 0.203125,0 h 2.765625 v 2.78125 c 0,0.0625 0,0.140625 0.015625,0.1875 C 3.703125,0.625 3.78125,0.6875 3.875,0.6875 3.96875,0.6875 4.046875,0.625 4.0625,0.53125 4.09375,0.484375 4.078125,0.40625 4.078125,0.34375 V -2.4375 H 6.84375 c 0.046875,0 0.140625,0.015625 0.1875,0 C 7.125,-2.46875 7.1875,-2.546875 7.1875,-2.625 c 0,-0.09375 -0.0625,-0.171875 -0.15625,-0.203125 -0.046875,-0.015625 -0.140625,0 -0.1875,0 H 4.078125 v -2.78125 c 0,-0.046875 0.015625,-0.125 -0.015625,-0.1875 -0.015625,-0.09375 -0.09375,-0.15625 -0.1875,-0.15625 -0.09375,0 -0.171875,0.0625 -0.1875,0.15625 -0.015625,0.0625 -0.015625,0.140625 -0.015625,0.203125 z m 0,0" id="id-c01bf5c0-5252-4b31-bd71-fe52420ce550"></path> </symbol> <symbol overflow="visible" id="id-864b63c4-ad46-4deb-ae65-969bd0240f6d"> <path style="stroke:none" d="m 1.046875,-6.046875 v 0.5 c 0.546875,0 0.921875,-0.109375 1.359375,-0.296875 V -0.5 H 1.109375 V 0 h 3.25 V -0.5 H 3.0625 v -6.203125 c -0.234375,0 -0.203125,0.046875 -0.390625,0.1875 -0.40625,0.3125 -0.984375,0.46875 -1.625,0.46875 z m 0,0" id="id-f66e235d-2ff8-4967-86e3-ab24f9ad3327"></path> </symbol> <symbol overflow="visible" id="id-9abbaef7-89cd-49b9-a35f-dbf55173321e"> <path style="stroke:none" d="m 1.578125,-6.40625 c -0.6875,0.46875 -0.9375,1.34375 -1.015625,2.125 -0.015625,0.171875 -0.03125,0.359375 -0.03125,0.53125 0,0.1875 -0.015625,0.375 -0.015625,0.546875 0,1.15625 0.171875,2.203125 0.75,2.796875 0.515625,0.5625 1.390625,0.75 2.109375,0.421875 0.515625,-0.234375 0.859375,-0.6875 1.046875,-1.21875 C 4.6875,-1.90625 4.703125,-2.671875 4.703125,-3.40625 4.703125,-4.46875 4.53125,-5.5 4,-6.078125 3.40625,-6.765625 2.375,-6.90625 1.578125,-6.40625 Z M 3.5625,-5.8125 c 0.140625,0.15625 0.234375,0.359375 0.3125,0.5625 0.203125,0.578125 0.1875,1.203125 0.1875,1.796875 0,0.875 0,1.984375 -0.40625,2.5625 -0.234375,0.328125 -0.578125,0.53125 -0.953125,0.5625 -0.4375,0.03125 -0.875,-0.1875 -1.125,-0.546875 -0.40625,-0.578125 -0.421875,-1.578125 -0.421875,-2.46875 0,-0.84375 0,-1.765625 0.40625,-2.34375 C 2,-6.3125 3,-6.40625 3.5625,-5.8125 Z m 0,0" id="id-8b97df84-cd54-43ad-af58-f30e2f7733c3"></path> </symbol> <symbol overflow="visible" id="id-78f623d2-5c07-4c99-8368-2051aff34b08"> <path style="stroke:none" d="" id="id-918f407c-be1a-4b87-9e22-fcbd3bee2448"></path> </symbol> <symbol overflow="visible" id="id-dcd78437-b164-418f-a32c-d950678f9862"> <path style="stroke:none" d="m 0.671875,-2.671875 c -0.34375,0.5 -0.34375,1.1875 0.015625,1.6875 C 0.953125,-0.625 1.421875,-0.34375 2,-0.40625 2.4375,-0.453125 2.78125,-0.703125 3,-0.96875 3.328125,-1.421875 3.375,-2.03125 3.109375,-2.515625 2.9375,-2.84375 2.640625,-3.09375 2.265625,-3.21875 1.578125,-3.421875 0.96875,-3.078125 0.671875,-2.671875 Z m 1.84375,-0.0625 C 3,-2.359375 3.09375,-1.65625 2.734375,-1.171875 2.65625,-1.046875 2.53125,-0.953125 2.40625,-0.875 2.015625,-0.640625 1.515625,-0.6875 1.171875,-0.953125 0.6875,-1.3125 0.59375,-2.03125 0.953125,-2.515625 1.046875,-2.640625 1.15625,-2.734375 1.296875,-2.8125 1.6875,-3.03125 2.1875,-2.984375 2.515625,-2.734375 Z m 0,0" id="id-8bc8ebe2-9fa2-44b8-bce5-0f65d86c36b8"></path> </symbol> </g> <g id="id-60f175e1-80d4-4d36-a89c-32e1b3fe15d3"> <symbol overflow="visible" id="id-c800a616-a85b-4521-9d5d-3d269547ac77"> <path style="stroke:none" d="" id="id-6972baf5-4b22-4bda-9868-e54dfaedd338"></path> </symbol> <symbol overflow="visible" id="id-94aaa72c-adce-4a85-940b-630bf3f19826"> <path style="stroke:none" d="M 1.1875,-7.015625 V 1.78125 c 0,0.15625 -0.046875,0.40625 0.171875,0.4375 0.03125,0 0.046875,0 0.078125,-0.015625 C 1.640625,2.15625 1.578125,1.859375 1.578125,1.6875 V -7.125 c 0,-0.140625 0.015625,-0.328125 -0.15625,-0.359375 -0.28125,0 -0.234375,0.28125 -0.234375,0.46875 z m 0,0" id="id-79c66ddd-a60a-4118-99dc-c1863e0875f5"></path> </symbol> <symbol overflow="visible" id="id-c806bc2e-eb41-44d7-83a5-766e2e30da24"> <path style="stroke:none" d="" id="id-73747a81-2c16-4147-a0db-155d3971dc50"></path> </symbol> <symbol overflow="visible" id="id-08788275-de36-4201-83b9-57525f2bf3eb"> <path style="stroke:none" d="M 2.484375,-4.6875 C 1.53125,-4.375 0.8125,-3.546875 0.515625,-2.609375 0.421875,-2.34375 0.34375,-2.046875 0.34375,-1.78125 0.3125,-1.1875 0.4375,-0.578125 0.859375,-0.140625 1.109375,0.125 1.46875,0.3125 1.96875,0.3125 2.625,0.328125 3.125,-0.15625 3.4375,-0.6875 4,-1.640625 4.34375,-3.375 3.625,-4.359375 3.265625,-4.90625 2.1875,-5.625 2.1875,-6.296875 c 0,-0.1875 0.0625,-0.359375 0.265625,-0.375 0.0625,0 0.125,0 0.1875,0.015625 0.53125,0.109375 0.6875,0.140625 1.3125,0.296875 0.203125,0.046875 0.46875,-0.1875 0.390625,-0.40625 C 4.3125,-6.875 4.203125,-6.90625 4.109375,-6.921875 3.984375,-6.953125 3.4375,-7.0625 3.34375,-7.0625 3.1875,-7.09375 2.84375,-7.15625 2.6875,-7.171875 2.390625,-7.1875 2.0625,-7.078125 1.875,-6.84375 1.703125,-6.59375 1.671875,-6.375 1.796875,-6 c 0.15625,0.46875 0.4375,0.890625 0.6875,1.3125 z M 2.71875,-4.265625 C 2.8125,-4.25 2.875,-4.109375 2.921875,-4.03125 3.078125,-3.765625 3.203125,-3.484375 3.28125,-3.1875 3.5,-2.359375 3.3125,-1.390625 3,-0.84375 c -0.203125,0.359375 -0.5,0.671875 -0.9375,0.671875 -0.34375,0 -0.578125,-0.125 -0.765625,-0.3125 -0.421875,-0.40625 -0.375,-1.109375 -0.25,-1.765625 0.171875,-0.828125 0.59375,-1.640625 1.40625,-1.953125 0.078125,-0.03125 0.171875,-0.0625 0.265625,-0.0625 z m 0,0" id="id-6b1243d4-464c-4d4b-b74b-512ac4dc9a84"></path> </symbol> <symbol overflow="visible" id="id-149e75a4-01ac-4789-bc84-5408ab5b5723"> <path style="stroke:none" d="m 3.078125,-7 c -0.640625,0.078125 -1.125,0.59375 -1.46875,1.09375 -0.578125,0.8125 -0.9375,1.765625 -1.09375,2.75 -0.078125,0.46875 -0.125,1.109375 -0.0625,1.59375 C 0.53125,-0.84375 0.84375,-0.046875 1.5,0.0625 1.578125,0.078125 1.671875,0.078125 1.75,0.078125 2.390625,0.015625 2.875,-0.515625 3.234375,-1 c 0.53125,-0.75 0.84375,-1.59375 1.03125,-2.46875 0.125,-0.625 0.203125,-1.3125 0.109375,-1.9375 C 4.3125,-6.109375 3.953125,-6.890625 3.3125,-6.984375 3.234375,-7 3.15625,-7.015625 3.078125,-7 Z m 0.59375,3.296875 H 1.265625 C 1.453125,-4.46875 1.671875,-5.21875 2.140625,-5.875 2.34375,-6.15625 2.625,-6.453125 3,-6.5 c 0.0625,0 0.125,0 0.1875,0.015625 0.328125,0.046875 0.46875,0.359375 0.546875,0.65625 0.1875,0.65625 0.078125,1.484375 -0.0625,2.125 z m -0.109375,0.5 c -0.03125,0.25 -0.109375,0.515625 -0.1875,0.765625 -0.1875,0.546875 -0.421875,1.109375 -0.796875,1.5625 -0.25,0.28125 -0.65625,0.578125 -1.046875,0.40625 -0.234375,-0.09375 -0.359375,-0.34375 -0.421875,-0.5625 -0.140625,-0.5 -0.125,-1 -0.0625,-1.5 C 1.0625,-2.625 1.125,-3.15625 1.171875,-3.1875 1.21875,-3.234375 1.3125,-3.203125 1.359375,-3.203125 Z m 0,0" id="id-3798d3cc-cfc8-4035-8a3a-47776b5904df"></path> </symbol> <symbol overflow="visible" id="id-2b658d35-341e-454d-ab40-a9f32636c451"> <path style="stroke:none" d="m 1.53125,-2.625 v -0.015625 c 0.109375,-0.046875 0.609375,-0.28125 0.75,-0.34375 L 3.59375,-3.625 c 0.484375,-0.21875 0.9375,-0.46875 1.421875,-0.6875 0.53125,-0.234375 1.0625,-0.5 1.578125,-0.75 C 6.671875,-5.09375 6.765625,-5.125 6.8125,-5.1875 6.921875,-5.28125 6.875,-5.453125 6.765625,-5.5 c -0.125,-0.0625 -0.25,0.03125 -0.359375,0.09375 l -4.125,1.96875 -1.078125,0.515625 c -0.125,0.0625 -0.328125,0.125 -0.328125,0.296875 0,0.15625 0.203125,0.21875 0.328125,0.28125 L 2.28125,-1.828125 5.625,-0.21875 6.40625,0.15625 C 6.515625,0.203125 6.640625,0.296875 6.765625,0.234375 6.875,0.1875 6.921875,0.015625 6.8125,-0.078125 c -0.046875,-0.0625 -0.140625,-0.09375 -0.21875,-0.125 -0.515625,-0.25 -1.046875,-0.515625 -1.578125,-0.75 -0.484375,-0.21875 -0.9375,-0.46875 -1.421875,-0.6875 C 3.375,-1.75 1.671875,-2.5625 1.53125,-2.625 Z m 0,0" id="id-cdad92e4-2f43-4b3d-a006-80e8ca085448"></path> </symbol> <symbol overflow="visible" id="id-4d58c539-fa49-4fad-b6b4-7fa4f7352a44"> <path style="stroke:none" d="" id="id-cca0c3ed-5ae9-4e4d-ab77-86c2bc0cb1e1"></path> </symbol> <symbol overflow="visible" id="id-95b7c752-681a-47a3-9fe8-be4bc8cefa38"> <path style="stroke:none" d="m 1.046875,-6.046875 v 0.5 c 0.546875,0 0.921875,-0.109375 1.359375,-0.296875 V -0.5 H 1.109375 V 0 h 3.25 V -0.5 H 3.0625 v -6.203125 c -0.234375,0 -0.203125,0.046875 -0.390625,0.1875 -0.40625,0.3125 -0.984375,0.46875 -1.625,0.46875 z m 0,0" id="id-b0d6f963-b67d-46e5-a862-ecf152428a65"></path> </symbol> <symbol overflow="visible" id="id-e93f8858-f3ff-4c77-a149-0fb2a0fcb2e1"> <path style="stroke:none" d="m 1.578125,-6.40625 c -0.6875,0.46875 -0.9375,1.34375 -1.015625,2.125 -0.015625,0.171875 -0.03125,0.359375 -0.03125,0.53125 0,0.1875 -0.015625,0.375 -0.015625,0.546875 0,1.15625 0.171875,2.203125 0.75,2.796875 0.515625,0.5625 1.390625,0.75 2.109375,0.421875 0.515625,-0.234375 0.859375,-0.6875 1.046875,-1.21875 C 4.6875,-1.90625 4.703125,-2.671875 4.703125,-3.40625 4.703125,-4.46875 4.53125,-5.5 4,-6.078125 3.40625,-6.765625 2.375,-6.90625 1.578125,-6.40625 Z M 3.5625,-5.8125 c 0.140625,0.15625 0.234375,0.359375 0.3125,0.5625 0.203125,0.578125 0.1875,1.203125 0.1875,1.796875 0,0.875 0,1.984375 -0.40625,2.5625 -0.234375,0.328125 -0.578125,0.53125 -0.953125,0.5625 -0.4375,0.03125 -0.875,-0.1875 -1.125,-0.546875 -0.40625,-0.578125 -0.421875,-1.578125 -0.421875,-2.46875 0,-0.84375 0,-1.765625 0.40625,-2.34375 C 2,-6.3125 3,-6.40625 3.5625,-5.8125 Z m 0,0" id="id-2a3c860e-b71a-429f-87c8-7802e20ca334"></path> </symbol> <symbol overflow="visible" id="id-5bcba51a-c2a2-4d9a-9cbe-5e62903887da"> <path style="stroke:none" d="" id="id-cbcab0f8-6c2d-419d-9f85-7379485b69ae"></path> </symbol> <symbol overflow="visible" id="id-58a70760-b4f8-45e2-82e1-48be70150521"> <path style="stroke:none" d="m 0.671875,-2.671875 c -0.34375,0.5 -0.34375,1.1875 0.015625,1.6875 C 0.953125,-0.625 1.421875,-0.34375 2,-0.40625 2.4375,-0.453125 2.78125,-0.703125 3,-0.96875 3.328125,-1.421875 3.375,-2.03125 3.109375,-2.515625 2.9375,-2.84375 2.640625,-3.09375 2.265625,-3.21875 1.578125,-3.421875 0.96875,-3.078125 0.671875,-2.671875 Z m 1.84375,-0.0625 C 3,-2.359375 3.09375,-1.65625 2.734375,-1.171875 2.65625,-1.046875 2.53125,-0.953125 2.40625,-0.875 2.015625,-0.640625 1.515625,-0.6875 1.171875,-0.953125 0.6875,-1.3125 0.59375,-2.03125 0.953125,-2.515625 1.046875,-2.640625 1.15625,-2.734375 1.296875,-2.8125 1.6875,-3.03125 2.1875,-2.984375 2.515625,-2.734375 Z m 0,0" id="id-5fe65774-5053-48e5-9653-e99cd8f85b76"></path> </symbol> </g> <g id="id-177e150e-bcf6-4e86-b309-8d69f23ac38e"> <symbol overflow="visible" id="id-2e11a31e-7339-4be0-af91-48bdf8cdc014"> <path style="stroke:none" d="" id="id-1c472c29-d60a-45c7-b10d-bd84ff032519"></path> </symbol> <symbol overflow="visible" id="id-bc5f28eb-bef9-4ff7-b28e-e50735ae1290"> <path style="stroke:none" d="M 2.484375,-4.6875 C 1.53125,-4.375 0.8125,-3.546875 0.515625,-2.609375 0.421875,-2.34375 0.34375,-2.046875 0.34375,-1.78125 0.3125,-1.1875 0.4375,-0.578125 0.859375,-0.140625 1.109375,0.125 1.46875,0.3125 1.96875,0.3125 2.625,0.328125 3.125,-0.15625 3.4375,-0.6875 4,-1.640625 4.34375,-3.375 3.625,-4.359375 3.265625,-4.90625 2.1875,-5.625 2.1875,-6.296875 c 0,-0.1875 0.0625,-0.359375 0.265625,-0.375 0.0625,0 0.125,0 0.1875,0.015625 0.53125,0.109375 0.6875,0.140625 1.3125,0.296875 0.203125,0.046875 0.46875,-0.1875 0.390625,-0.40625 C 4.3125,-6.875 4.203125,-6.90625 4.109375,-6.921875 3.984375,-6.953125 3.4375,-7.0625 3.34375,-7.0625 3.1875,-7.09375 2.84375,-7.15625 2.6875,-7.171875 2.390625,-7.1875 2.0625,-7.078125 1.875,-6.84375 1.703125,-6.59375 1.671875,-6.375 1.796875,-6 c 0.15625,0.46875 0.4375,0.890625 0.6875,1.3125 z M 2.71875,-4.265625 C 2.8125,-4.25 2.875,-4.109375 2.921875,-4.03125 3.078125,-3.765625 3.203125,-3.484375 3.28125,-3.1875 3.5,-2.359375 3.3125,-1.390625 3,-0.84375 c -0.203125,0.359375 -0.5,0.671875 -0.9375,0.671875 -0.34375,0 -0.578125,-0.125 -0.765625,-0.3125 -0.421875,-0.40625 -0.375,-1.109375 -0.25,-1.765625 0.171875,-0.828125 0.59375,-1.640625 1.40625,-1.953125 0.078125,-0.03125 0.171875,-0.0625 0.265625,-0.0625 z m 0,0" id="id-aebe8737-1cb8-4b10-9a00-347a2fcc5d1f"></path> </symbol> <symbol overflow="visible" id="id-dcd188cd-cd63-4881-94f8-77dfc3b8cdc1"> <path style="stroke:none" d="m 3.078125,-7 c -0.640625,0.078125 -1.125,0.59375 -1.46875,1.09375 -0.578125,0.8125 -0.9375,1.765625 -1.09375,2.75 -0.078125,0.46875 -0.125,1.109375 -0.0625,1.59375 C 0.53125,-0.84375 0.84375,-0.046875 1.5,0.0625 1.578125,0.078125 1.671875,0.078125 1.75,0.078125 2.390625,0.015625 2.875,-0.515625 3.234375,-1 c 0.53125,-0.75 0.84375,-1.59375 1.03125,-2.46875 0.125,-0.625 0.203125,-1.3125 0.109375,-1.9375 C 4.3125,-6.109375 3.953125,-6.890625 3.3125,-6.984375 3.234375,-7 3.15625,-7.015625 3.078125,-7 Z m 0.59375,3.296875 H 1.265625 C 1.453125,-4.46875 1.671875,-5.21875 2.140625,-5.875 2.34375,-6.15625 2.625,-6.453125 3,-6.5 c 0.0625,0 0.125,0 0.1875,0.015625 0.328125,0.046875 0.46875,0.359375 0.546875,0.65625 0.1875,0.65625 0.078125,1.484375 -0.0625,2.125 z m -0.109375,0.5 c -0.03125,0.25 -0.109375,0.515625 -0.1875,0.765625 -0.1875,0.546875 -0.421875,1.109375 -0.796875,1.5625 -0.25,0.28125 -0.65625,0.578125 -1.046875,0.40625 -0.234375,-0.09375 -0.359375,-0.34375 -0.421875,-0.5625 -0.140625,-0.5 -0.125,-1 -0.0625,-1.5 C 1.0625,-2.625 1.125,-3.15625 1.171875,-3.1875 1.21875,-3.234375 1.3125,-3.203125 1.359375,-3.203125 Z m 0,0" id="id-8e802561-1289-4547-a634-569230be7fb5"></path> </symbol> <symbol overflow="visible" id="id-ca287d25-912a-483f-8204-7bffd1a470d1"> <path style="stroke:none" d="m 1.53125,-2.625 v -0.015625 c 0.109375,-0.046875 0.609375,-0.28125 0.75,-0.34375 L 3.59375,-3.625 c 0.484375,-0.21875 0.9375,-0.46875 1.421875,-0.6875 0.53125,-0.234375 1.0625,-0.5 1.578125,-0.75 C 6.671875,-5.09375 6.765625,-5.125 6.8125,-5.1875 6.921875,-5.28125 6.875,-5.453125 6.765625,-5.5 c -0.125,-0.0625 -0.25,0.03125 -0.359375,0.09375 l -4.125,1.96875 -1.078125,0.515625 c -0.125,0.0625 -0.328125,0.125 -0.328125,0.296875 0,0.15625 0.203125,0.21875 0.328125,0.28125 L 2.28125,-1.828125 5.625,-0.21875 6.40625,0.15625 C 6.515625,0.203125 6.640625,0.296875 6.765625,0.234375 6.875,0.1875 6.921875,0.015625 6.8125,-0.078125 c -0.046875,-0.0625 -0.140625,-0.09375 -0.21875,-0.125 -0.515625,-0.25 -1.046875,-0.515625 -1.578125,-0.75 -0.484375,-0.21875 -0.9375,-0.46875 -1.421875,-0.6875 C 3.375,-1.75 1.671875,-2.5625 1.53125,-2.625 Z m 0,0" id="id-316f46ce-8f45-49d7-b902-a3811d4a0892"></path> </symbol> <symbol overflow="visible" id="id-2663c054-e641-4016-b489-b682145e1008"> <path style="stroke:none" d="" id="id-216e38f6-b8be-4808-bbb5-18f5de1f2582"></path> </symbol> <symbol overflow="visible" id="id-a156e762-701b-4164-8165-b6ab5ae78b71"> <path style="stroke:none" d="m 0.984375,-2.828125 c -0.1875,0.0625 -0.203125,0.328125 0,0.390625 0.046875,0.015625 0.109375,0 0.15625,0 h 5.3125 c 0.109375,0 0.3125,0.046875 0.40625,-0.0625 C 6.96875,-2.609375 6.90625,-2.796875 6.75,-2.828125 c -0.125,-0.015625 -0.265625,0 -0.375,0 H 1.140625 c -0.046875,0 -0.109375,-0.015625 -0.15625,0 z m 0,0" id="id-52898628-e09f-44f2-824b-e95be4882a49"></path> </symbol> <symbol overflow="visible" id="id-bff8bcc4-9699-430c-bd79-18d2155a2500"> <path style="stroke:none" d="" id="id-fc1189f4-7dac-4c36-9d28-fd7b41e11a1b"></path> </symbol> <symbol overflow="visible" id="id-90bc5c67-e890-4a06-9214-f9c1c36a83d6"> <path style="stroke:none" d="m 1.046875,-6.046875 v 0.5 c 0.546875,0 0.921875,-0.109375 1.359375,-0.296875 V -0.5 H 1.109375 V 0 h 3.25 V -0.5 H 3.0625 v -6.203125 c -0.234375,0 -0.203125,0.046875 -0.390625,0.1875 -0.40625,0.3125 -0.984375,0.46875 -1.625,0.46875 z m 0,0" id="id-eafc373d-7136-405d-9b13-244177aa4781"></path> </symbol> <symbol overflow="visible" id="id-4801e34d-9d72-4c30-9efd-320aae5c44df"> <path style="stroke:none" d="m 1.578125,-6.40625 c -0.6875,0.46875 -0.9375,1.34375 -1.015625,2.125 -0.015625,0.171875 -0.03125,0.359375 -0.03125,0.53125 0,0.1875 -0.015625,0.375 -0.015625,0.546875 0,1.15625 0.171875,2.203125 0.75,2.796875 0.515625,0.5625 1.390625,0.75 2.109375,0.421875 0.515625,-0.234375 0.859375,-0.6875 1.046875,-1.21875 C 4.6875,-1.90625 4.703125,-2.671875 4.703125,-3.40625 4.703125,-4.46875 4.53125,-5.5 4,-6.078125 3.40625,-6.765625 2.375,-6.90625 1.578125,-6.40625 Z M 3.5625,-5.8125 c 0.140625,0.15625 0.234375,0.359375 0.3125,0.5625 0.203125,0.578125 0.1875,1.203125 0.1875,1.796875 0,0.875 0,1.984375 -0.40625,2.5625 -0.234375,0.328125 -0.578125,0.53125 -0.953125,0.5625 -0.4375,0.03125 -0.875,-0.1875 -1.125,-0.546875 -0.40625,-0.578125 -0.421875,-1.578125 -0.421875,-2.46875 0,-0.84375 0,-1.765625 0.40625,-2.34375 C 2,-6.3125 3,-6.40625 3.5625,-5.8125 Z m 0,0" id="id-97792cff-693e-43a0-a392-5605a1869550"></path> </symbol> <symbol overflow="visible" id="id-edb5d777-18d5-4ed7-9271-6774eb6d440b"> <path style="stroke:none" d="" id="id-65d03a00-7f45-4c86-90f1-4a094f5d088e"></path> </symbol> <symbol overflow="visible" id="id-db5db5d2-dc9e-40e9-994e-dfdb04b187f8"> <path style="stroke:none" d="m 0.671875,-2.671875 c -0.34375,0.5 -0.34375,1.1875 0.015625,1.6875 C 0.953125,-0.625 1.421875,-0.34375 2,-0.40625 2.4375,-0.453125 2.78125,-0.703125 3,-0.96875 3.328125,-1.421875 3.375,-2.03125 3.109375,-2.515625 2.9375,-2.84375 2.640625,-3.09375 2.265625,-3.21875 1.578125,-3.421875 0.96875,-3.078125 0.671875,-2.671875 Z m 1.84375,-0.0625 C 3,-2.359375 3.09375,-1.65625 2.734375,-1.171875 2.65625,-1.046875 2.53125,-0.953125 2.40625,-0.875 2.015625,-0.640625 1.515625,-0.6875 1.171875,-0.953125 0.6875,-1.3125 0.59375,-2.03125 0.953125,-2.515625 1.046875,-2.640625 1.15625,-2.734375 1.296875,-2.8125 1.6875,-3.03125 2.1875,-2.984375 2.515625,-2.734375 Z m 0,0" id="id-c89485f6-5c98-4c35-8d73-4a94a04e6a1b"></path> </symbol> </g> </defs> <metadata id="metadata5"> <rdf:rdf> <cc:work rdf:about=""> <dc:format>image/svg+xml</dc:format> <dc:type rdf:resource="http://purl.org/dc/dcmitype/StillImage"></dc:type> </cc:work> </rdf:rdf> </metadata> <g id="layer1" transform="translate(-79.261184,-107.00558)"> <g clip-path="url(#clipPath3400)" id="g3398" transform="rotate(90,16.119288,123.3369)"> <path d="m 20.770325,48.539704 c -0.0466,-0.08572 -0.06973,-0.180287 -0.136166,-0.253389 -0.152969,-0.153717 -0.301265,-0.20097 -0.56646,-0.225851 -0.33423,-0.01965 -0.512674,0.08303 -0.634603,0.265912 -0.06854,0.123203 -0.07822,0.102662 -0.136175,0.194518 l -0.452413,1.574785 -0.153013,0.497367 c -0.0079,0.215588 -0.0043,0.398464 0.02596,0.541394 0.0247,0.180426 0.06806,0.364057 0.166047,0.566182 0.07293,0.05675 0.112537,0.113882 0.209763,0.107973 -0.125567,0.08859 -0.245322,0.312114 -0.245322,0.312114 -0.01819,-0.0061 -0.02179,0.393796 -0.0064,0.456845 0.02059,0.09053 0.28202,0.527329 0.401066,0.71071 0.120519,0.181462 0.220959,0.530218 0.213566,0.704896 -0.007,0.176143 0.02334,2.819632 0.02334,2.819632 l 0.0073,0.781361 c 0,0 -0.03313,1.141656 -0.01692,2.318254 -0.009,1.615129 0.117649,3.472116 0.139888,4.972 0.0074,0.433668 -0.02797,1.777484 -0.02797,1.777484 -0.05284,0.255716 0.164089,0.448567 0.174865,-0.01091 l 0.171392,-3.082859 0.250105,-3.601293 c 0,0 0.172721,-2.253022 0.183938,-2.548673 0.01158,-0.294183 0.07561,-1.967056 0.07561,-1.967056 l 0.04042,-1.243666 c 0.01917,-0.151921 0.05351,-0.314926 0.128608,-0.503442 0.207953,-0.503037 0.50961,-0.913613 0.519877,-1.256034 0.0085,-0.108137 -0.114753,-0.413628 -0.227994,-0.622514 0.09696,-0.007 0.209459,0.0067 0.254606,-0.05177 0.08259,-0.132466 0.180963,-0.165459 0.201693,-0.763723 -0.0019,-0.17436 -5.6e-4,-0.354925 -0.01934,-0.512713 -0.01449,-0.08464 -0.03798,-0.142603 -0.106275,-0.353545 z" style="opacity:0.828;fill:#808080;fill-opacity:1;fill-rule:nonzero;stroke:none;stroke-width:0.377349" id="path4438"></path> <path id="path4440" style="opacity:0.828;fill:none;stroke:#000000;stroke-width:0.143331;stroke-linecap:butt;stroke-linejoin:miter;stroke-miterlimit:4;stroke-dasharray:none;stroke-opacity:1" d="m 20.770451,48.539532 c -0.04631,-0.08424 -0.06998,-0.180028 -0.13615,-0.253349 -0.153257,-0.15387 -0.301298,-0.200912 -0.56687,-0.225706 -0.334103,-0.01967 -0.512152,0.08311 -0.634425,0.266265 -0.0689,0.121261 -0.07804,0.102205 -0.136023,0.193834 l -0.45255,1.575375 -0.153052,0.497054 c -0.0076,0.217333 -0.0054,0.398956 0.02601,0.541312 0.02489,0.180738 0.06669,0.364663 0.165616,0.564899 0.07345,0.05817 0.113273,0.115205 0.210463,0.10949 -0.125797,0.08833 -0.245032,0.313512 -0.245032,0.313512 -0.01849,-0.0077 -0.02248,0.392275 -0.0086,0.45557 0.02241,0.09024 0.283938,0.527054 0.403017,0.710414 0.120228,0.181391 0.220578,0.530226 0.21323,0.70505 -0.0066,0.176194 0.02358,2.819493 0.02358,2.819493 l 0.0074,0.781634 c 0,0 -0.0333,1.141567 -0.01871,2.318341 -0.0071,1.615016 0.119153,3.471944 0.14145,4.971785 0.0063,0.434002 -0.02791,1.777597 -0.02791,1.777597 -0.05299,0.255654 0.164391,0.448296 0.174983,-0.01102 l 0.171473,-3.082787 0.249888,-3.601239 c 0,0 0.171486,-2.252945 0.183892,-2.549164 0.01145,-0.293908 0.07441,-1.966366 0.07441,-1.966366 l 0.04173,-1.243854 c 0.01909,-0.151848 0.05363,-0.315316 0.129018,-0.503462 0.207734,-0.503034 0.509486,-0.913723 0.519557,-1.25637 0.0084,-0.108058 -0.114751,-0.413156 -0.228022,-0.622451 0.09697,-0.0069 0.209595,0.0065 0.254375,-0.05154 0.0828,-0.132471 0.181024,-0.165509 0.201985,-0.762518 -0.0019,-0.175511 -6.09e-4,-0.356398 -0.01953,-0.514108 -0.01328,-0.085 -0.03774,-0.142461 -0.106136,-0.35368 z"></path> <path d="m 19.169355,50.213577 c 0.03119,-0.01385 -0.07863,0.0025 -0.09764,-0.0021 -0.08933,-0.01739 -0.165761,-0.05036 -0.245712,-0.12948 -0.07921,-0.08086 -0.292234,-0.356237 -0.314961,-0.797034 -0.02228,-0.438961 0.146719,-0.554875 0.222701,-0.647654 0.07626,-0.09167 0.111942,-0.08692 0.132444,-0.109697 0.02735,-0.03115 0.05114,-0.03232 0.0772,-0.04334 0,0 0.02388,-0.01491 0.03741,-0.01537 0.04284,-0.0043 0.06448,-0.0096 0.106432,0.0016 0.217292,0.0498 0.204968,0.04388 0.321637,0.173072 0.03393,0.03871 0.07386,0.07167 0.102282,0.114834 0.0316,0.04821 0.01818,0.04256 0.0703,0.157227 0.08316,0.184385 0.09329,0.225806 0.0889,0.368284 -0.0036,0.08556 -0.01041,0.119474 -0.04125,0.191892 -0.01949,0.05059 -0.07238,0.175808 -0.11484,0.281756 -0.08368,0.202659 -0.132212,0.296495 -0.195538,0.366367 -0.07143,0.07962 -0.211839,0.120192 -0.149016,0.09121 z" style="opacity:0.828;fill:#000000;fill-opacity:1;fill-rule:nonzero;stroke:none;stroke-width:0.377349" id="path4444"></path> <path d="m 21.244146,50.197582 c -0.03357,-7.1e-4 0.07345,-0.02846 0.09009,-0.04145 0.07438,-0.05006 0.132359,-0.110059 0.173709,-0.214185 0.04099,-0.105591 0.129852,-0.442757 -0.02142,-0.856391 -0.151358,-0.413994 -0.351959,-0.452729 -0.458111,-0.508736 -0.105796,-0.05454 -0.139297,-0.03586 -0.165495,-0.04926 -0.03815,-0.01942 -0.06127,-0.0091 -0.08872,-0.01016 0,0 -0.02845,-0.0035 -0.0409,0.0011 -0.03925,0.01269 -0.0627,0.01688 -0.09733,0.04205 -0.179126,0.13006 -0.170936,0.120671 -0.227526,0.286396 -0.01665,0.04951 -0.04057,0.09461 -0.04806,0.144999 -0.01155,0.0576 -7.81e-4,0.04603 -0.0047,0.172859 -0.0037,0.200963 0.004,0.244935 0.06434,0.374288 0.03566,0.07752 0.05438,0.104798 0.112298,0.160557 0.03797,0.03772 0.135323,0.132396 0.215274,0.211514 0.158442,0.157039 0.238097,0.222243 0.323648,0.26231 0.09779,0.04562 0.243494,0.02669 0.172945,0.02414 z" style="opacity:0.828;fill:#000000;fill-opacity:1;fill-rule:nonzero;stroke:none;stroke-width:0.377349" id="path4446"></path> </g> <g transform="rotate(90,25.644288,132.8619)" id="g1136" clip-path="url(#clipPath3400)"> <path id="path1128" style="opacity:0.828;fill:#808080;fill-opacity:1;fill-rule:nonzero;stroke:none;stroke-width:0.377349" d="m 20.770325,48.539704 c -0.0466,-0.08572 -0.06973,-0.180287 -0.136166,-0.253389 -0.152969,-0.153717 -0.301265,-0.20097 -0.56646,-0.225851 -0.33423,-0.01965 -0.512674,0.08303 -0.634603,0.265912 -0.06854,0.123203 -0.07822,0.102662 -0.136175,0.194518 l -0.452413,1.574785 -0.153013,0.497367 c -0.0079,0.215588 -0.0043,0.398464 0.02596,0.541394 0.0247,0.180426 0.06806,0.364057 0.166047,0.566182 0.07293,0.05675 0.112537,0.113882 0.209763,0.107973 -0.125567,0.08859 -0.245322,0.312114 -0.245322,0.312114 -0.01819,-0.0061 -0.02179,0.393796 -0.0064,0.456845 0.02059,0.09053 0.28202,0.527329 0.401066,0.71071 0.120519,0.181462 0.220959,0.530218 0.213566,0.704896 -0.007,0.176143 0.02334,2.819632 0.02334,2.819632 l 0.0073,0.781361 c 0,0 -0.03313,1.141656 -0.01692,2.318254 -0.009,1.615129 0.117649,3.472116 0.139888,4.972 0.0074,0.433668 -0.02797,1.777484 -0.02797,1.777484 -0.05284,0.255716 0.164089,0.448567 0.174865,-0.01091 l 0.171392,-3.082859 0.250105,-3.601293 c 0,0 0.172721,-2.253022 0.183938,-2.548673 0.01158,-0.294183 0.07561,-1.967056 0.07561,-1.967056 l 0.04042,-1.243666 c 0.01917,-0.151921 0.05351,-0.314926 0.128608,-0.503442 0.207953,-0.503037 0.50961,-0.913613 0.519877,-1.256034 0.0085,-0.108137 -0.114753,-0.413628 -0.227994,-0.622514 0.09696,-0.007 0.209459,0.0067 0.254606,-0.05177 0.08259,-0.132466 0.180963,-0.165459 0.201693,-0.763723 -0.0019,-0.17436 -5.6e-4,-0.354925 -0.01934,-0.512713 -0.01449,-0.08464 -0.03798,-0.142603 -0.106275,-0.353545 z"></path> <path d="m 20.770451,48.539532 c -0.04631,-0.08424 -0.06998,-0.180028 -0.13615,-0.253349 -0.153257,-0.15387 -0.301298,-0.200912 -0.56687,-0.225706 -0.334103,-0.01967 -0.512152,0.08311 -0.634425,0.266265 -0.0689,0.121261 -0.07804,0.102205 -0.136023,0.193834 l -0.45255,1.575375 -0.153052,0.497054 c -0.0076,0.217333 -0.0054,0.398956 0.02601,0.541312 0.02489,0.180738 0.06669,0.364663 0.165616,0.564899 0.07345,0.05817 0.113273,0.115205 0.210463,0.10949 -0.125797,0.08833 -0.245032,0.313512 -0.245032,0.313512 -0.01849,-0.0077 -0.02248,0.392275 -0.0086,0.45557 0.02241,0.09024 0.283938,0.527054 0.403017,0.710414 0.120228,0.181391 0.220578,0.530226 0.21323,0.70505 -0.0066,0.176194 0.02358,2.819493 0.02358,2.819493 l 0.0074,0.781634 c 0,0 -0.0333,1.141567 -0.01871,2.318341 -0.0071,1.615016 0.119153,3.471944 0.14145,4.971785 0.0063,0.434002 -0.02791,1.777597 -0.02791,1.777597 -0.05299,0.255654 0.164391,0.448296 0.174983,-0.01102 l 0.171473,-3.082787 0.249888,-3.601239 c 0,0 0.171486,-2.252945 0.183892,-2.549164 0.01145,-0.293908 0.07441,-1.966366 0.07441,-1.966366 l 0.04173,-1.243854 c 0.01909,-0.151848 0.05363,-0.315316 0.129018,-0.503462 0.207734,-0.503034 0.509486,-0.913723 0.519557,-1.25637 0.0084,-0.108058 -0.114751,-0.413156 -0.228022,-0.622451 0.09697,-0.0069 0.209595,0.0065 0.254375,-0.05154 0.0828,-0.132471 0.181024,-0.165509 0.201985,-0.762518 -0.0019,-0.175511 -6.09e-4,-0.356398 -0.01953,-0.514108 -0.01328,-0.085 -0.03774,-0.142461 -0.106136,-0.35368 z" style="opacity:0.828;fill:none;stroke:#000000;stroke-width:0.143331;stroke-linecap:butt;stroke-linejoin:miter;stroke-miterlimit:4;stroke-dasharray:none;stroke-opacity:1" id="path1130"></path> <path id="path1132" style="opacity:0.828;fill:#000000;fill-opacity:1;fill-rule:nonzero;stroke:none;stroke-width:0.377349" d="m 19.169355,50.213577 c 0.03119,-0.01385 -0.07863,0.0025 -0.09764,-0.0021 -0.08933,-0.01739 -0.165761,-0.05036 -0.245712,-0.12948 -0.07921,-0.08086 -0.292234,-0.356237 -0.314961,-0.797034 -0.02228,-0.438961 0.146719,-0.554875 0.222701,-0.647654 0.07626,-0.09167 0.111942,-0.08692 0.132444,-0.109697 0.02735,-0.03115 0.05114,-0.03232 0.0772,-0.04334 0,0 0.02388,-0.01491 0.03741,-0.01537 0.04284,-0.0043 0.06448,-0.0096 0.106432,0.0016 0.217292,0.0498 0.204968,0.04388 0.321637,0.173072 0.03393,0.03871 0.07386,0.07167 0.102282,0.114834 0.0316,0.04821 0.01818,0.04256 0.0703,0.157227 0.08316,0.184385 0.09329,0.225806 0.0889,0.368284 -0.0036,0.08556 -0.01041,0.119474 -0.04125,0.191892 -0.01949,0.05059 -0.07238,0.175808 -0.11484,0.281756 -0.08368,0.202659 -0.132212,0.296495 -0.195538,0.366367 -0.07143,0.07962 -0.211839,0.120192 -0.149016,0.09121 z"></path> <path id="path1134" style="opacity:0.828;fill:#000000;fill-opacity:1;fill-rule:nonzero;stroke:none;stroke-width:0.377349" d="m 21.244146,50.197582 c -0.03357,-7.1e-4 0.07345,-0.02846 0.09009,-0.04145 0.07438,-0.05006 0.132359,-0.110059 0.173709,-0.214185 0.04099,-0.105591 0.129852,-0.442757 -0.02142,-0.856391 -0.151358,-0.413994 -0.351959,-0.452729 -0.458111,-0.508736 -0.105796,-0.05454 -0.139297,-0.03586 -0.165495,-0.04926 -0.03815,-0.01942 -0.06127,-0.0091 -0.08872,-0.01016 0,0 -0.02845,-0.0035 -0.0409,0.0011 -0.03925,0.01269 -0.0627,0.01688 -0.09733,0.04205 -0.179126,0.13006 -0.170936,0.120671 -0.227526,0.286396 -0.01665,0.04951 -0.04057,0.09461 -0.04806,0.144999 -0.01155,0.0576 -7.81e-4,0.04603 -0.0047,0.172859 -0.0037,0.200963 0.004,0.244935 0.06434,0.374288 0.03566,0.07752 0.05438,0.104798 0.112298,0.160557 0.03797,0.03772 0.135323,0.132396 0.215274,0.211514 0.158442,0.157039 0.238097,0.222243 0.323648,0.26231 0.09779,0.04562 0.243494,0.02669 0.172945,0.02414 z"></path> </g> <g id="path1142"> <path style="color:#000000;fill:#ff2a7f;-inkscape-stroke:none" d="m 99.746094,119.94727 c -0.642113,2.19125 -1.290917,4.36603 -2.478516,5.5332 -1.187596,1.16717 -2.966257,1.39375 -4.78125,1.61719 l 0.03125,0.26172 c 1.814993,-0.22344 3.666543,-0.44228 4.935547,-1.68946 1.269002,-1.24717 1.904762,-3.45523 2.546875,-5.64648 z" id="path13322"></path> <g id="g13312"> <path style="color:#000000;fill:#ff2a7f;fill-rule:evenodd;stroke-width:0.099375;stroke-linejoin:round;-inkscape-stroke:none" d="m 98.867038,121.13518 1.10156,-1.48747 0.124522,1.84675 c -0.283897,-0.37239 -0.779541,-0.51597 -1.226082,-0.35928 z" id="path13314"></path> </g> </g> <g id="path1168"> <path style="color:#000000;fill:#a05a2c;-inkscape-stroke:none" d="m 92.517578,127.09766 -0.03125,0.26172 c 1.814992,0.22343 3.593654,0.45001 4.78125,1.61718 1.187598,1.16717 1.836403,3.34195 2.478516,5.53321 L 100,134.43555 c -0.642113,-2.19126 -1.277873,-4.39931 -2.546875,-5.64649 -1.269004,-1.24717 -3.120555,-1.46797 -4.935547,-1.6914 z" id="path13338"></path> <g id="g13328"> <path style="color:#000000;fill:#a05a2c;fill-rule:evenodd;stroke-width:0.099375;stroke-linejoin:round;-inkscape-stroke:none" d="m 100.098,132.96152 -0.124516,1.84675 -1.10156,-1.48747 c 0.439984,0.16027 0.934728,0.0136 1.226076,-0.35928 z" id="path13330"></path> </g> </g> <g clip-path="url(#clipPath3400)" id="g1220" transform="rotate(20.523189,-109.96647,310.10045)"> <path d="m 20.770325,48.539704 c -0.0466,-0.08572 -0.06973,-0.180287 -0.136166,-0.253389 -0.152969,-0.153717 -0.301265,-0.20097 -0.56646,-0.225851 -0.33423,-0.01965 -0.512674,0.08303 -0.634603,0.265912 -0.06854,0.123203 -0.07822,0.102662 -0.136175,0.194518 l -0.452413,1.574785 -0.153013,0.497367 c -0.0079,0.215588 -0.0043,0.398464 0.02596,0.541394 0.0247,0.180426 0.06806,0.364057 0.166047,0.566182 0.07293,0.05675 0.112537,0.113882 0.209763,0.107973 -0.125567,0.08859 -0.245322,0.312114 -0.245322,0.312114 -0.01819,-0.0061 -0.02179,0.393796 -0.0064,0.456845 0.02059,0.09053 0.28202,0.527329 0.401066,0.71071 0.120519,0.181462 0.220959,0.530218 0.213566,0.704896 -0.007,0.176143 0.02334,2.819632 0.02334,2.819632 l 0.0073,0.781361 c 0,0 -0.03313,1.141656 -0.01692,2.318254 -0.009,1.615129 0.117649,3.472116 0.139888,4.972 0.0074,0.433668 -0.02797,1.777484 -0.02797,1.777484 -0.05284,0.255716 0.164089,0.448567 0.174865,-0.01091 l 0.171392,-3.082859 0.250105,-3.601293 c 0,0 0.172721,-2.253022 0.183938,-2.548673 0.01158,-0.294183 0.07561,-1.967056 0.07561,-1.967056 l 0.04042,-1.243666 c 0.01917,-0.151921 0.05351,-0.314926 0.128608,-0.503442 0.207953,-0.503037 0.50961,-0.913613 0.519877,-1.256034 0.0085,-0.108137 -0.114753,-0.413628 -0.227994,-0.622514 0.09696,-0.007 0.209459,0.0067 0.254606,-0.05177 0.08259,-0.132466 0.180963,-0.165459 0.201693,-0.763723 -0.0019,-0.17436 -5.6e-4,-0.354925 -0.01934,-0.512713 -0.01449,-0.08464 -0.03798,-0.142603 -0.106275,-0.353545 z" style="opacity:0.828;fill:#808080;fill-opacity:1;fill-rule:nonzero;stroke:none;stroke-width:0.377349" id="path1212"></path> <path id="path1214" style="opacity:0.828;fill:none;stroke:#000000;stroke-width:0.143331;stroke-linecap:butt;stroke-linejoin:miter;stroke-miterlimit:4;stroke-dasharray:none;stroke-opacity:1" d="m 20.770451,48.539532 c -0.04631,-0.08424 -0.06998,-0.180028 -0.13615,-0.253349 -0.153257,-0.15387 -0.301298,-0.200912 -0.56687,-0.225706 -0.334103,-0.01967 -0.512152,0.08311 -0.634425,0.266265 -0.0689,0.121261 -0.07804,0.102205 -0.136023,0.193834 l -0.45255,1.575375 -0.153052,0.497054 c -0.0076,0.217333 -0.0054,0.398956 0.02601,0.541312 0.02489,0.180738 0.06669,0.364663 0.165616,0.564899 0.07345,0.05817 0.113273,0.115205 0.210463,0.10949 -0.125797,0.08833 -0.245032,0.313512 -0.245032,0.313512 -0.01849,-0.0077 -0.02248,0.392275 -0.0086,0.45557 0.02241,0.09024 0.283938,0.527054 0.403017,0.710414 0.120228,0.181391 0.220578,0.530226 0.21323,0.70505 -0.0066,0.176194 0.02358,2.819493 0.02358,2.819493 l 0.0074,0.781634 c 0,0 -0.0333,1.141567 -0.01871,2.318341 -0.0071,1.615016 0.119153,3.471944 0.14145,4.971785 0.0063,0.434002 -0.02791,1.777597 -0.02791,1.777597 -0.05299,0.255654 0.164391,0.448296 0.174983,-0.01102 l 0.171473,-3.082787 0.249888,-3.601239 c 0,0 0.171486,-2.252945 0.183892,-2.549164 0.01145,-0.293908 0.07441,-1.966366 0.07441,-1.966366 l 0.04173,-1.243854 c 0.01909,-0.151848 0.05363,-0.315316 0.129018,-0.503462 0.207734,-0.503034 0.509486,-0.913723 0.519557,-1.25637 0.0084,-0.108058 -0.114751,-0.413156 -0.228022,-0.622451 0.09697,-0.0069 0.209595,0.0065 0.254375,-0.05154 0.0828,-0.132471 0.181024,-0.165509 0.201985,-0.762518 -0.0019,-0.175511 -6.09e-4,-0.356398 -0.01953,-0.514108 -0.01328,-0.085 -0.03774,-0.142461 -0.106136,-0.35368 z"></path> <path d="m 19.169355,50.213577 c 0.03119,-0.01385 -0.07863,0.0025 -0.09764,-0.0021 -0.08933,-0.01739 -0.165761,-0.05036 -0.245712,-0.12948 -0.07921,-0.08086 -0.292234,-0.356237 -0.314961,-0.797034 -0.02228,-0.438961 0.146719,-0.554875 0.222701,-0.647654 0.07626,-0.09167 0.111942,-0.08692 0.132444,-0.109697 0.02735,-0.03115 0.05114,-0.03232 0.0772,-0.04334 0,0 0.02388,-0.01491 0.03741,-0.01537 0.04284,-0.0043 0.06448,-0.0096 0.106432,0.0016 0.217292,0.0498 0.204968,0.04388 0.321637,0.173072 0.03393,0.03871 0.07386,0.07167 0.102282,0.114834 0.0316,0.04821 0.01818,0.04256 0.0703,0.157227 0.08316,0.184385 0.09329,0.225806 0.0889,0.368284 -0.0036,0.08556 -0.01041,0.119474 -0.04125,0.191892 -0.01949,0.05059 -0.07238,0.175808 -0.11484,0.281756 -0.08368,0.202659 -0.132212,0.296495 -0.195538,0.366367 -0.07143,0.07962 -0.211839,0.120192 -0.149016,0.09121 z" style="opacity:0.828;fill:#000000;fill-opacity:1;fill-rule:nonzero;stroke:none;stroke-width:0.377349" id="path1216"></path> <path d="m 21.244146,50.197582 c -0.03357,-7.1e-4 0.07345,-0.02846 0.09009,-0.04145 0.07438,-0.05006 0.132359,-0.110059 0.173709,-0.214185 0.04099,-0.105591 0.129852,-0.442757 -0.02142,-0.856391 -0.151358,-0.413994 -0.351959,-0.452729 -0.458111,-0.508736 -0.105796,-0.05454 -0.139297,-0.03586 -0.165495,-0.04926 -0.03815,-0.01942 -0.06127,-0.0091 -0.08872,-0.01016 0,0 -0.02845,-0.0035 -0.0409,0.0011 -0.03925,0.01269 -0.0627,0.01688 -0.09733,0.04205 -0.179126,0.13006 -0.170936,0.120671 -0.227526,0.286396 -0.01665,0.04951 -0.04057,0.09461 -0.04806,0.144999 -0.01155,0.0576 -7.81e-4,0.04603 -0.0047,0.172859 -0.0037,0.200963 0.004,0.244935 0.06434,0.374288 0.03566,0.07752 0.05438,0.104798 0.112298,0.160557 0.03797,0.03772 0.135323,0.132396 0.215274,0.211514 0.158442,0.157039 0.238097,0.222243 0.323648,0.26231 0.09779,0.04562 0.243494,0.02669 0.172945,0.02414 z" style="opacity:0.828;fill:#000000;fill-opacity:1;fill-rule:nonzero;stroke:none;stroke-width:0.377349" id="path1218"></path> </g> <g clip-path="url(#clipPath3400)" id="g1240" transform="rotate(165.08354,54.928435,101.69029)"> <path d="m 20.770325,48.539704 c -0.0466,-0.08572 -0.06973,-0.180287 -0.136166,-0.253389 -0.152969,-0.153717 -0.301265,-0.20097 -0.56646,-0.225851 -0.33423,-0.01965 -0.512674,0.08303 -0.634603,0.265912 -0.06854,0.123203 -0.07822,0.102662 -0.136175,0.194518 l -0.452413,1.574785 -0.153013,0.497367 c -0.0079,0.215588 -0.0043,0.398464 0.02596,0.541394 0.0247,0.180426 0.06806,0.364057 0.166047,0.566182 0.07293,0.05675 0.112537,0.113882 0.209763,0.107973 -0.125567,0.08859 -0.245322,0.312114 -0.245322,0.312114 -0.01819,-0.0061 -0.02179,0.393796 -0.0064,0.456845 0.02059,0.09053 0.28202,0.527329 0.401066,0.71071 0.120519,0.181462 0.220959,0.530218 0.213566,0.704896 -0.007,0.176143 0.02334,2.819632 0.02334,2.819632 l 0.0073,0.781361 c 0,0 -0.03313,1.141656 -0.01692,2.318254 -0.009,1.615129 0.117649,3.472116 0.139888,4.972 0.0074,0.433668 -0.02797,1.777484 -0.02797,1.777484 -0.05284,0.255716 0.164089,0.448567 0.174865,-0.01091 l 0.171392,-3.082859 0.250105,-3.601293 c 0,0 0.172721,-2.253022 0.183938,-2.548673 0.01158,-0.294183 0.07561,-1.967056 0.07561,-1.967056 l 0.04042,-1.243666 c 0.01917,-0.151921 0.05351,-0.314926 0.128608,-0.503442 0.207953,-0.503037 0.50961,-0.913613 0.519877,-1.256034 0.0085,-0.108137 -0.114753,-0.413628 -0.227994,-0.622514 0.09696,-0.007 0.209459,0.0067 0.254606,-0.05177 0.08259,-0.132466 0.180963,-0.165459 0.201693,-0.763723 -0.0019,-0.17436 -5.6e-4,-0.354925 -0.01934,-0.512713 -0.01449,-0.08464 -0.03798,-0.142603 -0.106275,-0.353545 z" style="opacity:0.828;fill:#808080;fill-opacity:1;fill-rule:nonzero;stroke:none;stroke-width:0.377349" id="path1232"></path> <path id="path1234" style="opacity:0.828;fill:none;stroke:#000000;stroke-width:0.143331;stroke-linecap:butt;stroke-linejoin:miter;stroke-miterlimit:4;stroke-dasharray:none;stroke-opacity:1" d="m 20.770451,48.539532 c -0.04631,-0.08424 -0.06998,-0.180028 -0.13615,-0.253349 -0.153257,-0.15387 -0.301298,-0.200912 -0.56687,-0.225706 -0.334103,-0.01967 -0.512152,0.08311 -0.634425,0.266265 -0.0689,0.121261 -0.07804,0.102205 -0.136023,0.193834 l -0.45255,1.575375 -0.153052,0.497054 c -0.0076,0.217333 -0.0054,0.398956 0.02601,0.541312 0.02489,0.180738 0.06669,0.364663 0.165616,0.564899 0.07345,0.05817 0.113273,0.115205 0.210463,0.10949 -0.125797,0.08833 -0.245032,0.313512 -0.245032,0.313512 -0.01849,-0.0077 -0.02248,0.392275 -0.0086,0.45557 0.02241,0.09024 0.283938,0.527054 0.403017,0.710414 0.120228,0.181391 0.220578,0.530226 0.21323,0.70505 -0.0066,0.176194 0.02358,2.819493 0.02358,2.819493 l 0.0074,0.781634 c 0,0 -0.0333,1.141567 -0.01871,2.318341 -0.0071,1.615016 0.119153,3.471944 0.14145,4.971785 0.0063,0.434002 -0.02791,1.777597 -0.02791,1.777597 -0.05299,0.255654 0.164391,0.448296 0.174983,-0.01102 l 0.171473,-3.082787 0.249888,-3.601239 c 0,0 0.171486,-2.252945 0.183892,-2.549164 0.01145,-0.293908 0.07441,-1.966366 0.07441,-1.966366 l 0.04173,-1.243854 c 0.01909,-0.151848 0.05363,-0.315316 0.129018,-0.503462 0.207734,-0.503034 0.509486,-0.913723 0.519557,-1.25637 0.0084,-0.108058 -0.114751,-0.413156 -0.228022,-0.622451 0.09697,-0.0069 0.209595,0.0065 0.254375,-0.05154 0.0828,-0.132471 0.181024,-0.165509 0.201985,-0.762518 -0.0019,-0.175511 -6.09e-4,-0.356398 -0.01953,-0.514108 -0.01328,-0.085 -0.03774,-0.142461 -0.106136,-0.35368 z"></path> <path d="m 19.169355,50.213577 c 0.03119,-0.01385 -0.07863,0.0025 -0.09764,-0.0021 -0.08933,-0.01739 -0.165761,-0.05036 -0.245712,-0.12948 -0.07921,-0.08086 -0.292234,-0.356237 -0.314961,-0.797034 -0.02228,-0.438961 0.146719,-0.554875 0.222701,-0.647654 0.07626,-0.09167 0.111942,-0.08692 0.132444,-0.109697 0.02735,-0.03115 0.05114,-0.03232 0.0772,-0.04334 0,0 0.02388,-0.01491 0.03741,-0.01537 0.04284,-0.0043 0.06448,-0.0096 0.106432,0.0016 0.217292,0.0498 0.204968,0.04388 0.321637,0.173072 0.03393,0.03871 0.07386,0.07167 0.102282,0.114834 0.0316,0.04821 0.01818,0.04256 0.0703,0.157227 0.08316,0.184385 0.09329,0.225806 0.0889,0.368284 -0.0036,0.08556 -0.01041,0.119474 -0.04125,0.191892 -0.01949,0.05059 -0.07238,0.175808 -0.11484,0.281756 -0.08368,0.202659 -0.132212,0.296495 -0.195538,0.366367 -0.07143,0.07962 -0.211839,0.120192 -0.149016,0.09121 z" style="opacity:0.828;fill:#000000;fill-opacity:1;fill-rule:nonzero;stroke:none;stroke-width:0.377349" id="path1236"></path> <path d="m 21.244146,50.197582 c -0.03357,-7.1e-4 0.07345,-0.02846 0.09009,-0.04145 0.07438,-0.05006 0.132359,-0.110059 0.173709,-0.214185 0.04099,-0.105591 0.129852,-0.442757 -0.02142,-0.856391 -0.151358,-0.413994 -0.351959,-0.452729 -0.458111,-0.508736 -0.105796,-0.05454 -0.139297,-0.03586 -0.165495,-0.04926 -0.03815,-0.01942 -0.06127,-0.0091 -0.08872,-0.01016 0,0 -0.02845,-0.0035 -0.0409,0.0011 -0.03925,0.01269 -0.0627,0.01688 -0.09733,0.04205 -0.179126,0.13006 -0.170936,0.120671 -0.227526,0.286396 -0.01665,0.04951 -0.04057,0.09461 -0.04806,0.144999 -0.01155,0.0576 -7.81e-4,0.04603 -0.0047,0.172859 -0.0037,0.200963 0.004,0.244935 0.06434,0.374288 0.03566,0.07752 0.05438,0.104798 0.112298,0.160557 0.03797,0.03772 0.135323,0.132396 0.215274,0.211514 0.158442,0.157039 0.238097,0.222243 0.323648,0.26231 0.09779,0.04562 0.243494,0.02669 0.172945,0.02414 z" style="opacity:0.828;fill:#000000;fill-opacity:1;fill-rule:nonzero;stroke:none;stroke-width:0.377349" id="path1238"></path> </g> <path style="fill:none;stroke:#000000;stroke-width:0.2;stroke-linecap:butt;stroke-linejoin:miter;stroke-miterlimit:4;stroke-dasharray:0.2, 0.2;stroke-dashoffset:0;stroke-opacity:1" d="m 100.02018,119.48004 c 4.13761,0 8.23647,0 12.3543,0" id="path1242"></path> <path id="path1246" d="m 100.02018,135.02551 c 4.13761,0 8.23647,0 12.3543,0" style="fill:none;stroke:#000000;stroke-width:0.2;stroke-linecap:butt;stroke-linejoin:miter;stroke-miterlimit:4;stroke-dasharray:0.2, 0.2;stroke-dashoffset:0;stroke-opacity:1"></path> <path style="fill:none;stroke:#000000;stroke-width:0.2;stroke-linecap:butt;stroke-linejoin:miter;stroke-miterlimit:4;stroke-dasharray:0.2, 0.2;stroke-dashoffset:0;stroke-opacity:1" d="m 100.02018,135.02551 c 0.94905,3.61358 1.8892,7.19328 2.8337,10.78952" id="path1250"></path> <path id="path1254" d="m 100.02018,119.48004 c 1.31515,-3.34046 2.61802,-6.64975 3.92697,-9.97446" style="fill:none;stroke:#000000;stroke-width:0.2;stroke-linecap:butt;stroke-linejoin:miter;stroke-miterlimit:4;stroke-dasharray:0.2, 0.2;stroke-dashoffset:0;stroke-opacity:1"></path> <g id="path7341"> <path style="color:#000000;fill:#ff2a7f;stroke-dasharray:0.3, 0.3;-inkscape-stroke:none" d="m 103.05664,113.17969 -0.13281,0.26953 0.13281,0.0645 0.13086,0.0684 0.14063,-0.26562 -0.13477,-0.0703 z m 0.54102,0.29101 -0.15821,0.25586 0.12696,0.0781 0.12304,0.0801 0.16407,-0.25 -0.12696,-0.084 z m 0.50976,0.34375 -0.18164,0.23828 0.11719,0.0898 0.11523,0.0918 0.1875,-0.23243 -0.11718,-0.0957 z m 0.47266,0.39063 -0.20313,0.2207 0.0879,0.0801 0.125,0.12305 0.21094,-0.21289 -0.1289,-0.12696 z m 0.43164,0.43555 -0.22266,0.20117 0.0508,0.0566 0.11719,0.13867 0.0195,0.0254 0.23633,-0.18555 -0.0234,-0.0293 -0.12304,-0.14649 z m 0.38672,0.47656 -0.24219,0.17969 0.0215,0.0273 0.10352,0.15039 0.041,0.0625 0.25195,-0.16602 -0.043,-0.0664 -0.10937,-0.1543 z m 0.33984,0.51562 -0.25976,0.15039 0.0879,0.1543 0.0547,0.10352 0.26563,-0.14258 -0.0586,-0.10547 z m 0.28711,0.54297 -0.27344,0.125 0.0586,0.125 0.0625,0.14453 0.27539,-0.11718 -0.0645,-0.1504 z m 0.23438,0.56445 -0.28321,0.10352 0.0332,0.0879 0.0566,0.17383 0.004,0.0137 0.28711,-0.0859 -0.004,-0.0176 -0.0606,-0.18165 z m 0.18164,0.58594 -0.29102,0.0762 0.0137,0.0527 0.041,0.17578 0.0117,0.0566 0.29297,-0.0606 -0.0117,-0.0586 -0.043,-0.18555 z m 0.125,0.59961 -0.29688,0.0508 0.002,0.0117 0.0254,0.17969 0.0117,0.0977 0.29688,-0.0332 -0.01,-0.10156 -0.0273,-0.18945 z m 0.0664,0.61524 -0.30078,0.0137 0.008,0.15429 0.002,0.14258 0.30078,-0.006 -0.002,-0.14648 z m -0.29492,0.59961 -0.006,0.11132 -0.0137,0.1836 0.29883,0.0234 0.0137,-0.1875 0.006,-0.11718 z" id="path13306"></path> <g id="g13296"> <path style="color:#000000;fill:#ff2a7f;fill-rule:evenodd;stroke-width:0.1125;stroke-linejoin:round;-inkscape-stroke:none" d="m 104.05956,114.61465 -1.47534,-1.488 2.08786,0.17772 c -0.46544,0.25374 -0.71119,0.78371 -0.61252,1.31028 z" id="path13298"></path> </g> </g> <path id="path1258" d="m 82.011538,127.22871 c 9.994,0 19.894392,0 29.840622,0" style="fill:none;stroke:#000000;stroke-width:0.2;stroke-linecap:butt;stroke-linejoin:miter;stroke-miterlimit:4;stroke-dasharray:0.2, 0.2;stroke-dashoffset:0;stroke-opacity:1"></path> <g id="path1322"> <path style="color:#000000;fill:#a05a2c;stroke-dasharray:0.3, 0.3;-inkscape-stroke:none" d="m 105.75195,135.02539 -0.29882,0.0215 0.0137,0.1836 0.004,0.11133 0.29883,-0.0117 -0.004,-0.11719 z m -0.27734,0.60742 -0.004,0.14063 -0.008,0.15429 0.29883,0.0156 0.01,-0.1582 0.002,-0.14649 z m -0.0371,0.58399 -0.0117,0.0976 -0.0254,0.17969 -0.002,0.0117 0.29492,0.0508 0.004,-0.0156 0.0254,-0.1875 0.0117,-0.10157 z m -0.0937,0.58007 -0.0117,0.0527 -0.041,0.17773 -0.0137,0.0527 0.28907,0.0762 0.0156,-0.0566 0.043,-0.18555 0.0117,-0.0586 z m -0.14648,0.56641 -0.004,0.0117 -0.0566,0.17383 -0.0332,0.0918 0.28125,0.10157 0.0352,-0.0957 0.0586,-0.18164 0.006,-0.0156 z m -0.19922,0.54883 -0.0625,0.14258 -0.0586,0.12695 0.27344,0.12695 0.0605,-0.13086 0.0625,-0.14843 z m -0.25,0.5293 -0.0547,0.10156 -0.0898,0.1582 0.25976,0.14844 0.0937,-0.16211 0.0547,-0.10352 z m -0.29883,0.50586 -0.0391,0.0586 -0.10352,0.15039 -0.0234,0.0312 0.24219,0.17773 0.0254,-0.0351 0.10742,-0.15625 0.041,-0.0625 z m -0.3457,0.4746 -0.0176,0.0215 -0.11524,0.13867 -0.0547,0.0625 0.22461,0.19922 0.0566,-0.0644 0.12304,-0.14649 0.0195,-0.0254 z m -0.38477,0.43555 -0.12109,0.11914 -0.0918,0.0859 0.20508,0.21875 0.0937,-0.0879 0.125,-0.12305 z m -0.43164,0.39649 -0.11133,0.0918 -0.11914,0.0918 0.18164,0.23633 0.12305,-0.0937 0.11719,-0.0937 z m -0.4668,0.35156 -0.1289,0.0859 -0.11914,0.0742 0.1582,0.25586 0.125,-0.0781 0.13086,-0.0879 z m -0.49804,0.30664 -0.14454,0.0762 -0.11718,0.0586 0.13281,0.26954 0.12109,-0.0605 0.14844,-0.0801 z" id="path13354"></path> <g id="g13344"> <path style="color:#000000;fill:#a05a2c;fill-rule:evenodd;stroke-width:0.1125;stroke-linejoin:round;-inkscape-stroke:none" d="m 103.79324,141.19657 -2.0869,0.18874 1.46746,-1.49577 c -0.10106,0.52039 0.15075,1.0475 0.61944,1.30703 z" id="path13346"></path> </g> </g> <text xml:space="preserve" style="font-style:normal;font-weight:normal;font-size:2.82222px;line-height:1.25;font-family:sans-serif;letter-spacing:0px;word-spacing:0px;fill:#000000;fill-opacity:1;stroke:none;stroke-width:0.264583" x="106.48861" y="113.76474" id="text1416"><tspan id="tspan1414" x="106.48861" y="113.76474" style="font-style:normal;font-variant:normal;font-weight:normal;font-stretch:normal;font-family:arial;-inkscape-font-specification:arial;stroke-width:0.264583">left turn</tspan></text> <text id="text1420" y="141.64165" x="106.48586" style="font-style:normal;font-weight:normal;font-size:2.82222px;line-height:1.25;font-family:sans-serif;letter-spacing:0px;word-spacing:0px;fill:#000000;fill-opacity:1;stroke:none;stroke-width:0.264583" xml:space="preserve"><tspan style="font-style:normal;font-variant:normal;font-weight:normal;font-stretch:normal;font-family:Arial;-inkscape-font-specification:Arial;stroke-width:0.264583" y="141.64165" x="106.48586" id="tspan1418">right turn</tspan></text> <text id="text3323" y="124.1759" x="106.49963" style="font-style:normal;font-weight:normal;font-size:2.82222px;line-height:1.25;font-family:sans-serif;letter-spacing:0px;word-spacing:0px;fill:#000000;fill-opacity:1;stroke:none;stroke-width:0.264583" xml:space="preserve"><tspan style="font-style:normal;font-variant:normal;font-weight:normal;font-stretch:normal;font-family:Arial;-inkscape-font-specification:Arial;stroke-width:0.264583" y="124.1759" x="106.49963" id="tspan3321">forward</tspan></text> <g id="path11155"> <path style="color:#000000;fill:#ffcc00;-inkscape-stroke:none" d="m 100.27148,127.08203 c -0.951,3.3e-4 -1.902151,0.002 -3.197261,0.004 -1.29511,0.002 -2.933287,0.006 -4.572266,0.01 v 0.26563 c 1.638979,-0.004 3.277334,-0.008 4.572266,-0.01 1.294932,-0.002 2.246261,-0.004 3.197261,-0.004 z" id="path13954"></path> <g id="g13944"> <path style="color:#000000;fill:#ffcc00;fill-rule:evenodd;stroke-width:0.099375;stroke-linejoin:round;-inkscape-stroke:none" d="m 98.88534,126.57443 1.73744,0.63821 -1.736992,0.63943 c 0.277402,-0.37726 0.275622,-0.89327 -4.48e-4,-1.27764 z" id="path13946"></path> </g> </g> <g transform="matrix(0.352778,0,0,0.352778,109.06389,115.41454)" ns3:version="1.5.0" ns3:texconverter="pdflatex" ns3:pdfconverter="inkscape" ns3:text="$\\delta\\theta &amp;gt;$" ns3:preamble="/home/guillaume/.config/inkscape/extensions/textext/default_packages.tex" ns3:scale="1.0" ns3:alignment="middle center" ns3:stroke-to-path="0" ns3:inkscapeversion="1.1" ns3:jacobian_sqrt="0.352778" id="g1342"> <defs id="id-2464c7dd-d313-4ff7-82a8-53317153b4bd"> <g id="id-4a5955f0-a227-406c-ac6a-62188fba21f9"> <symbol overflow="visible" id="id-c74e5e6e-89a2-4e48-bdfb-4f0b6624fd80"> <path style="stroke:none;stroke-width:0" d="" id="id-8a80edef-baf9-488c-9b87-edb0d30f6f50"></path> </symbol> <symbol overflow="visible" id="id-55fb2bd2-2004-489b-a193-c76c8a1c8e2a"> <path style="stroke:none;stroke-width:0" d="M 2.625,-4.359375 C 1.390625,-4.0625 0.421875,-2.765625 0.421875,-1.5625 0.421875,-0.59375 1.0625,0.125 2,0.125 c 1.15625,0 1.984375,-1.578125 1.984375,-2.953125 0,-0.90625 -0.390625,-1.40625 -0.734375,-1.84375 C 2.890625,-5.125 2.296875,-5.875 2.296875,-6.3125 c 0,-0.21875 0.203125,-0.453125 0.546875,-0.453125 0.3125,0 0.5,0.125 0.71875,0.265625 0.203125,0.125 0.390625,0.25 0.546875,0.25 C 4.359375,-6.25 4.5,-6.484375 4.5,-6.65625 4.5,-6.875 4.34375,-6.890625 3.984375,-6.984375 3.46875,-7.09375 3.328125,-7.09375 3.171875,-7.09375 c -0.78125,0 -1.140625,0.4375 -1.140625,1.03125 0,0.546875 0.296875,1.09375 0.59375,1.703125 z m 0.125,0.21875 c 0.25,0.46875 0.546875,1 0.546875,1.71875 0,0.65625 -0.375,2.328125 -1.296875,2.328125 -0.546875,0 -0.96875,-0.421875 -0.96875,-1.1875 0,-0.625 0.375,-2.5 1.71875,-2.859375 z m 0,0" id="id-b1d85b77-66cf-4402-8853-23dae18f5a17"></path> </symbol> <symbol overflow="visible" id="id-70ebf800-91aa-4dcf-9d13-d041bce04c86"> <path style="stroke:none;stroke-width:0" d="m 4.53125,-4.984375 c 0,-0.65625 -0.171875,-2.046875 -1.1875,-2.046875 -1.390625,0 -2.921875,2.8125 -2.921875,5.09375 0,0.9375 0.28125,2.046875 1.1875,2.046875 1.40625,0 2.921875,-2.859375 2.921875,-5.09375 z M 1.46875,-3.625 C 1.640625,-4.25 1.84375,-5.046875 2.25,-5.765625 2.515625,-6.25 2.875,-6.8125 3.328125,-6.8125 c 0.484375,0 0.546875,0.640625 0.546875,1.203125 0,0.5 -0.078125,1 -0.3125,1.984375 z m 2,0.328125 C 3.359375,-2.84375 3.15625,-2 2.765625,-1.28125 c -0.34375,0.6875 -0.71875,1.171875 -1.15625,1.171875 -0.328125,0 -0.53125,-0.296875 -0.53125,-1.21875 0,-0.421875 0.0625,-1 0.3125,-1.96875 z m 0,0" id="id-f5315b97-d7f4-4322-a8f9-1c3bf7304781"></path> </symbol> <symbol overflow="visible" id="id-a26a66d5-486f-4b22-8308-5ae13884a9eb"> <path style="stroke:none;stroke-width:0" d="M 6.734375,-2.265625 C 6.84375,-2.328125 6.921875,-2.375 6.921875,-2.5 c 0,-0.109375 -0.078125,-0.15625 -0.1875,-0.21875 L 1.203125,-5.3125 C 1.078125,-5.390625 1.0625,-5.390625 1.03125,-5.390625 c -0.109375,0 -0.203125,0.09375 -0.203125,0.203125 0,0.09375 0.046875,0.15625 0.1875,0.21875 L 6.25,-2.5 1.015625,-0.015625 c -0.140625,0.0625 -0.1875,0.125 -0.1875,0.21875 0,0.109375 0.09375,0.203125 0.203125,0.203125 0.03125,0 0.046875,0 0.171875,-0.078125 z m 0,0" id="id-3354027f-045e-4d3e-8eb4-af3247b7b13a"></path> </symbol> </g> </defs> <g id="id-0d6d0b65-5b70-4413-9a25-137d2f9fe755" transform="translate(-149.134,-127.671)"> <g style="fill:#000000;fill-opacity:1" id="id-b014b0dd-5904-4239-a862-8c2a2483227f"> <g transform="translate(148.712,134.765)" id="g1330"> <path style="stroke:none;stroke-width:0" d="M 2.625,-4.359375 C 1.390625,-4.0625 0.421875,-2.765625 0.421875,-1.5625 0.421875,-0.59375 1.0625,0.125 2,0.125 c 1.15625,0 1.984375,-1.578125 1.984375,-2.953125 0,-0.90625 -0.390625,-1.40625 -0.734375,-1.84375 C 2.890625,-5.125 2.296875,-5.875 2.296875,-6.3125 c 0,-0.21875 0.203125,-0.453125 0.546875,-0.453125 0.3125,0 0.5,0.125 0.71875,0.265625 0.203125,0.125 0.390625,0.25 0.546875,0.25 C 4.359375,-6.25 4.5,-6.484375 4.5,-6.65625 4.5,-6.875 4.34375,-6.890625 3.984375,-6.984375 3.46875,-7.09375 3.328125,-7.09375 3.171875,-7.09375 c -0.78125,0 -1.140625,0.4375 -1.140625,1.03125 0,0.546875 0.296875,1.09375 0.59375,1.703125 z m 0.125,0.21875 c 0.25,0.46875 0.546875,1 0.546875,1.71875 0,0.65625 -0.375,2.328125 -1.296875,2.328125 -0.546875,0 -0.96875,-0.421875 -0.96875,-1.1875 0,-0.625 0.375,-2.5 1.71875,-2.859375 z m 0,0" id="id-bd9b484a-1b8d-4b06-b279-659e0e731074"></path> </g> </g> <g style="fill:#000000;fill-opacity:1" id="id-73cc9107-09f4-48d0-96c6-2590a9116d24"> <g transform="translate(153.518,134.765)" id="g1334"> <path style="stroke:none;stroke-width:0" d="m 4.53125,-4.984375 c 0,-0.65625 -0.171875,-2.046875 -1.1875,-2.046875 -1.390625,0 -2.921875,2.8125 -2.921875,5.09375 0,0.9375 0.28125,2.046875 1.1875,2.046875 1.40625,0 2.921875,-2.859375 2.921875,-5.09375 z M 1.46875,-3.625 C 1.640625,-4.25 1.84375,-5.046875 2.25,-5.765625 2.515625,-6.25 2.875,-6.8125 3.328125,-6.8125 c 0.484375,0 0.546875,0.640625 0.546875,1.203125 0,0.5 -0.078125,1 -0.3125,1.984375 z m 2,0.328125 C 3.359375,-2.84375 3.15625,-2 2.765625,-1.28125 c -0.34375,0.6875 -0.71875,1.171875 -1.15625,1.171875 -0.328125,0 -0.53125,-0.296875 -0.53125,-1.21875 0,-0.421875 0.0625,-1 0.3125,-1.96875 z m 0,0" id="id-145b66bf-f2d6-4501-8443-79173a2c0798"></path> </g> </g> <g style="fill:#000000;fill-opacity:1" id="id-b8104219-4a54-44c4-85e8-a54a2e5af99f"> <g transform="translate(161.243,134.765)" id="g1338"> <path style="stroke:none;stroke-width:0" d="M 6.734375,-2.265625 C 6.84375,-2.328125 6.921875,-2.375 6.921875,-2.5 c 0,-0.109375 -0.078125,-0.15625 -0.1875,-0.21875 L 1.203125,-5.3125 C 1.078125,-5.390625 1.0625,-5.390625 1.03125,-5.390625 c -0.109375,0 -0.203125,0.09375 -0.203125,0.203125 0,0.09375 0.046875,0.15625 0.1875,0.21875 L 6.25,-2.5 1.015625,-0.015625 c -0.140625,0.0625 -0.1875,0.125 -0.1875,0.21875 0,0.109375 0.09375,0.203125 0.203125,0.203125 0.03125,0 0.046875,0 0.171875,-0.078125 z m 0,0" id="id-832238f5-752e-4b97-9e7c-93589aebfc95"></path> </g> </g> </g> </g> <g transform="matrix(0.352778,0,0,0.352778,109.06402,129.264)" ns3:version="1.5.0" ns3:texconverter="pdflatex" ns3:pdfconverter="inkscape" ns3:text="$|\\delta\\theta| &amp;lt;$" ns3:preamble="/home/guillaume/.config/inkscape/extensions/textext/default_packages.tex" ns3:scale="1.0" ns3:alignment="middle center" ns3:stroke-to-path="0" ns3:inkscapeversion="1.1" ns3:jacobian_sqrt="0.352778" id="g1425"> <defs id="id-c2160333-e236-4914-9984-646ca9b0e00e"> <g id="id-c7248bd6-7d72-4dda-ae22-ec8142a4cb84"> <symbol overflow="visible" id="id-98802111-7a72-47c7-8c04-7f3e1499b86c"> <path style="stroke:none" d="" id="id-1da080c6-9501-4f97-94b1-dbc1cb13f173"></path> </symbol> <symbol overflow="visible" id="id-124c3210-c67c-4fc1-a048-9984327ec888"> <path style="stroke:none" d="m 1.578125,-7.125 c 0,-0.171875 0,-0.359375 -0.1875,-0.359375 -0.203125,0 -0.203125,0.1875 -0.203125,0.359375 v 9.265625 c 0,0.171875 0,0.359375 0.203125,0.359375 0.1875,0 0.1875,-0.1875 0.1875,-0.359375 z m 0,0" id="id-f0f0ea3d-8bb5-4722-8557-915af9150934"></path> </symbol> <symbol overflow="visible" id="id-6afd3945-1180-42ae-b85b-6acfbc4ea479"> <path style="stroke:none" d="" id="id-6da70838-4f89-45ca-b2d5-2927a2fa114b"></path> </symbol> <symbol overflow="visible" id="id-8b0fc74b-5123-4137-b723-8bd7a86ce638"> <path style="stroke:none" d="M 2.625,-4.359375 C 1.390625,-4.0625 0.421875,-2.765625 0.421875,-1.5625 0.421875,-0.59375 1.0625,0.125 2,0.125 c 1.15625,0 1.984375,-1.578125 1.984375,-2.953125 0,-0.90625 -0.390625,-1.40625 -0.734375,-1.84375 C 2.890625,-5.125 2.296875,-5.875 2.296875,-6.3125 c 0,-0.21875 0.203125,-0.453125 0.546875,-0.453125 0.3125,0 0.5,0.125 0.71875,0.265625 0.203125,0.125 0.390625,0.25 0.546875,0.25 C 4.359375,-6.25 4.5,-6.484375 4.5,-6.65625 4.5,-6.875 4.34375,-6.890625 3.984375,-6.984375 3.46875,-7.09375 3.328125,-7.09375 3.171875,-7.09375 c -0.78125,0 -1.140625,0.4375 -1.140625,1.03125 0,0.546875 0.296875,1.09375 0.59375,1.703125 z m 0.125,0.21875 c 0.25,0.46875 0.546875,1 0.546875,1.71875 0,0.65625 -0.375,2.328125 -1.296875,2.328125 -0.546875,0 -0.96875,-0.421875 -0.96875,-1.1875 0,-0.625 0.375,-2.5 1.71875,-2.859375 z m 0,0" id="id-aa8d9851-c72c-41b1-84ca-7b9eea0ec8b1"></path> </symbol> <symbol overflow="visible" id="id-dadd8784-2c45-45a2-8da2-adf6b86292af"> <path style="stroke:none" d="m 4.53125,-4.984375 c 0,-0.65625 -0.171875,-2.046875 -1.1875,-2.046875 -1.390625,0 -2.921875,2.8125 -2.921875,5.09375 0,0.9375 0.28125,2.046875 1.1875,2.046875 1.40625,0 2.921875,-2.859375 2.921875,-5.09375 z M 1.46875,-3.625 C 1.640625,-4.25 1.84375,-5.046875 2.25,-5.765625 2.515625,-6.25 2.875,-6.8125 3.328125,-6.8125 c 0.484375,0 0.546875,0.640625 0.546875,1.203125 0,0.5 -0.078125,1 -0.3125,1.984375 z m 2,0.328125 C 3.359375,-2.84375 3.15625,-2 2.765625,-1.28125 c -0.34375,0.6875 -0.71875,1.171875 -1.15625,1.171875 -0.328125,0 -0.53125,-0.296875 -0.53125,-1.21875 0,-0.421875 0.0625,-1 0.3125,-1.96875 z m 0,0" id="id-08d374a2-3865-472a-a5e1-0830a7a2943a"></path> </symbol> <symbol overflow="visible" id="id-12452ae8-c33b-44c2-b356-692dc432da0b"> <path style="stroke:none" d="m 6.734375,-4.96875 c 0.109375,-0.0625 0.1875,-0.109375 0.1875,-0.21875 0,-0.109375 -0.09375,-0.203125 -0.203125,-0.203125 -0.03125,0 -0.046875,0 -0.171875,0.078125 l -5.53125,2.59375 c -0.109375,0.0625 -0.1875,0.109375 -0.1875,0.21875 0,0.125 0.078125,0.171875 0.1875,0.234375 l 5.53125,2.59375 C 6.671875,0.40625 6.6875,0.40625 6.71875,0.40625 c 0.109375,0 0.203125,-0.09375 0.203125,-0.203125 0,-0.109375 -0.078125,-0.15625 -0.1875,-0.21875 L 1.5,-2.5 Z m 0,0" id="id-e8efee63-f3b4-4fd3-8090-217558c6f99b"></path> </symbol> </g> </defs> <g id="id-db4e7f55-fe31-4af3-b3ad-86ca2472553b" transform="translate(-149.9,-127.281)"> <g style="fill:#000000;fill-opacity:1" id="id-f9dd31a9-c98a-4e4b-93f2-67a88fabc6e6"> <g transform="translate(148.712,134.765)" id="g1899"> <path style="stroke:none" d="m 1.578125,-7.125 c 0,-0.171875 0,-0.359375 -0.1875,-0.359375 -0.203125,0 -0.203125,0.1875 -0.203125,0.359375 v 9.265625 c 0,0.171875 0,0.359375 0.203125,0.359375 0.1875,0 0.1875,-0.1875 0.1875,-0.359375 z m 0,0" id="id-8286a757-dbab-495a-b7a0-268bbfff2515"></path> </g> </g> <g style="fill:#000000;fill-opacity:1" id="id-c9e59ffd-15fc-4034-9ef5-655de200455f"> <g transform="translate(151.48,134.765)" id="g1903"> <path style="stroke:none" d="M 2.625,-4.359375 C 1.390625,-4.0625 0.421875,-2.765625 0.421875,-1.5625 0.421875,-0.59375 1.0625,0.125 2,0.125 c 1.15625,0 1.984375,-1.578125 1.984375,-2.953125 0,-0.90625 -0.390625,-1.40625 -0.734375,-1.84375 C 2.890625,-5.125 2.296875,-5.875 2.296875,-6.3125 c 0,-0.21875 0.203125,-0.453125 0.546875,-0.453125 0.3125,0 0.5,0.125 0.71875,0.265625 0.203125,0.125 0.390625,0.25 0.546875,0.25 C 4.359375,-6.25 4.5,-6.484375 4.5,-6.65625 4.5,-6.875 4.34375,-6.890625 3.984375,-6.984375 3.46875,-7.09375 3.328125,-7.09375 3.171875,-7.09375 c -0.78125,0 -1.140625,0.4375 -1.140625,1.03125 0,0.546875 0.296875,1.09375 0.59375,1.703125 z m 0.125,0.21875 c 0.25,0.46875 0.546875,1 0.546875,1.71875 0,0.65625 -0.375,2.328125 -1.296875,2.328125 -0.546875,0 -0.96875,-0.421875 -0.96875,-1.1875 0,-0.625 0.375,-2.5 1.71875,-2.859375 z m 0,0" id="id-fb38287e-dbe3-4ca1-aa70-5adf97f724bc"></path> </g> </g> <g style="fill:#000000;fill-opacity:1" id="id-1523979b-9cdb-4a34-945f-c5172c3ab401"> <g transform="translate(156.286,134.765)" id="g1907"> <path style="stroke:none" d="m 4.53125,-4.984375 c 0,-0.65625 -0.171875,-2.046875 -1.1875,-2.046875 -1.390625,0 -2.921875,2.8125 -2.921875,5.09375 0,0.9375 0.28125,2.046875 1.1875,2.046875 1.40625,0 2.921875,-2.859375 2.921875,-5.09375 z M 1.46875,-3.625 C 1.640625,-4.25 1.84375,-5.046875 2.25,-5.765625 2.515625,-6.25 2.875,-6.8125 3.328125,-6.8125 c 0.484375,0 0.546875,0.640625 0.546875,1.203125 0,0.5 -0.078125,1 -0.3125,1.984375 z m 2,0.328125 C 3.359375,-2.84375 3.15625,-2 2.765625,-1.28125 c -0.34375,0.6875 -0.71875,1.171875 -1.15625,1.171875 -0.328125,0 -0.53125,-0.296875 -0.53125,-1.21875 0,-0.421875 0.0625,-1 0.3125,-1.96875 z m 0,0" id="id-0d42eb62-dd72-46c3-9eb1-04057167a48f"></path> </g> </g> <g style="fill:#000000;fill-opacity:1" id="id-40d1bec1-3c03-4c22-8da5-a642fc778200"> <g transform="translate(161.238,134.765)" id="g1911"> <path style="stroke:none" d="m 1.578125,-7.125 c 0,-0.171875 0,-0.359375 -0.1875,-0.359375 -0.203125,0 -0.203125,0.1875 -0.203125,0.359375 v 9.265625 c 0,0.171875 0,0.359375 0.203125,0.359375 0.1875,0 0.1875,-0.1875 0.1875,-0.359375 z m 0,0" id="id-a37876bc-c578-4256-bfb1-c8a315181306"></path> </g> </g> <g style="fill:#000000;fill-opacity:1" id="id-a41608c3-b26a-45e5-95de-7a59f380610d"> <g transform="translate(166.773,134.765)" id="g1915"> <path style="stroke:none" d="m 6.734375,-4.96875 c 0.109375,-0.0625 0.1875,-0.109375 0.1875,-0.21875 0,-0.109375 -0.09375,-0.203125 -0.203125,-0.203125 -0.03125,0 -0.046875,0 -0.171875,0.078125 l -5.53125,2.59375 c -0.109375,0.0625 -0.1875,0.109375 -0.1875,0.21875 0,0.125 0.078125,0.171875 0.1875,0.234375 l 5.53125,2.59375 C 6.671875,0.40625 6.6875,0.40625 6.71875,0.40625 c 0.109375,0 0.203125,-0.09375 0.203125,-0.203125 0,-0.109375 -0.078125,-0.15625 -0.1875,-0.21875 L 1.5,-2.5 Z m 0,0" id="id-70879ced-6945-4695-91c4-6be2493a7a15"></path> </g> </g> </g> </g> <g transform="matrix(0.352778,0,0,0.352778,109.06389,143.99)" ns3:version="1.5.0" ns3:texconverter="pdflatex" ns3:pdfconverter="inkscape" ns3:text="$\\delta\\theta &amp;lt;$" ns3:preamble="/home/guillaume/.config/inkscape/extensions/textext/default_packages.tex" ns3:scale="1.0" ns3:alignment="middle center" ns3:stroke-to-path="0" ns3:inkscapeversion="1.1" ns3:jacobian_sqrt="0.352778" id="g1467"> <defs id="id-690f0dc6-fde0-44c4-a0f6-1130f9d25051"> <g id="id-07e40918-7459-4554-a055-c6aaeff50902"> <symbol overflow="visible" id="id-1ef81c55-a96e-438e-bc3e-752e1a9d026d"> <path style="stroke:none" d="" id="id-f7faa91b-ecfc-4f28-a533-fd3ba5d1fa95"></path> </symbol> <symbol overflow="visible" id="id-e938f650-a4cb-4963-9377-fffc4809d7b3"> <path style="stroke:none" d="M 2.625,-4.359375 C 1.390625,-4.0625 0.421875,-2.765625 0.421875,-1.5625 0.421875,-0.59375 1.0625,0.125 2,0.125 c 1.15625,0 1.984375,-1.578125 1.984375,-2.953125 0,-0.90625 -0.390625,-1.40625 -0.734375,-1.84375 C 2.890625,-5.125 2.296875,-5.875 2.296875,-6.3125 c 0,-0.21875 0.203125,-0.453125 0.546875,-0.453125 0.3125,0 0.5,0.125 0.71875,0.265625 0.203125,0.125 0.390625,0.25 0.546875,0.25 C 4.359375,-6.25 4.5,-6.484375 4.5,-6.65625 4.5,-6.875 4.34375,-6.890625 3.984375,-6.984375 3.46875,-7.09375 3.328125,-7.09375 3.171875,-7.09375 c -0.78125,0 -1.140625,0.4375 -1.140625,1.03125 0,0.546875 0.296875,1.09375 0.59375,1.703125 z m 0.125,0.21875 c 0.25,0.46875 0.546875,1 0.546875,1.71875 0,0.65625 -0.375,2.328125 -1.296875,2.328125 -0.546875,0 -0.96875,-0.421875 -0.96875,-1.1875 0,-0.625 0.375,-2.5 1.71875,-2.859375 z m 0,0" id="id-50f505ed-24ab-4f75-8104-b8808d1d875c"></path> </symbol> <symbol overflow="visible" id="id-46cac230-c745-4382-b39e-018a42cb7c65"> <path style="stroke:none" d="m 4.53125,-4.984375 c 0,-0.65625 -0.171875,-2.046875 -1.1875,-2.046875 -1.390625,0 -2.921875,2.8125 -2.921875,5.09375 0,0.9375 0.28125,2.046875 1.1875,2.046875 1.40625,0 2.921875,-2.859375 2.921875,-5.09375 z M 1.46875,-3.625 C 1.640625,-4.25 1.84375,-5.046875 2.25,-5.765625 2.515625,-6.25 2.875,-6.8125 3.328125,-6.8125 c 0.484375,0 0.546875,0.640625 0.546875,1.203125 0,0.5 -0.078125,1 -0.3125,1.984375 z m 2,0.328125 C 3.359375,-2.84375 3.15625,-2 2.765625,-1.28125 c -0.34375,0.6875 -0.71875,1.171875 -1.15625,1.171875 -0.328125,0 -0.53125,-0.296875 -0.53125,-1.21875 0,-0.421875 0.0625,-1 0.3125,-1.96875 z m 0,0" id="id-bf3e8fc8-e306-4be1-8897-76111afd8de2"></path> </symbol> <symbol overflow="visible" id="id-a79fffaa-4d37-4f0a-b8f8-26a7c6250a10"> <path style="stroke:none" d="m 6.734375,-4.96875 c 0.109375,-0.0625 0.1875,-0.109375 0.1875,-0.21875 0,-0.109375 -0.09375,-0.203125 -0.203125,-0.203125 -0.03125,0 -0.046875,0 -0.171875,0.078125 l -5.53125,2.59375 c -0.109375,0.0625 -0.1875,0.109375 -0.1875,0.21875 0,0.125 0.078125,0.171875 0.1875,0.234375 l 5.53125,2.59375 C 6.671875,0.40625 6.6875,0.40625 6.71875,0.40625 c 0.109375,0 0.203125,-0.09375 0.203125,-0.203125 0,-0.109375 -0.078125,-0.15625 -0.1875,-0.21875 L 1.5,-2.5 Z m 0,0" id="id-0cf39487-d823-4998-b461-801faa0cc166"></path> </symbol> </g> </defs> <g id="id-700dabc8-cac0-438c-8e2b-b9d6ab9b74e2" transform="translate(-149.134,-127.671)"> <g style="fill:#000000;fill-opacity:1" id="id-205e6dc3-b2a8-457d-bbd3-2a139a726888"> <g transform="translate(148.712,134.765)" id="g2417"> <path style="stroke:none" d="M 2.625,-4.359375 C 1.390625,-4.0625 0.421875,-2.765625 0.421875,-1.5625 0.421875,-0.59375 1.0625,0.125 2,0.125 c 1.15625,0 1.984375,-1.578125 1.984375,-2.953125 0,-0.90625 -0.390625,-1.40625 -0.734375,-1.84375 C 2.890625,-5.125 2.296875,-5.875 2.296875,-6.3125 c 0,-0.21875 0.203125,-0.453125 0.546875,-0.453125 0.3125,0 0.5,0.125 0.71875,0.265625 0.203125,0.125 0.390625,0.25 0.546875,0.25 C 4.359375,-6.25 4.5,-6.484375 4.5,-6.65625 4.5,-6.875 4.34375,-6.890625 3.984375,-6.984375 3.46875,-7.09375 3.328125,-7.09375 3.171875,-7.09375 c -0.78125,0 -1.140625,0.4375 -1.140625,1.03125 0,0.546875 0.296875,1.09375 0.59375,1.703125 z m 0.125,0.21875 c 0.25,0.46875 0.546875,1 0.546875,1.71875 0,0.65625 -0.375,2.328125 -1.296875,2.328125 -0.546875,0 -0.96875,-0.421875 -0.96875,-1.1875 0,-0.625 0.375,-2.5 1.71875,-2.859375 z m 0,0" id="id-3dd786f8-100d-435f-a56a-7925cc7524b1"></path> </g> </g> <g style="fill:#000000;fill-opacity:1" id="id-84985136-72b0-4b58-9f32-9f88a9aecb64"> <g transform="translate(153.518,134.765)" id="g2421"> <path style="stroke:none" d="m 4.53125,-4.984375 c 0,-0.65625 -0.171875,-2.046875 -1.1875,-2.046875 -1.390625,0 -2.921875,2.8125 -2.921875,5.09375 0,0.9375 0.28125,2.046875 1.1875,2.046875 1.40625,0 2.921875,-2.859375 2.921875,-5.09375 z M 1.46875,-3.625 C 1.640625,-4.25 1.84375,-5.046875 2.25,-5.765625 2.515625,-6.25 2.875,-6.8125 3.328125,-6.8125 c 0.484375,0 0.546875,0.640625 0.546875,1.203125 0,0.5 -0.078125,1 -0.3125,1.984375 z m 2,0.328125 C 3.359375,-2.84375 3.15625,-2 2.765625,-1.28125 c -0.34375,0.6875 -0.71875,1.171875 -1.15625,1.171875 -0.328125,0 -0.53125,-0.296875 -0.53125,-1.21875 0,-0.421875 0.0625,-1 0.3125,-1.96875 z m 0,0" id="id-a9cb50bb-9390-4351-9608-fa20073ac76e"></path> </g> </g> <g style="fill:#000000;fill-opacity:1" id="id-58ccf6cb-f530-43be-8777-08f33b110d15"> <g transform="translate(161.243,134.765)" id="g2425"> <path style="stroke:none" d="m 6.734375,-4.96875 c 0.109375,-0.0625 0.1875,-0.109375 0.1875,-0.21875 0,-0.109375 -0.09375,-0.203125 -0.203125,-0.203125 -0.03125,0 -0.046875,0 -0.171875,0.078125 l -5.53125,2.59375 c -0.109375,0.0625 -0.1875,0.109375 -0.1875,0.21875 0,0.125 0.078125,0.171875 0.1875,0.234375 l 5.53125,2.59375 C 6.671875,0.40625 6.6875,0.40625 6.71875,0.40625 c 0.109375,0 0.203125,-0.09375 0.203125,-0.203125 0,-0.109375 -0.078125,-0.15625 -0.1875,-0.21875 L 1.5,-2.5 Z m 0,0" id="id-e8a81216-0754-4e08-a04c-0ac96c9343e9"></path> </g> </g> </g> </g> <text xml:space="preserve" style="font-size:4.23333px;line-height:1.25;font-family:Arial;-inkscape-font-specification:Arial;letter-spacing:0px;word-spacing:0px;stroke-width:0.264583" x="115.71142" y="117.11788" id="text4343"><tspan id="tspan4341" style="stroke-width:0.264583" x="115.71142" y="117.11788"></tspan></text> <text xml:space="preserve" style="font-size:2.82222px;line-height:1.25;font-family:Arial;-inkscape-font-specification:Arial;letter-spacing:0px;word-spacing:0px;stroke-width:0.264583" x="118.02718" y="117.74765" id="text8211"><tspan id="tspan8209" style="font-size:2.82222px;stroke-width:0.264583" x="118.02718" y="117.74765">+10°</tspan></text> <text xml:space="preserve" style="font-size:2.82222px;line-height:1.25;font-family:Arial;-inkscape-font-specification:Arial;letter-spacing:0px;word-spacing:0px;stroke-width:0.264583" x="118.02718" y="132.03511" id="text9079"><tspan id="tspan9077" style="font-size:2.82222px;stroke-width:0.264583" x="118.02718" y="132.03511">+10°</tspan></text> <text xml:space="preserve" style="font-size:2.82222px;line-height:1.25;font-family:Arial;-inkscape-font-specification:Arial;letter-spacing:0px;word-spacing:0px;stroke-width:0.264583" x="118.0947" y="146.3231" id="text9185"><tspan id="tspan9183" style="font-size:2.82222px;stroke-width:0.264583" x="118.0947" y="146.3231">-10°</tspan></text> </g>
</svg>
