<?xml version="1.0"?>

<svg xmlns="http://www.w3.org/2000/svg" xmlns:xlink="http://www.w3.org/1999/xlink" width="514.771296" height="385.460109" viewBox="0 0 514.771296 385.460109" version="1.1">
<defs>
<g>
<symbol overflow="visible" id="glyph0-0">
<path style="stroke:none;" d="M 8 0 L 8 -40 L 40 -40 L 40 0 Z M 9 -1 L 39 -1 L 39 -39 L 9 -39 Z M 9 -1 "></path>
</symbol>
<symbol overflow="visible" id="glyph0-1">
<path style="stroke:none;" d="M 5.03125 0 L 5.03125 -45.8125 L 25.34375 -45.8125 C 29.425781 -45.8125 32.53125 -45.398438 34.65625 -44.578125 C 36.78125 -43.753906 38.476562 -42.300781 39.75 -40.21875 C 41.019531 -38.132812 41.65625 -35.832031 41.65625 -33.3125 C 41.65625 -30.0625 40.601562 -27.320312 38.5 -25.09375 C 36.394531 -22.863281 33.144531 -21.445312 28.75 -20.84375 C 30.351562 -20.070312 31.570312 -19.3125 32.40625 -18.5625 C 34.175781 -16.9375 35.851562 -14.90625 37.4375 -12.46875 L 45.40625 0 L 37.78125 0 L 31.71875 -9.53125 C 29.945312 -12.28125 28.488281 -14.382812 27.34375 -15.84375 C 26.195312 -17.300781 25.171875 -18.320312 24.265625 -18.90625 C 23.359375 -19.488281 22.4375 -19.894531 21.5 -20.125 C 20.8125 -20.269531 19.6875 -20.34375 18.125 -20.34375 L 11.09375 -20.34375 L 11.09375 0 Z M 11.09375 -25.59375 L 24.125 -25.59375 C 26.894531 -25.59375 29.0625 -25.878906 30.625 -26.453125 C 32.1875 -27.023438 33.375 -27.941406 34.1875 -29.203125 C 35 -30.460938 35.40625 -31.832031 35.40625 -33.3125 C 35.40625 -35.476562 34.617188 -37.257812 33.046875 -38.65625 C 31.472656 -40.050781 28.988281 -40.75 25.59375 -40.75 L 11.09375 -40.75 Z M 11.09375 -25.59375 "></path>
</symbol>
<symbol overflow="visible" id="glyph0-2">
<path style="stroke:none;" d="M 4.25 -39.34375 L 4.25 -45.8125 L 9.875 -45.8125 L 9.875 -39.34375 Z M 4.25 0 L 4.25 -33.1875 L 9.875 -33.1875 L 9.875 0 Z M 4.25 0 "></path>
</symbol>
<symbol overflow="visible" id="glyph0-3">
<path style="stroke:none;" d="M 3.1875 2.75 L 8.65625 3.5625 C 8.882812 5.25 9.519531 6.476562 10.5625 7.25 C 11.957031 8.289062 13.863281 8.8125 16.28125 8.8125 C 18.882812 8.8125 20.894531 8.289062 22.3125 7.25 C 23.726562 6.207031 24.6875 4.75 25.1875 2.875 C 25.476562 1.726562 25.613281 -0.675781 25.59375 -4.34375 C 23.132812 -1.445312 20.070312 0 16.40625 0 C 11.84375 0 8.3125 -1.644531 5.8125 -4.9375 C 3.3125 -8.226562 2.0625 -12.175781 2.0625 -16.78125 C 2.0625 -19.945312 2.632812 -22.867188 3.78125 -25.546875 C 4.925781 -28.222656 6.585938 -30.289062 8.765625 -31.75 C 10.941406 -33.207031 13.5 -33.9375 16.4375 -33.9375 C 20.351562 -33.9375 23.582031 -32.351562 26.125 -29.1875 L 26.125 -33.1875 L 31.3125 -33.1875 L 31.3125 -4.5 C 31.3125 0.664062 30.785156 4.328125 29.734375 6.484375 C 28.679688 8.640625 27.015625 10.34375 24.734375 11.59375 C 22.453125 12.84375 19.644531 13.46875 16.3125 13.46875 C 12.351562 13.46875 9.15625 12.578125 6.71875 10.796875 C 4.28125 9.015625 3.101562 6.332031 3.1875 2.75 Z M 7.84375 -17.1875 C 7.84375 -12.832031 8.707031 -9.65625 10.4375 -7.65625 C 12.164062 -5.65625 14.332031 -4.65625 16.9375 -4.65625 C 19.519531 -4.65625 21.6875 -5.648438 23.4375 -7.640625 C 25.1875 -9.628906 26.0625 -12.75 26.0625 -17 C 26.0625 -21.0625 25.160156 -24.125 23.359375 -26.1875 C 21.554688 -28.25 19.382812 -29.28125 16.84375 -29.28125 C 14.34375 -29.28125 12.21875 -28.265625 10.46875 -26.234375 C 8.71875 -24.203125 7.84375 -21.1875 7.84375 -17.1875 Z M 7.84375 -17.1875 "></path>
</symbol>
<symbol overflow="visible" id="glyph0-4">
<path style="stroke:none;" d="M 4.21875 0 L 4.21875 -45.8125 L 9.84375 -45.8125 L 9.84375 -29.375 C 12.46875 -32.414062 15.78125 -33.9375 19.78125 -33.9375 C 22.238281 -33.9375 24.375 -33.453125 26.1875 -32.484375 C 28 -31.515625 29.296875 -30.175781 30.078125 -28.46875 C 30.859375 -26.757812 31.25 -24.28125 31.25 -21.03125 L 31.25 0 L 25.625 0 L 25.625 -21.03125 C 25.625 -23.84375 25.015625 -25.890625 23.796875 -27.171875 C 22.578125 -28.453125 20.851562 -29.09375 18.625 -29.09375 C 16.957031 -29.09375 15.390625 -28.660156 13.921875 -27.796875 C 12.453125 -26.929688 11.40625 -25.757812 10.78125 -24.28125 C 10.15625 -22.800781 9.84375 -20.757812 9.84375 -18.15625 L 9.84375 0 Z M 4.21875 0 "></path>
</symbol>
<symbol overflow="visible" id="glyph0-5">
<path style="stroke:none;" d="M 16.5 -5.03125 L 17.3125 -0.0625 C 15.726562 0.269531 14.3125 0.4375 13.0625 0.4375 C 11.019531 0.4375 9.4375 0.113281 8.3125 -0.53125 C 7.1875 -1.175781 6.394531 -2.023438 5.9375 -3.078125 C 5.476562 -4.128906 5.25 -6.34375 5.25 -9.71875 L 5.25 -28.8125 L 1.125 -28.8125 L 1.125 -33.1875 L 5.25 -33.1875 L 5.25 -41.40625 L 10.84375 -44.78125 L 10.84375 -33.1875 L 16.5 -33.1875 L 16.5 -28.8125 L 10.84375 -28.8125 L 10.84375 -9.40625 C 10.84375 -7.800781 10.941406 -6.769531 11.140625 -6.3125 C 11.335938 -5.851562 11.660156 -5.488281 12.109375 -5.21875 C 12.554688 -4.945312 13.195312 -4.8125 14.03125 -4.8125 C 14.65625 -4.8125 15.476562 -4.882812 16.5 -5.03125 Z M 16.5 -5.03125 "></path>
</symbol>
<symbol overflow="visible" id="glyph0-6">
<path style="stroke:none;" d="M 4.6875 0 L 4.6875 -45.8125 L 10.75 -45.8125 L 10.75 -5.40625 L 33.3125 -5.40625 L 33.3125 0 Z M 4.6875 0 "></path>
</symbol>
<symbol overflow="visible" id="glyph0-7">
<path style="stroke:none;" d="M 26.9375 -10.6875 L 32.75 -9.96875 C 31.832031 -6.570312 30.132812 -3.9375 27.65625 -2.0625 C 25.175781 -0.1875 22.007812 0.75 18.15625 0.75 C 13.300781 0.75 9.453125 -0.742188 6.609375 -3.734375 C 3.765625 -6.722656 2.34375 -10.914062 2.34375 -16.3125 C 2.34375 -21.894531 3.78125 -26.226562 6.65625 -29.3125 C 9.53125 -32.394531 13.257812 -33.9375 17.84375 -33.9375 C 22.28125 -33.9375 25.90625 -32.425781 28.71875 -29.40625 C 31.53125 -26.382812 32.9375 -22.132812 32.9375 -16.65625 C 32.9375 -16.320312 32.925781 -15.820312 32.90625 -15.15625 L 8.15625 -15.15625 C 8.363281 -11.507812 9.394531 -8.71875 11.25 -6.78125 C 13.101562 -4.84375 15.414062 -3.875 18.1875 -3.875 C 20.25 -3.875 22.007812 -4.414062 23.46875 -5.5 C 24.925781 -6.582031 26.082031 -8.3125 26.9375 -10.6875 Z M 8.46875 -19.78125 L 27 -19.78125 C 26.75 -22.570312 26.039062 -24.664062 24.875 -26.0625 C 23.082031 -28.226562 20.757812 -29.3125 17.90625 -29.3125 C 15.320312 -29.3125 13.148438 -28.445312 11.390625 -26.71875 C 9.628906 -24.988281 8.65625 -22.675781 8.46875 -19.78125 Z M 8.46875 -19.78125 "></path>
</symbol>
<symbol overflow="visible" id="glyph0-8">
<path style="stroke:none;" d="M 5.5625 0 L 5.5625 -28.8125 L 0.59375 -28.8125 L 0.59375 -33.1875 L 5.5625 -33.1875 L 5.5625 -36.71875 C 5.5625 -38.945312 5.757812 -40.601562 6.15625 -41.6875 C 6.695312 -43.144531 7.648438 -44.328125 9.015625 -45.234375 C 10.378906 -46.140625 12.289062 -46.59375 14.75 -46.59375 C 16.332031 -46.59375 18.082031 -46.40625 20 -46.03125 L 19.15625 -41.125 C 17.988281 -41.332031 16.882812 -41.4375 15.84375 -41.4375 C 14.132812 -41.4375 12.925781 -41.070312 12.21875 -40.34375 C 11.507812 -39.613281 11.15625 -38.25 11.15625 -36.25 L 11.15625 -33.1875 L 17.625 -33.1875 L 17.625 -28.8125 L 11.15625 -28.8125 L 11.15625 0 Z M 5.5625 0 "></path>
</symbol>
<symbol overflow="visible" id="glyph0-9">
<path style="stroke:none;" d="M 4.9375 0 L 4.9375 -45.8125 L 22.21875 -45.8125 C 25.257812 -45.8125 27.582031 -45.664062 29.1875 -45.375 C 31.4375 -45 33.320312 -44.285156 34.84375 -43.234375 C 36.363281 -42.179688 37.585938 -40.707031 38.515625 -38.8125 C 39.441406 -36.914062 39.90625 -34.832031 39.90625 -32.5625 C 39.90625 -28.664062 38.664062 -25.367188 36.1875 -22.671875 C 33.707031 -19.972656 29.226562 -18.625 22.75 -18.625 L 11 -18.625 L 11 0 Z M 11 -24.03125 L 22.84375 -24.03125 C 26.757812 -24.03125 29.539062 -24.757812 31.1875 -26.21875 C 32.832031 -27.675781 33.65625 -29.726562 33.65625 -32.375 C 33.65625 -34.289062 33.171875 -35.929688 32.203125 -37.296875 C 31.234375 -38.660156 29.957031 -39.5625 28.375 -40 C 27.351562 -40.269531 25.46875 -40.40625 22.71875 -40.40625 L 11 -40.40625 Z M 11 -24.03125 "></path>
</symbol>
<symbol overflow="visible" id="glyph0-10">
<path style="stroke:none;" d="M 2.125 -16.59375 C 2.125 -22.738281 3.832031 -27.289062 7.25 -30.25 C 10.101562 -32.707031 13.582031 -33.9375 17.6875 -33.9375 C 22.25 -33.9375 25.976562 -32.441406 28.875 -29.453125 C 31.769531 -26.460938 33.21875 -22.332031 33.21875 -17.0625 C 33.21875 -12.789062 32.578125 -9.429688 31.296875 -6.984375 C 30.015625 -4.535156 28.148438 -2.632812 25.703125 -1.28125 C 23.253906 0.0703125 20.582031 0.75 17.6875 0.75 C 13.039062 0.75 9.285156 -0.738281 6.421875 -3.71875 C 3.554688 -6.695312 2.125 -10.988281 2.125 -16.59375 Z M 7.90625 -16.59375 C 7.90625 -12.34375 8.832031 -9.160156 10.6875 -7.046875 C 12.539062 -4.929688 14.875 -3.875 17.6875 -3.875 C 20.476562 -3.875 22.800781 -4.9375 24.65625 -7.0625 C 26.507812 -9.1875 27.4375 -12.425781 27.4375 -16.78125 C 27.4375 -20.882812 26.503906 -23.992188 24.640625 -26.109375 C 22.773438 -28.222656 20.457031 -29.28125 17.6875 -29.28125 C 14.875 -29.28125 12.539062 -28.226562 10.6875 -26.125 C 8.832031 -24.019531 7.90625 -20.84375 7.90625 -16.59375 Z M 7.90625 -16.59375 "></path>
</symbol>
<symbol overflow="visible" id="glyph0-11">
<path style="stroke:none;" d="M 1.96875 -9.90625 L 7.53125 -10.78125 C 7.84375 -8.550781 8.710938 -6.84375 10.140625 -5.65625 C 11.566406 -4.46875 13.5625 -3.875 16.125 -3.875 C 18.707031 -3.875 20.625 -4.398438 21.875 -5.453125 C 23.125 -6.503906 23.75 -7.738281 23.75 -9.15625 C 23.75 -10.425781 23.195312 -11.425781 22.09375 -12.15625 C 21.320312 -12.65625 19.40625 -13.289062 16.34375 -14.0625 C 12.21875 -15.101562 9.359375 -16.003906 7.765625 -16.765625 C 6.171875 -17.523438 4.960938 -18.578125 4.140625 -19.921875 C 3.316406 -21.265625 2.90625 -22.75 2.90625 -24.375 C 2.90625 -25.851562 3.242188 -27.222656 3.921875 -28.484375 C 4.597656 -29.742188 5.519531 -30.789062 6.6875 -31.625 C 7.5625 -32.269531 8.753906 -32.816406 10.265625 -33.265625 C 11.773438 -33.710938 13.394531 -33.9375 15.125 -33.9375 C 17.726562 -33.9375 20.015625 -33.5625 21.984375 -32.8125 C 23.953125 -32.0625 25.40625 -31.046875 26.34375 -29.765625 C 27.28125 -28.484375 27.925781 -26.769531 28.28125 -24.625 L 22.78125 -23.875 C 22.53125 -25.582031 21.804688 -26.914062 20.609375 -27.875 C 19.410156 -28.832031 17.71875 -29.3125 15.53125 -29.3125 C 12.945312 -29.3125 11.101562 -28.882812 10 -28.03125 C 8.894531 -27.175781 8.34375 -26.175781 8.34375 -25.03125 C 8.34375 -24.300781 8.570312 -23.644531 9.03125 -23.0625 C 9.488281 -22.457031 10.207031 -21.957031 11.1875 -21.5625 C 11.75 -21.351562 13.40625 -20.875 16.15625 -20.125 C 20.132812 -19.0625 22.910156 -18.191406 24.484375 -17.515625 C 26.054688 -16.835938 27.289062 -15.851562 28.1875 -14.5625 C 29.082031 -13.269531 29.53125 -11.664062 29.53125 -9.75 C 29.53125 -7.875 28.984375 -6.109375 27.890625 -4.453125 C 26.796875 -2.796875 25.21875 -1.515625 23.15625 -0.609375 C 21.09375 0.296875 18.757812 0.75 16.15625 0.75 C 11.84375 0.75 8.554688 -0.144531 6.296875 -1.9375 C 4.035156 -3.726562 2.59375 -6.382812 1.96875 -9.90625 Z M 1.96875 -9.90625 "></path>
</symbol>
<symbol overflow="visible" id="glyph0-12">
<path style="stroke:none;" d="M 5.8125 0 L 5.8125 -6.40625 L 12.21875 -6.40625 L 12.21875 0 Z M 5.8125 0 "></path>
</symbol>
<symbol overflow="visible" id="glyph0-13">
<path style="stroke:none;" d="M -0.09375 0 L 17.5 -45.8125 L 24.03125 -45.8125 L 42.78125 0 L 35.875 0 L 30.53125 -13.875 L 11.375 -13.875 L 6.34375 0 Z M 13.125 -18.8125 L 28.65625 -18.8125 L 23.875 -31.5 C 22.414062 -35.351562 21.332031 -38.519531 20.625 -41 C 20.039062 -38.0625 19.21875 -35.144531 18.15625 -32.25 Z M 13.125 -18.8125 "></path>
</symbol>
<symbol overflow="visible" id="glyph0-14">
<path style="stroke:none;" d="M 4.21875 0 L 4.21875 -33.1875 L 9.28125 -33.1875 L 9.28125 -28.46875 C 11.71875 -32.113281 15.238281 -33.9375 19.84375 -33.9375 C 21.84375 -33.9375 23.679688 -33.578125 25.359375 -32.859375 C 27.035156 -32.140625 28.289062 -31.195312 29.125 -30.03125 C 29.957031 -28.863281 30.539062 -27.476562 30.875 -25.875 C 31.082031 -24.832031 31.1875 -23.007812 31.1875 -20.40625 L 31.1875 0 L 25.5625 0 L 25.5625 -20.1875 C 25.5625 -22.476562 25.34375 -24.191406 24.90625 -25.328125 C 24.46875 -26.460938 23.691406 -27.367188 22.578125 -28.046875 C 21.460938 -28.722656 20.15625 -29.0625 18.65625 -29.0625 C 16.257812 -29.0625 14.191406 -28.300781 12.453125 -26.78125 C 10.710938 -25.257812 9.84375 -22.375 9.84375 -18.125 L 9.84375 0 Z M 4.21875 0 "></path>
</symbol>
</g>
</defs>
<g id="surface1">
<path style="fill:none;stroke-width:2;stroke-linecap:butt;stroke-linejoin:miter;stroke:rgb(0%,0%,0%);stroke-opacity:1;stroke-miterlimit:4;" d="M 59.758147 127.701943 C 80.921713 127.701943 102.085279 127.701943 123.248845 127.701943 " transform="matrix(3.779528,0,0,3.779528,-101.939593,-283.953795)"></path>
<path style="fill:none;stroke-width:2;stroke-linecap:butt;stroke-linejoin:miter;stroke:rgb(0%,0%,0%);stroke-opacity:1;stroke-miterlimit:4;" d="M 91.504012 159.446775 C 91.504012 138.283209 91.504012 117.119643 91.504012 95.956077 " transform="matrix(3.779528,0,0,3.779528,-101.939593,-283.953795)"></path>
<g style="fill:rgb(0%,0%,0%);fill-opacity:1;"> <use xlink:href="#glyph0-1" x="166.917969" y="55.260981"></use> <use xlink:href="#glyph0-2" x="213.13229" y="55.260981"></use> <use xlink:href="#glyph0-3" x="227.349809" y="55.260981"></use> <use xlink:href="#glyph0-4" x="262.941591" y="55.260981"></use> <use xlink:href="#glyph0-5" x="298.533372" y="55.260981"></use>
</g>
<g style="fill:rgb(0%,0%,0%);fill-opacity:1;"> <use xlink:href="#glyph0-6" x="188.417969" y="375.260981"></use> <use xlink:href="#glyph0-7" x="224.00975" y="375.260981"></use> <use xlink:href="#glyph0-8" x="259.601532" y="375.260981"></use> <use xlink:href="#glyph0-5" x="277.380813" y="375.260981"></use>
</g>
<g style="fill:rgb(0%,0%,0%);fill-opacity:1;"> <use xlink:href="#glyph0-9" x="365.042969" y="221.229731"></use> <use xlink:href="#glyph0-10" x="407.725055" y="221.229731"></use> <use xlink:href="#glyph0-11" x="443.316837" y="221.229731"></use> <use xlink:href="#glyph0-5" x="475.313638" y="221.229731"></use> <use xlink:href="#glyph0-12" x="493.09292" y="221.229731"></use>
</g>
<g style="fill:rgb(0%,0%,0%);fill-opacity:1;"> <use xlink:href="#glyph0-13" x="9.542969" y="221.385981"></use> <use xlink:href="#glyph0-14" x="52.225055" y="221.385981"></use> <use xlink:href="#glyph0-5" x="87.816837" y="221.385981"></use> <use xlink:href="#glyph0-12" x="105.596118" y="221.385981"></use>
</g>
</g>
</svg>
