<?xml version="1.0"?>

<svg xmlns="http://www.w3.org/2000/svg" xmlns:xlink="http://www.w3.org/1999/xlink" width="163" height="163" viewBox="0 0 163 163" version="1.1">
<defs>
<g>
<symbol overflow="visible" id="glyph0-0">
<path style="stroke:none;" d="M 1.25 0 L 1.25 -6.234375 L 6.234375 -6.234375 L 6.234375 0 Z M 1.40625 -0.15625 L 6.078125 -0.15625 L 6.078125 -6.078125 L 1.40625 -6.078125 Z M 1.40625 -0.15625 "></path>
</symbol>
<symbol overflow="visible" id="glyph0-1">
<path style="stroke:none;" d="M 0.734375 0 L 0.734375 -7.140625 L 2.15625 -7.140625 L 3.84375 -2.078125 C 4 -1.609375 4.113281 -1.257812 4.1875 -1.03125 C 4.269531 -1.289062 4.398438 -1.671875 4.578125 -2.171875 L 6.28125 -7.140625 L 7.546875 -7.140625 L 7.546875 0 L 6.640625 0 L 6.640625 -5.96875 L 4.5625 0 L 3.71875 0 L 1.65625 -6.078125 L 1.65625 0 Z M 0.734375 0 "></path>
</symbol>
<symbol overflow="visible" id="glyph0-2">
<path style="stroke:none;" d="M 4.046875 0 L 4.046875 -0.765625 C 3.640625 -0.179688 3.09375 0.109375 2.40625 0.109375 C 2.101562 0.109375 1.816406 0.0507812 1.546875 -0.0625 C 1.285156 -0.175781 1.085938 -0.320312 0.953125 -0.5 C 0.828125 -0.675781 0.738281 -0.894531 0.6875 -1.15625 C 0.65625 -1.320312 0.640625 -1.59375 0.640625 -1.96875 L 0.640625 -5.171875 L 1.515625 -5.171875 L 1.515625 -2.296875 C 1.515625 -1.835938 1.53125 -1.53125 1.5625 -1.375 C 1.625 -1.144531 1.742188 -0.960938 1.921875 -0.828125 C 2.097656 -0.703125 2.316406 -0.640625 2.578125 -0.640625 C 2.835938 -0.640625 3.082031 -0.707031 3.3125 -0.84375 C 3.550781 -0.976562 3.71875 -1.160156 3.8125 -1.390625 C 3.90625 -1.617188 3.953125 -1.957031 3.953125 -2.40625 L 3.953125 -5.171875 L 4.828125 -5.171875 L 4.828125 0 Z M 4.046875 0 "></path>
</symbol>
<symbol overflow="visible" id="glyph0-3">
<path style="stroke:none;" d="M 0.640625 0 L 0.640625 -7.140625 L 1.515625 -7.140625 L 1.515625 0 Z M 0.640625 0 "></path>
</symbol>
<symbol overflow="visible" id="glyph0-4">
<path style="stroke:none;" d="M 2.5625 -0.78125 L 2.703125 -0.015625 C 2.453125 0.0351562 2.226562 0.0625 2.03125 0.0625 C 1.71875 0.0625 1.472656 0.015625 1.296875 -0.078125 C 1.117188 -0.179688 0.992188 -0.3125 0.921875 -0.46875 C 0.847656 -0.632812 0.8125 -0.984375 0.8125 -1.515625 L 0.8125 -4.484375 L 0.171875 -4.484375 L 0.171875 -5.171875 L 0.8125 -5.171875 L 0.8125 -6.453125 L 1.6875 -6.96875 L 1.6875 -5.171875 L 2.5625 -5.171875 L 2.5625 -4.484375 L 1.6875 -4.484375 L 1.6875 -1.46875 C 1.6875 -1.21875 1.703125 -1.054688 1.734375 -0.984375 C 1.765625 -0.910156 1.8125 -0.851562 1.875 -0.8125 C 1.945312 -0.769531 2.050781 -0.75 2.1875 -0.75 C 2.28125 -0.75 2.40625 -0.757812 2.5625 -0.78125 Z M 2.5625 -0.78125 "></path>
</symbol>
<symbol overflow="visible" id="glyph0-5">
<path style="stroke:none;" d="M 0.65625 -6.125 L 0.65625 -7.140625 L 1.53125 -7.140625 L 1.53125 -6.125 Z M 0.65625 0 L 0.65625 -5.171875 L 1.53125 -5.171875 L 1.53125 0 Z M 0.65625 0 "></path>
</symbol>
<symbol overflow="visible" id="glyph0-6">
<path style="stroke:none;" d="M 0.3125 -2.140625 L 0.3125 -3.015625 L 3.015625 -3.015625 L 3.015625 -2.140625 Z M 0.3125 -2.140625 "></path>
</symbol>
<symbol overflow="visible" id="glyph0-7">
<path style="stroke:none;" d="M 0.859375 0 L 0.859375 -4.484375 L 0.09375 -4.484375 L 0.09375 -5.171875 L 0.859375 -5.171875 L 0.859375 -5.71875 C 0.859375 -6.0625 0.890625 -6.320312 0.953125 -6.5 C 1.035156 -6.71875 1.179688 -6.894531 1.390625 -7.03125 C 1.609375 -7.175781 1.910156 -7.25 2.296875 -7.25 C 2.546875 -7.25 2.816406 -7.222656 3.109375 -7.171875 L 2.984375 -6.40625 C 2.804688 -6.4375 2.632812 -6.453125 2.46875 -6.453125 C 2.195312 -6.453125 2.003906 -6.394531 1.890625 -6.28125 C 1.785156 -6.164062 1.734375 -5.953125 1.734375 -5.640625 L 1.734375 -5.171875 L 2.75 -5.171875 L 2.75 -4.484375 L 1.734375 -4.484375 L 1.734375 0 Z M 0.859375 0 "></path>
</symbol>
<symbol overflow="visible" id="glyph0-8">
<path style="stroke:none;" d="M 0.3125 -1.546875 L 1.171875 -1.671875 C 1.222656 -1.328125 1.359375 -1.0625 1.578125 -0.875 C 1.796875 -0.695312 2.109375 -0.609375 2.515625 -0.609375 C 2.910156 -0.609375 3.207031 -0.6875 3.40625 -0.84375 C 3.601562 -1.007812 3.703125 -1.203125 3.703125 -1.421875 C 3.703125 -1.617188 3.613281 -1.773438 3.4375 -1.890625 C 3.320312 -1.972656 3.023438 -2.070312 2.546875 -2.1875 C 1.898438 -2.351562 1.453125 -2.492188 1.203125 -2.609375 C 0.960938 -2.734375 0.773438 -2.898438 0.640625 -3.109375 C 0.515625 -3.316406 0.453125 -3.546875 0.453125 -3.796875 C 0.453125 -4.023438 0.503906 -4.238281 0.609375 -4.4375 C 0.710938 -4.632812 0.859375 -4.796875 1.046875 -4.921875 C 1.179688 -5.023438 1.363281 -5.109375 1.59375 -5.171875 C 1.832031 -5.242188 2.085938 -5.28125 2.359375 -5.28125 C 2.765625 -5.28125 3.117188 -5.222656 3.421875 -5.109375 C 3.734375 -4.992188 3.960938 -4.835938 4.109375 -4.640625 C 4.253906 -4.441406 4.351562 -4.171875 4.40625 -3.828125 L 3.546875 -3.71875 C 3.503906 -3.988281 3.390625 -4.195312 3.203125 -4.34375 C 3.023438 -4.488281 2.765625 -4.5625 2.421875 -4.5625 C 2.015625 -4.5625 1.722656 -4.492188 1.546875 -4.359375 C 1.378906 -4.234375 1.296875 -4.082031 1.296875 -3.90625 C 1.296875 -3.789062 1.332031 -3.6875 1.40625 -3.59375 C 1.476562 -3.5 1.59375 -3.421875 1.75 -3.359375 C 1.832031 -3.328125 2.085938 -3.253906 2.515625 -3.140625 C 3.140625 -2.972656 3.570312 -2.832031 3.8125 -2.71875 C 4.0625 -2.613281 4.253906 -2.460938 4.390625 -2.265625 C 4.523438 -2.066406 4.59375 -1.816406 4.59375 -1.515625 C 4.59375 -1.222656 4.507812 -0.945312 4.34375 -0.6875 C 4.175781 -0.4375 3.929688 -0.238281 3.609375 -0.09375 C 3.285156 0.0390625 2.921875 0.109375 2.515625 0.109375 C 1.847656 0.109375 1.335938 -0.0234375 0.984375 -0.296875 C 0.628906 -0.578125 0.40625 -0.992188 0.3125 -1.546875 Z M 0.3125 -1.546875 "></path>
</symbol>
<symbol overflow="visible" id="glyph0-9">
<path style="stroke:none;" d="M 0.65625 0 L 0.65625 -7.140625 L 1.53125 -7.140625 L 1.53125 -4.578125 C 1.9375 -5.046875 2.453125 -5.28125 3.078125 -5.28125 C 3.460938 -5.28125 3.796875 -5.203125 4.078125 -5.046875 C 4.359375 -4.898438 4.5625 -4.691406 4.6875 -4.421875 C 4.8125 -4.160156 4.875 -3.78125 4.875 -3.28125 L 4.875 0 L 3.984375 0 L 3.984375 -3.28125 C 3.984375 -3.71875 3.890625 -4.035156 3.703125 -4.234375 C 3.515625 -4.429688 3.25 -4.53125 2.90625 -4.53125 C 2.644531 -4.53125 2.398438 -4.460938 2.171875 -4.328125 C 1.941406 -4.191406 1.773438 -4.007812 1.671875 -3.78125 C 1.578125 -3.550781 1.53125 -3.234375 1.53125 -2.828125 L 1.53125 0 Z M 0.65625 0 "></path>
</symbol>
<symbol overflow="visible" id="glyph0-10">
<path style="stroke:none;" d="M 3.71875 0 L 2.84375 0 L 2.84375 -5.578125 C 2.625 -5.378906 2.34375 -5.175781 2 -4.96875 C 1.664062 -4.769531 1.359375 -4.625 1.078125 -4.53125 L 1.078125 -5.375 C 1.578125 -5.601562 2.007812 -5.878906 2.375 -6.203125 C 2.738281 -6.535156 3 -6.859375 3.15625 -7.171875 L 3.71875 -7.171875 Z M 3.71875 0 "></path>
</symbol>
<symbol overflow="visible" id="glyph0-11">
<path style="stroke:none;" d="M 0.40625 -3.515625 C 0.40625 -4.359375 0.492188 -5.035156 0.671875 -5.546875 C 0.847656 -6.066406 1.109375 -6.46875 1.453125 -6.75 C 1.796875 -7.03125 2.222656 -7.171875 2.734375 -7.171875 C 3.117188 -7.171875 3.457031 -7.09375 3.75 -6.9375 C 4.039062 -6.78125 4.28125 -6.554688 4.46875 -6.265625 C 4.65625 -5.972656 4.800781 -5.617188 4.90625 -5.203125 C 5.007812 -4.785156 5.0625 -4.222656 5.0625 -3.515625 C 5.0625 -2.679688 4.972656 -2.003906 4.796875 -1.484375 C 4.628906 -0.972656 4.375 -0.578125 4.03125 -0.296875 C 3.695312 -0.015625 3.265625 0.125 2.734375 0.125 C 2.046875 0.125 1.507812 -0.125 1.125 -0.625 C 0.644531 -1.21875 0.40625 -2.179688 0.40625 -3.515625 Z M 1.3125 -3.515625 C 1.3125 -2.347656 1.445312 -1.566406 1.71875 -1.171875 C 2 -0.785156 2.335938 -0.59375 2.734375 -0.59375 C 3.140625 -0.59375 3.476562 -0.785156 3.75 -1.171875 C 4.03125 -1.566406 4.171875 -2.347656 4.171875 -3.515625 C 4.171875 -4.691406 4.03125 -5.472656 3.75 -5.859375 C 3.476562 -6.242188 3.140625 -6.4375 2.734375 -6.4375 C 2.328125 -6.4375 2.003906 -6.265625 1.765625 -5.921875 C 1.460938 -5.492188 1.3125 -4.691406 1.3125 -3.515625 Z M 1.3125 -3.515625 "></path>
</symbol>
<symbol overflow="visible" id="glyph1-0">
<path style="stroke:none;" d="M 0 -1.25 L -6.234375 -1.25 L -6.234375 -6.234375 L 0 -6.234375 Z M -0.15625 -1.40625 L -0.15625 -6.078125 L -6.078125 -6.078125 L -6.078125 -1.40625 Z M -0.15625 -1.40625 "></path>
</symbol>
<symbol overflow="visible" id="glyph1-1">
<path style="stroke:none;" d="M 0 -0.765625 L -7.140625 -0.765625 L -7.140625 -3.453125 C -7.140625 -3.929688 -7.113281 -4.296875 -7.0625 -4.546875 C -7.007812 -4.898438 -6.898438 -5.191406 -6.734375 -5.421875 C -6.566406 -5.660156 -6.335938 -5.851562 -6.046875 -6 C -5.753906 -6.144531 -5.429688 -6.21875 -5.078125 -6.21875 C -4.460938 -6.21875 -3.945312 -6.023438 -3.53125 -5.640625 C -3.113281 -5.253906 -2.90625 -4.554688 -2.90625 -3.546875 L -2.90625 -1.71875 L 0 -1.71875 Z M -3.75 -1.71875 L -3.75 -3.5625 C -3.75 -4.164062 -3.859375 -4.597656 -4.078125 -4.859375 C -4.304688 -5.117188 -4.628906 -5.25 -5.046875 -5.25 C -5.335938 -5.25 -5.585938 -5.171875 -5.796875 -5.015625 C -6.015625 -4.867188 -6.160156 -4.671875 -6.234375 -4.421875 C -6.273438 -4.265625 -6.296875 -3.96875 -6.296875 -3.53125 L -6.296875 -1.71875 Z M -3.75 -1.71875 "></path>
</symbol>
<symbol overflow="visible" id="glyph1-2">
<path style="stroke:none;" d="M -2.5 -5.859375 L -2.265625 -6.8125 C -1.484375 -6.613281 -0.890625 -6.253906 -0.484375 -5.734375 C -0.078125 -5.222656 0.125 -4.59375 0.125 -3.84375 C 0.125 -3.082031 -0.03125 -2.457031 -0.34375 -1.96875 C -0.65625 -1.488281 -1.109375 -1.125 -1.703125 -0.875 C -2.296875 -0.625 -2.9375 -0.5 -3.625 -0.5 C -4.363281 -0.5 -5.007812 -0.640625 -5.5625 -0.921875 C -6.113281 -1.203125 -6.53125 -1.601562 -6.8125 -2.125 C -7.101562 -2.65625 -7.25 -3.234375 -7.25 -3.859375 C -7.25 -4.578125 -7.066406 -5.175781 -6.703125 -5.65625 C -6.347656 -6.144531 -5.835938 -6.488281 -5.171875 -6.6875 L -4.953125 -5.75 C -5.472656 -5.582031 -5.851562 -5.34375 -6.09375 -5.03125 C -6.332031 -4.71875 -6.453125 -4.320312 -6.453125 -3.84375 C -6.453125 -3.289062 -6.316406 -2.832031 -6.046875 -2.46875 C -5.785156 -2.101562 -5.429688 -1.84375 -4.984375 -1.6875 C -4.546875 -1.539062 -4.09375 -1.46875 -3.625 -1.46875 C -3.019531 -1.46875 -2.488281 -1.554688 -2.03125 -1.734375 C -1.582031 -1.910156 -1.242188 -2.1875 -1.015625 -2.5625 C -0.796875 -2.9375 -0.6875 -3.335938 -0.6875 -3.765625 C -0.6875 -4.296875 -0.835938 -4.742188 -1.140625 -5.109375 C -1.441406 -5.484375 -1.894531 -5.734375 -2.5 -5.859375 Z M -2.5 -5.859375 "></path>
</symbol>
<symbol overflow="visible" id="glyph1-3">
<path style="stroke:none;" d="M 0 -3.71875 L 0 -2.84375 L -5.578125 -2.84375 C -5.378906 -2.625 -5.175781 -2.34375 -4.96875 -2 C -4.769531 -1.664062 -4.625 -1.359375 -4.53125 -1.078125 L -5.375 -1.078125 C -5.601562 -1.578125 -5.878906 -2.007812 -6.203125 -2.375 C -6.535156 -2.738281 -6.859375 -3 -7.171875 -3.15625 L -7.171875 -3.71875 Z M 0 -3.71875 "></path>
</symbol>
<symbol overflow="visible" id="glyph1-4">
<path style="stroke:none;" d=""></path>
</symbol>
<symbol overflow="visible" id="glyph1-5">
<path style="stroke:none;" d="M -1.890625 -4.03125 L -1.78125 -4.890625 C -1.1875 -4.796875 -0.722656 -4.554688 -0.390625 -4.171875 C -0.0546875 -3.785156 0.109375 -3.304688 0.109375 -2.734375 C 0.109375 -2.023438 -0.117188 -1.457031 -0.578125 -1.03125 C -1.035156 -0.601562 -1.695312 -0.390625 -2.5625 -0.390625 C -3.125 -0.390625 -3.613281 -0.476562 -4.03125 -0.65625 C -4.445312 -0.84375 -4.757812 -1.125 -4.96875 -1.5 C -5.175781 -1.882812 -5.28125 -2.300781 -5.28125 -2.75 C -5.28125 -3.3125 -5.140625 -3.769531 -4.859375 -4.125 C -4.578125 -4.476562 -4.175781 -4.707031 -3.65625 -4.8125 L -3.515625 -3.953125 C -3.867188 -3.867188 -4.128906 -3.722656 -4.296875 -3.515625 C -4.472656 -3.316406 -4.5625 -3.070312 -4.5625 -2.78125 C -4.5625 -2.34375 -4.398438 -1.984375 -4.078125 -1.703125 C -3.765625 -1.429688 -3.269531 -1.296875 -2.59375 -1.296875 C -1.894531 -1.296875 -1.390625 -1.425781 -1.078125 -1.6875 C -0.765625 -1.957031 -0.609375 -2.304688 -0.609375 -2.734375 C -0.609375 -3.078125 -0.710938 -3.363281 -0.921875 -3.59375 C -1.128906 -3.820312 -1.453125 -3.96875 -1.890625 -4.03125 Z M -1.890625 -4.03125 "></path>
</symbol>
<symbol overflow="visible" id="glyph1-6">
<path style="stroke:none;" d="M -2.578125 -0.328125 C -3.535156 -0.328125 -4.25 -0.59375 -4.71875 -1.125 C -5.09375 -1.570312 -5.28125 -2.113281 -5.28125 -2.75 C -5.28125 -3.46875 -5.046875 -4.050781 -4.578125 -4.5 C -4.117188 -4.945312 -3.476562 -5.171875 -2.65625 -5.171875 C -1.988281 -5.171875 -1.460938 -5.070312 -1.078125 -4.875 C -0.703125 -4.675781 -0.410156 -4.382812 -0.203125 -4 C 0.00390625 -3.625 0.109375 -3.207031 0.109375 -2.75 C 0.109375 -2.03125 -0.117188 -1.445312 -0.578125 -1 C -1.046875 -0.550781 -1.710938 -0.328125 -2.578125 -0.328125 Z M -2.578125 -1.234375 C -1.921875 -1.234375 -1.425781 -1.375 -1.09375 -1.65625 C -0.769531 -1.945312 -0.609375 -2.3125 -0.609375 -2.75 C -0.609375 -3.1875 -0.769531 -3.550781 -1.09375 -3.84375 C -1.425781 -4.132812 -1.929688 -4.28125 -2.609375 -4.28125 C -3.253906 -4.28125 -3.738281 -4.132812 -4.0625 -3.84375 C -4.394531 -3.550781 -4.5625 -3.1875 -4.5625 -2.75 C -4.5625 -2.3125 -4.394531 -1.945312 -4.0625 -1.65625 C -3.738281 -1.375 -3.242188 -1.234375 -2.578125 -1.234375 Z M -2.578125 -1.234375 "></path>
</symbol>
<symbol overflow="visible" id="glyph1-7">
<path style="stroke:none;" d="M -1.671875 -4.203125 L -1.546875 -5.09375 C -1.023438 -4.957031 -0.617188 -4.695312 -0.328125 -4.3125 C -0.0351562 -3.925781 0.109375 -3.429688 0.109375 -2.828125 C 0.109375 -2.066406 -0.117188 -1.460938 -0.578125 -1.015625 C -1.046875 -0.578125 -1.703125 -0.359375 -2.546875 -0.359375 C -3.410156 -0.359375 -4.082031 -0.582031 -4.5625 -1.03125 C -5.039062 -1.476562 -5.28125 -2.0625 -5.28125 -2.78125 C -5.28125 -3.46875 -5.046875 -4.03125 -4.578125 -4.46875 C -4.109375 -4.90625 -3.445312 -5.125 -2.59375 -5.125 C -2.539062 -5.125 -2.460938 -5.125 -2.359375 -5.125 L -2.359375 -1.265625 C -1.796875 -1.296875 -1.363281 -1.457031 -1.0625 -1.75 C -0.757812 -2.039062 -0.609375 -2.398438 -0.609375 -2.828125 C -0.609375 -3.148438 -0.691406 -3.425781 -0.859375 -3.65625 C -1.023438 -3.882812 -1.296875 -4.066406 -1.671875 -4.203125 Z M -3.078125 -1.3125 L -3.078125 -4.203125 C -3.515625 -4.160156 -3.84375 -4.050781 -4.0625 -3.875 C -4.394531 -3.59375 -4.5625 -3.234375 -4.5625 -2.796875 C -4.5625 -2.390625 -4.425781 -2.046875 -4.15625 -1.765625 C -3.882812 -1.492188 -3.523438 -1.34375 -3.078125 -1.3125 Z M -3.078125 -1.3125 "></path>
</symbol>
<symbol overflow="visible" id="glyph1-8">
<path style="stroke:none;" d="M 0 -0.859375 L -4.484375 -0.859375 L -4.484375 -0.09375 L -5.171875 -0.09375 L -5.171875 -0.859375 L -5.71875 -0.859375 C -6.0625 -0.859375 -6.320312 -0.890625 -6.5 -0.953125 C -6.71875 -1.035156 -6.894531 -1.179688 -7.03125 -1.390625 C -7.175781 -1.609375 -7.25 -1.910156 -7.25 -2.296875 C -7.25 -2.546875 -7.222656 -2.816406 -7.171875 -3.109375 L -6.40625 -2.984375 C -6.4375 -2.804688 -6.453125 -2.632812 -6.453125 -2.46875 C -6.453125 -2.195312 -6.394531 -2.003906 -6.28125 -1.890625 C -6.164062 -1.785156 -5.953125 -1.734375 -5.640625 -1.734375 L -5.171875 -1.734375 L -5.171875 -2.75 L -4.484375 -2.75 L -4.484375 -1.734375 L 0 -1.734375 Z M 0 -0.859375 "></path>
</symbol>
<symbol overflow="visible" id="glyph1-9">
<path style="stroke:none;" d="M -6.125 -0.65625 L -7.140625 -0.65625 L -7.140625 -1.53125 L -6.125 -1.53125 Z M 0 -0.65625 L -5.171875 -0.65625 L -5.171875 -1.53125 L 0 -1.53125 Z M 0 -0.65625 "></path>
</symbol>
<symbol overflow="visible" id="glyph1-10">
<path style="stroke:none;" d="M 0 -0.65625 L -5.171875 -0.65625 L -5.171875 -1.453125 L -4.4375 -1.453125 C -5 -1.828125 -5.28125 -2.375 -5.28125 -3.09375 C -5.28125 -3.40625 -5.222656 -3.691406 -5.109375 -3.953125 C -5.003906 -4.210938 -4.859375 -4.40625 -4.671875 -4.53125 C -4.492188 -4.664062 -4.28125 -4.757812 -4.03125 -4.8125 C -3.863281 -4.84375 -3.578125 -4.859375 -3.171875 -4.859375 L 0 -4.859375 L 0 -3.984375 L -3.140625 -3.984375 C -3.503906 -3.984375 -3.769531 -3.945312 -3.9375 -3.875 C -4.113281 -3.8125 -4.253906 -3.691406 -4.359375 -3.515625 C -4.472656 -3.335938 -4.53125 -3.132812 -4.53125 -2.90625 C -4.53125 -2.53125 -4.410156 -2.207031 -4.171875 -1.9375 C -3.929688 -1.664062 -3.484375 -1.53125 -2.828125 -1.53125 L 0 -1.53125 Z M 0 -0.65625 "></path>
</symbol>
<symbol overflow="visible" id="glyph1-11">
<path style="stroke:none;" d="M -0.78125 -2.5625 L -0.015625 -2.703125 C 0.0351562 -2.453125 0.0625 -2.226562 0.0625 -2.03125 C 0.0625 -1.71875 0.015625 -1.472656 -0.078125 -1.296875 C -0.179688 -1.117188 -0.3125 -0.992188 -0.46875 -0.921875 C -0.632812 -0.847656 -0.984375 -0.8125 -1.515625 -0.8125 L -4.484375 -0.8125 L -4.484375 -0.171875 L -5.171875 -0.171875 L -5.171875 -0.8125 L -6.453125 -0.8125 L -6.96875 -1.6875 L -5.171875 -1.6875 L -5.171875 -2.5625 L -4.484375 -2.5625 L -4.484375 -1.6875 L -1.46875 -1.6875 C -1.21875 -1.6875 -1.054688 -1.703125 -0.984375 -1.734375 C -0.910156 -1.765625 -0.851562 -1.8125 -0.8125 -1.875 C -0.769531 -1.945312 -0.75 -2.050781 -0.75 -2.1875 C -0.75 -2.28125 -0.757812 -2.40625 -0.78125 -2.5625 Z M -0.78125 -2.5625 "></path>
</symbol>
</g>
<filter id="alpha" filterUnits="objectBoundingBox" x="0%" y="0%" width="100%" height="100%"> <feColorMatrix type="matrix" in="SourceGraphic" values="0 0 0 0 1 0 0 0 0 1 0 0 0 0 1 0 0 0 1 0"></feColorMatrix>
</filter>
<mask id="mask0"> <g filter="url(#alpha)">
<rect x="0" y="0" width="163" height="163" style="fill:rgb(0%,0%,0%);fill-opacity:0.994009;stroke:none;"></rect> </g>
</mask>
<clipPath id="clip1"> <rect x="0" y="0" width="163" height="163"></rect>
</clipPath>
<g id="surface5" clip-path="url(#clip1)">
<g style="fill:rgb(0%,0%,0%);fill-opacity:1;"> <use xlink:href="#glyph0-1" x="114.941406" y="16.516751"></use> <use xlink:href="#glyph0-2" x="123.245114" y="16.516751"></use> <use xlink:href="#glyph0-3" x="128.787821" y="16.516751"></use> <use xlink:href="#glyph0-4" x="131.000072" y="16.516751"></use> <use xlink:href="#glyph0-5" x="133.767975" y="16.516751"></use> <use xlink:href="#glyph0-6" x="135.980226" y="16.516751"></use> <use xlink:href="#glyph0-7" x="139.300328" y="16.516751"></use> <use xlink:href="#glyph0-5" x="142.068231" y="16.516751"></use> <use xlink:href="#glyph0-8" x="144.280482" y="16.516751"></use> <use xlink:href="#glyph0-9" x="149.264087" y="16.516751"></use>
</g>
</g>
<mask id="mask1"> <g filter="url(#alpha)">
<rect x="0" y="0" width="163" height="163" style="fill:rgb(0%,0%,0%);fill-opacity:0.994009;stroke:none;"></rect> </g>
</mask>
<clipPath id="clip2"> <rect x="0" y="0" width="163" height="163"></rect>
</clipPath>
<g id="surface8" clip-path="url(#clip2)">
<path style=" stroke:none;fill-rule:nonzero;fill:rgb(92.54902%,92.54902%,92.54902%);fill-opacity:1;" d="M 58.6875 19.5 L 79.890625 19.5 L 79.890625 139.65625 L 58.6875 139.65625 Z M 58.6875 19.5 "></path>
</g>
<mask id="mask2"> <g filter="url(#alpha)">
<rect x="0" y="0" width="163" height="163" style="fill:rgb(0%,0%,0%);fill-opacity:0.994009;stroke:none;"></rect> </g>
</mask>
<clipPath id="clip3"> <rect x="0" y="0" width="163" height="163"></rect>
</clipPath>
<g id="surface11" clip-path="url(#clip3)">
<path style=" stroke:none;fill-rule:nonzero;fill:rgb(92.54902%,92.54902%,92.54902%);fill-opacity:1;" d="M 83.445312 19.5 L 104.648438 19.5 L 104.648438 139.65625 L 83.445312 139.65625 Z M 83.445312 19.5 "></path>
</g>
<mask id="mask3"> <g filter="url(#alpha)">
<rect x="0" y="0" width="163" height="163" style="fill:rgb(0%,0%,0%);fill-opacity:0.994009;stroke:none;"></rect> </g>
</mask>
<clipPath id="clip4"> <rect x="0" y="0" width="163" height="163"></rect>
</clipPath>
<g id="surface14" clip-path="url(#clip4)">
<path style=" stroke:none;fill-rule:nonzero;fill:rgb(92.54902%,92.54902%,92.54902%);fill-opacity:1;" d="M 108.203125 19.5 L 129.40625 19.5 L 129.40625 139.65625 L 108.203125 139.65625 Z M 108.203125 19.5 "></path>
</g>
<mask id="mask4"> <g filter="url(#alpha)">
<rect x="0" y="0" width="163" height="163" style="fill:rgb(0%,0%,0%);fill-opacity:0.994009;stroke:none;"></rect> </g>
</mask>
<clipPath id="clip5"> <rect x="0" y="0" width="163" height="163"></rect>
</clipPath>
<g id="surface17" clip-path="url(#clip5)">
<path style=" stroke:none;fill-rule:nonzero;fill:rgb(92.54902%,92.54902%,92.54902%);fill-opacity:1;" d="M 132.960938 19.5 L 154.164062 19.5 L 154.164062 139.65625 L 132.960938 139.65625 Z M 132.960938 19.5 "></path>
</g>
<mask id="mask5"> <g filter="url(#alpha)">
<rect x="0" y="0" width="163" height="163" style="fill:rgb(0%,0%,0%);fill-opacity:0.994009;stroke:none;"></rect> </g>
</mask>
<clipPath id="clip6"> <rect x="0" y="0" width="163" height="163"></rect>
</clipPath>
<g id="surface20" clip-path="url(#clip6)">
<path style=" stroke:none;fill-rule:nonzero;fill:rgb(92.54902%,92.54902%,92.54902%);fill-opacity:1;" d="M 33.929688 19.5 L 55.132812 19.5 L 55.132812 139.65625 L 33.929688 139.65625 Z M 33.929688 19.5 "></path>
</g>
<mask id="mask6"> <g filter="url(#alpha)">
<rect x="0" y="0" width="163" height="163" style="fill:rgb(0%,0%,0%);fill-opacity:0.994009;stroke:none;"></rect> </g>
</mask>
<clipPath id="clip7"> <rect x="0" y="0" width="163" height="163"></rect>
</clipPath>
<g id="surface23" clip-path="url(#clip7)">
<path style="fill:none;stroke-width:0.0488458;stroke-linecap:butt;stroke-linejoin:round;stroke:rgb(14.901961%,14.901961%,14.901961%);stroke-opacity:0.14902;stroke-miterlimit:10;" d="M 127.147468 54.673841 L 93.195694 54.673841 " transform="matrix(3.53408,0,0,3.53408,-295.743846,-113.885788)"></path>
</g>
<mask id="mask7"> <g filter="url(#alpha)">
<rect x="0" y="0" width="163" height="163" style="fill:rgb(0%,0%,0%);fill-opacity:0.994009;stroke:none;"></rect> </g>
</mask>
<clipPath id="clip8"> <rect x="0" y="0" width="163" height="163"></rect>
</clipPath>
<g id="surface26" clip-path="url(#clip8)">
<path style="fill:none;stroke-width:0.3;stroke-linecap:square;stroke-linejoin:round;stroke:rgb(14.901961%,14.901961%,14.901961%);stroke-opacity:1;stroke-miterlimit:5.2;" d="M 93.195694 54.673841 L 93.535024 54.673841 " transform="matrix(3.53408,0,0,3.53408,-295.743846,-113.885788)"></path>
</g>
<mask id="mask8"> <g filter="url(#alpha)">
<rect x="0" y="0" width="163" height="163" style="fill:rgb(0%,0%,0%);fill-opacity:0.994009;stroke:none;"></rect> </g>
</mask>
<clipPath id="clip9"> <rect x="0" y="0" width="163" height="163"></rect>
</clipPath>
<g id="surface29" clip-path="url(#clip9)">
<path style=" stroke:none;fill-rule:nonzero;fill:rgb(90.196079%,9.803922%,29.411766%);fill-opacity:1;" d="M 35.371094 79.335938 L 35.371094 56.277344 L 34.496094 56.277344 L 34.496094 79.335938 Z M 59.171875 79.335938 L 59.171875 111.652344 L 60.050781 111.652344 L 60.050781 79.335938 Z M 84.726562 79.335938 L 84.726562 43.597656 L 83.847656 43.597656 L 83.847656 79.335938 Z M 109.402344 79.335938 L 109.402344 70.273438 L 108.527344 70.273438 L 108.527344 79.335938 Z M 134.082031 79.335938 L 134.082031 53.578125 L 133.203125 53.578125 L 133.203125 79.335938 Z M 134.082031 79.335938 "></path>
</g>
<mask id="mask9"> <g filter="url(#alpha)">
<rect x="0" y="0" width="163" height="163" style="fill:rgb(0%,0%,0%);fill-opacity:0.994009;stroke:none;"></rect> </g>
</mask>
<clipPath id="clip10"> <rect x="0" y="0" width="163" height="163"></rect>
</clipPath>
<g id="surface32" clip-path="url(#clip10)">
<path style=" stroke:none;fill-rule:nonzero;fill:rgb(23.529412%,70.588237%,29.411766%);fill-opacity:1;" d="M 35.59375 79.335938 L 35.59375 105.933594 L 36.46875 105.933594 L 36.46875 79.335938 Z M 60.269531 79.335938 L 60.269531 96.230469 L 61.148438 96.230469 L 61.148438 79.335938 Z M 85.824219 79.335938 L 85.824219 43.53125 L 84.945312 43.53125 L 84.945312 79.335938 Z M 110.5 79.335938 L 110.5 53.808594 L 109.625 53.808594 L 109.625 79.335938 Z M 135.179688 79.335938 L 135.179688 53.40625 L 134.300781 53.40625 L 134.300781 79.335938 Z M 135.179688 79.335938 "></path>
</g>
<mask id="mask10"> <g filter="url(#alpha)">
<rect x="0" y="0" width="163" height="163" style="fill:rgb(0%,0%,0%);fill-opacity:0.994009;stroke:none;"></rect> </g>
</mask>
<clipPath id="clip11"> <rect x="0" y="0" width="163" height="163"></rect>
</clipPath>
<g id="surface35" clip-path="url(#clip11)">
<path style=" stroke:none;fill-rule:nonzero;fill:rgb(100%,88.235295%,9.803922%);fill-opacity:1;" d="M 37.566406 79.335938 L 37.566406 51.484375 L 36.6875 51.484375 L 36.6875 79.335938 Z M 61.367188 79.335938 L 61.367188 107.710938 L 62.242188 107.710938 L 62.242188 79.335938 Z M 86.921875 79.335938 L 86.921875 55.039062 L 86.042969 55.039062 L 86.042969 79.335938 Z M 111.597656 79.335938 L 111.597656 49.769531 L 110.71875 49.769531 L 110.71875 79.335938 Z M 136.273438 79.335938 L 136.273438 55.804688 L 135.398438 55.804688 L 135.398438 79.335938 Z M 136.273438 79.335938 "></path>
</g>
<mask id="mask11"> <g filter="url(#alpha)">
<rect x="0" y="0" width="163" height="163" style="fill:rgb(0%,0%,0%);fill-opacity:0.994009;stroke:none;"></rect> </g>
</mask>
<clipPath id="clip12"> <rect x="0" y="0" width="163" height="163"></rect>
</clipPath>
<g id="surface38" clip-path="url(#clip12)">
<path style=" stroke:none;fill-rule:nonzero;fill:rgb(0%,50.980395%,78.431374%);fill-opacity:1;" d="M 37.785156 79.335938 L 37.785156 94.714844 L 38.664062 94.714844 L 38.664062 79.335938 Z M 62.460938 79.335938 L 62.460938 79.960938 L 63.339844 79.960938 L 63.339844 79.335938 Z M 88.015625 79.335938 L 88.015625 47.539062 L 87.140625 47.539062 L 87.140625 79.335938 Z M 112.695312 79.335938 L 112.695312 51.035156 L 111.816406 51.035156 L 111.816406 79.335938 Z M 137.371094 79.335938 L 137.371094 39.964844 L 136.496094 39.964844 L 136.496094 79.335938 Z M 137.371094 79.335938 "></path>
</g>
<mask id="mask12"> <g filter="url(#alpha)">
<rect x="0" y="0" width="163" height="163" style="fill:rgb(0%,0%,0%);fill-opacity:0.994009;stroke:none;"></rect> </g>
</mask>
<clipPath id="clip13"> <rect x="0" y="0" width="163" height="163"></rect>
</clipPath>
<g id="surface41" clip-path="url(#clip13)">
<path style=" stroke:none;fill-rule:nonzero;fill:rgb(96.078432%,50.980395%,18.82353%);fill-opacity:1;" d="M 38.882812 79.335938 L 38.882812 111.480469 L 39.757812 111.480469 L 39.757812 79.335938 Z M 63.558594 79.335938 L 63.558594 93.050781 L 64.4375 93.050781 L 64.4375 79.335938 Z M 89.113281 79.335938 L 89.113281 44.992188 L 88.238281 44.992188 L 88.238281 79.335938 Z M 113.792969 79.335938 L 113.792969 75.902344 L 112.914062 75.902344 L 112.914062 79.335938 Z M 138.46875 79.335938 L 138.46875 44.890625 L 137.589844 44.890625 L 137.589844 79.335938 Z M 138.46875 79.335938 "></path>
</g>
<mask id="mask13"> <g filter="url(#alpha)">
<rect x="0" y="0" width="163" height="163" style="fill:rgb(0%,0%,0%);fill-opacity:0.994009;stroke:none;"></rect> </g>
</mask>
<clipPath id="clip14"> <rect x="0" y="0" width="163" height="163"></rect>
</clipPath>
<g id="surface44" clip-path="url(#clip14)">
<path style=" stroke:none;fill-rule:nonzero;fill:rgb(56.862748%,11.764706%,70.588237%);fill-opacity:1;" d="M 39.980469 79.335938 L 39.980469 106.777344 L 40.855469 106.777344 L 40.855469 79.335938 Z M 64.65625 79.335938 L 64.65625 81.882812 L 65.535156 81.882812 L 65.535156 79.335938 Z M 90.210938 79.335938 L 90.210938 44.121094 L 89.332031 44.121094 L 89.332031 79.335938 Z M 114.886719 79.335938 L 114.886719 47.144531 L 114.011719 47.144531 L 114.011719 79.335938 Z M 139.566406 79.335938 L 139.566406 55.601562 L 138.6875 55.601562 L 138.6875 79.335938 Z M 139.566406 79.335938 "></path>
</g>
<mask id="mask14"> <g filter="url(#alpha)">
<rect x="0" y="0" width="163" height="163" style="fill:rgb(0%,0%,0%);fill-opacity:0.994009;stroke:none;"></rect> </g>
</mask>
<clipPath id="clip15"> <rect x="0" y="0" width="163" height="163"></rect>
</clipPath>
<g id="surface47" clip-path="url(#clip15)">
<path style=" stroke:none;fill-rule:nonzero;fill:rgb(27.450982%,94.117647%,94.117647%);fill-opacity:1;" d="M 41.074219 79.335938 L 41.074219 103.789062 L 41.953125 103.789062 L 41.953125 79.335938 Z M 65.753906 79.335938 L 65.753906 107.636719 L 66.628906 107.636719 L 66.628906 79.335938 Z M 91.308594 79.335938 L 91.308594 50.84375 L 90.429688 50.84375 L 90.429688 79.335938 Z M 115.984375 79.335938 L 115.984375 56.960938 L 115.105469 56.960938 L 115.105469 79.335938 Z M 140.660156 79.335938 L 140.660156 49.539062 L 139.785156 49.539062 L 139.785156 79.335938 Z M 140.660156 79.335938 "></path>
</g>
<mask id="mask15"> <g filter="url(#alpha)">
<rect x="0" y="0" width="163" height="163" style="fill:rgb(0%,0%,0%);fill-opacity:0.994009;stroke:none;"></rect> </g>
</mask>
<clipPath id="clip16"> <rect x="0" y="0" width="163" height="163"></rect>
</clipPath>
<g id="surface50" clip-path="url(#clip16)">
<path style=" stroke:none;fill-rule:nonzero;fill:rgb(94.117647%,19.607843%,90.196079%);fill-opacity:1;" d="M 43.050781 79.335938 L 43.050781 51.082031 L 42.171875 51.082031 L 42.171875 79.335938 Z M 66.851562 79.335938 L 66.851562 107.265625 L 67.726562 107.265625 L 67.726562 79.335938 Z M 92.40625 79.335938 L 92.40625 69.433594 L 91.527344 69.433594 L 91.527344 79.335938 Z M 116.203125 79.335938 L 116.203125 111.367188 L 117.082031 111.367188 L 117.082031 79.335938 Z M 140.882812 79.335938 L 140.882812 109.28125 L 141.757812 109.28125 L 141.757812 79.335938 Z M 140.882812 79.335938 "></path>
</g>
<mask id="mask16"> <g filter="url(#alpha)">
<rect x="0" y="0" width="163" height="163" style="fill:rgb(0%,0%,0%);fill-opacity:0.994009;stroke:none;"></rect> </g>
</mask>
<clipPath id="clip17"> <rect x="0" y="0" width="163" height="163"></rect>
</clipPath>
<g id="surface53" clip-path="url(#clip17)">
<path style=" stroke:none;fill-rule:nonzero;fill:rgb(82.352942%,96.078432%,23.529412%);fill-opacity:1;" d="M 43.269531 79.335938 L 43.269531 91.746094 L 44.148438 91.746094 L 44.148438 79.335938 Z M 67.945312 79.335938 L 67.945312 115.652344 L 68.824219 115.652344 L 68.824219 79.335938 Z M 93.5 79.335938 L 93.5 57.269531 L 92.625 57.269531 L 92.625 79.335938 Z M 118.179688 79.335938 L 118.179688 67.359375 L 117.300781 67.359375 L 117.300781 79.335938 Z M 142.855469 79.335938 L 142.855469 40.660156 L 141.976562 40.660156 L 141.976562 79.335938 Z M 142.855469 79.335938 "></path>
</g>
<mask id="mask17"> <g filter="url(#alpha)">
<rect x="0" y="0" width="163" height="163" style="fill:rgb(0%,0%,0%);fill-opacity:0.994009;stroke:none;"></rect> </g>
</mask>
<clipPath id="clip18"> <rect x="0" y="0" width="163" height="163"></rect>
</clipPath>
<g id="surface56" clip-path="url(#clip18)">
<path style=" stroke:none;fill-rule:nonzero;fill:rgb(98.039216%,74.509805%,83.137256%);fill-opacity:1;" d="M 45.242188 79.335938 L 45.242188 73.496094 L 44.367188 73.496094 L 44.367188 79.335938 Z M 69.042969 79.335938 L 69.042969 103.285156 L 69.921875 103.285156 L 69.921875 79.335938 Z M 94.597656 79.335938 L 94.597656 39.390625 L 93.71875 39.390625 L 93.71875 79.335938 Z M 119.273438 79.335938 L 119.273438 51.796875 L 118.398438 51.796875 L 118.398438 79.335938 Z M 143.953125 79.335938 L 143.953125 54.09375 L 143.074219 54.09375 L 143.074219 79.335938 Z M 143.953125 79.335938 "></path>
</g>
<mask id="mask18"> <g filter="url(#alpha)">
<rect x="0" y="0" width="163" height="163" style="fill:rgb(0%,0%,0%);fill-opacity:0.994009;stroke:none;"></rect> </g>
</mask>
<clipPath id="clip19"> <rect x="0" y="0" width="163" height="163"></rect>
</clipPath>
<g id="surface59" clip-path="url(#clip19)">
<path style=" stroke:none;fill-rule:nonzero;fill:rgb(0%,50.196081%,50.196081%);fill-opacity:1;" d="M 45.460938 79.335938 L 45.460938 111.5625 L 46.339844 111.5625 L 46.339844 79.335938 Z M 70.140625 79.335938 L 70.140625 110.238281 L 71.015625 110.238281 L 71.015625 79.335938 Z M 95.695312 79.335938 L 95.695312 45.753906 L 94.816406 45.753906 L 94.816406 79.335938 Z M 120.371094 79.335938 L 120.371094 76.082031 L 119.496094 76.082031 L 119.496094 79.335938 Z M 145.050781 79.335938 L 145.050781 57.722656 L 144.171875 57.722656 L 144.171875 79.335938 Z M 145.050781 79.335938 "></path>
</g>
<mask id="mask19"> <g filter="url(#alpha)">
<rect x="0" y="0" width="163" height="163" style="fill:rgb(0%,0%,0%);fill-opacity:0.994009;stroke:none;"></rect> </g>
</mask>
<clipPath id="clip20"> <rect x="0" y="0" width="163" height="163"></rect>
</clipPath>
<g id="surface62" clip-path="url(#clip20)">
<path style=" stroke:none;fill-rule:nonzero;fill:rgb(86.274511%,74.509805%,100%);fill-opacity:1;" d="M 46.558594 79.335938 L 46.558594 88.601562 L 47.4375 88.601562 L 47.4375 79.335938 Z M 71.238281 79.335938 L 71.238281 119.519531 L 72.113281 119.519531 L 72.113281 79.335938 Z M 96.792969 79.335938 L 96.792969 41.921875 L 95.914062 41.921875 L 95.914062 79.335938 Z M 120.589844 79.335938 L 120.589844 86.199219 L 121.46875 86.199219 L 121.46875 79.335938 Z M 146.144531 79.335938 L 146.144531 58.082031 L 145.269531 58.082031 L 145.269531 79.335938 Z M 146.144531 79.335938 "></path>
</g>
<mask id="mask20"> <g filter="url(#alpha)">
<rect x="0" y="0" width="163" height="163" style="fill:rgb(0%,0%,0%);fill-opacity:0.994009;stroke:none;"></rect> </g>
</mask>
<clipPath id="clip21"> <rect x="0" y="0" width="163" height="163"></rect>
</clipPath>
<g id="surface65" clip-path="url(#clip21)">
<path style=" stroke:none;fill-rule:nonzero;fill:rgb(66.666669%,43.137255%,15.686275%);fill-opacity:1;" d="M 47.65625 79.335938 L 47.65625 84.332031 L 48.535156 84.332031 L 48.535156 79.335938 Z M 72.332031 79.335938 L 72.332031 109.238281 L 73.210938 109.238281 L 73.210938 79.335938 Z M 97.886719 79.335938 L 97.886719 46.816406 L 97.011719 46.816406 L 97.011719 79.335938 Z M 122.566406 79.335938 L 122.566406 55.578125 L 121.6875 55.578125 L 121.6875 79.335938 Z M 147.242188 79.335938 L 147.242188 46.808594 L 146.363281 46.808594 L 146.363281 79.335938 Z M 147.242188 79.335938 "></path>
</g>
<mask id="mask21"> <g filter="url(#alpha)">
<rect x="0" y="0" width="163" height="163" style="fill:rgb(0%,0%,0%);fill-opacity:0.994009;stroke:none;"></rect> </g>
</mask>
<clipPath id="clip22"> <rect x="0" y="0" width="163" height="163"></rect>
</clipPath>
<g id="surface68" clip-path="url(#clip22)">
<path style=" stroke:none;fill-rule:nonzero;fill:rgb(100%,98.039216%,78.431374%);fill-opacity:1;" d="M 48.753906 79.335938 L 48.753906 104.964844 L 49.628906 104.964844 L 49.628906 79.335938 Z M 73.429688 79.335938 L 73.429688 112.144531 L 74.308594 112.144531 L 74.308594 79.335938 Z M 98.984375 79.335938 L 98.984375 48.71875 L 98.109375 48.71875 L 98.109375 79.335938 Z M 123.664062 79.335938 L 123.664062 70.335938 L 122.785156 70.335938 L 122.785156 79.335938 Z M 148.339844 79.335938 L 148.339844 50.222656 L 147.460938 50.222656 L 147.460938 79.335938 Z M 148.339844 79.335938 "></path>
</g>
<mask id="mask22"> <g filter="url(#alpha)">
<rect x="0" y="0" width="163" height="163" style="fill:rgb(0%,0%,0%);fill-opacity:0.994009;stroke:none;"></rect> </g>
</mask>
<clipPath id="clip23"> <rect x="0" y="0" width="163" height="163"></rect>
</clipPath>
<g id="surface71" clip-path="url(#clip23)">
<path style=" stroke:none;fill-rule:nonzero;fill:rgb(50.196081%,0%,0%);fill-opacity:1;" d="M 49.851562 79.335938 L 49.851562 91.554688 L 50.726562 91.554688 L 50.726562 79.335938 Z M 74.527344 79.335938 L 74.527344 81.929688 L 75.40625 81.929688 L 75.40625 79.335938 Z M 99.203125 79.335938 L 99.203125 115.980469 L 100.082031 115.980469 L 100.082031 79.335938 Z M 123.882812 79.335938 L 123.882812 115.964844 L 124.757812 115.964844 L 124.757812 79.335938 Z M 148.558594 79.335938 L 148.558594 106.882812 L 149.4375 106.882812 L 149.4375 79.335938 Z M 148.558594 79.335938 "></path>
</g>
<mask id="mask23"> <g filter="url(#alpha)">
<rect x="0" y="0" width="163" height="163" style="fill:rgb(0%,0%,0%);fill-opacity:0.994009;stroke:none;"></rect> </g>
</mask>
<clipPath id="clip24"> <rect x="0" y="0" width="163" height="163"></rect>
</clipPath>
<g id="surface74" clip-path="url(#clip24)">
<path style=" stroke:none;fill-rule:nonzero;fill:rgb(66.666669%,100%,76.47059%);fill-opacity:1;" d="M 50.945312 79.335938 L 50.945312 95.570312 L 51.824219 95.570312 L 51.824219 79.335938 Z M 75.625 79.335938 L 75.625 88.898438 L 76.5 88.898438 L 76.5 79.335938 Z M 101.179688 79.335938 L 101.179688 41.890625 L 100.300781 41.890625 L 100.300781 79.335938 Z M 125.855469 79.335938 L 125.855469 52.171875 L 124.976562 52.171875 L 124.976562 79.335938 Z M 150.53125 79.335938 L 150.53125 46.113281 L 149.65625 46.113281 L 149.65625 79.335938 Z M 150.53125 79.335938 "></path>
</g>
<mask id="mask24"> <g filter="url(#alpha)">
<rect x="0" y="0" width="163" height="163" style="fill:rgb(0%,0%,0%);fill-opacity:0.994009;stroke:none;"></rect> </g>
</mask>
<clipPath id="clip25"> <rect x="0" y="0" width="163" height="163"></rect>
</clipPath>
<g id="surface77" clip-path="url(#clip25)">
<path style=" stroke:none;fill-rule:nonzero;fill:rgb(50.196081%,50.196081%,0%);fill-opacity:1;" d="M 52.042969 79.335938 L 52.042969 83.695312 L 52.921875 83.695312 L 52.921875 79.335938 Z M 76.71875 79.335938 L 76.71875 109.933594 L 77.597656 109.933594 L 77.597656 79.335938 Z M 102.273438 79.335938 L 102.273438 47.617188 L 101.398438 47.617188 L 101.398438 79.335938 Z M 126.953125 79.335938 L 126.953125 51.324219 L 126.074219 51.324219 L 126.074219 79.335938 Z M 151.628906 79.335938 L 151.628906 50.128906 L 150.753906 50.128906 L 150.753906 79.335938 Z M 151.628906 79.335938 "></path>
</g>
<mask id="mask25"> <g filter="url(#alpha)">
<rect x="0" y="0" width="163" height="163" style="fill:rgb(0%,0%,0%);fill-opacity:0.994009;stroke:none;"></rect> </g>
</mask>
<clipPath id="clip26"> <rect x="0" y="0" width="163" height="163"></rect>
</clipPath>
<g id="surface80" clip-path="url(#clip26)">
<path style=" stroke:none;fill-rule:nonzero;fill:rgb(100%,84.313726%,70.588237%);fill-opacity:1;" d="M 53.140625 79.335938 L 53.140625 88.589844 L 54.015625 88.589844 L 54.015625 79.335938 Z M 77.816406 79.335938 L 77.816406 110.480469 L 78.695312 110.480469 L 78.695312 79.335938 Z M 103.371094 79.335938 L 103.371094 48.246094 L 102.496094 48.246094 L 102.496094 79.335938 Z M 128.050781 79.335938 L 128.050781 59.898438 L 127.171875 59.898438 L 127.171875 79.335938 Z M 152.726562 79.335938 L 152.726562 44.707031 L 151.847656 44.707031 L 151.847656 79.335938 Z M 152.726562 79.335938 "></path>
</g>
<mask id="mask26"> <g filter="url(#alpha)">
<rect x="0" y="0" width="163" height="163" style="fill:rgb(0%,0%,0%);fill-opacity:0.994009;stroke:none;"></rect> </g>
</mask>
<clipPath id="clip27"> <rect x="0" y="0" width="163" height="163"></rect>
</clipPath>
<g id="surface83" clip-path="url(#clip27)">
<path style="fill:none;stroke-width:0.5;stroke-linecap:butt;stroke-linejoin:round;stroke:rgb(0%,0%,0%);stroke-opacity:0.6;stroke-miterlimit:4;" d="M 96.206556 56.670029 L 103.188792 63.951804 L 110.171028 45.285347 L 117.15437 51.75251 L 124.136606 44.602267 " transform="matrix(3.53408,0,0,3.53408,-295.743846,-113.885788)"></path>
</g>
<mask id="mask27"> <g filter="url(#alpha)">
<rect x="0" y="0" width="163" height="163" style="fill:rgb(0%,0%,0%);fill-opacity:0.994009;stroke:none;"></rect> </g>
</mask>
<clipPath id="clip28"> <rect x="0" y="0" width="163" height="163"></rect>
</clipPath>
<g id="surface86" clip-path="url(#clip28)">
<g style="fill:rgb(0%,0%,0%);fill-opacity:1;"> <use xlink:href="#glyph1-1" x="16.094876" y="113.136719"></use> <use xlink:href="#glyph1-2" x="16.094876" y="106.489611"></use> <use xlink:href="#glyph1-3" x="16.094876" y="99.290304"></use> <use xlink:href="#glyph1-4" x="16.094876" y="93.747597"></use> <use xlink:href="#glyph1-5" x="16.094876" y="90.979694"></use> <use xlink:href="#glyph1-6" x="16.094876" y="85.996089"></use> <use xlink:href="#glyph1-7" x="16.094876" y="80.453382"></use> <use xlink:href="#glyph1-8" x="16.094876" y="74.910674"></use> <use xlink:href="#glyph1-8" x="16.094876" y="72.325688"></use> <use xlink:href="#glyph1-9" x="16.094876" y="69.557786"></use> <use xlink:href="#glyph1-5" x="16.094876" y="67.345535"></use> <use xlink:href="#glyph1-9" x="16.094876" y="62.36193"></use> <use xlink:href="#glyph1-7" x="16.094876" y="60.149678"></use> <use xlink:href="#glyph1-10" x="16.094876" y="54.606971"></use> <use xlink:href="#glyph1-11" x="16.094876" y="49.064264"></use>
</g>
</g>
<mask id="mask28"> <g filter="url(#alpha)">
<rect x="0" y="0" width="163" height="163" style="fill:rgb(0%,0%,0%);fill-opacity:0.994009;stroke:none;"></rect> </g>
</mask>
<clipPath id="clip29"> <rect x="0" y="0" width="163" height="163"></rect>
</clipPath>
<g id="surface89" clip-path="url(#clip29)">
<path style=" stroke:none;fill-rule:nonzero;fill:rgb(0%,0%,0%);fill-opacity:1;" d="M 38.804688 144.570312 C 38.84375 144.472656 38.84375 144.441406 38.84375 144.402344 C 38.84375 144.300781 38.773438 144.214844 38.675781 144.214844 C 38.589844 144.214844 38.519531 144.273438 38.460938 144.429688 L 36.867188 148.59375 C 36.855469 148.652344 36.828125 148.707031 36.828125 148.75 C 36.828125 148.78125 36.828125 148.808594 36.867188 148.90625 L 38.460938 153.074219 C 38.503906 153.171875 38.546875 153.300781 38.675781 153.300781 C 38.773438 153.300781 38.84375 153.214844 38.84375 153.117188 C 38.84375 153.089844 38.84375 153.074219 38.804688 152.972656 L 37.195312 148.75 Z M 38.804688 144.570312 "></path>
<path style=" stroke:none;fill-rule:nonzero;fill:rgb(0%,0%,0%);fill-opacity:1;" d="M 41.746094 147.058594 C 40.621094 147.328125 39.742188 148.507812 39.742188 149.605469 C 39.742188 150.484375 40.324219 151.140625 41.175781 151.140625 C 42.230469 151.140625 42.984375 149.703125 42.984375 148.453125 C 42.984375 147.628906 42.628906 147.171875 42.316406 146.773438 C 41.988281 146.363281 41.449219 145.679688 41.449219 145.28125 C 41.449219 145.082031 41.632812 144.871094 41.945312 144.871094 C 42.230469 144.871094 42.398438 144.984375 42.597656 145.113281 C 42.785156 145.226562 42.953125 145.339844 43.097656 145.339844 C 43.324219 145.339844 43.453125 145.125 43.453125 144.96875 C 43.453125 144.769531 43.308594 144.757812 42.984375 144.671875 C 42.515625 144.570312 42.386719 144.570312 42.242188 144.570312 C 41.53125 144.570312 41.207031 144.96875 41.207031 145.507812 C 41.207031 146.007812 41.476562 146.503906 41.746094 147.058594 Z M 41.859375 147.257812 C 42.085938 147.683594 42.355469 148.167969 42.355469 148.824219 C 42.355469 149.417969 42.015625 150.941406 41.175781 150.941406 C 40.679688 150.941406 40.296875 150.558594 40.296875 149.859375 C 40.296875 149.292969 40.636719 147.585938 41.859375 147.257812 Z M 41.859375 147.257812 "></path>
<path style=" stroke:none;fill-rule:nonzero;fill:rgb(0%,0%,0%);fill-opacity:1;" d="M 47.855469 146.492188 C 47.855469 145.894531 47.699219 144.628906 46.773438 144.628906 C 45.507812 144.628906 44.113281 147.1875 44.113281 149.261719 C 44.113281 150.117188 44.371094 151.125 45.195312 151.125 C 46.476562 151.125 47.855469 148.523438 47.855469 146.492188 Z M 45.066406 147.726562 C 45.222656 147.160156 45.410156 146.433594 45.777344 145.78125 C 46.019531 145.339844 46.347656 144.828125 46.757812 144.828125 C 47.199219 144.828125 47.257812 145.410156 47.257812 145.921875 C 47.257812 146.375 47.1875 146.832031 46.972656 147.726562 Z M 46.886719 148.027344 C 46.789062 148.4375 46.601562 149.207031 46.246094 149.859375 C 45.933594 150.484375 45.59375 150.925781 45.195312 150.925781 C 44.898438 150.925781 44.710938 150.65625 44.710938 149.816406 C 44.710938 149.433594 44.769531 148.90625 44.996094 148.027344 Z M 46.886719 148.027344 "></path>
<path style=" stroke:none;fill-rule:nonzero;fill:rgb(0%,0%,0%);fill-opacity:1;" d="M 50.710938 148.90625 C 50.753906 148.808594 50.753906 148.78125 50.753906 148.75 C 50.753906 148.738281 50.753906 148.707031 50.710938 148.609375 L 49.132812 144.429688 C 49.074219 144.273438 49.019531 144.214844 48.917969 144.214844 C 48.820312 144.214844 48.734375 144.300781 48.734375 144.402344 C 48.734375 144.429688 48.734375 144.441406 48.777344 144.542969 L 50.382812 148.75 L 48.777344 152.945312 C 48.734375 153.046875 48.734375 153.074219 48.734375 153.117188 C 48.734375 153.214844 48.820312 153.300781 48.917969 153.300781 C 49.03125 153.300781 49.074219 153.203125 49.105469 153.117188 Z M 50.710938 148.90625 "></path>
</g>
<mask id="mask29"> <g filter="url(#alpha)">
<rect x="0" y="0" width="163" height="163" style="fill:rgb(0%,0%,0%);fill-opacity:0.994009;stroke:none;"></rect> </g>
</mask>
<clipPath id="clip30"> <rect x="0" y="0" width="163" height="163"></rect>
</clipPath>
<g id="surface92" clip-path="url(#clip30)">
<path style=" stroke:none;fill-rule:nonzero;fill:rgb(0%,0%,0%);fill-opacity:1;" d="M 64.175781 144.570312 C 64.21875 144.472656 64.21875 144.441406 64.21875 144.402344 C 64.21875 144.300781 64.148438 144.214844 64.050781 144.214844 C 63.964844 144.214844 63.894531 144.273438 63.835938 144.429688 L 62.242188 148.59375 C 62.230469 148.652344 62.203125 148.707031 62.203125 148.75 C 62.203125 148.78125 62.203125 148.808594 62.242188 148.90625 L 63.835938 153.074219 C 63.878906 153.171875 63.921875 153.300781 64.050781 153.300781 C 64.148438 153.300781 64.21875 153.214844 64.21875 153.117188 C 64.21875 153.089844 64.21875 153.074219 64.175781 152.972656 L 62.570312 148.75 Z M 64.175781 144.570312 "></path>
<path style=" stroke:none;fill-rule:nonzero;fill:rgb(0%,0%,0%);fill-opacity:1;" d="M 67.121094 147.058594 C 65.996094 147.328125 65.117188 148.507812 65.117188 149.605469 C 65.117188 150.484375 65.699219 151.140625 66.550781 151.140625 C 67.605469 151.140625 68.359375 149.703125 68.359375 148.453125 C 68.359375 147.628906 68.003906 147.171875 67.691406 146.773438 C 67.363281 146.363281 66.824219 145.679688 66.824219 145.28125 C 66.824219 145.082031 67.007812 144.871094 67.320312 144.871094 C 67.605469 144.871094 67.773438 144.984375 67.972656 145.113281 C 68.160156 145.226562 68.328125 145.339844 68.472656 145.339844 C 68.699219 145.339844 68.828125 145.125 68.828125 144.96875 C 68.828125 144.769531 68.683594 144.757812 68.359375 144.671875 C 67.890625 144.570312 67.761719 144.570312 67.617188 144.570312 C 66.90625 144.570312 66.582031 144.96875 66.582031 145.507812 C 66.582031 146.007812 66.851562 146.503906 67.121094 147.058594 Z M 67.234375 147.257812 C 67.460938 147.683594 67.730469 148.167969 67.730469 148.824219 C 67.730469 149.417969 67.390625 150.941406 66.550781 150.941406 C 66.054688 150.941406 65.671875 150.558594 65.671875 149.859375 C 65.671875 149.292969 66.011719 147.585938 67.234375 147.257812 Z M 67.234375 147.257812 "></path>
<path style=" stroke:none;fill-rule:nonzero;fill:rgb(0%,0%,0%);fill-opacity:1;" d="M 70.96875 147.402344 L 71.820312 147.402344 C 72.007812 147.402344 72.105469 147.402344 72.105469 147.214844 C 72.105469 147.117188 72.007812 147.117188 71.851562 147.117188 L 71.054688 147.117188 C 71.378906 145.824219 71.421875 145.652344 71.421875 145.59375 C 71.421875 145.4375 71.308594 145.351562 71.152344 145.351562 C 71.125 145.351562 70.867188 145.351562 70.796875 145.679688 L 70.441406 147.117188 L 69.589844 147.117188 C 69.402344 147.117188 69.320312 147.117188 69.320312 147.285156 C 69.320312 147.402344 69.390625 147.402344 69.574219 147.402344 L 70.371094 147.402344 C 69.71875 149.972656 69.675781 150.128906 69.675781 150.285156 C 69.675781 150.785156 70.015625 151.125 70.511719 151.125 C 71.4375 151.125 71.949219 149.804688 71.949219 149.730469 C 71.949219 149.632812 71.878906 149.632812 71.851562 149.632812 C 71.765625 149.632812 71.75 149.660156 71.707031 149.761719 C 71.324219 150.714844 70.839844 150.925781 70.527344 150.925781 C 70.34375 150.925781 70.242188 150.8125 70.242188 150.515625 C 70.242188 150.285156 70.269531 150.230469 70.300781 150.074219 Z M 70.96875 147.402344 "></path>
<path style=" stroke:none;fill-rule:nonzero;fill:rgb(0%,0%,0%);fill-opacity:1;" d="M 74.851562 148.90625 C 74.894531 148.808594 74.894531 148.78125 74.894531 148.75 C 74.894531 148.738281 74.894531 148.707031 74.851562 148.609375 L 73.273438 144.429688 C 73.214844 144.273438 73.160156 144.214844 73.058594 144.214844 C 72.960938 144.214844 72.875 144.300781 72.875 144.402344 C 72.875 144.429688 72.875 144.441406 72.917969 144.542969 L 74.523438 148.75 L 72.917969 152.945312 C 72.875 153.046875 72.875 153.074219 72.875 153.117188 C 72.875 153.214844 72.960938 153.300781 73.058594 153.300781 C 73.175781 153.300781 73.214844 153.203125 73.246094 153.117188 Z M 74.851562 148.90625 "></path>
</g>
<mask id="mask30"> <g filter="url(#alpha)">
<rect x="0" y="0" width="163" height="163" style="fill:rgb(0%,0%,0%);fill-opacity:0.994009;stroke:none;"></rect> </g>
</mask>
<clipPath id="clip31"> <rect x="0" y="0" width="163" height="163"></rect>
</clipPath>
<g id="surface95" clip-path="url(#clip31)">
<path style=" stroke:none;fill-rule:nonzero;fill:rgb(0%,0%,0%);fill-opacity:1;" d="M 90.398438 144.570312 C 90.441406 144.472656 90.441406 144.441406 90.441406 144.402344 C 90.441406 144.300781 90.371094 144.214844 90.269531 144.214844 C 90.1875 144.214844 90.113281 144.273438 90.058594 144.429688 L 88.464844 148.59375 C 88.453125 148.652344 88.421875 148.707031 88.421875 148.75 C 88.421875 148.78125 88.421875 148.808594 88.464844 148.90625 L 90.058594 153.074219 C 90.101562 153.171875 90.144531 153.300781 90.269531 153.300781 C 90.371094 153.300781 90.441406 153.214844 90.441406 153.117188 C 90.441406 153.089844 90.441406 153.074219 90.398438 152.972656 L 88.792969 148.75 Z M 90.398438 144.570312 "></path>
<path style=" stroke:none;fill-rule:nonzero;fill:rgb(0%,0%,0%);fill-opacity:1;" d="M 95.632812 144.828125 C 95.632812 144.828125 95.632812 144.726562 95.519531 144.726562 C 95.375 144.726562 94.523438 144.8125 94.367188 144.828125 C 94.296875 144.839844 94.238281 144.882812 94.238281 144.996094 C 94.238281 145.113281 94.324219 145.113281 94.453125 145.113281 C 94.890625 145.113281 94.90625 145.167969 94.90625 145.269531 L 94.878906 145.453125 L 94.335938 147.601562 C 94.167969 147.257812 93.910156 147.015625 93.5 147.015625 C 92.445312 147.015625 91.324219 148.351562 91.324219 149.675781 C 91.324219 150.527344 91.820312 151.125 92.519531 151.125 C 92.703125 151.125 93.15625 151.082031 93.699219 150.441406 C 93.769531 150.828125 94.097656 151.125 94.523438 151.125 C 94.851562 151.125 95.046875 150.914062 95.207031 150.628906 C 95.347656 150.300781 95.476562 149.746094 95.476562 149.730469 C 95.476562 149.632812 95.390625 149.632812 95.363281 149.632812 C 95.277344 149.632812 95.261719 149.675781 95.234375 149.804688 C 95.078125 150.386719 94.921875 150.925781 94.550781 150.925781 C 94.296875 150.925781 94.28125 150.683594 94.28125 150.515625 C 94.28125 150.285156 94.296875 150.230469 94.324219 150.074219 Z M 93.753906 149.945312 C 93.699219 150.117188 93.699219 150.128906 93.570312 150.285156 C 93.171875 150.785156 92.800781 150.925781 92.546875 150.925781 C 92.089844 150.925781 91.964844 150.429688 91.964844 150.074219 C 91.964844 149.617188 92.246094 148.507812 92.460938 148.082031 C 92.746094 147.558594 93.144531 147.214844 93.511719 147.214844 C 94.097656 147.214844 94.222656 147.957031 94.222656 148.011719 C 94.222656 148.070312 94.210938 148.125 94.195312 148.167969 Z M 93.753906 149.945312 "></path>
<path style=" stroke:none;fill-rule:nonzero;fill:rgb(0%,0%,0%);fill-opacity:1;" d="M 98.144531 148.90625 C 98.1875 148.808594 98.1875 148.78125 98.1875 148.75 C 98.1875 148.738281 98.1875 148.707031 98.144531 148.609375 L 96.566406 144.429688 C 96.511719 144.273438 96.453125 144.214844 96.355469 144.214844 C 96.253906 144.214844 96.167969 144.300781 96.167969 144.402344 C 96.167969 144.429688 96.167969 144.441406 96.210938 144.542969 L 97.820312 148.75 L 96.210938 152.945312 C 96.167969 153.046875 96.167969 153.074219 96.167969 153.117188 C 96.167969 153.214844 96.253906 153.300781 96.355469 153.300781 C 96.46875 153.300781 96.511719 153.203125 96.539062 153.117188 Z M 98.144531 148.90625 "></path>
</g>
<mask id="mask31"> <g filter="url(#alpha)">
<rect x="0" y="0" width="163" height="163" style="fill:rgb(0%,0%,0%);fill-opacity:0.994009;stroke:none;"></rect> </g>
</mask>
<clipPath id="clip32"> <rect x="0" y="0" width="163" height="163"></rect>
</clipPath>
<g id="surface98" clip-path="url(#clip32)">
<path style=" stroke:none;fill-rule:nonzero;fill:rgb(0%,0%,0%);fill-opacity:1;" d="M 136.480469 144.894531 C 136.480469 144.894531 136.480469 144.792969 136.367188 144.792969 C 136.152344 144.792969 135.5 144.863281 135.257812 144.894531 C 135.1875 144.894531 135.085938 144.90625 135.085938 145.0625 C 135.085938 145.175781 135.171875 145.175781 135.300781 145.175781 C 135.742188 145.175781 135.757812 145.234375 135.757812 145.332031 L 135.726562 145.519531 L 134.417969 150.738281 C 134.375 150.863281 134.375 150.878906 134.375 150.9375 C 134.375 151.148438 134.5625 151.191406 134.648438 151.191406 C 134.761719 151.191406 134.886719 151.105469 134.945312 151.007812 C 134.988281 150.921875 135.402344 149.242188 135.457031 149.015625 C 135.769531 149.042969 136.507812 149.1875 136.507812 149.785156 C 136.507812 149.855469 136.507812 149.882812 136.480469 149.984375 C 136.46875 150.082031 136.453125 150.195312 136.453125 150.296875 C 136.453125 150.820312 136.808594 151.191406 137.277344 151.191406 C 137.546875 151.191406 137.804688 151.050781 138.003906 150.707031 C 138.230469 150.308594 138.328125 149.8125 138.328125 149.796875 C 138.328125 149.699219 138.242188 149.699219 138.214844 149.699219 C 138.128906 149.699219 138.117188 149.742188 138.085938 149.871094 C 137.902344 150.523438 137.703125 150.992188 137.304688 150.992188 C 137.121094 150.992188 137.007812 150.894531 137.007812 150.566406 C 137.007812 150.410156 137.050781 150.195312 137.078125 150.054688 C 137.121094 149.898438 137.121094 149.871094 137.121094 149.769531 C 137.121094 149.1875 136.550781 148.929688 135.769531 148.816406 C 136.054688 148.660156 136.351562 148.375 136.550781 148.148438 C 136.992188 147.664062 137.40625 147.28125 137.847656 147.28125 C 137.902344 147.28125 137.917969 147.28125 137.929688 147.296875 C 138.046875 147.308594 138.046875 147.308594 138.128906 147.367188 C 138.144531 147.367188 138.144531 147.382812 138.160156 147.394531 C 137.730469 147.421875 137.648438 147.777344 137.648438 147.894531 C 137.648438 148.035156 137.746094 148.207031 137.988281 148.207031 C 138.230469 148.207031 138.484375 148.007812 138.484375 147.652344 C 138.484375 147.382812 138.273438 147.082031 137.875 147.082031 C 137.617188 147.082031 137.207031 147.152344 136.550781 147.878906 C 136.238281 148.21875 135.882812 148.589844 135.542969 148.71875 Z M 136.480469 144.894531 "></path>
<path style=" stroke:none;fill-rule:nonzero;fill:rgb(0%,0%,0%);fill-opacity:1;" d="M 141.1875 149.949219 L 141.796875 149.949219 C 141.925781 149.949219 142.011719 149.949219 142.011719 149.808594 C 142.011719 149.722656 141.925781 149.722656 141.8125 149.722656 L 141.230469 149.722656 C 141.371094 148.910156 141.414062 148.625 141.472656 148.441406 C 141.5 148.300781 141.640625 148.171875 141.796875 148.171875 C 141.796875 148.171875 141.96875 148.171875 142.097656 148.242188 C 141.828125 148.328125 141.8125 148.554688 141.8125 148.585938 C 141.8125 148.726562 141.925781 148.824219 142.070312 148.824219 C 142.238281 148.824219 142.425781 148.683594 142.425781 148.441406 C 142.425781 148.144531 142.125 147.988281 141.796875 147.988281 C 141.515625 147.988281 141.199219 148.144531 141.03125 148.457031 C 140.902344 148.699219 140.859375 148.980469 140.71875 149.722656 L 140.21875 149.722656 C 140.09375 149.722656 140.007812 149.722656 140.007812 149.863281 C 140.007812 149.949219 140.09375 149.949219 140.207031 149.949219 L 140.675781 149.949219 C 140.675781 149.992188 140.277344 152.265625 140.121094 152.949219 C 140.09375 153.089844 139.976562 153.5625 139.679688 153.5625 C 139.664062 153.5625 139.523438 153.5625 139.394531 153.488281 C 139.652344 153.402344 139.679688 153.175781 139.679688 153.148438 C 139.679688 153.007812 139.566406 152.90625 139.421875 152.90625 C 139.253906 152.90625 139.066406 153.046875 139.066406 153.289062 C 139.066406 153.574219 139.367188 153.746094 139.679688 153.746094 C 140.078125 153.746094 140.363281 153.332031 140.433594 153.191406 C 140.660156 152.765625 140.816406 151.980469 140.832031 151.910156 Z M 141.1875 149.949219 "></path>
<path style=" stroke:none;fill-rule:nonzero;fill:rgb(0%,0%,0%);fill-opacity:1;" d="M 144.636719 148.242188 C 144.636719 148.230469 144.664062 148.144531 144.664062 148.144531 C 144.664062 148.101562 144.636719 148.042969 144.550781 148.042969 C 144.421875 148.042969 143.898438 148.101562 143.742188 148.113281 C 143.699219 148.113281 143.613281 148.128906 143.613281 148.257812 C 143.613281 148.34375 143.699219 148.34375 143.769531 148.34375 C 144.082031 148.34375 144.082031 148.398438 144.082031 148.441406 C 144.082031 148.484375 144.066406 148.527344 144.054688 148.585938 L 143.257812 151.710938 C 143.242188 151.785156 143.242188 151.855469 143.242188 151.910156 C 143.242188 152.324219 143.597656 152.507812 143.898438 152.507812 C 144.054688 152.507812 144.253906 152.464844 144.410156 152.179688 C 144.550781 151.941406 144.636719 151.570312 144.636719 151.542969 C 144.636719 151.457031 144.550781 151.457031 144.535156 151.457031 C 144.4375 151.457031 144.421875 151.5 144.410156 151.613281 C 144.324219 151.925781 144.195312 152.335938 143.925781 152.335938 C 143.753906 152.335938 143.710938 152.179688 143.710938 152.023438 C 143.710938 151.953125 143.726562 151.839844 143.753906 151.769531 Z M 144.636719 148.242188 "></path>
<path style=" stroke:none;fill-rule:nonzero;fill:rgb(0%,0%,0%);fill-opacity:1;" d="M 147.238281 148.484375 C 147.238281 148.386719 147.152344 148.242188 146.980469 148.242188 C 146.8125 148.242188 146.625 148.414062 146.625 148.597656 C 146.625 148.699219 146.699219 148.839844 146.882812 148.839844 C 147.054688 148.839844 147.238281 148.65625 147.238281 148.484375 Z M 145.945312 151.710938 C 145.914062 151.796875 145.886719 151.867188 145.886719 151.980469 C 145.886719 152.28125 146.128906 152.507812 146.484375 152.507812 C 147.109375 152.507812 147.394531 151.640625 147.394531 151.542969 C 147.394531 151.457031 147.308594 151.457031 147.296875 151.457031 C 147.210938 151.457031 147.195312 151.5 147.167969 151.570312 C 147.023438 152.082031 146.753906 152.335938 146.5 152.335938 C 146.371094 152.335938 146.34375 152.253906 146.34375 152.109375 C 146.34375 151.96875 146.386719 151.855469 146.441406 151.710938 C 146.511719 151.542969 146.585938 151.371094 146.640625 151.199219 C 146.699219 151.042969 146.941406 150.476562 146.953125 150.390625 C 146.980469 150.332031 146.996094 150.261719 146.996094 150.191406 C 146.996094 149.890625 146.742188 149.652344 146.398438 149.652344 C 145.757812 149.652344 145.476562 150.519531 145.476562 150.632812 C 145.476562 150.703125 145.558594 150.703125 145.589844 150.703125 C 145.675781 150.703125 145.675781 150.675781 145.703125 150.601562 C 145.859375 150.0625 146.144531 149.835938 146.371094 149.835938 C 146.46875 149.835938 146.527344 149.878906 146.527344 150.046875 C 146.527344 150.207031 146.5 150.289062 146.34375 150.6875 Z M 145.945312 151.710938 "></path>
<path style=" stroke:none;fill-rule:nonzero;fill:rgb(0%,0%,0%);fill-opacity:1;" d="M 148.210938 153.21875 C 148.167969 153.402344 148.152344 153.445312 147.910156 153.445312 C 147.824219 153.445312 147.742188 153.445312 147.742188 153.589844 C 147.742188 153.660156 147.796875 153.6875 147.824219 153.6875 C 147.980469 153.6875 148.195312 153.660156 148.367188 153.660156 C 148.578125 153.660156 148.820312 153.6875 149.035156 153.6875 C 149.089844 153.6875 149.164062 153.660156 149.164062 153.546875 C 149.164062 153.445312 149.078125 153.445312 148.992188 153.445312 C 148.851562 153.445312 148.679688 153.445312 148.679688 153.375 C 148.679688 153.347656 148.734375 153.175781 148.75 153.089844 C 148.835938 152.75 148.921875 152.410156 148.992188 152.140625 C 149.0625 152.265625 149.261719 152.507812 149.644531 152.507812 C 150.414062 152.507812 151.265625 151.65625 151.265625 150.71875 C 151.265625 149.976562 150.753906 149.652344 150.328125 149.652344 C 149.929688 149.652344 149.589844 149.921875 149.417969 150.105469 C 149.320312 149.734375 148.964844 149.652344 148.765625 149.652344 C 148.523438 149.652344 148.367188 149.820312 148.265625 149.992188 C 148.140625 150.207031 148.039062 150.589844 148.039062 150.632812 C 148.039062 150.703125 148.125 150.703125 148.152344 150.703125 C 148.238281 150.703125 148.238281 150.6875 148.28125 150.519531 C 148.378906 150.148438 148.507812 149.835938 148.75 149.835938 C 148.921875 149.835938 148.964844 149.976562 148.964844 150.148438 C 148.964844 150.21875 148.949219 150.289062 148.933594 150.332031 Z M 149.417969 150.417969 C 149.789062 149.921875 150.101562 149.835938 150.300781 149.835938 C 150.554688 149.835938 150.769531 150.019531 150.769531 150.445312 C 150.769531 150.703125 150.628906 151.355469 150.441406 151.726562 C 150.273438 152.039062 149.972656 152.335938 149.644531 152.335938 C 149.191406 152.335938 149.078125 151.855469 149.078125 151.785156 C 149.078125 151.753906 149.089844 151.710938 149.089844 151.683594 Z M 149.417969 150.417969 "></path>
</g>
<mask id="mask32"> <g filter="url(#alpha)">
<rect x="0" y="0" width="163" height="163" style="fill:rgb(0%,0%,0%);fill-opacity:0.994009;stroke:none;"></rect> </g>
</mask>
<clipPath id="clip33"> <rect x="0" y="0" width="163" height="163"></rect>
</clipPath>
<g id="surface101" clip-path="url(#clip33)">
<path style=" stroke:none;fill-rule:nonzero;fill:rgb(0%,0%,0%);fill-opacity:1;" d="M 108.960938 150.882812 C 108.890625 151.195312 108.859375 151.253906 108.460938 151.253906 C 108.363281 151.253906 108.261719 151.253906 108.261719 151.421875 C 108.261719 151.496094 108.304688 151.535156 108.378906 151.535156 C 108.617188 151.535156 108.890625 151.507812 109.132812 151.507812 C 109.445312 151.507812 109.742188 151.535156 110.039062 151.535156 C 110.082031 151.535156 110.199219 151.535156 110.199219 151.351562 C 110.199219 151.253906 110.113281 151.253906 109.984375 151.253906 C 109.527344 151.253906 109.527344 151.195312 109.527344 151.109375 C 109.527344 150.996094 109.914062 149.519531 109.96875 149.289062 C 110.082031 149.558594 110.339844 149.875 110.808594 149.875 C 111.859375 149.875 113 148.550781 113 147.214844 C 113 146.363281 112.472656 145.765625 111.789062 145.765625 C 111.335938 145.765625 110.894531 146.089844 110.59375 146.445312 C 110.511719 145.949219 110.113281 145.765625 109.785156 145.765625 C 109.359375 145.765625 109.1875 146.121094 109.117188 146.277344 C 108.945312 146.589844 108.832031 147.128906 108.832031 147.15625 C 108.832031 147.257812 108.917969 147.257812 108.933594 147.257812 C 109.03125 147.257812 109.03125 147.242188 109.089844 147.042969 C 109.246094 146.402344 109.429688 145.964844 109.757812 145.964844 C 109.914062 145.964844 110.039062 146.035156 110.039062 146.375 C 110.039062 146.589844 110.011719 146.6875 109.96875 146.84375 Z M 110.554688 146.945312 C 110.609375 146.703125 110.867188 146.445312 111.023438 146.304688 C 111.347656 146.035156 111.605469 145.964844 111.761719 145.964844 C 112.117188 145.964844 112.34375 146.277344 112.34375 146.816406 C 112.34375 147.355469 112.046875 148.394531 111.875 148.734375 C 111.5625 149.375 111.136719 149.675781 110.792969 149.675781 C 110.199219 149.675781 110.082031 148.921875 110.082031 148.863281 C 110.082031 148.847656 110.082031 148.835938 110.113281 148.722656 Z M 110.554688 146.945312 "></path>
<path style=" stroke:none;fill-rule:nonzero;fill:rgb(0%,0%,0%);fill-opacity:1;" d="M 114.671875 148.632812 L 115.3125 148.632812 C 115.441406 148.632812 115.511719 148.632812 115.511719 148.488281 C 115.511719 148.402344 115.441406 148.402344 115.328125 148.402344 L 114.730469 148.402344 L 114.957031 147.464844 C 114.972656 147.4375 114.988281 147.394531 114.988281 147.378906 C 114.988281 147.25 114.886719 147.167969 114.757812 147.167969 C 114.601562 147.167969 114.515625 147.28125 114.460938 147.4375 C 114.417969 147.605469 114.503906 147.292969 114.21875 148.402344 L 113.578125 148.402344 C 113.464844 148.402344 113.378906 148.402344 113.378906 148.546875 C 113.378906 148.632812 113.449219 148.632812 113.566406 148.632812 L 114.160156 148.632812 L 113.792969 150.125 C 113.75 150.28125 113.691406 150.507812 113.691406 150.59375 C 113.691406 150.960938 114.019531 151.191406 114.375 151.191406 C 115.085938 151.191406 115.484375 150.308594 115.484375 150.222656 C 115.484375 150.136719 115.398438 150.136719 115.382812 150.136719 C 115.300781 150.136719 115.300781 150.152344 115.242188 150.265625 C 115.070312 150.664062 114.746094 151.019531 114.402344 151.019531 C 114.261719 151.019531 114.175781 150.933594 114.175781 150.707031 C 114.175781 150.648438 114.203125 150.507812 114.21875 150.449219 Z M 114.671875 148.632812 "></path>
<path style=" stroke:none;fill-rule:nonzero;fill:rgb(0%,0%,0%);fill-opacity:1;" d="M 118.535156 150.109375 C 118.492188 150.238281 118.4375 150.480469 118.4375 150.480469 C 118.308594 150.679688 118.050781 151.019531 117.667969 151.019531 C 117.226562 151.019531 117.226562 150.605469 117.226562 150.492188 C 117.226562 150.125 117.398438 149.667969 117.582031 149.199219 C 117.625 149.070312 117.667969 148.984375 117.667969 148.886719 C 117.667969 148.546875 117.382812 148.332031 117.070312 148.332031 C 116.433594 148.332031 116.148438 149.199219 116.148438 149.3125 C 116.148438 149.382812 116.234375 149.382812 116.261719 149.382812 C 116.347656 149.382812 116.347656 149.355469 116.375 149.285156 C 116.515625 148.773438 116.800781 148.515625 117.042969 148.515625 C 117.15625 148.515625 117.199219 148.589844 117.199219 148.730469 C 117.199219 148.886719 117.15625 149.015625 117.085938 149.15625 C 116.746094 150.039062 116.746094 150.222656 116.746094 150.394531 C 116.746094 150.492188 116.746094 150.792969 116.984375 150.992188 C 117.171875 151.148438 117.414062 151.191406 117.640625 151.191406 C 118.039062 151.191406 118.25 150.976562 118.464844 150.777344 C 118.605469 151.191406 119.019531 151.191406 119.105469 151.191406 C 119.316406 151.191406 119.488281 151.078125 119.601562 150.863281 C 119.746094 150.605469 119.828125 150.25 119.828125 150.222656 C 119.828125 150.136719 119.746094 150.136719 119.730469 150.136719 C 119.628906 150.136719 119.628906 150.167969 119.589844 150.335938 C 119.503906 150.636719 119.390625 151.019531 119.117188 151.019531 C 118.960938 151.019531 118.90625 150.878906 118.90625 150.707031 C 118.90625 150.605469 118.960938 150.367188 119.003906 150.210938 C 119.046875 150.039062 119.117188 149.78125 119.148438 149.640625 L 119.289062 149.070312 C 119.332031 148.914062 119.402344 148.632812 119.402344 148.601562 C 119.402344 148.472656 119.304688 148.402344 119.191406 148.402344 C 118.960938 148.402344 118.90625 148.589844 118.863281 148.789062 Z M 118.535156 150.109375 "></path>
<path style=" stroke:none;fill-rule:nonzero;fill:rgb(0%,0%,0%);fill-opacity:1;" d="M 121.628906 149.855469 C 121.628906 149.8125 121.785156 149.242188 121.785156 149.214844 C 121.796875 149.15625 121.984375 148.84375 122.195312 148.6875 C 122.253906 148.644531 122.425781 148.515625 122.707031 148.515625 C 122.765625 148.515625 122.921875 148.515625 123.050781 148.601562 C 122.851562 148.660156 122.777344 148.84375 122.777344 148.957031 C 122.777344 149.085938 122.878906 149.183594 123.019531 149.183594 C 123.175781 149.183594 123.375 149.070312 123.375 148.800781 C 123.375 148.472656 123.035156 148.332031 122.707031 148.332031 C 122.382812 148.332031 122.097656 148.472656 121.8125 148.789062 C 121.699219 148.402344 121.316406 148.332031 121.160156 148.332031 C 120.929688 148.332031 120.773438 148.488281 120.660156 148.660156 C 120.519531 148.902344 120.433594 149.269531 120.433594 149.3125 C 120.433594 149.382812 120.519531 149.382812 120.546875 149.382812 C 120.632812 149.382812 120.632812 149.371094 120.675781 149.199219 C 120.773438 148.816406 120.902344 148.515625 121.144531 148.515625 C 121.316406 148.515625 121.359375 148.660156 121.359375 148.828125 C 121.359375 148.945312 121.300781 149.183594 121.242188 149.355469 C 121.199219 149.527344 121.144531 149.78125 121.117188 149.925781 L 120.902344 150.734375 C 120.886719 150.820312 120.84375 150.976562 120.84375 150.992188 C 120.84375 151.132812 120.960938 151.191406 121.058594 151.191406 C 121.160156 151.191406 121.285156 151.132812 121.328125 151.019531 C 121.34375 150.976562 121.414062 150.691406 121.457031 150.535156 Z M 121.628906 149.855469 "></path>
<path style=" stroke:none;fill-rule:nonzero;fill:rgb(0%,0%,0%);fill-opacity:1;" d="M 124.464844 150.734375 C 124.449219 150.820312 124.40625 150.976562 124.40625 150.992188 C 124.40625 151.132812 124.523438 151.191406 124.621094 151.191406 C 124.734375 151.191406 124.835938 151.117188 124.878906 151.0625 C 124.90625 151.003906 124.949219 150.792969 124.992188 150.664062 C 125.019531 150.550781 125.089844 150.25 125.117188 150.09375 C 125.160156 149.953125 125.203125 149.8125 125.234375 149.667969 C 125.304688 149.414062 125.316406 149.355469 125.503906 149.101562 C 125.671875 148.84375 125.972656 148.515625 126.457031 148.515625 C 126.8125 148.515625 126.824219 148.84375 126.824219 148.957031 C 126.824219 149.339844 126.554688 150.039062 126.457031 150.308594 C 126.382812 150.492188 126.355469 150.550781 126.355469 150.648438 C 126.355469 150.992188 126.625 151.191406 126.953125 151.191406 C 127.59375 151.191406 127.863281 150.324219 127.863281 150.222656 C 127.863281 150.136719 127.792969 150.136719 127.761719 150.136719 C 127.679688 150.136719 127.679688 150.179688 127.648438 150.25 C 127.507812 150.761719 127.222656 151.019531 126.980469 151.019531 C 126.839844 151.019531 126.8125 150.933594 126.8125 150.792969 C 126.8125 150.648438 126.855469 150.566406 126.96875 150.28125 C 127.039062 150.082031 127.292969 149.414062 127.292969 149.058594 C 127.292969 148.445312 126.8125 148.332031 126.46875 148.332031 C 125.945312 148.332031 125.589844 148.660156 125.402344 148.914062 C 125.359375 148.472656 124.992188 148.332031 124.722656 148.332031 C 124.449219 148.332031 124.308594 148.53125 124.222656 148.671875 C 124.082031 148.914062 123.996094 149.269531 123.996094 149.3125 C 123.996094 149.382812 124.082031 149.382812 124.109375 149.382812 C 124.195312 149.382812 124.195312 149.371094 124.238281 149.199219 C 124.335938 148.828125 124.464844 148.515625 124.707031 148.515625 C 124.878906 148.515625 124.921875 148.660156 124.921875 148.828125 C 124.921875 148.945312 124.863281 149.183594 124.804688 149.355469 C 124.761719 149.527344 124.707031 149.78125 124.679688 149.925781 Z M 124.464844 150.734375 "></path>
</g>
</defs>
<g id="surface1">
<use xlink:href="#surface5" mask="url(#mask0)"></use>
<use xlink:href="#surface8" mask="url(#mask1)"></use>
<use xlink:href="#surface11" mask="url(#mask2)"></use>
<use xlink:href="#surface14" mask="url(#mask3)"></use>
<use xlink:href="#surface17" mask="url(#mask4)"></use>
<use xlink:href="#surface20" mask="url(#mask5)"></use>
<use xlink:href="#surface23" mask="url(#mask6)"></use>
<use xlink:href="#surface26" mask="url(#mask7)"></use>
<use xlink:href="#surface29" mask="url(#mask8)"></use>
<use xlink:href="#surface32" mask="url(#mask9)"></use>
<use xlink:href="#surface35" mask="url(#mask10)"></use>
<use xlink:href="#surface38" mask="url(#mask11)"></use>
<use xlink:href="#surface41" mask="url(#mask12)"></use>
<use xlink:href="#surface44" mask="url(#mask13)"></use>
<use xlink:href="#surface47" mask="url(#mask14)"></use>
<use xlink:href="#surface50" mask="url(#mask15)"></use>
<use xlink:href="#surface53" mask="url(#mask16)"></use>
<use xlink:href="#surface56" mask="url(#mask17)"></use>
<use xlink:href="#surface59" mask="url(#mask18)"></use>
<use xlink:href="#surface62" mask="url(#mask19)"></use>
<use xlink:href="#surface65" mask="url(#mask20)"></use>
<use xlink:href="#surface68" mask="url(#mask21)"></use>
<use xlink:href="#surface71" mask="url(#mask22)"></use>
<use xlink:href="#surface74" mask="url(#mask23)"></use>
<use xlink:href="#surface77" mask="url(#mask24)"></use>
<use xlink:href="#surface80" mask="url(#mask25)"></use>
<use xlink:href="#surface83" mask="url(#mask26)"></use>
<use xlink:href="#surface86" mask="url(#mask27)"></use>
<use xlink:href="#surface89" mask="url(#mask28)"></use>
<use xlink:href="#surface92" mask="url(#mask29)"></use>
<use xlink:href="#surface95" mask="url(#mask30)"></use>
<use xlink:href="#surface98" mask="url(#mask31)"></use>
<use xlink:href="#surface101" mask="url(#mask32)"></use>
<g style="fill:rgb(0%,0%,0%);fill-opacity:1;"> <use xlink:href="#glyph0-10" x="26.492188" y="22.926907"></use>
</g>
<g style="fill:rgb(0%,0%,0%);fill-opacity:1;"> <use xlink:href="#glyph0-6" x="23.171875" y="142.915189"></use> <use xlink:href="#glyph0-10" x="26.491977" y="142.915189"></use>
</g>
<g style="fill:rgb(0%,0%,0%);fill-opacity:1;"> <use xlink:href="#glyph0-11" x="25.140625" y="82.860501"></use>
</g>
<path style="fill:none;stroke-width:0.3;stroke-linecap:butt;stroke-linejoin:miter;stroke:rgb(0%,0%,0%);stroke-opacity:1;stroke-miterlimit:4;" d="M 93.200115 35.664739 C 93.200115 47.658446 93.200115 59.651047 93.200115 71.643649 " transform="matrix(3.53408,0,0,3.53408,-295.743846,-113.885788)"></path>
<path style="fill:none;stroke-width:0.3;stroke-linecap:butt;stroke-linejoin:miter;stroke:rgb(0%,0%,0%);stroke-opacity:1;stroke-miterlimit:4;" d="M 93.195694 54.673841 C 104.512952 54.673841 115.83021 54.673841 127.147468 54.673841 " transform="matrix(3.53408,0,0,3.53408,-295.743846,-113.885788)"></path>
<path style="fill:none;stroke-width:0.3;stroke-linecap:butt;stroke-linejoin:miter;stroke:rgb(0%,0%,0%);stroke-opacity:1;stroke-miterlimit:4;" d="M 93.674293 37.698507 C 93.466495 37.698507 93.258697 37.698507 93.049793 37.698507 " transform="matrix(3.53408,0,0,3.53408,-295.743846,-113.885788)"></path>
<path style="fill:none;stroke-width:0.3;stroke-linecap:butt;stroke-linejoin:miter;stroke:rgb(0%,0%,0%);stroke-opacity:1;stroke-miterlimit:4;" d="M 93.674293 71.494432 C 93.466495 71.494432 93.258697 71.494432 93.049793 71.494432 " transform="matrix(3.53408,0,0,3.53408,-295.743846,-113.885788)"></path>
<path style="fill:none;stroke-width:0.5;stroke-linecap:butt;stroke-linejoin:miter;stroke:rgb(0%,0%,0%);stroke-opacity:0.596078;stroke-miterlimit:4;" d="M 111.526137 35.888011 C 112.926563 35.888011 114.328095 35.888011 115.728521 35.888011 " transform="matrix(3.53408,0,0,3.53408,-295.743846,-113.885788)"></path>
</g>
</svg>
