<?xml version="1.0"?>

<svg xmlns="http://www.w3.org/2000/svg" xmlns:xlink="http://www.w3.org/1999/xlink" width="786.40823" height="439.051677" viewBox="0 0 786.40823 439.051677" version="1.1">
<defs>
<g>
<symbol overflow="visible" id="glyph0-0">
<path style="stroke:none;" d="M 3 0 L 3 -15 L 15 -15 L 15 0 Z M 3.375 -0.375 L 14.625 -0.375 L 14.625 -14.625 L 3.375 -14.625 Z M 3.375 -0.375 "></path>
</symbol>
<symbol overflow="visible" id="glyph0-1">
<path style="stroke:none;" d="M -0.03125 0 L 6.578125 -17.1875 L 9.03125 -17.1875 L 16.0625 0 Z M 3.125 -2.03125 L 12.6875 -2.03125 L 8.96875 -11.8125 C 8.414062 -13.28125 8.007812 -14.46875 7.75 -15.375 C 7.539062 -14.3125 7.234375 -13.21875 6.828125 -12.09375 Z M 3.125 -2.03125 "></path>
</symbol>
<symbol overflow="visible" id="glyph0-2">
<path style="stroke:none;" d="M 1.90625 0 L 1.90625 -17.1875 L 14.328125 -17.1875 L 14.328125 -15.15625 L 4.171875 -15.15625 L 4.171875 -9.890625 L 13.671875 -9.890625 L 13.671875 -7.875 L 4.171875 -7.875 L 4.171875 -2.03125 L 14.71875 -2.03125 L 14.71875 0 Z M 1.90625 0 "></path>
</symbol>
<symbol overflow="visible" id="glyph1-0">
<path style="stroke:none;" d="M 3.671875 0 L 3.671875 -18.328125 L 18.328125 -18.328125 L 18.328125 0 Z M 4.125 -0.453125 L 17.875 -0.453125 L 17.875 -17.875 L 4.125 -17.875 Z M 4.125 -0.453125 "></path>
</symbol>
<symbol overflow="visible" id="glyph1-1">
<path style="stroke:none;" d="M 1.9375 0 L 1.9375 -15.203125 L 4.234375 -15.203125 L 4.234375 -13.078125 C 4.710938 -13.816406 5.347656 -14.410156 6.140625 -14.859375 C 6.929688 -15.316406 7.832031 -15.546875 8.84375 -15.546875 C 9.976562 -15.546875 10.90625 -15.3125 11.625 -14.84375 C 12.34375 -14.382812 12.847656 -13.734375 13.140625 -12.890625 C 14.347656 -14.660156 15.914062 -15.546875 17.84375 -15.546875 C 19.351562 -15.546875 20.515625 -15.128906 21.328125 -14.296875 C 22.140625 -13.460938 22.546875 -12.175781 22.546875 -10.4375 L 22.546875 0 L 19.984375 0 L 19.984375 -9.578125 C 19.984375 -10.609375 19.894531 -11.347656 19.71875 -11.796875 C 19.550781 -12.253906 19.25 -12.617188 18.8125 -12.890625 C 18.375 -13.171875 17.859375 -13.3125 17.265625 -13.3125 C 16.203125 -13.3125 15.316406 -12.957031 14.609375 -12.25 C 13.898438 -11.539062 13.546875 -10.398438 13.546875 -8.828125 L 13.546875 0 L 10.96875 0 L 10.96875 -9.875 C 10.96875 -11.019531 10.753906 -11.878906 10.328125 -12.453125 C 9.910156 -13.023438 9.226562 -13.3125 8.28125 -13.3125 C 7.550781 -13.3125 6.878906 -13.117188 6.265625 -12.734375 C 5.648438 -12.359375 5.203125 -11.800781 4.921875 -11.0625 C 4.648438 -10.332031 4.515625 -9.273438 4.515625 -7.890625 L 4.515625 0 Z M 1.9375 0 "></path>
</symbol>
<symbol overflow="visible" id="glyph1-2">
<path style="stroke:none;" d=""></path>
</symbol>
<symbol overflow="visible" id="glyph1-3">
<path style="stroke:none;" d="M 0.96875 -7.609375 C 0.96875 -10.421875 1.753906 -12.503906 3.328125 -13.859375 C 4.628906 -14.984375 6.222656 -15.546875 8.109375 -15.546875 C 10.191406 -15.546875 11.894531 -14.859375 13.21875 -13.484375 C 14.550781 -12.117188 15.21875 -10.226562 15.21875 -7.8125 C 15.21875 -5.863281 14.925781 -4.328125 14.34375 -3.203125 C 13.757812 -2.078125 12.90625 -1.203125 11.78125 -0.578125 C 10.65625 0.0351562 9.429688 0.34375 8.109375 0.34375 C 5.972656 0.34375 4.25 -0.335938 2.9375 -1.703125 C 1.625 -3.066406 0.96875 -5.035156 0.96875 -7.609375 Z M 3.625 -7.609375 C 3.625 -5.660156 4.046875 -4.203125 4.890625 -3.234375 C 5.742188 -2.265625 6.816406 -1.78125 8.109375 -1.78125 C 9.390625 -1.78125 10.453125 -2.265625 11.296875 -3.234375 C 12.148438 -4.210938 12.578125 -5.695312 12.578125 -7.6875 C 12.578125 -9.570312 12.148438 -11 11.296875 -11.96875 C 10.441406 -12.9375 9.378906 -13.421875 8.109375 -13.421875 C 6.816406 -13.421875 5.742188 -12.9375 4.890625 -11.96875 C 4.046875 -11.007812 3.625 -9.554688 3.625 -7.609375 Z M 3.625 -7.609375 "></path>
</symbol>
<symbol overflow="visible" id="glyph1-4">
<path style="stroke:none;" d="M 1.90625 0 L 1.90625 -15.203125 L 4.21875 -15.203125 L 4.21875 -12.90625 C 4.8125 -13.976562 5.359375 -14.6875 5.859375 -15.03125 C 6.359375 -15.375 6.910156 -15.546875 7.515625 -15.546875 C 8.390625 -15.546875 9.273438 -15.269531 10.171875 -14.71875 L 9.28125 -12.328125 C 8.644531 -12.703125 8.015625 -12.890625 7.390625 -12.890625 C 6.828125 -12.890625 6.320312 -12.71875 5.875 -12.375 C 5.425781 -12.039062 5.101562 -11.570312 4.90625 -10.96875 C 4.625 -10.050781 4.484375 -9.050781 4.484375 -7.96875 L 4.484375 0 Z M 1.90625 0 "></path>
</symbol>
<symbol overflow="visible" id="glyph2-0">
<path style="stroke:none;" d="M 2.390625 0 L 2.390625 -11.921875 L 11.921875 -11.921875 L 11.921875 0 Z M 2.6875 -0.296875 L 11.609375 -0.296875 L 11.609375 -11.609375 L 2.6875 -11.609375 Z M 2.6875 -0.296875 "></path>
</symbol>
<symbol overflow="visible" id="glyph2-1">
<path style="stroke:none;" d="M 1.390625 0 L 1.390625 -13.640625 L 3.203125 -13.640625 L 3.203125 -1.609375 L 9.921875 -1.609375 L 9.921875 0 Z M 1.390625 0 "></path>
</symbol>
<symbol overflow="visible" id="glyph2-2">
<path style="stroke:none;" d="M 1.5 0 L 1.5 -13.640625 L 7.546875 -13.640625 C 8.765625 -13.640625 9.6875 -13.515625 10.3125 -13.265625 C 10.945312 -13.023438 11.453125 -12.59375 11.828125 -11.96875 C 12.210938 -11.351562 12.40625 -10.671875 12.40625 -9.921875 C 12.40625 -8.953125 12.09375 -8.132812 11.46875 -7.46875 C 10.84375 -6.8125 9.875 -6.390625 8.5625 -6.203125 C 9.039062 -5.972656 9.40625 -5.75 9.65625 -5.53125 C 10.175781 -5.039062 10.675781 -4.4375 11.15625 -3.71875 L 13.53125 0 L 11.25 0 L 9.453125 -2.84375 C 8.921875 -3.65625 8.484375 -4.28125 8.140625 -4.71875 C 7.796875 -5.15625 7.488281 -5.457031 7.21875 -5.625 C 6.957031 -5.800781 6.6875 -5.925781 6.40625 -6 C 6.195312 -6.039062 5.863281 -6.0625 5.40625 -6.0625 L 3.296875 -6.0625 L 3.296875 0 Z M 3.296875 -7.625 L 7.1875 -7.625 C 8.007812 -7.625 8.648438 -7.707031 9.109375 -7.875 C 9.578125 -8.050781 9.929688 -8.328125 10.171875 -8.703125 C 10.421875 -9.078125 10.546875 -9.484375 10.546875 -9.921875 C 10.546875 -10.566406 10.3125 -11.097656 9.84375 -11.515625 C 9.375 -11.929688 8.632812 -12.140625 7.625 -12.140625 L 3.296875 -12.140625 Z M 3.296875 -7.625 "></path>
</symbol>
<symbol overflow="visible" id="glyph3-0">
<path style="stroke:none;" d="M 4.328125 0 L 4.328125 -21.671875 L 21.671875 -21.671875 L 21.671875 0 Z M 4.875 -0.546875 L 21.125 -0.546875 L 21.125 -21.125 L 4.875 -21.125 Z M 4.875 -0.546875 "></path>
</symbol>
<symbol overflow="visible" id="glyph3-1">
<path style="stroke:none;" d="M 8.984375 0 L 8.984375 -21.890625 L 0.8125 -21.890625 L 0.8125 -24.8125 L 20.484375 -24.8125 L 20.484375 -21.890625 L 12.28125 -21.890625 L 12.28125 0 Z M 8.984375 0 "></path>
</symbol>
<symbol overflow="visible" id="glyph3-2">
<path style="stroke:none;" d=""></path>
</symbol>
<symbol overflow="visible" id="glyph3-3">
<path style="stroke:none;" d="M 18.3125 -14.59375 L 1.9375 -14.59375 L 1.9375 -17.4375 L 18.3125 -17.4375 Z M 18.3125 -7.0625 L 1.9375 -7.0625 L 1.9375 -9.90625 L 18.3125 -9.90625 Z M 18.3125 -7.0625 "></path>
</symbol>
<symbol overflow="visible" id="glyph3-4">
<path style="stroke:none;" d="M 12.921875 0 L 9.875 0 L 9.875 -19.421875 C 9.132812 -18.722656 8.171875 -18.019531 6.984375 -17.3125 C 5.796875 -16.613281 4.726562 -16.09375 3.78125 -15.75 L 3.78125 -18.6875 C 5.476562 -19.488281 6.960938 -20.457031 8.234375 -21.59375 C 9.515625 -22.738281 10.421875 -23.847656 10.953125 -24.921875 L 12.921875 -24.921875 Z M 12.921875 0 "></path>
</symbol>
<symbol overflow="visible" id="glyph3-5">
<path style="stroke:none;" d="M 6.125 -13.453125 C 4.863281 -13.921875 3.925781 -14.582031 3.3125 -15.4375 C 2.707031 -16.289062 2.40625 -17.316406 2.40625 -18.515625 C 2.40625 -20.328125 3.050781 -21.847656 4.34375 -23.078125 C 5.644531 -24.304688 7.375 -24.921875 9.53125 -24.921875 C 11.695312 -24.921875 13.441406 -24.289062 14.765625 -23.03125 C 16.085938 -21.769531 16.75 -20.238281 16.75 -18.4375 C 16.75 -17.28125 16.445312 -16.273438 15.84375 -15.421875 C 15.238281 -14.578125 14.320312 -13.921875 13.09375 -13.453125 C 14.613281 -12.960938 15.769531 -12.160156 16.5625 -11.046875 C 17.363281 -9.941406 17.765625 -8.625 17.765625 -7.09375 C 17.765625 -4.96875 17.007812 -3.179688 15.5 -1.734375 C 14 -0.296875 12.023438 0.421875 9.578125 0.421875 C 7.128906 0.421875 5.15625 -0.300781 3.65625 -1.75 C 2.15625 -3.195312 1.40625 -5.003906 1.40625 -7.171875 C 1.40625 -8.785156 1.8125 -10.132812 2.625 -11.21875 C 3.445312 -12.3125 4.613281 -13.054688 6.125 -13.453125 Z M 5.515625 -18.625 C 5.515625 -17.445312 5.890625 -16.484375 6.640625 -15.734375 C 7.398438 -14.992188 8.382812 -14.625 9.59375 -14.625 C 10.769531 -14.625 11.734375 -14.992188 12.484375 -15.734375 C 13.234375 -16.472656 13.609375 -17.378906 13.609375 -18.453125 C 13.609375 -19.566406 13.222656 -20.503906 12.453125 -21.265625 C 11.679688 -22.035156 10.71875 -22.421875 9.5625 -22.421875 C 8.40625 -22.421875 7.441406 -22.046875 6.671875 -21.296875 C 5.898438 -20.554688 5.515625 -19.664062 5.515625 -18.625 Z M 4.53125 -7.15625 C 4.53125 -6.289062 4.734375 -5.453125 5.140625 -4.640625 C 5.554688 -3.828125 6.171875 -3.195312 6.984375 -2.75 C 7.796875 -2.300781 8.671875 -2.078125 9.609375 -2.078125 C 11.066406 -2.078125 12.269531 -2.546875 13.21875 -3.484375 C 14.164062 -4.421875 14.640625 -5.613281 14.640625 -7.0625 C 14.640625 -8.53125 14.148438 -9.742188 13.171875 -10.703125 C 12.203125 -11.660156 10.984375 -12.140625 9.515625 -12.140625 C 8.078125 -12.140625 6.882812 -11.664062 5.9375 -10.71875 C 5 -9.769531 4.53125 -8.582031 4.53125 -7.15625 Z M 4.53125 -7.15625 "></path>
</symbol>
<symbol overflow="visible" id="glyph3-6">
<path style="stroke:none;" d="M 2.171875 -20.546875 C 2.171875 -21.847656 2.628906 -22.953125 3.546875 -23.859375 C 4.460938 -24.773438 5.566406 -25.234375 6.859375 -25.234375 C 8.171875 -25.234375 9.28125 -24.773438 10.1875 -23.859375 C 11.101562 -22.953125 11.5625 -21.847656 11.5625 -20.546875 C 11.5625 -19.253906 11.097656 -18.144531 10.171875 -17.21875 C 9.253906 -16.300781 8.148438 -15.84375 6.859375 -15.84375 C 5.566406 -15.84375 4.460938 -16.300781 3.546875 -17.21875 C 2.628906 -18.132812 2.171875 -19.242188 2.171875 -20.546875 Z M 4.015625 -20.546875 C 4.015625 -19.765625 4.289062 -19.09375 4.84375 -18.53125 C 5.40625 -17.96875 6.082031 -17.6875 6.875 -17.6875 C 7.65625 -17.6875 8.320312 -17.96875 8.875 -18.53125 C 9.4375 -19.09375 9.71875 -19.765625 9.71875 -20.546875 C 9.71875 -21.335938 9.4375 -22.007812 8.875 -22.5625 C 8.320312 -23.125 7.65625 -23.40625 6.875 -23.40625 C 6.082031 -23.40625 5.40625 -23.125 4.84375 -22.5625 C 4.289062 -22.007812 4.015625 -21.335938 4.015625 -20.546875 Z M 4.015625 -20.546875 "></path>
</symbol>
<symbol overflow="visible" id="glyph3-7">
<path style="stroke:none;" d="M 20.390625 -8.703125 L 23.671875 -7.875 C 22.984375 -5.175781 21.742188 -3.117188 19.953125 -1.703125 C 18.160156 -0.285156 15.972656 0.421875 13.390625 0.421875 C 10.710938 0.421875 8.535156 -0.117188 6.859375 -1.203125 C 5.179688 -2.296875 3.90625 -3.875 3.03125 -5.9375 C 2.164062 -8.007812 1.734375 -10.226562 1.734375 -12.59375 C 1.734375 -15.175781 2.222656 -17.429688 3.203125 -19.359375 C 4.191406 -21.285156 5.597656 -22.742188 7.421875 -23.734375 C 9.242188 -24.734375 11.25 -25.234375 13.4375 -25.234375 C 15.925781 -25.234375 18.015625 -24.601562 19.703125 -23.34375 C 21.398438 -22.082031 22.582031 -20.304688 23.25 -18.015625 L 20.015625 -17.25 C 19.429688 -19.050781 18.59375 -20.363281 17.5 -21.1875 C 16.40625 -22.019531 15.03125 -22.4375 13.375 -22.4375 C 11.46875 -22.4375 9.875 -21.976562 8.59375 -21.0625 C 7.3125 -20.144531 6.410156 -18.914062 5.890625 -17.375 C 5.367188 -15.832031 5.109375 -14.242188 5.109375 -12.609375 C 5.109375 -10.503906 5.414062 -8.660156 6.03125 -7.078125 C 6.644531 -5.503906 7.601562 -4.328125 8.90625 -3.546875 C 10.207031 -2.773438 11.613281 -2.390625 13.125 -2.390625 C 14.957031 -2.390625 16.507812 -2.914062 17.78125 -3.96875 C 19.0625 -5.03125 19.929688 -6.609375 20.390625 -8.703125 Z M 20.390625 -8.703125 "></path>
</symbol>
<symbol overflow="visible" id="glyph3-8">
<path style="stroke:none;" d="M 1.453125 -6.546875 L 4.5 -6.953125 C 4.851562 -5.234375 5.445312 -3.988281 6.28125 -3.21875 C 7.125 -2.457031 8.148438 -2.078125 9.359375 -2.078125 C 10.796875 -2.078125 12.003906 -2.570312 12.984375 -3.5625 C 13.972656 -4.5625 14.46875 -5.796875 14.46875 -7.265625 C 14.46875 -8.660156 14.007812 -9.8125 13.09375 -10.71875 C 12.1875 -11.632812 11.023438 -12.09375 9.609375 -12.09375 C 9.035156 -12.09375 8.320312 -11.976562 7.46875 -11.75 L 7.796875 -14.421875 C 8.003906 -14.398438 8.171875 -14.390625 8.296875 -14.390625 C 9.597656 -14.390625 10.765625 -14.726562 11.796875 -15.40625 C 12.835938 -16.082031 13.359375 -17.125 13.359375 -18.53125 C 13.359375 -19.65625 12.976562 -20.582031 12.21875 -21.3125 C 11.46875 -22.050781 10.492188 -22.421875 9.296875 -22.421875 C 8.109375 -22.421875 7.117188 -22.046875 6.328125 -21.296875 C 5.535156 -20.554688 5.03125 -19.441406 4.8125 -17.953125 L 1.765625 -18.484375 C 2.128906 -20.523438 2.972656 -22.109375 4.296875 -23.234375 C 5.617188 -24.359375 7.265625 -24.921875 9.234375 -24.921875 C 10.585938 -24.921875 11.832031 -24.628906 12.96875 -24.046875 C 14.101562 -23.460938 14.972656 -22.664062 15.578125 -21.65625 C 16.179688 -20.65625 16.484375 -19.59375 16.484375 -18.46875 C 16.484375 -17.394531 16.195312 -16.414062 15.625 -15.53125 C 15.050781 -14.65625 14.195312 -13.957031 13.0625 -13.4375 C 14.53125 -13.101562 15.671875 -12.398438 16.484375 -11.328125 C 17.296875 -10.265625 17.703125 -8.929688 17.703125 -7.328125 C 17.703125 -5.160156 16.910156 -3.320312 15.328125 -1.8125 C 13.753906 -0.3125 11.757812 0.4375 9.34375 0.4375 C 7.164062 0.4375 5.359375 -0.207031 3.921875 -1.5 C 2.484375 -2.800781 1.660156 -4.484375 1.453125 -6.546875 Z M 1.453125 -6.546875 "></path>
</symbol>
</g>
</defs>
<g id="surface1">
<path style="fill:none;stroke-width:1;stroke-linecap:butt;stroke-linejoin:miter;stroke:rgb(0%,0%,0%);stroke-opacity:1;stroke-miterlimit:4;" d="M 37.04126 87.312833 C 42.332928 104.952071 47.620462 122.574772 53.958061 122.724634 C 60.29566 122.874496 67.659554 105.555652 72.171941 95.419834 C 76.684328 85.282982 78.329706 82.36533 79.589578 80.979368 C 80.84945 79.593405 81.712447 79.753602 85.129293 87.637361 C 88.547173 95.521119 94.516836 111.121205 101.449748 110.298516 C 108.383694 109.474793 116.254017 92.237598 124.132607 74.982833 " transform="matrix(3.779527,0,0,3.779527,252.462512,-144.837109)"></path>
<path style=" stroke:none;fill-rule:nonzero;fill:rgb(0%,56.862748%,0%);fill-opacity:1;" d="M 418.761719 252.738281 C 431.09375 283.738281 443.425781 314.738281 457.425781 314.738281 C 471.425781 314.734375 487.09375 283.738281 502.761719 252.738281 "></path>
<path style="fill:none;stroke-width:1;stroke-linecap:butt;stroke-linejoin:miter;stroke:rgb(0%,0%,0%);stroke-opacity:1;stroke-miterlimit:4;" d="M 31.749406 87.311965 C 37.041074 104.951203 42.328607 122.574937 48.507043 122.574937 C 54.686512 122.574937 61.733112 104.957404 67.468164 90.841467 C 73.202182 76.725529 77.599847 66.171132 81.799075 64.62394 C 85.999337 63.076747 89.959819 70.558462 93.926503 77.17098 C 97.89422 83.783498 101.859871 89.511315 106.716423 87.303697 C 111.571942 85.097113 117.298725 74.965429 123.030676 64.822377 " transform="matrix(3.779527,0,0,3.779527,-108.739915,-147.919781)"></path>
<path style=" stroke:none;fill-rule:nonzero;fill:rgb(0%,56.078434%,0%);fill-opacity:1;" d="M 36.257812 247.078125 C 48.59375 278.082031 60.925781 309.078125 74.925781 309.078125 C 88.925781 309.078125 104.59375 278.078125 120.257812 247.078125 "></path>
<path style=" stroke:none;fill-rule:nonzero;fill:rgb(54.901963%,0%,81.960785%);fill-opacity:1;" d="M 246.328125 132.222656 C 259.386719 155.8125 272.449219 179.402344 286.488281 179.445312 C 300.527344 179.484375 315.542969 155.976562 330.558594 132.46875 "></path>
<path style=" stroke:none;fill-rule:nonzero;fill:rgb(54.901963%,0%,81.960785%);fill-opacity:1;" d="M 246.328125 132.222656 C 274.40625 132.304688 302.484375 132.386719 330.558594 132.46875 "></path>
<path style="fill:none;stroke-width:0.98629;stroke-linecap:butt;stroke-linejoin:miter;stroke:rgb(89.019608%,0.784314%,5.882353%);stroke-opacity:1;stroke-miterlimit:4;" d="M 83.019673 66.927675 C 83.019673 85.489854 83.019673 104.053066 83.019673 122.615245 " transform="matrix(3.779527,0,0,3.779527,-108.739915,-147.919781)"></path>
<path style="fill-rule:evenodd;fill:rgb(89.019608%,0.784314%,5.882353%);fill-opacity:1;stroke-width:0.625;stroke-linecap:butt;stroke-linejoin:round;stroke:rgb(89.019608%,0.784314%,5.882353%);stroke-opacity:1;stroke-miterlimit:4;" d="M 8.716322 4.034036 L -2.206245 0.0171027 L 8.716322 -3.999831 C 6.973322 -1.628094 6.983801 1.61689 8.716322 4.034036 Z M 8.716322 4.034036 " transform="matrix(0,1.118313,-1.118313,0,205.034751,102.463365)"></path>
<path style="fill-rule:evenodd;fill:rgb(89.019608%,0.784314%,5.882353%);fill-opacity:1;stroke-width:0.625;stroke-linecap:butt;stroke-linejoin:round;stroke:rgb(89.019608%,0.784314%,5.882353%);stroke-opacity:1;stroke-miterlimit:4;" d="M 8.719142 4.031268 L -2.206917 0.0143341 L 8.719142 -4.002599 C 6.972649 -1.630862 6.983128 1.614122 8.719142 4.031268 Z M 8.719142 4.031268 " transform="matrix(0,-1.118313,1.118313,0,205.034751,318.078852)"></path>
<path style=" stroke:none;fill-rule:nonzero;fill:rgb(89.019608%,0.784314%,5.882353%);fill-opacity:1;" d="M 217.789062 239.15625 L 224.398438 221.96875 L 226.851562 221.96875 L 233.882812 239.15625 Z M 220.945312 237.125 L 230.507812 237.125 L 226.789062 227.34375 C 226.234375 225.875 225.828125 224.6875 225.570312 223.78125 C 225.359375 224.84375 225.054688 225.9375 224.648438 227.0625 Z M 220.945312 237.125 "></path>
<path style=" stroke:none;fill-rule:nonzero;fill:rgb(89.019608%,0.784314%,5.882353%);fill-opacity:1;" d="M 235.753906 239.15625 L 235.753906 221.96875 L 248.175781 221.96875 L 248.175781 224 L 238.019531 224 L 238.019531 229.265625 L 247.519531 229.265625 L 247.519531 231.28125 L 238.019531 231.28125 L 238.019531 237.125 L 248.566406 237.125 L 248.566406 239.15625 Z M 235.753906 239.15625 "></path>
<path style=" stroke:none;fill-rule:nonzero;fill:rgb(55.29412%,0%,82.745099%);fill-opacity:1;" d="M 593.320312 221.085938 C 606.382812 244.675781 619.445312 268.265625 633.484375 268.304688 C 647.523438 268.347656 662.539062 244.839844 677.554688 221.332031 "></path>
<path style=" stroke:none;fill-rule:nonzero;fill:rgb(55.29412%,0%,82.745099%);fill-opacity:1;" d="M 593.320312 221.085938 C 621.398438 221.167969 649.476562 221.25 677.554688 221.332031 "></path>
<path style="fill:none;stroke-width:1;stroke-linecap:butt;stroke-linejoin:miter;stroke:rgb(89.411765%,1.568628%,6.666667%);stroke-opacity:1;stroke-miterlimit:4;" d="M 80.67375 82.569969 C 80.67375 95.919028 80.67375 109.267054 80.67375 122.61508 " transform="matrix(3.779527,0,0,3.779527,252.462512,-144.837109)"></path>
<path style="fill-rule:evenodd;fill:rgb(89.411765%,1.568628%,6.666667%);fill-opacity:1;stroke-width:0.625;stroke-linecap:butt;stroke-linejoin:round;stroke:rgb(89.411765%,1.568628%,6.666667%);stroke-opacity:1;stroke-miterlimit:4;" d="M 8.720231 4.032591 L -2.207614 0.0156088 L 8.720231 -4.001373 C 6.973567 -1.631147 6.983903 1.614133 8.720231 4.032591 Z M 8.720231 4.032591 " transform="matrix(0.000000000000000069,1.133858,-1.133858,0.000000000000000069,557.369261,164.632027)"></path>
<path style="fill-rule:evenodd;fill:rgb(89.411765%,1.568628%,6.666667%);fill-opacity:1;stroke-width:0.625;stroke-linecap:butt;stroke-linejoin:round;stroke:rgb(89.411765%,1.568628%,6.666667%);stroke-opacity:1;stroke-miterlimit:4;" d="M 8.717847 4.032379 L -2.206553 0.0153971 L 8.717847 -4.001585 C 6.974629 -1.631359 6.981519 1.617367 8.717847 4.032379 Z M 8.717847 4.032379 " transform="matrix(-0.000000000000000069,-1.133858,1.133858,-0.000000000000000069,557.369261,321.197301)"></path>
<g style="fill:rgb(89.411765%,1.568628%,6.666667%);fill-opacity:1;"> <use xlink:href="#glyph0-1" x="570.132812" y="291.873333"></use>
</g>
<g style="fill:rgb(89.411765%,1.568628%,6.666667%);fill-opacity:1;"> <use xlink:href="#glyph0-2" x="586.158891" y="291.873333"></use>
</g>
<path style="fill:none;stroke-width:1;stroke-linecap:butt;stroke-linejoin:miter;stroke:rgb(0%,0%,0%);stroke-opacity:1;stroke-miterlimit:4;" d="M -63.500433 129.646177 C -34.395226 129.646177 -5.291051 129.646177 23.81209 129.646177 " transform="matrix(3.779527,0,0,3.779527,252.462512,-144.837109)"></path>
<path style="fill-rule:evenodd;fill:rgb(0%,0%,0%);fill-opacity:1;stroke-width:0.625;stroke-linecap:butt;stroke-linejoin:round;stroke:rgb(0%,0%,0%);stroke-opacity:1;stroke-miterlimit:4;" d="M 8.7185 4.033629 L -2.207623 0.0166467 L 8.7185 -4.002058 C 6.973559 -1.630109 6.983894 1.615171 8.7185 4.033629 Z M 8.7185 4.033629 " transform="matrix(-2.267716,0,0,-2.267716,342.462489,345.16275)"></path>
<path style="fill:none;stroke-width:1;stroke-linecap:butt;stroke-linejoin:miter;stroke:rgb(0%,0%,0%);stroke-opacity:1;stroke-miterlimit:4;" d="M 42.332928 129.646177 C 71.438136 129.646177 100.54231 129.646177 129.645451 129.646177 " transform="matrix(3.779527,0,0,3.779527,252.462512,-144.837109)"></path>
<path style="fill-rule:evenodd;fill:rgb(0%,0%,0%);fill-opacity:1;stroke-width:0.625;stroke-linecap:butt;stroke-linejoin:round;stroke:rgb(0%,0%,0%);stroke-opacity:1;stroke-miterlimit:4;" d="M 8.718482 4.033629 L -2.207641 0.0166467 L 8.718482 -4.002058 C 6.97354 -1.630109 6.983876 1.615171 8.718482 4.033629 Z M 8.718482 4.033629 " transform="matrix(-2.267716,0,0,-2.267716,742.462447,345.16275)"></path>
<g style="fill:rgb(78.039217%,0%,0%);fill-opacity:1;"> <use xlink:href="#glyph1-1" x="121.660156" y="373.162026"></use>
</g>
<g style="fill:rgb(78.039217%,0%,0%);fill-opacity:1;"> <use xlink:href="#glyph2-1" x="146.09375" y="376.977388"></use>
</g>
<g style="fill:rgb(0%,0%,0%);fill-opacity:1;"> <use xlink:href="#glyph1-2" x="156.691406" y="373.162026"></use> <use xlink:href="#glyph1-3" x="164.837319" y="373.162026"></use> <use xlink:href="#glyph1-4" x="181.147601" y="373.162026"></use> <use xlink:href="#glyph1-2" x="190.913838" y="373.162026"></use>
</g>
<g style="fill:rgb(23.921569%,21.960784%,70.980394%);fill-opacity:1;"> <use xlink:href="#glyph1-1" x="199.0625" y="373.162026"></use>
</g>
<g style="fill:rgb(23.921569%,21.960784%,70.980394%);fill-opacity:1;"> <use xlink:href="#glyph2-2" x="223.492188" y="376.977388"></use>
</g>
<g style="fill:rgb(78.039217%,0%,0%);fill-opacity:1;"> <use xlink:href="#glyph1-1" x="521.660156" y="373.162026"></use>
</g>
<g style="fill:rgb(78.039217%,0%,0%);fill-opacity:1;"> <use xlink:href="#glyph2-1" x="546.09375" y="376.977388"></use>
</g>
<g style="fill:rgb(0%,0%,0%);fill-opacity:1;"> <use xlink:href="#glyph1-2" x="556.691406" y="373.162026"></use> <use xlink:href="#glyph1-3" x="564.837319" y="373.162026"></use> <use xlink:href="#glyph1-4" x="581.147601" y="373.162026"></use> <use xlink:href="#glyph1-2" x="590.913838" y="373.162026"></use>
</g>
<g style="fill:rgb(23.921569%,21.960784%,70.980394%);fill-opacity:1;"> <use xlink:href="#glyph1-1" x="599.058594" y="373.162026"></use>
</g>
<g style="fill:rgb(23.921569%,21.960784%,70.980394%);fill-opacity:1;"> <use xlink:href="#glyph2-2" x="623.492188" y="376.977388"></use>
</g>
<path style="fill:none;stroke-width:1;stroke-linecap:butt;stroke-linejoin:miter;stroke:rgb(0%,0%,0%);stroke-opacity:1;stroke-miterlimit:4;" d="M 32.278758 129.646177 C 32.278758 100.540969 32.278758 71.436795 32.278758 42.333654 " transform="matrix(3.779527,0,0,3.779527,252.462512,-144.837109)"></path>
<path style="fill-rule:evenodd;fill:rgb(0%,0%,0%);fill-opacity:1;stroke-width:0.625;stroke-linecap:butt;stroke-linejoin:round;stroke:rgb(0%,0%,0%);stroke-opacity:1;stroke-miterlimit:4;" d="M 8.71835 4.033176 L -2.207773 0.0161938 L 8.71835 -4.002511 C 6.973409 -1.62884 6.983744 1.616441 8.71835 4.033176 Z M 8.71835 4.033176 " transform="matrix(0.000000000000000417,2.267716,-2.267716,0.000000000000000417,374.462504,15.162852)"></path>
<g style="fill:rgb(0%,0%,0%);fill-opacity:1;"> <use xlink:href="#glyph3-1" x="111.839844" y="429.161655"></use> <use xlink:href="#glyph3-2" x="132.383638" y="429.161655"></use> <use xlink:href="#glyph3-3" x="142.01331" y="429.161655"></use> <use xlink:href="#glyph3-2" x="162.254447" y="429.161655"></use> <use xlink:href="#glyph3-4" x="171.884119" y="429.161655"></use> <use xlink:href="#glyph3-5" x="191.158228" y="429.161655"></use> <use xlink:href="#glyph3-6" x="210.432338" y="429.161655"></use> <use xlink:href="#glyph3-7" x="224.291832" y="429.161655"></use>
</g>
<g style="fill:rgb(0%,0%,0%);fill-opacity:1;"> <use xlink:href="#glyph3-1" x="511.839844" y="429.161655"></use> <use xlink:href="#glyph3-2" x="532.383638" y="429.161655"></use> <use xlink:href="#glyph3-3" x="542.01331" y="429.161655"></use> <use xlink:href="#glyph3-2" x="562.254447" y="429.161655"></use> <use xlink:href="#glyph3-8" x="571.884119" y="429.161655"></use> <use xlink:href="#glyph3-8" x="591.158228" y="429.161655"></use> <use xlink:href="#glyph3-6" x="610.432338" y="429.161655"></use> <use xlink:href="#glyph3-7" x="624.291832" y="429.161655"></use>
</g>
<path style=" stroke:none;fill-rule:nonzero;fill:rgb(0%,0%,0%);fill-opacity:1;" d="M 417.96875 35.792969 C 418.027344 35.621094 418.140625 35.390625 418.140625 35.277344 C 418.140625 35.277344 418.140625 34.875 417.683594 34.875 C 417.339844 34.875 417.28125 35.105469 417.226562 35.335938 C 414.820312 40.71875 413.5 43.183594 407.257812 43.183594 L 401.929688 43.183594 C 401.414062 43.183594 401.296875 43.183594 401.125 43.183594 C 400.726562 43.125 400.609375 43.070312 400.609375 42.78125 C 400.609375 42.667969 400.609375 42.609375 400.78125 41.980469 L 403.304688 31.953125 L 406.914062 31.953125 C 410.007812 31.953125 410.007812 32.757812 410.007812 33.671875 C 410.007812 33.902344 410.007812 34.359375 409.777344 35.449219 C 409.71875 35.621094 409.664062 35.734375 409.664062 35.851562 C 409.664062 36.023438 409.777344 36.25 410.121094 36.25 C 410.40625 36.25 410.523438 36.078125 410.695312 35.507812 L 412.757812 26.96875 C 412.757812 26.742188 412.585938 26.570312 412.296875 26.570312 C 412.011719 26.570312 411.898438 26.796875 411.839844 27.199219 C 411.039062 30.007812 410.40625 30.867188 407.027344 30.867188 L 403.589844 30.867188 L 405.765625 22.042969 C 406.109375 20.726562 406.167969 20.609375 407.773438 20.609375 L 412.929688 20.609375 C 417.339844 20.609375 418.484375 21.640625 418.484375 24.679688 C 418.484375 25.539062 418.484375 25.59375 418.3125 26.625 C 418.3125 26.796875 418.257812 27.085938 418.257812 27.257812 C 418.257812 27.429688 418.371094 27.714844 418.714844 27.714844 C 419.117188 27.714844 419.171875 27.484375 419.230469 26.796875 L 419.976562 20.4375 C 420.089844 19.464844 419.917969 19.464844 419 19.464844 L 400.496094 19.464844 C 399.808594 19.464844 399.40625 19.464844 399.40625 20.210938 C 399.40625 20.609375 399.75 20.609375 400.4375 20.609375 C 401.8125 20.609375 402.84375 20.609375 402.84375 21.242188 C 402.84375 21.414062 402.84375 21.46875 402.617188 22.15625 L 397.804688 41.464844 C 397.460938 42.898438 397.402344 43.183594 394.480469 43.183594 C 393.851562 43.183594 393.449219 43.183594 393.449219 43.871094 C 393.449219 44.328125 393.792969 44.328125 394.480469 44.328125 L 413.445312 44.328125 C 414.304688 44.328125 414.359375 44.273438 414.589844 43.699219 Z M 417.96875 35.792969 "></path>
<path style=" stroke:none;fill-rule:nonzero;fill:rgb(0%,0%,0%);fill-opacity:1;" d="M 433.234375 53.09375 C 433.234375 52.980469 433.234375 52.921875 432.605469 52.292969 C 428.078125 47.710938 426.875 40.777344 426.875 35.164062 C 426.875 28.804688 428.25 22.445312 432.777344 17.917969 C 433.234375 17.460938 433.234375 17.402344 433.234375 17.289062 C 433.234375 17 433.121094 16.886719 432.890625 16.886719 C 432.492188 16.886719 429.226562 19.40625 427.046875 24.046875 C 425.214844 28.058594 424.757812 32.125 424.757812 35.164062 C 424.757812 38.027344 425.15625 42.4375 427.164062 46.621094 C 429.398438 51.089844 432.492188 53.496094 432.890625 53.496094 C 433.121094 53.496094 433.234375 53.382812 433.234375 53.09375 Z M 433.234375 53.09375 "></path>
<path style=" stroke:none;fill-rule:nonzero;fill:rgb(0%,0%,0%);fill-opacity:1;" d="M 443.085938 33.558594 C 441.710938 33.328125 439.363281 32.929688 439.363281 31.210938 C 439.363281 28.917969 442.742188 28.917969 443.429688 28.917969 C 446.179688 28.917969 447.554688 30.007812 447.726562 32.011719 C 447.785156 32.585938 447.839844 32.757812 448.585938 32.757812 C 449.445312 32.757812 449.445312 32.585938 449.445312 31.726562 L 449.445312 28.804688 C 449.445312 28.117188 449.445312 27.773438 448.816406 27.773438 C 448.644531 27.773438 448.585938 27.773438 447.152344 28.460938 C 446.179688 28 444.917969 27.773438 443.488281 27.773438 C 442.339844 27.773438 436.726562 27.773438 436.726562 32.585938 C 436.726562 34.015625 437.472656 34.992188 438.214844 35.621094 C 439.648438 36.882812 441.082031 37.109375 443.886719 37.625 C 445.207031 37.855469 447.898438 38.3125 447.898438 40.492188 C 447.898438 43.242188 444.574219 43.242188 443.773438 43.242188 C 439.878906 43.242188 438.960938 40.546875 438.503906 39 C 438.332031 38.484375 438.101562 38.484375 437.644531 38.484375 C 436.726562 38.484375 436.726562 38.714844 436.726562 39.515625 L 436.726562 43.527344 C 436.726562 44.214844 436.726562 44.558594 437.414062 44.558594 C 437.644531 44.558594 437.699219 44.558594 438.503906 43.984375 C 438.558594 43.984375 439.363281 43.46875 439.417969 43.355469 C 441.136719 44.558594 443.027344 44.558594 443.773438 44.558594 C 444.917969 44.558594 450.535156 44.558594 450.535156 39.230469 C 450.535156 37.625 449.789062 36.367188 448.527344 35.335938 C 447.097656 34.304688 445.894531 34.074219 443.085938 33.558594 Z M 443.085938 33.558594 "></path>
<path style=" stroke:none;fill-rule:nonzero;fill:rgb(0%,0%,0%);fill-opacity:1;" d="M 462.460938 35.164062 C 462.460938 32.355469 462.0625 27.945312 460.054688 23.761719 C 457.878906 19.292969 454.726562 16.886719 454.382812 16.886719 C 454.15625 16.886719 453.984375 17.058594 453.984375 17.289062 C 453.984375 17.402344 453.984375 17.460938 454.671875 18.148438 C 458.28125 21.757812 460.34375 27.542969 460.34375 35.164062 C 460.34375 41.464844 459.023438 47.882812 454.5 52.464844 C 453.984375 52.921875 453.984375 52.980469 453.984375 53.09375 C 453.984375 53.324219 454.15625 53.496094 454.382812 53.496094 C 454.726562 53.496094 458.050781 50.976562 460.171875 46.335938 C 462.0625 42.324219 462.460938 38.257812 462.460938 35.164062 Z M 462.460938 35.164062 "></path>
<path style=" stroke:none;fill-rule:nonzero;fill:rgb(0%,0%,0%);fill-opacity:1;" d="M 501.375 32.355469 C 501.949219 32.355469 502.636719 32.355469 502.636719 31.667969 C 502.636719 30.921875 501.949219 30.921875 501.433594 30.921875 L 479.546875 30.921875 C 479.03125 30.921875 478.34375 30.921875 478.34375 31.667969 C 478.34375 32.355469 479.03125 32.355469 479.546875 32.355469 Z M 501.433594 39.460938 C 501.949219 39.460938 502.636719 39.460938 502.636719 38.714844 C 502.636719 38.027344 501.949219 38.027344 501.375 38.027344 L 479.546875 38.027344 C 479.03125 38.027344 478.34375 38.027344 478.34375 38.714844 C 478.34375 39.460938 479.03125 39.460938 479.546875 39.460938 Z M 501.433594 39.460938 "></path>
<path style=" stroke:none;fill-rule:nonzero;fill:rgb(0%,0%,0%);fill-opacity:1;" d="M 538.894531 35.90625 C 539.527344 35.90625 540.214844 35.90625 540.214844 35.164062 C 540.214844 34.476562 539.527344 34.476562 538.894531 34.476562 L 519.128906 34.476562 C 518.5 34.476562 517.871094 34.476562 517.871094 35.164062 C 517.871094 35.90625 518.5 35.90625 519.128906 35.90625 Z M 538.894531 35.90625 "></path>
<path style=" stroke:none;fill-rule:nonzero;fill:rgb(0%,0%,0%);fill-opacity:1;" d="M 555.808594 18.949219 L 550.535156 19.351562 L 550.535156 20.496094 C 553.113281 20.496094 553.402344 20.726562 553.402344 22.558594 L 553.402344 41.578125 C 553.402344 43.183594 553 43.183594 550.535156 43.183594 L 550.535156 44.328125 C 551.738281 44.273438 553.6875 44.214844 554.605469 44.214844 C 555.519531 44.214844 557.296875 44.273438 558.671875 44.328125 L 558.671875 43.183594 C 556.207031 43.183594 555.808594 43.183594 555.808594 41.578125 Z M 555.808594 18.949219 "></path>
<path style=" stroke:none;fill-rule:nonzero;fill:rgb(0%,0%,0%);fill-opacity:1;" d="M 576.667969 36.480469 C 576.667969 31.839844 573.058594 27.945312 568.648438 27.945312 C 564.066406 27.945312 560.511719 31.953125 560.511719 36.480469 C 560.511719 41.234375 564.292969 44.730469 568.589844 44.730469 C 573.003906 44.730469 576.667969 41.121094 576.667969 36.480469 Z M 568.648438 43.8125 C 567.042969 43.8125 565.441406 43.070312 564.464844 41.351562 C 563.550781 39.746094 563.550781 37.511719 563.550781 36.195312 C 563.550781 34.761719 563.550781 32.8125 564.410156 31.210938 C 565.382812 29.546875 567.101562 28.746094 568.589844 28.746094 C 570.195312 28.746094 571.742188 29.546875 572.714844 31.152344 C 573.691406 32.699219 573.691406 34.820312 573.691406 36.195312 C 573.691406 37.511719 573.691406 39.515625 572.886719 41.121094 C 572.027344 42.78125 570.425781 43.8125 568.648438 43.8125 Z M 568.648438 43.8125 "></path>
<path style=" stroke:none;fill-rule:nonzero;fill:rgb(0%,0%,0%);fill-opacity:1;" d="M 585.882812 38.027344 C 582.671875 38.027344 582.671875 34.359375 582.671875 33.558594 C 582.671875 32.585938 582.730469 31.382812 583.246094 30.464844 C 583.53125 30.0625 584.390625 29.03125 585.882812 29.03125 C 589.03125 29.03125 589.03125 32.640625 589.03125 33.5 C 589.03125 34.476562 589.03125 35.679688 588.460938 36.59375 C 588.171875 36.996094 587.3125 38.027344 585.882812 38.027344 Z M 581.640625 39.460938 C 581.640625 39.34375 581.640625 38.484375 582.214844 37.742188 C 583.648438 38.773438 585.195312 38.886719 585.882812 38.886719 C 589.261719 38.886719 591.78125 36.367188 591.78125 33.558594 C 591.78125 32.183594 591.210938 30.867188 590.292969 30.007812 C 591.609375 28.746094 592.929688 28.574219 593.558594 28.574219 C 593.671875 28.574219 593.84375 28.574219 593.960938 28.632812 C 593.558594 28.746094 593.328125 29.148438 593.328125 29.605469 C 593.328125 30.234375 593.84375 30.636719 594.417969 30.636719 C 594.761719 30.636719 595.449219 30.40625 595.449219 29.546875 C 595.449219 28.917969 595.046875 27.773438 593.617188 27.773438 C 592.871094 27.773438 591.265625 28 589.71875 29.492188 C 588.171875 28.289062 586.683594 28.171875 585.882812 28.171875 C 582.445312 28.171875 579.921875 30.695312 579.921875 33.5 C 579.921875 35.105469 580.726562 36.480469 581.640625 37.28125 C 581.183594 37.796875 580.496094 39 580.496094 40.320312 C 580.496094 41.464844 581.011719 42.839844 582.15625 43.585938 C 579.921875 44.15625 578.777344 45.761719 578.777344 47.195312 C 578.777344 49.828125 582.386719 51.835938 586.855469 51.835938 C 591.152344 51.835938 594.933594 50 594.933594 47.136719 C 594.933594 45.875 594.476562 43.984375 592.585938 42.953125 C 590.636719 41.980469 588.515625 41.980469 586.28125 41.980469 C 585.367188 41.980469 583.820312 41.980469 583.53125 41.921875 C 582.386719 41.75 581.640625 40.664062 581.640625 39.460938 Z M 586.914062 51.03125 C 583.1875 51.03125 580.667969 49.140625 580.667969 47.195312 C 580.667969 45.53125 582.042969 44.15625 583.648438 44.101562 L 585.824219 44.101562 C 588.976562 44.101562 593.042969 44.101562 593.042969 47.195312 C 593.042969 49.199219 590.464844 51.03125 586.914062 51.03125 Z M 586.914062 51.03125 "></path>
<path style=" stroke:none;fill-rule:nonzero;fill:rgb(0%,0%,0%);fill-opacity:1;" d="M 614.707031 53.09375 C 614.707031 52.980469 614.707031 52.921875 614.078125 52.292969 C 609.550781 47.710938 608.347656 40.777344 608.347656 35.164062 C 608.347656 28.804688 609.722656 22.445312 614.25 17.917969 C 614.707031 17.460938 614.707031 17.402344 614.707031 17.289062 C 614.707031 17 614.59375 16.886719 614.363281 16.886719 C 613.964844 16.886719 610.699219 19.40625 608.519531 24.046875 C 606.6875 28.058594 606.230469 32.125 606.230469 35.164062 C 606.230469 38.027344 606.628906 42.4375 608.636719 46.621094 C 610.871094 51.089844 613.964844 53.496094 614.363281 53.496094 C 614.59375 53.496094 614.707031 53.382812 614.707031 53.09375 Z M 614.707031 53.09375 "></path>
<path style=" stroke:none;fill-rule:nonzero;fill:rgb(0%,0%,0%);fill-opacity:1;" d="M 627.867188 32.757812 L 634.113281 32.757812 C 639.269531 32.757812 644.367188 28.976562 644.367188 24.90625 C 644.367188 22.042969 641.960938 19.351562 637.148438 19.351562 L 625.347656 19.351562 C 624.660156 19.351562 624.257812 19.351562 624.257812 20.039062 C 624.257812 20.496094 624.542969 20.496094 625.289062 20.496094 C 625.746094 20.496094 626.433594 20.554688 626.835938 20.554688 C 627.464844 20.667969 627.636719 20.726562 627.636719 21.183594 C 627.636719 21.296875 627.636719 21.414062 627.523438 21.871094 L 622.597656 41.464844 C 622.253906 42.898438 622.195312 43.183594 619.273438 43.183594 C 618.699219 43.183594 618.300781 43.183594 618.300781 43.871094 C 618.300781 44.328125 618.699219 44.328125 618.816406 44.328125 C 619.847656 44.328125 622.425781 44.214844 623.457031 44.214844 C 624.257812 44.214844 625.058594 44.273438 625.804688 44.273438 C 626.605469 44.273438 627.410156 44.328125 628.152344 44.328125 C 628.441406 44.328125 628.898438 44.328125 628.898438 43.585938 C 628.898438 43.183594 628.554688 43.183594 627.867188 43.183594 C 626.550781 43.183594 625.519531 43.183594 625.519531 42.554688 C 625.519531 42.324219 625.574219 42.152344 625.632812 41.921875 Z M 630.503906 21.871094 C 630.847656 20.609375 630.902344 20.496094 632.507812 20.496094 L 636.003906 20.496094 C 639.039062 20.496094 640.988281 21.46875 640.988281 23.992188 C 640.988281 25.421875 640.242188 28.574219 638.808594 29.890625 C 636.976562 31.554688 634.800781 31.839844 633.195312 31.839844 L 628.039062 31.839844 Z M 630.503906 21.871094 "></path>
<path style=" stroke:none;fill-rule:nonzero;fill:rgb(0%,0%,0%);fill-opacity:1;" d="M 657.425781 53.09375 C 657.425781 52.980469 657.425781 52.921875 656.796875 52.292969 C 652.269531 47.710938 651.066406 40.777344 651.066406 35.164062 C 651.066406 28.804688 652.441406 22.445312 656.96875 17.917969 C 657.425781 17.460938 657.425781 17.402344 657.425781 17.289062 C 657.425781 17 657.3125 16.886719 657.082031 16.886719 C 656.679688 16.886719 653.414062 19.40625 651.238281 24.046875 C 649.40625 28.058594 648.945312 32.125 648.945312 35.164062 C 648.945312 38.027344 649.347656 42.4375 651.351562 46.621094 C 653.585938 51.089844 656.679688 53.496094 657.082031 53.496094 C 657.3125 53.496094 657.425781 53.382812 657.425781 53.09375 Z M 657.425781 53.09375 "></path>
<path style=" stroke:none;fill-rule:nonzero;fill:rgb(0%,0%,0%);fill-opacity:1;" d="M 667.28125 33.558594 C 665.90625 33.328125 663.554688 32.929688 663.554688 31.210938 C 663.554688 28.917969 666.9375 28.917969 667.625 28.917969 C 670.375 28.917969 671.75 30.007812 671.921875 32.011719 C 671.976562 32.585938 672.035156 32.757812 672.78125 32.757812 C 673.640625 32.757812 673.640625 32.585938 673.640625 31.726562 L 673.640625 28.804688 C 673.640625 28.117188 673.640625 27.773438 673.007812 27.773438 C 672.835938 27.773438 672.78125 27.773438 671.347656 28.460938 C 670.375 28 669.113281 27.773438 667.679688 27.773438 C 666.535156 27.773438 660.921875 27.773438 660.921875 32.585938 C 660.921875 34.015625 661.664062 34.992188 662.410156 35.621094 C 663.84375 36.882812 665.273438 37.109375 668.082031 37.625 C 669.398438 37.855469 672.09375 38.3125 672.09375 40.492188 C 672.09375 43.242188 668.769531 43.242188 667.96875 43.242188 C 664.070312 43.242188 663.15625 40.546875 662.695312 39 C 662.523438 38.484375 662.296875 38.484375 661.835938 38.484375 C 660.921875 38.484375 660.921875 38.714844 660.921875 39.515625 L 660.921875 43.527344 C 660.921875 44.214844 660.921875 44.558594 661.609375 44.558594 C 661.835938 44.558594 661.894531 44.558594 662.695312 43.984375 C 662.753906 43.984375 663.554688 43.46875 663.613281 43.355469 C 665.332031 44.558594 667.222656 44.558594 667.96875 44.558594 C 669.113281 44.558594 674.726562 44.558594 674.726562 39.230469 C 674.726562 37.625 673.984375 36.367188 672.722656 35.335938 C 671.289062 34.304688 670.085938 34.074219 667.28125 33.558594 Z M 667.28125 33.558594 "></path>
<path style=" stroke:none;fill-rule:nonzero;fill:rgb(0%,0%,0%);fill-opacity:1;" d="M 686.65625 35.164062 C 686.65625 32.355469 686.253906 27.945312 684.25 23.761719 C 682.074219 19.292969 678.921875 16.886719 678.578125 16.886719 C 678.347656 16.886719 678.175781 17.058594 678.175781 17.289062 C 678.175781 17.402344 678.175781 17.460938 678.863281 18.148438 C 682.472656 21.757812 684.535156 27.542969 684.535156 35.164062 C 684.535156 41.464844 683.21875 47.882812 678.691406 52.464844 C 678.175781 52.921875 678.175781 52.980469 678.175781 53.09375 C 678.175781 53.324219 678.347656 53.496094 678.578125 53.496094 C 678.921875 53.496094 682.246094 50.976562 684.363281 46.335938 C 686.253906 42.324219 686.65625 38.257812 686.65625 35.164062 Z M 686.65625 35.164062 "></path>
<path style=" stroke:none;fill-rule:nonzero;fill:rgb(0%,0%,0%);fill-opacity:1;" d="M 700.859375 35.164062 C 700.859375 32.355469 700.460938 27.945312 698.453125 23.761719 C 696.277344 19.292969 693.125 16.886719 692.78125 16.886719 C 692.554688 16.886719 692.382812 17.058594 692.382812 17.289062 C 692.382812 17.402344 692.382812 17.460938 693.070312 18.148438 C 696.679688 21.757812 698.742188 27.542969 698.742188 35.164062 C 698.742188 41.464844 697.421875 47.882812 692.898438 52.464844 C 692.382812 52.921875 692.382812 52.980469 692.382812 53.09375 C 692.382812 53.324219 692.554688 53.496094 692.78125 53.496094 C 693.125 53.496094 696.449219 50.976562 698.570312 46.335938 C 700.460938 42.324219 700.859375 38.257812 700.859375 35.164062 Z M 700.859375 35.164062 "></path>
<path style=" stroke:none;fill-rule:nonzero;fill:rgb(0%,0%,0%);fill-opacity:1;" d="M 727.589844 35.90625 L 737.789062 35.90625 C 738.304688 35.90625 738.992188 35.90625 738.992188 35.164062 C 738.992188 34.476562 738.304688 34.476562 737.789062 34.476562 L 727.589844 34.476562 L 727.589844 24.21875 C 727.589844 23.703125 727.589844 23.015625 726.847656 23.015625 C 726.101562 23.015625 726.101562 23.703125 726.101562 24.21875 L 726.101562 34.476562 L 715.902344 34.476562 C 715.386719 34.476562 714.699219 34.476562 714.699219 35.164062 C 714.699219 35.90625 715.386719 35.90625 715.902344 35.90625 L 726.101562 35.90625 L 726.101562 46.164062 C 726.101562 46.679688 726.101562 47.367188 726.847656 47.367188 C 727.589844 47.367188 727.589844 46.679688 727.589844 46.164062 Z M 727.589844 35.90625 "></path>
<path style=" stroke:none;fill-rule:nonzero;fill:rgb(0%,0%,0%);fill-opacity:1;" d="M 776.960938 18.949219 C 776.960938 18.835938 776.902344 18.546875 776.558594 18.546875 C 776.445312 18.546875 776.386719 18.605469 775.984375 19.007812 L 773.464844 21.8125 C 773.121094 21.296875 771.460938 18.546875 767.390625 18.546875 C 759.199219 18.546875 751.007812 26.625 751.007812 35.105469 C 751.007812 41.121094 755.304688 45.132812 760.917969 45.132812 C 764.070312 45.132812 766.875 43.699219 768.824219 41.980469 C 772.203125 39 772.835938 35.679688 772.835938 35.5625 C 772.835938 35.164062 772.433594 35.164062 772.375 35.164062 C 772.148438 35.164062 771.976562 35.277344 771.917969 35.5625 C 771.574219 36.59375 770.714844 39.230469 768.195312 41.351562 C 765.671875 43.355469 763.382812 43.984375 761.492188 43.984375 C 758.226562 43.984375 754.328125 42.09375 754.328125 36.421875 C 754.328125 34.304688 755.074219 28.402344 758.742188 24.105469 C 760.976562 21.527344 764.414062 19.695312 767.679688 19.695312 C 771.402344 19.695312 773.578125 22.5 773.578125 26.742188 C 773.578125 28.230469 773.464844 28.230469 773.464844 28.632812 C 773.464844 28.976562 773.867188 28.976562 773.980469 28.976562 C 774.4375 28.976562 774.4375 28.917969 774.667969 28.230469 Z M 776.960938 18.949219 "></path>
</g>
</svg>
